%YAML 1.1
%TAG !u! tag:unity3d.com,2011:
--- !u!114 &11400000
MonoBehaviour:
  m_ObjectHideFlags: 0
  m_CorrespondingSourceObject: {fileID: 0}
  m_PrefabInstance: {fileID: 0}
  m_PrefabAsset: {fileID: 0}
  m_GameObject: {fileID: 0}
  m_Enabled: 1
  m_EditorHideFlags: 0
  m_Script: {fileID: 11500000, guid: cf6258160aeff9c4ba54e7ad9c7ddf08, type: 3}
  m_Name: 1001
  m_EditorClassIdentifier: 
  originPrefabName: building4_low2
  objectName: building4_low2 (8)
  position: {x: 579.37, y: 15.06, z: 396.43}
  rotation: {x: -0.012266267, y: 0.5927586, z: -0.009029565, w: 0.8052362}
  scale: {x: 1.0000001, y: 1.0000001, z: 1.0000001}
  sector: 1_0
  id: 1001
  layer: 0
  tag: Untagged
  material: {fileID: 2100000, guid: 0e3519e58b58f7346ac4fa4fb7bcfffa, type: 2}
