%YAML 1.1
%TAG !u! tag:unity3d.com,2011:
--- !u!114 &11400000
MonoBehaviour:
  m_ObjectHideFlags: 0
  m_CorrespondingSourceObject: {fileID: 0}
  m_PrefabInstance: {fileID: 0}
  m_PrefabAsset: {fileID: 0}
  m_GameObject: {fileID: 0}
  m_Enabled: 1
  m_EditorHideFlags: 0
  m_Script: {fileID: 11500000, guid: cf6258160aeff9c4ba54e7ad9c7ddf08, type: 3}
  m_Name: 1014
  m_EditorClassIdentifier: 
  originPrefabName: PF_ConiferTree_1
  objectName: PF_ConiferTree_1 (3)
  position: {x: 1684.3724, y: 780.1512, z: 4021.389}
  rotation: {x: -0, y: -0, z: -0, w: 1}
  scale: {x: 1.1, y: 1.1, z: 1.1}
  sector: 3_8
  id: 1014
  layer: 8
  tag: Untagged
  material: {fileID: 0}
