%YAML 1.1
%TAG !u! tag:unity3d.com,2011:
--- !u!114 &11400000
MonoBehaviour:
  m_ObjectHideFlags: 0
  m_CorrespondingSourceObject: {fileID: 0}
  m_PrefabInstance: {fileID: 0}
  m_PrefabAsset: {fileID: 0}
  m_GameObject: {fileID: 0}
  m_Enabled: 1
  m_EditorHideFlags: 0
  m_Script: {fileID: 11500000, guid: cf6258160aeff9c4ba54e7ad9c7ddf08, type: 3}
  m_Name: 1042
  m_EditorClassIdentifier: 
  originPrefabName: cliff_low
  objectName: cliff_low (5)
  position: {x: 3620.9, y: 53.300003, z: 77.5}
  rotation: {x: -0.010763675, y: -0.9998495, z: -0.0003510043, w: -0.01360271}
  scale: {x: 1.3201067, y: 1.0053918, z: 2.1944351}
  sector: 7_0
  id: 1042
  layer: 0
  tag: Untagged
  material: {fileID: 0}
