%YAML 1.1
%TAG !u! tag:unity3d.com,2011:
--- !u!114 &11400000
MonoBehaviour:
  m_ObjectHideFlags: 0
  m_CorrespondingSourceObject: {fileID: 0}
  m_PrefabInstance: {fileID: 0}
  m_PrefabAsset: {fileID: 0}
  m_GameObject: {fileID: 0}
  m_Enabled: 1
  m_EditorHideFlags: 0
  m_Script: {fileID: 11500000, guid: cf6258160aeff9c4ba54e7ad9c7ddf08, type: 3}
  m_Name: 1045
  m_EditorClassIdentifier: 
  originPrefabName: cliff_low 1
  objectName: cliff_low 1 (16)
  position: {x: 1503.0271, y: 776.3, z: 3581.4255}
  rotation: {x: -0, y: -0.9512349, z: -0, w: 0.3084676}
  scale: {x: 0.60000014, y: 0.5, z: 0.60000014}
  sector: 3_7
  id: 1045
  layer: 0
  tag: Untagged
  material: {fileID: 0}
