%YAML 1.1
%TAG !u! tag:unity3d.com,2011:
--- !u!114 &11400000
MonoBehaviour:
  m_ObjectHideFlags: 0
  m_CorrespondingSourceObject: {fileID: 0}
  m_PrefabInstance: {fileID: 0}
  m_PrefabAsset: {fileID: 0}
  m_GameObject: {fileID: 0}
  m_Enabled: 1
  m_EditorHideFlags: 0
  m_Script: {fileID: 11500000, guid: cf6258160aeff9c4ba54e7ad9c7ddf08, type: 3}
  m_Name: 1055
  m_EditorClassIdentifier: 
  originPrefabName: MiddleCrystal_low (3)
  objectName: MiddleCrystal_low (4)
  position: {x: 3618.8, y: 110.1, z: 3529.9}
  rotation: {x: -0, y: -0.19228308, z: -0, w: 0.9813396}
  scale: {x: 12.185999, y: 12.186, z: 12.185999}
  sector: 7_7
  id: 1055
  layer: 0
  tag: Untagged
  material: {fileID: 2100000, guid: 84b56cef1adff5f43a0a71dbf93822b7, type: 2}
