%YAML 1.1
%TAG !u! tag:unity3d.com,2011:
--- !u!114 &11400000
MonoBehaviour:
  m_ObjectHideFlags: 0
  m_CorrespondingSourceObject: {fileID: 0}
  m_PrefabInstance: {fileID: 0}
  m_PrefabAsset: {fileID: 0}
  m_GameObject: {fileID: 0}
  m_Enabled: 1
  m_EditorHideFlags: 0
  m_Script: {fileID: 11500000, guid: cf6258160aeff9c4ba54e7ad9c7ddf08, type: 3}
  m_Name: 1092
  m_EditorClassIdentifier: 
  originPrefabName: Cabin_TypeA_low
  objectName: Cabin_TypeA_low (11)
  position: {x: 2724.89, y: 793.3037, z: 3818.59}
  rotation: {x: -0.67037505, y: 0.22493848, z: 0.22493842, w: 0.6703751}
  scale: {x: 1, y: 1.0000002, z: 1.0000002}
  sector: 5_7
  id: 1092
  layer: 0
  tag: Untagged
  material: {fileID: 2100000, guid: 10d810d315e90e645aa0ecdd6dfbd721, type: 2}
