%YAML 1.1
%TAG !u! tag:unity3d.com,2011:
--- !u!114 &11400000
MonoBehaviour:
  m_ObjectHideFlags: 0
  m_CorrespondingSourceObject: {fileID: 0}
  m_PrefabInstance: {fileID: 0}
  m_PrefabAsset: {fileID: 0}
  m_GameObject: {fileID: 0}
  m_Enabled: 1
  m_EditorHideFlags: 0
  m_Script: {fileID: 11500000, guid: cf6258160aeff9c4ba54e7ad9c7ddf08, type: 3}
  m_Name: 1095
  m_EditorClassIdentifier: 
  originPrefabName: WoodenCrate_02
  objectName: WoodenCrate_02 (12)
  position: {x: 1588.6808, y: 805.6639, z: 3571.1099}
  rotation: {x: -0.6601261, y: -0.09801684, z: -0.10559377, w: 0.7372084}
  scale: {x: 1, y: 1.0000002, z: 1.0000001}
  sector: 3_7
  id: 1095
  layer: 0
  tag: Untagged
  material: {fileID: 2100000, guid: e49411fb77172764ba3123f1c7dc8d54, type: 2}
