%YAML 1.1
%TAG !u! tag:unity3d.com,2011:
--- !u!114 &11400000
MonoBehaviour:
  m_ObjectHideFlags: 0
  m_CorrespondingSourceObject: {fileID: 0}
  m_PrefabInstance: {fileID: 0}
  m_PrefabAsset: {fileID: 0}
  m_GameObject: {fileID: 0}
  m_Enabled: 1
  m_EditorHideFlags: 0
  m_Script: {fileID: 11500000, guid: cf6258160aeff9c4ba54e7ad9c7ddf08, type: 3}
  m_Name: 1102
  m_EditorClassIdentifier: 
  originPrefabName: Stool01v1
  objectName: Stool01v1 (11)
  position: {x: 224.60306, y: 15.156014, z: 382.6285}
  rotation: {x: -0.6840119, y: -0, z: -0, w: 0.7294709}
  scale: {x: 1, y: 1.0000001, z: 1.0000001}
  sector: 0_0
  id: 1102
  layer: 0
  tag: Untagged
  material: {fileID: 2100000, guid: 29a7f572b87277e47a3903d896453dca, type: 2}
