%YAML 1.1
%TAG !u! tag:unity3d.com,2011:
--- !u!114 &11400000
MonoBehaviour:
  m_ObjectHideFlags: 0
  m_CorrespondingSourceObject: {fileID: 0}
  m_PrefabInstance: {fileID: 0}
  m_PrefabAsset: {fileID: 0}
  m_GameObject: {fileID: 0}
  m_Enabled: 1
  m_EditorHideFlags: 0
  m_Script: {fileID: 11500000, guid: cf6258160aeff9c4ba54e7ad9c7ddf08, type: 3}
  m_Name: 1103
  m_EditorClassIdentifier: 
  originPrefabName: Crystals (2)
  objectName: Crystals (13)
  position: {x: 1468.513, y: 792.4569, z: 3713.682}
  rotation: {x: -0, y: -0.9533544, z: -0, w: -0.30185342}
  scale: {x: 1.0000005, y: 1.3, z: 1.0000005}
  sector: 2_7
  id: 1103
  layer: 0
  tag: Untagged
  material: {fileID: 2100000, guid: fe36741ede331ae408acac449eaf0149, type: 2}
