%YAML 1.1
%TAG !u! tag:unity3d.com,2011:
--- !u!114 &11400000
MonoBehaviour:
  m_ObjectHideFlags: 0
  m_CorrespondingSourceObject: {fileID: 0}
  m_PrefabInstance: {fileID: 0}
  m_PrefabAsset: {fileID: 0}
  m_GameObject: {fileID: 0}
  m_Enabled: 1
  m_EditorHideFlags: 0
  m_Script: {fileID: 11500000, guid: cf6258160aeff9c4ba54e7ad9c7ddf08, type: 3}
  m_Name: 1108
  m_EditorClassIdentifier: 
  originPrefabName: slope02_low_ver1
  objectName: slope02_low_ver1 (1)
  position: {x: 1486.6835, y: 793.3, z: 3929.5574}
  rotation: {x: -0, y: 0.29527315, z: -0, w: 0.9554129}
  scale: {x: 100, y: 100, z: 100}
  sector: 2_7
  id: 1108
  layer: 0
  tag: Untagged
  material: {fileID: 2100000, guid: eb7514173f3cafc4184137aa4006b90b, type: 2}
