%YAML 1.1
%TAG !u! tag:unity3d.com,2011:
--- !u!114 &11400000
MonoBehaviour:
  m_ObjectHideFlags: 0
  m_CorrespondingSourceObject: {fileID: 0}
  m_PrefabInstance: {fileID: 0}
  m_PrefabAsset: {fileID: 0}
  m_GameObject: {fileID: 0}
  m_Enabled: 1
  m_EditorHideFlags: 0
  m_Script: {fileID: 11500000, guid: cf6258160aeff9c4ba54e7ad9c7ddf08, type: 3}
  m_Name: 111
  m_EditorClassIdentifier: 
  originPrefabName: MiddleRock_ver1
  objectName: MiddleRock_ver1 (1)
  position: {x: 3763.7742, y: 27.100067, z: 1155.2711}
  rotation: {x: -0, y: -0, z: -0, w: 1}
  scale: {x: 1, y: 1, z: 1}
  sector: 7_2
  id: 111
  layer: 0
  tag: Untagged
  material: {fileID: 2100000, guid: 7ba5610ab1737dc4bae165ec55ef1299, type: 2}
