%YAML 1.1
%TAG !u! tag:unity3d.com,2011:
--- !u!114 &11400000
MonoBehaviour:
  m_ObjectHideFlags: 0
  m_CorrespondingSourceObject: {fileID: 0}
  m_PrefabInstance: {fileID: 0}
  m_PrefabAsset: {fileID: 0}
  m_GameObject: {fileID: 0}
  m_Enabled: 1
  m_EditorHideFlags: 0
  m_Script: {fileID: 11500000, guid: cf6258160aeff9c4ba54e7ad9c7ddf08, type: 3}
  m_Name: 1115
  m_EditorClassIdentifier: 
  originPrefabName: Board
  objectName: Board
  position: {x: 202.2024, y: 15.23575, z: 406.3789}
  rotation: {x: -0.086921014, y: 0.41692558, z: -0.040093075, w: 0.9038863}
  scale: {x: 1.0000001, y: 0.99999994, z: 1.0000001}
  sector: 0_0
  id: 1115
  layer: 0
  tag: Untagged
  material: {fileID: 2100000, guid: b7bab55e5f5da04428fc05a9271575a9, type: 2}
