%YAML 1.1
%TAG !u! tag:unity3d.com,2011:
--- !u!114 &11400000
MonoBehaviour:
  m_ObjectHideFlags: 0
  m_CorrespondingSourceObject: {fileID: 0}
  m_PrefabInstance: {fileID: 0}
  m_PrefabAsset: {fileID: 0}
  m_GameObject: {fileID: 0}
  m_Enabled: 1
  m_EditorHideFlags: 0
  m_Script: {fileID: 11500000, guid: cf6258160aeff9c4ba54e7ad9c7ddf08, type: 3}
  m_Name: 1123
  m_EditorClassIdentifier: 
  originPrefabName: Shard (1)
  objectName: Shard (26)
  position: {x: 1691.92, y: 779.33997, z: 3782.06}
  rotation: {x: 0.10649444, y: -0.5218308, z: 0.1931246, w: 0.8240477}
  scale: {x: 600.00006, y: 600, z: 600.0002}
  sector: 3_7
  id: 1123
  layer: 0
  tag: Untagged
  material: {fileID: 2100000, guid: fe36741ede331ae408acac449eaf0149, type: 2}
