%YAML 1.1
%TAG !u! tag:unity3d.com,2011:
--- !u!114 &11400000
MonoBehaviour:
  m_ObjectHideFlags: 0
  m_CorrespondingSourceObject: {fileID: 0}
  m_PrefabInstance: {fileID: 0}
  m_PrefabAsset: {fileID: 0}
  m_GameObject: {fileID: 0}
  m_Enabled: 1
  m_EditorHideFlags: 0
  m_Script: {fileID: 11500000, guid: cf6258160aeff9c4ba54e7ad9c7ddf08, type: 3}
  m_Name: 1135
  m_EditorClassIdentifier: 
  originPrefabName: Crystals
  objectName: Crystals (2)
  position: {x: 743.98, y: 20.09, z: 1576.79}
  rotation: {x: -0, y: 0.91671586, z: -0, w: 0.3995399}
  scale: {x: 5.9162025, y: 5.9162, z: 5.9162025}
  sector: 1_3
  id: 1135
  layer: 0
  tag: Untagged
  material: {fileID: 2100000, guid: a1ab44f7a3cf5614986dac6313698858, type: 2}
