%YAML 1.1
%TAG !u! tag:unity3d.com,2011:
--- !u!114 &11400000
MonoBehaviour:
  m_ObjectHideFlags: 0
  m_CorrespondingSourceObject: {fileID: 0}
  m_PrefabInstance: {fileID: 0}
  m_PrefabAsset: {fileID: 0}
  m_GameObject: {fileID: 0}
  m_Enabled: 1
  m_EditorHideFlags: 0
  m_Script: {fileID: 11500000, guid: cf6258160aeff9c4ba54e7ad9c7ddf08, type: 3}
  m_Name: 1141
  m_EditorClassIdentifier: 
  originPrefabName: Table02
  objectName: Table02 (12)
  position: {x: 3304.7854, y: 27.435001, z: 305.17383}
  rotation: {x: -0, y: -0, z: -0, w: 1}
  scale: {x: 1, y: 1, z: 1}
  sector: 6_0
  id: 1141
  layer: 0
  tag: Untagged
  material: {fileID: 2100000, guid: 096070bb8d9227d478966d6167a528aa, type: 2}
