%YAML 1.1
%TAG !u! tag:unity3d.com,2011:
--- !u!114 &11400000
MonoBehaviour:
  m_ObjectHideFlags: 0
  m_CorrespondingSourceObject: {fileID: 0}
  m_PrefabInstance: {fileID: 0}
  m_PrefabAsset: {fileID: 0}
  m_GameObject: {fileID: 0}
  m_Enabled: 1
  m_EditorHideFlags: 0
  m_Script: {fileID: 11500000, guid: cf6258160aeff9c4ba54e7ad9c7ddf08, type: 3}
  m_Name: 1170
  m_EditorClassIdentifier: 
  originPrefabName: Crystals (2)
  objectName: Crystals (64)
  position: {x: 1467.1052, y: 785.94, z: 3929.7231}
  rotation: {x: -0, y: -0.52695733, z: -0, w: 0.8498918}
  scale: {x: 6.0000005, y: 6, z: 6.0000005}
  sector: 2_7
  id: 1170
  layer: 0
  tag: Untagged
  material: {fileID: 2100000, guid: fe36741ede331ae408acac449eaf0149, type: 2}
