%YAML 1.1
%TAG !u! tag:unity3d.com,2011:
--- !u!114 &11400000
MonoBehaviour:
  m_ObjectHideFlags: 0
  m_CorrespondingSourceObject: {fileID: 0}
  m_PrefabInstance: {fileID: 0}
  m_PrefabAsset: {fileID: 0}
  m_GameObject: {fileID: 0}
  m_Enabled: 1
  m_EditorHideFlags: 0
  m_Script: {fileID: 11500000, guid: cf6258160aeff9c4ba54e7ad9c7ddf08, type: 3}
  m_Name: 1201
  m_EditorClassIdentifier: 
  originPrefabName: lamp2
  objectName: lamp2 (14)
  position: {x: 3352.538, y: 31.65, z: 230.203}
  rotation: {x: -0.39666387, y: 0.58536977, z: 0.58536977, w: 0.39666387}
  scale: {x: 99.99999, y: 99.99999, z: 100}
  sector: 6_0
  id: 1201
  layer: 0
  tag: Untagged
  material: {fileID: 2100000, guid: 1706951de166c3c41ae4a01f5a1073d6, type: 2}
