%YAML 1.1
%TAG !u! tag:unity3d.com,2011:
--- !u!114 &11400000
MonoBehaviour:
  m_ObjectHideFlags: 0
  m_CorrespondingSourceObject: {fileID: 0}
  m_PrefabInstance: {fileID: 0}
  m_PrefabAsset: {fileID: 0}
  m_GameObject: {fileID: 0}
  m_Enabled: 1
  m_EditorHideFlags: 0
  m_Script: {fileID: 11500000, guid: cf6258160aeff9c4ba54e7ad9c7ddf08, type: 3}
  m_Name: 1410
  m_EditorClassIdentifier: 
  originPrefabName: Building2_low
  objectName: Building2_low (2)
  position: {x: 664.835, y: 15.03, z: 350.86508}
  rotation: {x: -0, y: -0.13844636, z: -0, w: 0.9903699}
  scale: {x: 1, y: 1, z: 1}
  sector: 1_0
  id: 1410
  layer: 0
  tag: Untagged
  material: {fileID: 2100000, guid: 498cb743851ed734792ecd5e5f935411, type: 2}
