%YAML 1.1
%TAG !u! tag:unity3d.com,2011:
--- !u!114 &11400000
MonoBehaviour:
  m_ObjectHideFlags: 0
  m_CorrespondingSourceObject: {fileID: 0}
  m_PrefabInstance: {fileID: 0}
  m_PrefabAsset: {fileID: 0}
  m_GameObject: {fileID: 0}
  m_Enabled: 1
  m_EditorHideFlags: 0
  m_Script: {fileID: 11500000, guid: cf6258160aeff9c4ba54e7ad9c7ddf08, type: 3}
  m_Name: 1449
  m_EditorClassIdentifier: 
  originPrefabName: PF_TallTree_2
  objectName: PF_TallTree_2 (2)
  position: {x: 3400.4, y: 32.500904, z: 224.70001}
  rotation: {x: -0, y: -0, z: -0, w: 1}
  scale: {x: 1.5319, y: 1.5319, z: 1.5319}
  sector: 6_0
  id: 1449
  layer: 8
  tag: Untagged
  material: {fileID: 0}
