%YAML 1.1
%TAG !u! tag:unity3d.com,2011:
--- !u!114 &11400000
MonoBehaviour:
  m_ObjectHideFlags: 0
  m_CorrespondingSourceObject: {fileID: 0}
  m_PrefabInstance: {fileID: 0}
  m_PrefabAsset: {fileID: 0}
  m_GameObject: {fileID: 0}
  m_Enabled: 1
  m_EditorHideFlags: 0
  m_Script: {fileID: 11500000, guid: cf6258160aeff9c4ba54e7ad9c7ddf08, type: 3}
  m_Name: 1468
  m_EditorClassIdentifier: 
  originPrefabName: cliff_low 1
  objectName: cliff_low 1 (3)
  position: {x: 1321, y: 782.3639, z: 3914}
  rotation: {x: -0, y: -0, z: -0, w: 1}
  scale: {x: 2, y: 0.5, z: 2}
  sector: 2_7
  id: 1468
  layer: 0
  tag: Untagged
  material: {fileID: 0}
