%YAML 1.1
%TAG !u! tag:unity3d.com,2011:
--- !u!114 &11400000
MonoBehaviour:
  m_ObjectHideFlags: 0
  m_CorrespondingSourceObject: {fileID: 0}
  m_PrefabInstance: {fileID: 0}
  m_PrefabAsset: {fileID: 0}
  m_GameObject: {fileID: 0}
  m_Enabled: 1
  m_EditorHideFlags: 0
  m_Script: {fileID: 11500000, guid: cf6258160aeff9c4ba54e7ad9c7ddf08, type: 3}
  m_Name: 1475
  m_EditorClassIdentifier: 
  originPrefabName: slope01_low_ver2
  objectName: slope01_low_ver2 (5)
  position: {x: 3579.5999, y: 33.899998, z: 296.90002}
  rotation: {x: -0, y: -0.99947524, z: -0, w: 0.032392226}
  scale: {x: 807.2259, y: 934.25665, z: 1008.556}
  sector: 7_0
  id: 1475
  layer: 0
  tag: Untagged
  material: {fileID: 2100000, guid: 3351dab7180931644bc2d8b01326aa7d, type: 2}
