%YAML 1.1
%TAG !u! tag:unity3d.com,2011:
--- !u!114 &11400000
MonoBehaviour:
  m_ObjectHideFlags: 0
  m_CorrespondingSourceObject: {fileID: 0}
  m_PrefabInstance: {fileID: 0}
  m_PrefabAsset: {fileID: 0}
  m_GameObject: {fileID: 0}
  m_Enabled: 1
  m_EditorHideFlags: 0
  m_Script: {fileID: 11500000, guid: cf6258160aeff9c4ba54e7ad9c7ddf08, type: 3}
  m_Name: 1480
  m_EditorClassIdentifier: 
  originPrefabName: Crystals (2)
  objectName: Crystals (3)
  position: {x: 1559.63, y: 795.42, z: 3606.07}
  rotation: {x: 0.05828249, y: 0.9758304, z: -0.17253552, w: 0.12078807}
  scale: {x: 4.000001, y: 3.9999998, z: 3.000001}
  sector: 3_7
  id: 1480
  layer: 0
  tag: Untagged
  material: {fileID: 2100000, guid: fe36741ede331ae408acac449eaf0149, type: 2}
