%YAML 1.1
%TAG !u! tag:unity3d.com,2011:
--- !u!114 &11400000
MonoBehaviour:
  m_ObjectHideFlags: 0
  m_CorrespondingSourceObject: {fileID: 0}
  m_PrefabInstance: {fileID: 0}
  m_PrefabAsset: {fileID: 0}
  m_GameObject: {fileID: 0}
  m_Enabled: 1
  m_EditorHideFlags: 0
  m_Script: {fileID: 11500000, guid: cf6258160aeff9c4ba54e7ad9c7ddf08, type: 3}
  m_Name: 1482
  m_EditorClassIdentifier: 
  originPrefabName: frewood
  objectName: frewood
  position: {x: 337.10278, y: 15.018, z: 262.83054}
  rotation: {x: 0.001955918, y: -0.18784195, z: 0.00133299, w: 0.98219645}
  scale: {x: 0.20000003, y: 0.20000003, z: 0.20000003}
  sector: 0_0
  id: 1482
  layer: 0
  tag: Untagged
  material: {fileID: 2100000, guid: 9c9003e8bda32a44abf7207b5cda9f8c, type: 2}
