%YAML 1.1
%TAG !u! tag:unity3d.com,2011:
--- !u!114 &11400000
MonoBehaviour:
  m_ObjectHideFlags: 0
  m_CorrespondingSourceObject: {fileID: 0}
  m_PrefabInstance: {fileID: 0}
  m_PrefabAsset: {fileID: 0}
  m_GameObject: {fileID: 0}
  m_Enabled: 1
  m_EditorHideFlags: 0
  m_Script: {fileID: 11500000, guid: cf6258160aeff9c4ba54e7ad9c7ddf08, type: 3}
  m_Name: 1493
  m_EditorClassIdentifier: 
  originPrefabName: Barrel
  objectName: Barrel (1)
  position: {x: 1486.79, y: 794.198, z: 3692.37}
  rotation: {x: 0.027918035, y: -0.7065554, z: 0.027918035, w: 0.7065554}
  scale: {x: 15, y: 14.999999, z: 14.999999}
  sector: 2_7
  id: 1493
  layer: 0
  tag: Untagged
  material: {fileID: 2100000, guid: 73f2163ce4795bf4d8b9cd8250baed12, type: 2}
