%YAML 1.1
%TAG !u! tag:unity3d.com,2011:
--- !u!114 &11400000
MonoBehaviour:
  m_ObjectHideFlags: 0
  m_CorrespondingSourceObject: {fileID: 0}
  m_PrefabInstance: {fileID: 0}
  m_PrefabAsset: {fileID: 0}
  m_GameObject: {fileID: 0}
  m_Enabled: 1
  m_EditorHideFlags: 0
  m_Script: {fileID: 11500000, guid: cf6258160aeff9c4ba54e7ad9c7ddf08, type: 3}
  m_Name: 1510
  m_EditorClassIdentifier: 
  originPrefabName: cliff_low
  objectName: cliff_low
  position: {x: 3125.5, y: 472, z: 2509.9}
  rotation: {x: -0, y: 0.3949143, z: -0, w: 0.91871804}
  scale: {x: 0.88281006, y: 0.88281, z: 0.88281006}
  sector: 6_5
  id: 1510
  layer: 0
  tag: Untagged
  material: {fileID: 0}
