%YAML 1.1
%TAG !u! tag:unity3d.com,2011:
--- !u!114 &11400000
MonoBehaviour:
  m_ObjectHideFlags: 0
  m_CorrespondingSourceObject: {fileID: 0}
  m_PrefabInstance: {fileID: 0}
  m_PrefabAsset: {fileID: 0}
  m_GameObject: {fileID: 0}
  m_Enabled: 1
  m_EditorHideFlags: 0
  m_Script: {fileID: 11500000, guid: cf6258160aeff9c4ba54e7ad9c7ddf08, type: 3}
  m_Name: 1521
  m_EditorClassIdentifier: 
  originPrefabName: PF_HexTerrain_LargeRock_1
  objectName: PF_HexTerrain_LargeRock_1 (7)
  position: {x: 441.23434, y: 26.753, z: 1826.6074}
  rotation: {x: -0, y: 0.9474323, z: -0, w: 0.31995648}
  scale: {x: 5.7885017, y: 7.8497844, z: 9.052638}
  sector: 0_3
  id: 1521
  layer: 0
  tag: Untagged
  material: {fileID: 0}
