%YAML 1.1
%TAG !u! tag:unity3d.com,2011:
--- !u!114 &11400000
MonoBehaviour:
  m_ObjectHideFlags: 0
  m_CorrespondingSourceObject: {fileID: 0}
  m_PrefabInstance: {fileID: 0}
  m_PrefabAsset: {fileID: 0}
  m_GameObject: {fileID: 0}
  m_Enabled: 1
  m_EditorHideFlags: 0
  m_Script: {fileID: 11500000, guid: cf6258160aeff9c4ba54e7ad9c7ddf08, type: 3}
  m_Name: 1536
  m_EditorClassIdentifier: 
  originPrefabName: lamp01
  objectName: lamp01 (23)
  position: {x: 1555.1278, y: 780.292, z: 3961.1843}
  rotation: {x: -0.64950645, y: 0.018594813, z: -0.047917824, w: 0.7586168}
  scale: {x: 100, y: 100, z: 99.99999}
  sector: 3_7
  id: 1536
  layer: 0
  tag: Untagged
  material: {fileID: 2100000, guid: e529903d19e66bb46a79ce41bd309a28, type: 2}
