%YAML 1.1
%TAG !u! tag:unity3d.com,2011:
--- !u!114 &11400000
MonoBehaviour:
  m_ObjectHideFlags: 0
  m_CorrespondingSourceObject: {fileID: 0}
  m_PrefabInstance: {fileID: 0}
  m_PrefabAsset: {fileID: 0}
  m_GameObject: {fileID: 0}
  m_Enabled: 1
  m_EditorHideFlags: 0
  m_Script: {fileID: 11500000, guid: cf6258160aeff9c4ba54e7ad9c7ddf08, type: 3}
  m_Name: 1542
  m_EditorClassIdentifier: 
  originPrefabName: lamp01
  objectName: lamp01 (8)
  position: {x: 1413.3158, y: 833.5504, z: 3885.9}
  rotation: {x: -0.23887236, y: 0.6655374, z: 0.6655374, w: 0.23887236}
  scale: {x: 100.000046, y: 100.00002, z: 100.00003}
  sector: 2_7
  id: 1542
  layer: 0
  tag: Untagged
  material: {fileID: 2100000, guid: e529903d19e66bb46a79ce41bd309a28, type: 2}
