%YAML 1.1
%TAG !u! tag:unity3d.com,2011:
--- !u!114 &11400000
MonoBehaviour:
  m_ObjectHideFlags: 0
  m_CorrespondingSourceObject: {fileID: 0}
  m_PrefabInstance: {fileID: 0}
  m_PrefabAsset: {fileID: 0}
  m_GameObject: {fileID: 0}
  m_Enabled: 1
  m_EditorHideFlags: 0
  m_Script: {fileID: 11500000, guid: cf6258160aeff9c4ba54e7ad9c7ddf08, type: 3}
  m_Name: 1569
  m_EditorClassIdentifier: 
  originPrefabName: BigRock_ver3
  objectName: BigRock_ver3
  position: {x: 320.8, y: 12.6, z: 158}
  rotation: {x: -0, y: -0.9003144, z: -0, w: 0.43524012}
  scale: {x: 17.795736, y: 6.1055827, z: 24.865688}
  sector: 0_0
  id: 1569
  layer: 0
  tag: Untagged
  material: {fileID: 2100000, guid: 961b3a0e98d5c104fa3e2d56db18799e, type: 2}
