%YAML 1.1
%TAG !u! tag:unity3d.com,2011:
--- !u!114 &11400000
MonoBehaviour:
  m_ObjectHideFlags: 0
  m_CorrespondingSourceObject: {fileID: 0}
  m_PrefabInstance: {fileID: 0}
  m_PrefabAsset: {fileID: 0}
  m_GameObject: {fileID: 0}
  m_Enabled: 1
  m_EditorHideFlags: 0
  m_Script: {fileID: 11500000, guid: cf6258160aeff9c4ba54e7ad9c7ddf08, type: 3}
  m_Name: 1574
  m_EditorClassIdentifier: 
  originPrefabName: LongCrystal_low
  objectName: LongCrystal_low (2)
  position: {x: 685.65, y: 9.4332, z: 1066.27}
  rotation: {x: -0, y: -0, z: -0, w: 1}
  scale: {x: 9.2524, y: 13.0699415, z: 9.2524}
  sector: 1_2
  id: 1574
  layer: 7
  tag: Creation Area
  material: {fileID: 2100000, guid: 6c34c5855806d0a489928205f9c51cee, type: 2}
