%YAML 1.1
%TAG !u! tag:unity3d.com,2011:
--- !u!114 &11400000
MonoBehaviour:
  m_ObjectHideFlags: 0
  m_CorrespondingSourceObject: {fileID: 0}
  m_PrefabInstance: {fileID: 0}
  m_PrefabAsset: {fileID: 0}
  m_GameObject: {fileID: 0}
  m_Enabled: 1
  m_EditorHideFlags: 0
  m_Script: {fileID: 11500000, guid: cf6258160aeff9c4ba54e7ad9c7ddf08, type: 3}
  m_Name: 1585
  m_EditorClassIdentifier: 
  originPrefabName: fence_Set_lot
  objectName: fence_Set_lot
  position: {x: 3403.0398, y: 56.591003, z: 338.11}
  rotation: {x: -0.4443235, y: -0.55007, z: -0.55006963, w: 0.44432318}
  scale: {x: 0.7705629, y: 1, z: 1}
  sector: 6_0
  id: 1585
  layer: 0
  tag: Untagged
  material: {fileID: 2100000, guid: a1ce2172423559d46a411d49151c60ab, type: 2}
