%YAML 1.1
%TAG !u! tag:unity3d.com,2011:
--- !u!114 &11400000
MonoBehaviour:
  m_ObjectHideFlags: 0
  m_CorrespondingSourceObject: {fileID: 0}
  m_PrefabInstance: {fileID: 0}
  m_PrefabAsset: {fileID: 0}
  m_GameObject: {fileID: 0}
  m_Enabled: 1
  m_EditorHideFlags: 0
  m_Script: {fileID: 11500000, guid: cf6258160aeff9c4ba54e7ad9c7ddf08, type: 3}
  m_Name: 1606
  m_EditorClassIdentifier: 
  originPrefabName: cliff_low 1
  objectName: cliff_low 1 (17)
  position: {x: 3625.7, y: 20.6, z: 344.3}
  rotation: {x: -0.010217583, y: -0.9986805, z: -0.011215389, w: -0.049063444}
  scale: {x: -1.4359022, y: 0.44183487, z: 2.209728}
  sector: 7_0
  id: 1606
  layer: 0
  tag: Untagged
  material: {fileID: 0}
