%YAML 1.1
%TAG !u! tag:unity3d.com,2011:
--- !u!114 &11400000
MonoBehaviour:
  m_ObjectHideFlags: 0
  m_CorrespondingSourceObject: {fileID: 0}
  m_PrefabInstance: {fileID: 0}
  m_PrefabAsset: {fileID: 0}
  m_GameObject: {fileID: 0}
  m_Enabled: 1
  m_EditorHideFlags: 0
  m_Script: {fileID: 11500000, guid: cf6258160aeff9c4ba54e7ad9c7ddf08, type: 3}
  m_Name: 1609
  m_EditorClassIdentifier: 
  originPrefabName: babyIsland_low 1
  objectName: babyIsland_low (9)
  position: {x: 2087.7, y: 796.9, z: 3830.1}
  rotation: {x: -0, y: -0, z: -0, w: 1}
  scale: {x: 0.130725, y: 0.130725, z: 0.130725}
  sector: 4_7
  id: 1609
  layer: 0
  tag: Untagged
  material: {fileID: 2100000, guid: 6e6dad6efb726ed46b1e9f9752983206, type: 2}
