%YAML 1.1
%TAG !u! tag:unity3d.com,2011:
--- !u!114 &11400000
MonoBehaviour:
  m_ObjectHideFlags: 0
  m_CorrespondingSourceObject: {fileID: 0}
  m_PrefabInstance: {fileID: 0}
  m_PrefabAsset: {fileID: 0}
  m_GameObject: {fileID: 0}
  m_Enabled: 1
  m_EditorHideFlags: 0
  m_Script: {fileID: 11500000, guid: cf6258160aeff9c4ba54e7ad9c7ddf08, type: 3}
  m_Name: 1621
  m_EditorClassIdentifier: 
  originPrefabName: cliff_low
  objectName: cliff_low
  position: {x: 144.76219, y: 16.793793, z: 232.18985}
  rotation: {x: -0, y: 0.63681376, z: -0, w: 0.77101773}
  scale: {x: 1.6037003, y: 1, z: 1.0000001}
  sector: 0_0
  id: 1621
  layer: 0
  tag: Untagged
  material: {fileID: 0}
