%YAML 1.1
%TAG !u! tag:unity3d.com,2011:
--- !u!114 &11400000
MonoBehaviour:
  m_ObjectHideFlags: 0
  m_CorrespondingSourceObject: {fileID: 0}
  m_PrefabInstance: {fileID: 0}
  m_PrefabAsset: {fileID: 0}
  m_GameObject: {fileID: 0}
  m_Enabled: 1
  m_EditorHideFlags: 0
  m_Script: {fileID: 11500000, guid: cf6258160aeff9c4ba54e7ad9c7ddf08, type: 3}
  m_Name: 1627
  m_EditorClassIdentifier: 
  originPrefabName: Bench
  objectName: Bench
  position: {x: 576.68, y: 23.01, z: 760.76}
  rotation: {x: -0, y: 0.9979542, z: -0, w: -0.063933186}
  scale: {x: 1.0973402, y: 1.0973402, z: 1.0973407}
  sector: 1_1
  id: 1627
  layer: 0
  tag: Untagged
  material: {fileID: 2100000, guid: 2505757ef4918ba4997e86029dbbfd7a, type: 2}
