%YAML 1.1
%TAG !u! tag:unity3d.com,2011:
--- !u!114 &11400000
MonoBehaviour:
  m_ObjectHideFlags: 0
  m_CorrespondingSourceObject: {fileID: 0}
  m_PrefabInstance: {fileID: 0}
  m_PrefabAsset: {fileID: 0}
  m_GameObject: {fileID: 0}
  m_Enabled: 1
  m_EditorHideFlags: 0
  m_Script: {fileID: 11500000, guid: cf6258160aeff9c4ba54e7ad9c7ddf08, type: 3}
  m_Name: 1657
  m_EditorClassIdentifier: 
  originPrefabName: swing
  objectName: swing
  position: {x: 1423.2452, y: 794.42, z: 3580.7}
  rotation: {x: -0.7731308, y: -0.029737119, z: 0.0363531, w: 0.63250536}
  scale: {x: 10, y: 10.000002, z: 10}
  sector: 2_7
  id: 1657
  layer: 0
  tag: Untagged
  material: {fileID: 2100000, guid: 08dde7adadab9cb4ea6d27fc27efcaf7, type: 2}
