%YAML 1.1
%TAG !u! tag:unity3d.com,2011:
--- !u!114 &11400000
MonoBehaviour:
  m_ObjectHideFlags: 0
  m_CorrespondingSourceObject: {fileID: 0}
  m_PrefabInstance: {fileID: 0}
  m_PrefabAsset: {fileID: 0}
  m_GameObject: {fileID: 0}
  m_Enabled: 1
  m_EditorHideFlags: 0
  m_Script: {fileID: 11500000, guid: cf6258160aeff9c4ba54e7ad9c7ddf08, type: 3}
  m_Name: 1689
  m_EditorClassIdentifier: 
  originPrefabName: StoneWall_low
  objectName: StoneWall_low (667)
  position: {x: 1392.6664, y: 254.12488, z: 2746.1}
  rotation: {x: -0.09569378, y: -0.000037653168, z: 0.007674172, w: 0.9953813}
  scale: {x: 1, y: 1, z: 1}
  sector: 2_5
  id: 1689
  layer: 0
  tag: Untagged
  material: {fileID: 2100000, guid: d9bef21c518766a4a94d454c814e7d41, type: 2}
