%YAML 1.1
%TAG !u! tag:unity3d.com,2011:
--- !u!114 &11400000
MonoBehaviour:
  m_ObjectHideFlags: 0
  m_CorrespondingSourceObject: {fileID: 0}
  m_PrefabInstance: {fileID: 0}
  m_PrefabAsset: {fileID: 0}
  m_GameObject: {fileID: 0}
  m_Enabled: 1
  m_EditorHideFlags: 0
  m_Script: {fileID: 11500000, guid: cf6258160aeff9c4ba54e7ad9c7ddf08, type: 3}
  m_Name: 1702
  m_EditorClassIdentifier: 
  originPrefabName: mushroomHouse_TypeC_low
  objectName: mushroomHouse_TypeC_low (2)
  position: {x: 3537, y: 111.87748, z: 3423.4}
  rotation: {x: -0, y: 0.9992324, z: -0, w: -0.039174933}
  scale: {x: 0.7700003, y: 0.77, z: 0.7700003}
  sector: 7_6
  id: 1702
  layer: 0
  tag: Untagged
  material: {fileID: 2100000, guid: 59d5d71463a30544b84dd4d1d178f2a0, type: 2}
