%YAML 1.1
%TAG !u! tag:unity3d.com,2011:
--- !u!114 &11400000
MonoBehaviour:
  m_ObjectHideFlags: 0
  m_CorrespondingSourceObject: {fileID: 0}
  m_PrefabInstance: {fileID: 0}
  m_PrefabAsset: {fileID: 0}
  m_GameObject: {fileID: 0}
  m_Enabled: 1
  m_EditorHideFlags: 0
  m_Script: {fileID: 11500000, guid: cf6258160aeff9c4ba54e7ad9c7ddf08, type: 3}
  m_Name: 1703
  m_EditorClassIdentifier: 
  originPrefabName: cliff_low 1
  objectName: cliff_low 1 (21)
  position: {x: 3243.4, y: 18.199999, z: 212.5}
  rotation: {x: -0, y: -0.776679, z: -0, w: -0.6298967}
  scale: {x: 0.65420836, y: 0.4877668, z: 1.8112984}
  sector: 6_0
  id: 1703
  layer: 0
  tag: Untagged
  material: {fileID: 0}
