%YAML 1.1
%TAG !u! tag:unity3d.com,2011:
--- !u!114 &11400000
MonoBehaviour:
  m_ObjectHideFlags: 0
  m_CorrespondingSourceObject: {fileID: 0}
  m_PrefabInstance: {fileID: 0}
  m_PrefabAsset: {fileID: 0}
  m_GameObject: {fileID: 0}
  m_Enabled: 1
  m_EditorHideFlags: 0
  m_Script: {fileID: 11500000, guid: cf6258160aeff9c4ba54e7ad9c7ddf08, type: 3}
  m_Name: 1705
  m_EditorClassIdentifier: 
  originPrefabName: building3_low2
  objectName: building3_low2 (1)
  position: {x: 3483.5898, y: 26.469995, z: 333.57}
  rotation: {x: 0.023041809, y: 0.7141524, z: 0.004966181, w: 0.6995933}
  scale: {x: 1, y: 1.0000001, z: 1.0000001}
  sector: 6_0
  id: 1705
  layer: 0
  tag: Untagged
  material: {fileID: 2100000, guid: f0673ecb52d8f494ba142d07c567f84c, type: 2}
