%YAML 1.1
%TAG !u! tag:unity3d.com,2011:
--- !u!114 &11400000
MonoBehaviour:
  m_ObjectHideFlags: 0
  m_CorrespondingSourceObject: {fileID: 0}
  m_PrefabInstance: {fileID: 0}
  m_PrefabAsset: {fileID: 0}
  m_GameObject: {fileID: 0}
  m_Enabled: 1
  m_EditorHideFlags: 0
  m_Script: {fileID: 11500000, guid: cf6258160aeff9c4ba54e7ad9c7ddf08, type: 3}
  m_Name: 1744
  m_EditorClassIdentifier: 
  originPrefabName: cliff_low
  objectName: cliff_low (3)
  position: {x: 755.0415, y: 12.299999, z: 504.92}
  rotation: {x: -0, y: 0.046053, z: -0, w: 0.99893904}
  scale: {x: 1, y: 0.79114, z: -0.42418087}
  sector: 1_1
  id: 1744
  layer: 0
  tag: Untagged
  material: {fileID: 0}
