%YAML 1.1
%TAG !u! tag:unity3d.com,2011:
--- !u!114 &11400000
MonoBehaviour:
  m_ObjectHideFlags: 0
  m_CorrespondingSourceObject: {fileID: 0}
  m_PrefabInstance: {fileID: 0}
  m_PrefabAsset: {fileID: 0}
  m_GameObject: {fileID: 0}
  m_Enabled: 1
  m_EditorHideFlags: 0
  m_Script: {fileID: 11500000, guid: cf6258160aeff9c4ba54e7ad9c7ddf08, type: 3}
  m_Name: 1763
  m_EditorClassIdentifier: 
  originPrefabName: LongCrystal_low
  objectName: LongCrystal_low (9)
  position: {x: 870.96967, y: 130.43958, z: 2497.2388}
  rotation: {x: -0, y: -0, z: -0, w: 1}
  scale: {x: 1, y: 1, z: 1}
  sector: 1_4
  id: 1763
  layer: 7
  tag: Creation Area
  material: {fileID: 2100000, guid: 6c34c5855806d0a489928205f9c51cee, type: 2}
