%YAML 1.1
%TAG !u! tag:unity3d.com,2011:
--- !u!114 &11400000
MonoBehaviour:
  m_ObjectHideFlags: 0
  m_CorrespondingSourceObject: {fileID: 0}
  m_PrefabInstance: {fileID: 0}
  m_PrefabAsset: {fileID: 0}
  m_GameObject: {fileID: 0}
  m_Enabled: 1
  m_EditorHideFlags: 0
  m_Script: {fileID: 11500000, guid: cf6258160aeff9c4ba54e7ad9c7ddf08, type: 3}
  m_Name: 1784
  m_EditorClassIdentifier: 
  originPrefabName: mushroomHouse_TypeB_low
  objectName: mushroomHouse_TypeB_low (1)
  position: {x: 3544.2, y: 111.7561, z: 3362}
  rotation: {x: -0, y: -0.6767647, z: -0, w: 0.73619944}
  scale: {x: 1.0000002, y: 1, z: 1.0000002}
  sector: 7_6
  id: 1784
  layer: 0
  tag: Untagged
  material: {fileID: 2100000, guid: 3929c4ad2ea78f14ebae65e541a017e6, type: 2}
