%YAML 1.1
%TAG !u! tag:unity3d.com,2011:
--- !u!114 &11400000
MonoBehaviour:
  m_ObjectHideFlags: 0
  m_CorrespondingSourceObject: {fileID: 0}
  m_PrefabInstance: {fileID: 0}
  m_PrefabAsset: {fileID: 0}
  m_GameObject: {fileID: 0}
  m_Enabled: 1
  m_EditorHideFlags: 0
  m_Script: {fileID: 11500000, guid: cf6258160aeff9c4ba54e7ad9c7ddf08, type: 3}
  m_Name: 1790
  m_EditorClassIdentifier: 
  originPrefabName: PF_TallTree_1
  objectName: PF_TallTree_1
  position: {x: 1439.2, y: 796.52185, z: 3577.168}
  rotation: {x: -0.03759657, y: 0.4003669, z: 0.085601516, w: 0.9115729}
  scale: {x: 1, y: 1.0000001, z: 0.99999994}
  sector: 2_7
  id: 1790
  layer: 8
  tag: Untagged
  material: {fileID: 0}
