%YAML 1.1
%TAG !u! tag:unity3d.com,2011:
--- !u!114 &11400000
MonoBehaviour:
  m_ObjectHideFlags: 0
  m_CorrespondingSourceObject: {fileID: 0}
  m_PrefabInstance: {fileID: 0}
  m_PrefabAsset: {fileID: 0}
  m_GameObject: {fileID: 0}
  m_Enabled: 1
  m_EditorHideFlags: 0
  m_Script: {fileID: 11500000, guid: cf6258160aeff9c4ba54e7ad9c7ddf08, type: 3}
  m_Name: 1820
  m_EditorClassIdentifier: 
  originPrefabName: PF_Foliage_LargeBush3
  objectName: PF_Foliage_LargeBush3 (4)
  position: {x: 3546.6794, y: 111.75608, z: 3422.4976}
  rotation: {x: -0, y: -0, z: -0, w: 1}
  scale: {x: 1, y: 1, z: 1}
  sector: 7_6
  id: 1820
  layer: 0
  tag: Untagged
  material: {fileID: 2100000, guid: b0ed2bf1b6c4bd445a9e931d66c46f23, type: 2}
