%YAML 1.1
%TAG !u! tag:unity3d.com,2011:
--- !u!114 &11400000
MonoBehaviour:
  m_ObjectHideFlags: 0
  m_CorrespondingSourceObject: {fileID: 0}
  m_PrefabInstance: {fileID: 0}
  m_PrefabAsset: {fileID: 0}
  m_GameObject: {fileID: 0}
  m_Enabled: 1
  m_EditorHideFlags: 0
  m_Script: {fileID: 11500000, guid: cf6258160aeff9c4ba54e7ad9c7ddf08, type: 3}
  m_Name: 1887
  m_EditorClassIdentifier: 
  originPrefabName: Crystals (2)
  objectName: Crystals (45)
  position: {x: 1439.63, y: 780.88995, z: 3988.33}
  rotation: {x: -0.041181833, y: -0.94206315, z: 0.12588811, w: -0.30817744}
  scale: {x: 20.000006, y: 20, z: 20.000006}
  sector: 2_7
  id: 1887
  layer: 0
  tag: Untagged
  material: {fileID: 2100000, guid: fe36741ede331ae408acac449eaf0149, type: 2}
