%YAML 1.1
%TAG !u! tag:unity3d.com,2011:
--- !u!114 &11400000
MonoBehaviour:
  m_ObjectHideFlags: 0
  m_CorrespondingSourceObject: {fileID: 0}
  m_PrefabInstance: {fileID: 0}
  m_PrefabAsset: {fileID: 0}
  m_GameObject: {fileID: 0}
  m_Enabled: 1
  m_EditorHideFlags: 0
  m_Script: {fileID: 11500000, guid: cf6258160aeff9c4ba54e7ad9c7ddf08, type: 3}
  m_Name: 1899
  m_EditorClassIdentifier: 
  originPrefabName: SmallCrystal_low (2)
  objectName: SmallCrystal_low (16)
  position: {x: 1637.0713, y: 788.9515, z: 3721.9607}
  rotation: {x: -0.5132599, y: 0.28737286, z: -0.70561874, w: 0.39507398}
  scale: {x: 1.0000004, y: 1.0000005, z: 1.0000002}
  sector: 3_7
  id: 1899
  layer: 0
  tag: Untagged
  material: {fileID: 2100000, guid: fe36741ede331ae408acac449eaf0149, type: 2}
