%YAML 1.1
%TAG !u! tag:unity3d.com,2011:
--- !u!114 &11400000
MonoBehaviour:
  m_ObjectHideFlags: 0
  m_CorrespondingSourceObject: {fileID: 0}
  m_PrefabInstance: {fileID: 0}
  m_PrefabAsset: {fileID: 0}
  m_GameObject: {fileID: 0}
  m_Enabled: 1
  m_EditorHideFlags: 0
  m_Script: {fileID: 11500000, guid: cf6258160aeff9c4ba54e7ad9c7ddf08, type: 3}
  m_Name: 1906
  m_EditorClassIdentifier: 
  originPrefabName: slope02_low_ver1
  objectName: slope02_low_ver1
  position: {x: 3582.03, y: 130.83, z: 3565.64}
  rotation: {x: -0, y: 0.7220327, z: -0, w: 0.6918589}
  scale: {x: 536.9546, y: 330.7185, z: 330.71844}
  sector: 7_7
  id: 1906
  layer: 0
  tag: Untagged
  material: {fileID: 2100000, guid: eb7514173f3cafc4184137aa4006b90b, type: 2}
