%YAML 1.1
%TAG !u! tag:unity3d.com,2011:
--- !u!114 &11400000
MonoBehaviour:
  m_ObjectHideFlags: 0
  m_CorrespondingSourceObject: {fileID: 0}
  m_PrefabInstance: {fileID: 0}
  m_PrefabAsset: {fileID: 0}
  m_GameObject: {fileID: 0}
  m_Enabled: 1
  m_EditorHideFlags: 0
  m_Script: {fileID: 11500000, guid: cf6258160aeff9c4ba54e7ad9c7ddf08, type: 3}
  m_Name: 1965
  m_EditorClassIdentifier: 
  originPrefabName: swing
  objectName: swing
  position: {x: 3319.1501, y: 28.086432, z: 303.24}
  rotation: {x: -0.7071068, y: -0, z: -0, w: 0.7071068}
  scale: {x: 7.245, y: 7.2450013, z: 7.2450013}
  sector: 6_0
  id: 1965
  layer: 0
  tag: Untagged
  material: {fileID: 2100000, guid: 08dde7adadab9cb4ea6d27fc27efcaf7, type: 2}
