%YAML 1.1
%TAG !u! tag:unity3d.com,2011:
--- !u!114 &11400000
MonoBehaviour:
  m_ObjectHideFlags: 0
  m_CorrespondingSourceObject: {fileID: 0}
  m_PrefabInstance: {fileID: 0}
  m_PrefabAsset: {fileID: 0}
  m_GameObject: {fileID: 0}
  m_Enabled: 1
  m_EditorHideFlags: 0
  m_Script: {fileID: 11500000, guid: cf6258160aeff9c4ba54e7ad9c7ddf08, type: 3}
  m_Name: 2000
  m_EditorClassIdentifier: 
  originPrefabName: SmallRock_ver2
  objectName: SmallRock_ver2 (4)
  position: {x: 3884.1, y: -26.085, z: 2156.7}
  rotation: {x: -0, y: -0, z: -0, w: 1}
  scale: {x: 292.26996, y: 414.26343, z: 292.26996}
  sector: 7_4
  id: 2000
  layer: 0
  tag: Untagged
  material: {fileID: 2100000, guid: ba253776fcaaccd468bd414d86fc7a05, type: 2}
