%YAML 1.1
%TAG !u! tag:unity3d.com,2011:
--- !u!114 &11400000
MonoBehaviour:
  m_ObjectHideFlags: 0
  m_CorrespondingSourceObject: {fileID: 0}
  m_PrefabInstance: {fileID: 0}
  m_PrefabAsset: {fileID: 0}
  m_GameObject: {fileID: 0}
  m_Enabled: 1
  m_EditorHideFlags: 0
  m_Script: {fileID: 11500000, guid: cf6258160aeff9c4ba54e7ad9c7ddf08, type: 3}
  m_Name: 202
  m_EditorClassIdentifier: 
  originPrefabName: Crystals (1)
  objectName: Crystals (4)
  position: {x: 3439.5203, y: 30.125443, z: 290.73}
  rotation: {x: -0, y: 0.97250754, z: -0, w: -0.23287168}
  scale: {x: 13.6060095, y: 13.606, z: 24.085358}
  sector: 6_0
  id: 202
  layer: 0
  tag: Untagged
  material: {fileID: 2100000, guid: 84a7dfcbe1f4aad4d9577290f0c4706d, type: 2}
