%YAML 1.1
%TAG !u! tag:unity3d.com,2011:
--- !u!114 &11400000
MonoBehaviour:
  m_ObjectHideFlags: 0
  m_CorrespondingSourceObject: {fileID: 0}
  m_PrefabInstance: {fileID: 0}
  m_PrefabAsset: {fileID: 0}
  m_GameObject: {fileID: 0}
  m_Enabled: 1
  m_EditorHideFlags: 0
  m_Script: {fileID: 11500000, guid: cf6258160aeff9c4ba54e7ad9c7ddf08, type: 3}
  m_Name: 2029
  m_EditorClassIdentifier: 
  originPrefabName: cliff_low
  objectName: cliff_low (2)
  position: {x: 1082.8727, y: 165.5, z: 2508.4688}
  rotation: {x: -0.097643375, y: -0.6029532, z: 0.12657322, w: 0.78159606}
  scale: {x: 1, y: 0.99999994, z: 0.99999994}
  sector: 2_5
  id: 2029
  layer: 0
  tag: Untagged
  material: {fileID: 0}
