%YAML 1.1
%TAG !u! tag:unity3d.com,2011:
--- !u!114 &11400000
MonoBehaviour:
  m_ObjectHideFlags: 0
  m_CorrespondingSourceObject: {fileID: 0}
  m_PrefabInstance: {fileID: 0}
  m_PrefabAsset: {fileID: 0}
  m_GameObject: {fileID: 0}
  m_Enabled: 1
  m_EditorHideFlags: 0
  m_Script: {fileID: 11500000, guid: cf6258160aeff9c4ba54e7ad9c7ddf08, type: 3}
  m_Name: 2042
  m_EditorClassIdentifier: 
  originPrefabName: Cabin_TypeA_low
  objectName: Cabin_TypeA_low (2)
  position: {x: 1485.18, y: 782.41, z: 3961.8613}
  rotation: {x: -0.5586596, y: -0.37327155, z: -0.4114751, w: 0.6158377}
  scale: {x: 1.0000001, y: 1, z: 1.0000001}
  sector: 2_7
  id: 2042
  layer: 0
  tag: Untagged
  material: {fileID: 2100000, guid: 10d810d315e90e645aa0ecdd6dfbd721, type: 2}
