%YAML 1.1
%TAG !u! tag:unity3d.com,2011:
--- !u!114 &11400000
MonoBehaviour:
  m_ObjectHideFlags: 0
  m_CorrespondingSourceObject: {fileID: 0}
  m_PrefabInstance: {fileID: 0}
  m_PrefabAsset: {fileID: 0}
  m_GameObject: {fileID: 0}
  m_Enabled: 1
  m_EditorHideFlags: 0
  m_Script: {fileID: 11500000, guid: cf6258160aeff9c4ba54e7ad9c7ddf08, type: 3}
  m_Name: 2053
  m_EditorClassIdentifier: 
  originPrefabName: LongRock_ver1
  objectName: LongRock_ver1 (6)
  position: {x: 3513.2998, y: 10, z: -44.600006}
  rotation: {x: 0.01608986, y: 0.613672, z: 0.7886837, w: 0.03355458}
  scale: {x: 75.74447, y: 143.21025, z: 73.09472}
  sector: 7_0
  id: 2053
  layer: 0
  tag: Untagged
  material: {fileID: 2100000, guid: 44f03d5a026811e46b777802de6d50ab, type: 2}
