%YAML 1.1
%TAG !u! tag:unity3d.com,2011:
--- !u!114 &11400000
MonoBehaviour:
  m_ObjectHideFlags: 0
  m_CorrespondingSourceObject: {fileID: 0}
  m_PrefabInstance: {fileID: 0}
  m_PrefabAsset: {fileID: 0}
  m_GameObject: {fileID: 0}
  m_Enabled: 1
  m_EditorHideFlags: 0
  m_Script: {fileID: 11500000, guid: cf6258160aeff9c4ba54e7ad9c7ddf08, type: 3}
  m_Name: 2075
  m_EditorClassIdentifier: 
  originPrefabName: MiddleCrystal_low (1)
  objectName: MiddleCrystal_low (2)
  position: {x: 3603.7, y: 100.69999, z: 70.5}
  rotation: {x: -0, y: -0, z: -0, w: 1}
  scale: {x: 29.821, y: 29.821, z: 29.821}
  sector: 7_0
  id: 2075
  layer: 0
  tag: Untagged
  material: {fileID: 2100000, guid: 84a7dfcbe1f4aad4d9577290f0c4706d, type: 2}
