%YAML 1.1
%TAG !u! tag:unity3d.com,2011:
--- !u!114 &11400000
MonoBehaviour:
  m_ObjectHideFlags: 0
  m_CorrespondingSourceObject: {fileID: 0}
  m_PrefabInstance: {fileID: 0}
  m_PrefabAsset: {fileID: 0}
  m_GameObject: {fileID: 0}
  m_Enabled: 1
  m_EditorHideFlags: 0
  m_Script: {fileID: 11500000, guid: cf6258160aeff9c4ba54e7ad9c7ddf08, type: 3}
  m_Name: 2084
  m_EditorClassIdentifier: 
  originPrefabName: PF_ConiferTree_1
  objectName: PF_ConiferTree_1 (3)
  position: {x: 557.85187, y: 17.79, z: 531.7783}
  rotation: {x: -0, y: 0.14843197, z: -0, w: -0.9889226}
  scale: {x: 0.99999994, y: 1, z: 0.99999994}
  sector: 1_1
  id: 2084
  layer: 8
  tag: Untagged
  material: {fileID: 0}
