%YAML 1.1
%TAG !u! tag:unity3d.com,2011:
--- !u!114 &11400000
MonoBehaviour:
  m_ObjectHideFlags: 0
  m_CorrespondingSourceObject: {fileID: 0}
  m_PrefabInstance: {fileID: 0}
  m_PrefabAsset: {fileID: 0}
  m_GameObject: {fileID: 0}
  m_Enabled: 1
  m_EditorHideFlags: 0
  m_Script: {fileID: 11500000, guid: cf6258160aeff9c4ba54e7ad9c7ddf08, type: 3}
  m_Name: 2086
  m_EditorClassIdentifier: 
  originPrefabName: Crystals (7)
  objectName: Crystals (9)
  position: {x: 1516.12, y: 807.4756, z: 3906.18}
  rotation: {x: 0.076873876, y: 0.70175135, z: 0.0766168, w: 0.70410603}
  scale: {x: 5.0000005, y: 4.9999995, z: 5}
  sector: 3_7
  id: 2086
  layer: 0
  tag: Untagged
  material: {fileID: 2100000, guid: 21460ee8ba22c2c4087816cacc9df76f, type: 2}
