%YAML 1.1
%TAG !u! tag:unity3d.com,2011:
--- !u!114 &11400000
MonoBehaviour:
  m_ObjectHideFlags: 0
  m_CorrespondingSourceObject: {fileID: 0}
  m_PrefabInstance: {fileID: 0}
  m_PrefabAsset: {fileID: 0}
  m_GameObject: {fileID: 0}
  m_Enabled: 1
  m_EditorHideFlags: 0
  m_Script: {fileID: 11500000, guid: cf6258160aeff9c4ba54e7ad9c7ddf08, type: 3}
  m_Name: 2088
  m_EditorClassIdentifier: 
  originPrefabName: BigRock_ver3
  objectName: BigRock_ver3 (1)
  position: {x: 3334.76, y: 18.607, z: 390.75}
  rotation: {x: -0, y: -0, z: -0, w: 1}
  scale: {x: 6.7652, y: 6.7652, z: 6.7652}
  sector: 6_0
  id: 2088
  layer: 0
  tag: Untagged
  material: {fileID: 2100000, guid: 961b3a0e98d5c104fa3e2d56db18799e, type: 2}
