%YAML 1.1
%TAG !u! tag:unity3d.com,2011:
--- !u!114 &11400000
MonoBehaviour:
  m_ObjectHideFlags: 0
  m_CorrespondingSourceObject: {fileID: 0}
  m_PrefabInstance: {fileID: 0}
  m_PrefabAsset: {fileID: 0}
  m_GameObject: {fileID: 0}
  m_Enabled: 1
  m_EditorHideFlags: 0
  m_Script: {fileID: 11500000, guid: cf6258160aeff9c4ba54e7ad9c7ddf08, type: 3}
  m_Name: 2093
  m_EditorClassIdentifier: 
  originPrefabName: Crystals
  objectName: Crystals (1)
  position: {x: 794.95, y: 19.68, z: 1146.7}
  rotation: {x: -0, y: -0.65421903, z: -0, w: 0.75630516}
  scale: {x: 23.575382, y: 23.575377, z: 23.575382}
  sector: 1_2
  id: 2093
  layer: 0
  tag: Untagged
  material: {fileID: 2100000, guid: a1ab44f7a3cf5614986dac6313698858, type: 2}
