%YAML 1.1
%TAG !u! tag:unity3d.com,2011:
--- !u!114 &11400000
MonoBehaviour:
  m_ObjectHideFlags: 0
  m_CorrespondingSourceObject: {fileID: 0}
  m_PrefabInstance: {fileID: 0}
  m_PrefabAsset: {fileID: 0}
  m_GameObject: {fileID: 0}
  m_Enabled: 1
  m_EditorHideFlags: 0
  m_Script: {fileID: 11500000, guid: cf6258160aeff9c4ba54e7ad9c7ddf08, type: 3}
  m_Name: 2109
  m_EditorClassIdentifier: 
  originPrefabName: WoodenCrate_01
  objectName: WoodenCrate_01 (2)
  position: {x: 265.097, y: 15.408, z: 187.337}
  rotation: {x: -0, y: 0.39494142, z: -0, w: 0.9187063}
  scale: {x: 0.99999994, y: 1, z: 0.99999994}
  sector: 0_0
  id: 2109
  layer: 0
  tag: Untagged
  material: {fileID: 2100000, guid: 474f30d526a7a2d4eb888a2bdb878880, type: 2}
