%YAML 1.1
%TAG !u! tag:unity3d.com,2011:
--- !u!114 &11400000
MonoBehaviour:
  m_ObjectHideFlags: 0
  m_CorrespondingSourceObject: {fileID: 0}
  m_PrefabInstance: {fileID: 0}
  m_PrefabAsset: {fileID: 0}
  m_GameObject: {fileID: 0}
  m_Enabled: 1
  m_EditorHideFlags: 0
  m_Script: {fileID: 11500000, guid: cf6258160aeff9c4ba54e7ad9c7ddf08, type: 3}
  m_Name: 2116
  m_EditorClassIdentifier: 
  originPrefabName: Shard (2)
  objectName: Shard (2)
  position: {x: 3678.82, y: 111.83, z: 3394.84}
  rotation: {x: -0.3003008, y: 0.09793382, z: 0.29417485, w: 0.90204746}
  scale: {x: 902.339, y: 902.33905, z: 902.33905}
  sector: 7_6
  id: 2116
  layer: 0
  tag: Untagged
  material: {fileID: 2100000, guid: 84b56cef1adff5f43a0a71dbf93822b7, type: 2}
