%YAML 1.1
%TAG !u! tag:unity3d.com,2011:
--- !u!114 &11400000
MonoBehaviour:
  m_ObjectHideFlags: 0
  m_CorrespondingSourceObject: {fileID: 0}
  m_PrefabInstance: {fileID: 0}
  m_PrefabAsset: {fileID: 0}
  m_GameObject: {fileID: 0}
  m_Enabled: 1
  m_EditorHideFlags: 0
  m_Script: {fileID: 11500000, guid: cf6258160aeff9c4ba54e7ad9c7ddf08, type: 3}
  m_Name: 217
  m_EditorClassIdentifier: 
  originPrefabName: Crystals
  objectName: Crystals (3)
  position: {x: 603.44, y: 24.21, z: 1502.54}
  rotation: {x: -0, y: -0.53261286, z: -0, w: 0.8463591}
  scale: {x: 12.895002, y: 12.895, z: 12.895002}
  sector: 1_3
  id: 217
  layer: 0
  tag: Untagged
  material: {fileID: 2100000, guid: a1ab44f7a3cf5614986dac6313698858, type: 2}
