%YAML 1.1
%TAG !u! tag:unity3d.com,2011:
--- !u!114 &11400000
MonoBehaviour:
  m_ObjectHideFlags: 0
  m_CorrespondingSourceObject: {fileID: 0}
  m_PrefabInstance: {fileID: 0}
  m_PrefabAsset: {fileID: 0}
  m_GameObject: {fileID: 0}
  m_Enabled: 1
  m_EditorHideFlags: 0
  m_Script: {fileID: 11500000, guid: cf6258160aeff9c4ba54e7ad9c7ddf08, type: 3}
  m_Name: 2175
  m_EditorClassIdentifier: 
  originPrefabName: fence_low
  objectName: fence_low
  position: {x: 3331.1003, y: 30.570002, z: 250.51338}
  rotation: {x: 0.17404099, y: -0.68535376, z: -0.68535376, w: -0.17404099}
  scale: {x: 0.7705632, y: 1.0000001, z: 1.0000002}
  sector: 6_0
  id: 2175
  layer: 0
  tag: Untagged
  material: {fileID: 2100000, guid: 9c7aaa892a67d924e952d5d660fd8138, type: 2}
