%YAML 1.1
%TAG !u! tag:unity3d.com,2011:
--- !u!114 &11400000
MonoBehaviour:
  m_ObjectHideFlags: 0
  m_CorrespondingSourceObject: {fileID: 0}
  m_PrefabInstance: {fileID: 0}
  m_PrefabAsset: {fileID: 0}
  m_GameObject: {fileID: 0}
  m_Enabled: 1
  m_EditorHideFlags: 0
  m_Script: {fileID: 11500000, guid: cf6258160aeff9c4ba54e7ad9c7ddf08, type: 3}
  m_Name: 2214
  m_EditorClassIdentifier: 
  originPrefabName: building4_low2
  objectName: building4_low2 (9)
  position: {x: 3481.2998, y: 25.11997, z: 364.09003}
  rotation: {x: 0.017083673, y: 0.73136836, z: 0.015920753, w: 0.6815827}
  scale: {x: 1, y: 1.0000001, z: 0.9999999}
  sector: 6_0
  id: 2214
  layer: 0
  tag: Untagged
  material: {fileID: 2100000, guid: f7ab0cef51ba77a4d9bb3479694dd244, type: 2}
