%YAML 1.1
%TAG !u! tag:unity3d.com,2011:
--- !u!114 &11400000
MonoBehaviour:
  m_ObjectHideFlags: 0
  m_CorrespondingSourceObject: {fileID: 0}
  m_PrefabInstance: {fileID: 0}
  m_PrefabAsset: {fileID: 0}
  m_GameObject: {fileID: 0}
  m_Enabled: 1
  m_EditorHideFlags: 0
  m_Script: {fileID: 11500000, guid: cf6258160aeff9c4ba54e7ad9c7ddf08, type: 3}
  m_Name: 2221
  m_EditorClassIdentifier: 
  originPrefabName: PF_RegTree_4
  objectName: PF_RegTree_4 (3)
  position: {x: 1488.6459, y: 793.53864, z: 3710.54}
  rotation: {x: -0.040833887, y: -0, z: -0, w: 0.99916595}
  scale: {x: 1, y: 1, z: 1}
  sector: 2_7
  id: 2221
  layer: 8
  tag: Untagged
  material: {fileID: 0}
