%YAML 1.1
%TAG !u! tag:unity3d.com,2011:
--- !u!114 &11400000
MonoBehaviour:
  m_ObjectHideFlags: 0
  m_CorrespondingSourceObject: {fileID: 0}
  m_PrefabInstance: {fileID: 0}
  m_PrefabAsset: {fileID: 0}
  m_GameObject: {fileID: 0}
  m_Enabled: 1
  m_EditorHideFlags: 0
  m_Script: {fileID: 11500000, guid: cf6258160aeff9c4ba54e7ad9c7ddf08, type: 3}
  m_Name: 2227
  m_EditorClassIdentifier: 
  originPrefabName: BigRock_ver3
  objectName: BigRock_ver3 (1)
  position: {x: 2738, y: 758.8149, z: 3983.8}
  rotation: {x: -0, y: -0.9174088, z: -0, w: -0.39794624}
  scale: {x: 38.84728, y: 38.23925, z: 38.239265}
  sector: 5_7
  id: 2227
  layer: 0
  tag: Untagged
  material: {fileID: 2100000, guid: 961b3a0e98d5c104fa3e2d56db18799e, type: 2}
