%YAML 1.1
%TAG !u! tag:unity3d.com,2011:
--- !u!114 &11400000
MonoBehaviour:
  m_ObjectHideFlags: 0
  m_CorrespondingSourceObject: {fileID: 0}
  m_PrefabInstance: {fileID: 0}
  m_PrefabAsset: {fileID: 0}
  m_GameObject: {fileID: 0}
  m_Enabled: 1
  m_EditorHideFlags: 0
  m_Script: {fileID: 11500000, guid: cf6258160aeff9c4ba54e7ad9c7ddf08, type: 3}
  m_Name: 2240
  m_EditorClassIdentifier: 
  originPrefabName: lamp2
  objectName: lamp2 (18)
  position: {x: 3523.73, y: 25.4, z: 329.35}
  rotation: {x: -0.70626795, y: -0.034434486, z: -0.034434423, w: 0.70626783}
  scale: {x: 100, y: 100.00002, z: 100.00003}
  sector: 7_0
  id: 2240
  layer: 0
  tag: Untagged
  material: {fileID: 2100000, guid: 1706951de166c3c41ae4a01f5a1073d6, type: 2}
