%YAML 1.1
%TAG !u! tag:unity3d.com,2011:
--- !u!114 &11400000
MonoBehaviour:
  m_ObjectHideFlags: 0
  m_CorrespondingSourceObject: {fileID: 0}
  m_PrefabInstance: {fileID: 0}
  m_PrefabAsset: {fileID: 0}
  m_GameObject: {fileID: 0}
  m_Enabled: 1
  m_EditorHideFlags: 0
  m_Script: {fileID: 11500000, guid: cf6258160aeff9c4ba54e7ad9c7ddf08, type: 3}
  m_Name: 2280
  m_EditorClassIdentifier: 
  originPrefabName: Top_low
  objectName: Top_low (1)
  position: {x: 1850.1, y: 779.82385, z: 3838.4158}
  rotation: {x: -0, y: 0.67617995, z: -0, w: 0.7367366}
  scale: {x: 1.0000002, y: 1, z: 1.0000002}
  sector: 3_7
  id: 2280
  layer: 0
  tag: Untagged
  material: {fileID: 2100000, guid: c5344f5ddc4e8274a876bfbdb2cf7014, type: 2}
