%YAML 1.1
%TAG !u! tag:unity3d.com,2011:
--- !u!114 &11400000
MonoBehaviour:
  m_ObjectHideFlags: 0
  m_CorrespondingSourceObject: {fileID: 0}
  m_PrefabInstance: {fileID: 0}
  m_PrefabAsset: {fileID: 0}
  m_GameObject: {fileID: 0}
  m_Enabled: 1
  m_EditorHideFlags: 0
  m_Script: {fileID: 11500000, guid: cf6258160aeff9c4ba54e7ad9c7ddf08, type: 3}
  m_Name: 2283
  m_EditorClassIdentifier: 
  originPrefabName: Shard (1)
  objectName: Shard (4)
  position: {x: 1415.7162, y: 786.68, z: 3634.26}
  rotation: {x: -0.104034856, y: -0.034803532, z: 0.11747349, w: 0.9869982}
  scale: {x: 400.00006, y: 400.00003, z: 400}
  sector: 2_7
  id: 2283
  layer: 0
  tag: Untagged
  material: {fileID: 2100000, guid: fe36741ede331ae408acac449eaf0149, type: 2}
