%YAML 1.1
%TAG !u! tag:unity3d.com,2011:
--- !u!114 &11400000
MonoBehaviour:
  m_ObjectHideFlags: 0
  m_CorrespondingSourceObject: {fileID: 0}
  m_PrefabInstance: {fileID: 0}
  m_PrefabAsset: {fileID: 0}
  m_GameObject: {fileID: 0}
  m_Enabled: 1
  m_EditorHideFlags: 0
  m_Script: {fileID: 11500000, guid: cf6258160aeff9c4ba54e7ad9c7ddf08, type: 3}
  m_Name: 2289
  m_EditorClassIdentifier: 
  originPrefabName: PF_HexTerrain_Mid
  objectName: PF_HexTerrain_Mid
  position: {x: 637.34, y: 27.386, z: 1556.6}
  rotation: {x: -0, y: -0, z: -0, w: 1}
  scale: {x: 5.3256, y: 5.3256, z: 5.3256}
  sector: 1_3
  id: 2289
  layer: 8
  tag: Untagged
  material: {fileID: 0}
