%YAML 1.1
%TAG !u! tag:unity3d.com,2011:
--- !u!114 &11400000
MonoBehaviour:
  m_ObjectHideFlags: 0
  m_CorrespondingSourceObject: {fileID: 0}
  m_PrefabInstance: {fileID: 0}
  m_PrefabAsset: {fileID: 0}
  m_GameObject: {fileID: 0}
  m_Enabled: 1
  m_EditorHideFlags: 0
  m_Script: {fileID: 11500000, guid: cf6258160aeff9c4ba54e7ad9c7ddf08, type: 3}
  m_Name: 2322
  m_EditorClassIdentifier: 
  originPrefabName: Shard (2)
  objectName: Shard (11)
  position: {x: 3596.6, y: 27.3, z: 2991}
  rotation: {x: 0.40659025, y: 0.008725203, z: 0.019600175, w: 0.91335875}
  scale: {x: 2492.8, y: 2492.8003, z: 2492.8005}
  sector: 7_5
  id: 2322
  layer: 0
  tag: Untagged
  material: {fileID: 2100000, guid: 84b56cef1adff5f43a0a71dbf93822b7, type: 2}
