%YAML 1.1
%TAG !u! tag:unity3d.com,2011:
--- !u!114 &11400000
MonoBehaviour:
  m_ObjectHideFlags: 0
  m_CorrespondingSourceObject: {fileID: 0}
  m_PrefabInstance: {fileID: 0}
  m_PrefabAsset: {fileID: 0}
  m_GameObject: {fileID: 0}
  m_Enabled: 1
  m_EditorHideFlags: 0
  m_Script: {fileID: 11500000, guid: cf6258160aeff9c4ba54e7ad9c7ddf08, type: 3}
  m_Name: 234
  m_EditorClassIdentifier: 
  originPrefabName: Shard (7)
  objectName: Shard (9)
  position: {x: 1387.3, y: 797.1535, z: 4069.1008}
  rotation: {x: 0.18758227, y: -0, z: -0, w: 0.9822489}
  scale: {x: 2000, y: 1000, z: 1500.0002}
  sector: 2_8
  id: 234
  layer: 0
  tag: Untagged
  material: {fileID: 2100000, guid: 21460ee8ba22c2c4087816cacc9df76f, type: 2}
