%YAML 1.1
%TAG !u! tag:unity3d.com,2011:
--- !u!114 &11400000
MonoBehaviour:
  m_ObjectHideFlags: 0
  m_CorrespondingSourceObject: {fileID: 0}
  m_PrefabInstance: {fileID: 0}
  m_PrefabAsset: {fileID: 0}
  m_GameObject: {fileID: 0}
  m_Enabled: 1
  m_EditorHideFlags: 0
  m_Script: {fileID: 11500000, guid: cf6258160aeff9c4ba54e7ad9c7ddf08, type: 3}
  m_Name: 2362
  m_EditorClassIdentifier: 
  originPrefabName: swing
  objectName: swing
  position: {x: 629.342, y: 16.334, z: 457.817}
  rotation: {x: -0.4278002, y: 0.6014906, z: 0.5588222, w: 0.37803948}
  scale: {x: 10.000002, y: 10.000002, z: 10.000002}
  sector: 1_0
  id: 2362
  layer: 0
  tag: Untagged
  material: {fileID: 2100000, guid: 08dde7adadab9cb4ea6d27fc27efcaf7, type: 2}
