%YAML 1.1
%TAG !u! tag:unity3d.com,2011:
--- !u!114 &11400000
MonoBehaviour:
  m_ObjectHideFlags: 0
  m_CorrespondingSourceObject: {fileID: 0}
  m_PrefabInstance: {fileID: 0}
  m_PrefabAsset: {fileID: 0}
  m_GameObject: {fileID: 0}
  m_Enabled: 1
  m_EditorHideFlags: 0
  m_Script: {fileID: 11500000, guid: cf6258160aeff9c4ba54e7ad9c7ddf08, type: 3}
  m_Name: 2397
  m_EditorClassIdentifier: 
  originPrefabName: lamp01
  objectName: lamp01 (3)
  position: {x: 1501.3107, y: 781.5223, z: 3968.07}
  rotation: {x: -0.25941694, y: 0.62108815, z: 0.673942, w: 0.30455637}
  scale: {x: 100.000015, y: 100.000015, z: 100.00002}
  sector: 3_7
  id: 2397
  layer: 0
  tag: Untagged
  material: {fileID: 2100000, guid: e529903d19e66bb46a79ce41bd309a28, type: 2}
