%YAML 1.1
%TAG !u! tag:unity3d.com,2011:
--- !u!114 &11400000
MonoBehaviour:
  m_ObjectHideFlags: 0
  m_CorrespondingSourceObject: {fileID: 0}
  m_PrefabInstance: {fileID: 0}
  m_PrefabAsset: {fileID: 0}
  m_GameObject: {fileID: 0}
  m_Enabled: 1
  m_EditorHideFlags: 0
  m_Script: {fileID: 11500000, guid: cf6258160aeff9c4ba54e7ad9c7ddf08, type: 3}
  m_Name: 2400
  m_EditorClassIdentifier: 
  originPrefabName: BigRock_ver1
  objectName: BigRock_ver1
  position: {x: 3635.8, y: 31.1, z: 2460}
  rotation: {x: -0, y: -0, z: 0.16967563, w: 0.9855}
  scale: {x: 15.765005, y: 15.765005, z: 15.765005}
  sector: 7_4
  id: 2400
  layer: 0
  tag: Untagged
  material: {fileID: 2100000, guid: a10d9d93a1f608349be324e4e1a329fe, type: 2}
