%YAML 1.1
%TAG !u! tag:unity3d.com,2011:
--- !u!114 &11400000
MonoBehaviour:
  m_ObjectHideFlags: 0
  m_CorrespondingSourceObject: {fileID: 0}
  m_PrefabInstance: {fileID: 0}
  m_PrefabAsset: {fileID: 0}
  m_GameObject: {fileID: 0}
  m_Enabled: 1
  m_EditorHideFlags: 0
  m_Script: {fileID: 11500000, guid: cf6258160aeff9c4ba54e7ad9c7ddf08, type: 3}
  m_Name: 2423
  m_EditorClassIdentifier: 
  originPrefabName: PF_HexTerrain_Ramp_Bottom
  objectName: PF_HexTerrain_Ramp_Bottom (10)
  position: {x: 605.44507, y: 24.221, z: 1658.6443}
  rotation: {x: -0, y: -0, z: -0, w: 1}
  scale: {x: 1, y: 1.4919, z: 1}
  sector: 1_3
  id: 2423
  layer: 8
  tag: Untagged
  material: {fileID: 0}
