%YAML 1.1
%TAG !u! tag:unity3d.com,2011:
--- !u!114 &11400000
MonoBehaviour:
  m_ObjectHideFlags: 0
  m_CorrespondingSourceObject: {fileID: 0}
  m_PrefabInstance: {fileID: 0}
  m_PrefabAsset: {fileID: 0}
  m_GameObject: {fileID: 0}
  m_Enabled: 1
  m_EditorHideFlags: 0
  m_Script: {fileID: 11500000, guid: cf6258160aeff9c4ba54e7ad9c7ddf08, type: 3}
  m_Name: 2436
  m_EditorClassIdentifier: 
  originPrefabName: cliff_low 1
  objectName: cliff_low 1 (14)
  position: {x: 1572.2, y: 802.57996, z: 3505.3}
  rotation: {x: -0, y: -0.79733735, z: -0, w: 0.603534}
  scale: {x: 1.0000002, y: 0.5, z: 2.0000005}
  sector: 3_7
  id: 2436
  layer: 0
  tag: Untagged
  material: {fileID: 0}
