%YAML 1.1
%TAG !u! tag:unity3d.com,2011:
--- !u!114 &11400000
MonoBehaviour:
  m_ObjectHideFlags: 0
  m_CorrespondingSourceObject: {fileID: 0}
  m_PrefabInstance: {fileID: 0}
  m_PrefabAsset: {fileID: 0}
  m_GameObject: {fileID: 0}
  m_Enabled: 1
  m_EditorHideFlags: 0
  m_Script: {fileID: 11500000, guid: cf6258160aeff9c4ba54e7ad9c7ddf08, type: 3}
  m_Name: 2467
  m_EditorClassIdentifier: 
  originPrefabName: Crystals (2)
  objectName: Crystals (9)
  position: {x: 1402.04, y: 787.58997, z: 3724.875}
  rotation: {x: -0.052090045, y: -0.93625826, z: 0.15747975, w: 0.30968907}
  scale: {x: 1.0000004, y: 1, z: 1.0000002}
  sector: 2_7
  id: 2467
  layer: 0
  tag: Untagged
  material: {fileID: 2100000, guid: fe36741ede331ae408acac449eaf0149, type: 2}
