%YAML 1.1
%TAG !u! tag:unity3d.com,2011:
--- !u!114 &11400000
MonoBehaviour:
  m_ObjectHideFlags: 0
  m_CorrespondingSourceObject: {fileID: 0}
  m_PrefabInstance: {fileID: 0}
  m_PrefabAsset: {fileID: 0}
  m_GameObject: {fileID: 0}
  m_Enabled: 1
  m_EditorHideFlags: 0
  m_Script: {fileID: 11500000, guid: cf6258160aeff9c4ba54e7ad9c7ddf08, type: 3}
  m_Name: 2469
  m_EditorClassIdentifier: 
  originPrefabName: Cabin_TypeB_low
  objectName: Cabin_TypeB_low (3)
  position: {x: 1454.48, y: 794.5911, z: 3727.1306}
  rotation: {x: -0.72287077, y: -0, z: -0, w: 0.6909833}
  scale: {x: 1, y: 1.0000001, z: 1.0000001}
  sector: 2_7
  id: 2469
  layer: 0
  tag: Untagged
  material: {fileID: 2100000, guid: b71830094d28b7942ae5def6d7435c06, type: 2}
