%YAML 1.1
%TAG !u! tag:unity3d.com,2011:
--- !u!114 &11400000
MonoBehaviour:
  m_ObjectHideFlags: 0
  m_CorrespondingSourceObject: {fileID: 0}
  m_PrefabInstance: {fileID: 0}
  m_PrefabAsset: {fileID: 0}
  m_GameObject: {fileID: 0}
  m_Enabled: 1
  m_EditorHideFlags: 0
  m_Script: {fileID: 11500000, guid: cf6258160aeff9c4ba54e7ad9c7ddf08, type: 3}
  m_Name: 2502
  m_EditorClassIdentifier: 
  originPrefabName: BigRock_ver1
  objectName: BigRock_ver1
  position: {x: 3324.5999, y: 27.121002, z: 306.8}
  rotation: {x: -0, y: -0, z: -0, w: 1}
  scale: {x: 2.0379, y: 2.0379, z: 2.6196427}
  sector: 6_0
  id: 2502
  layer: 0
  tag: Untagged
  material: {fileID: 2100000, guid: a10d9d93a1f608349be324e4e1a329fe, type: 2}
