%YAML 1.1
%TAG !u! tag:unity3d.com,2011:
--- !u!114 &11400000
MonoBehaviour:
  m_ObjectHideFlags: 0
  m_CorrespondingSourceObject: {fileID: 0}
  m_PrefabInstance: {fileID: 0}
  m_PrefabAsset: {fileID: 0}
  m_GameObject: {fileID: 0}
  m_Enabled: 1
  m_EditorHideFlags: 0
  m_Script: {fileID: 11500000, guid: cf6258160aeff9c4ba54e7ad9c7ddf08, type: 3}
  m_Name: 2516
  m_EditorClassIdentifier: 
  originPrefabName: Shard (2)
  objectName: Shard (2)
  position: {x: 3733.578, y: 31.5, z: 3161.4263}
  rotation: {x: -0, y: -0, z: -0, w: 1}
  scale: {x: 1947.5, y: 1947.5, z: 1947.5}
  sector: 7_6
  id: 2516
  layer: 0
  tag: Untagged
  material: {fileID: 2100000, guid: 84b56cef1adff5f43a0a71dbf93822b7, type: 2}
