%YAML 1.1
%TAG !u! tag:unity3d.com,2011:
--- !u!114 &11400000
MonoBehaviour:
  m_ObjectHideFlags: 0
  m_CorrespondingSourceObject: {fileID: 0}
  m_PrefabInstance: {fileID: 0}
  m_PrefabAsset: {fileID: 0}
  m_GameObject: {fileID: 0}
  m_Enabled: 1
  m_EditorHideFlags: 0
  m_Script: {fileID: 11500000, guid: cf6258160aeff9c4ba54e7ad9c7ddf08, type: 3}
  m_Name: 2523
  m_EditorClassIdentifier: 
  originPrefabName: PF_RegTree_2
  objectName: PF_RegTree_2
  position: {x: 2743.7075, y: 792.16, z: 3803.0186}
  rotation: {x: -0, y: 0.4565448, z: -0, w: 0.8897005}
  scale: {x: 3.0531, y: 3.0531, z: 3.0531}
  sector: 5_7
  id: 2523
  layer: 8
  tag: Untagged
  material: {fileID: 0}
