%YAML 1.1
%TAG !u! tag:unity3d.com,2011:
--- !u!114 &11400000
MonoBehaviour:
  m_ObjectHideFlags: 0
  m_CorrespondingSourceObject: {fileID: 0}
  m_PrefabInstance: {fileID: 0}
  m_PrefabAsset: {fileID: 0}
  m_GameObject: {fileID: 0}
  m_Enabled: 1
  m_EditorHideFlags: 0
  m_Script: {fileID: 11500000, guid: cf6258160aeff9c4ba54e7ad9c7ddf08, type: 3}
  m_Name: 2557
  m_EditorClassIdentifier: 
  originPrefabName: Bench
  objectName: Bench (3)
  position: {x: 3487.36, y: 25.74, z: 348.40002}
  rotation: {x: -0.00044514213, y: -0.9995549, z: -0.021123985, w: 0.02106345}
  scale: {x: 1.0973401, y: 1.0973402, z: 1.0973407}
  sector: 6_0
  id: 2557
  layer: 0
  tag: Untagged
  material: {fileID: 2100000, guid: 2505757ef4918ba4997e86029dbbfd7a, type: 2}
