%YAML 1.1
%TAG !u! tag:unity3d.com,2011:
--- !u!114 &11400000
MonoBehaviour:
  m_ObjectHideFlags: 0
  m_CorrespondingSourceObject: {fileID: 0}
  m_PrefabInstance: {fileID: 0}
  m_PrefabAsset: {fileID: 0}
  m_GameObject: {fileID: 0}
  m_Enabled: 1
  m_EditorHideFlags: 0
  m_Script: {fileID: 11500000, guid: cf6258160aeff9c4ba54e7ad9c7ddf08, type: 3}
  m_Name: 2564
  m_EditorClassIdentifier: 
  originPrefabName: cliff_low 1
  objectName: cliff_low 1 (18)
  position: {x: 1535.5, y: 765.3, z: 4110.5}
  rotation: {x: -0, y: 0.9912968, z: -0, w: -0.13164583}
  scale: {x: 1.0000001, y: 0.3, z: 1.0000001}
  sector: 3_8
  id: 2564
  layer: 0
  tag: Untagged
  material: {fileID: 0}
