%YAML 1.1
%TAG !u! tag:unity3d.com,2011:
--- !u!114 &11400000
MonoBehaviour:
  m_ObjectHideFlags: 0
  m_CorrespondingSourceObject: {fileID: 0}
  m_PrefabInstance: {fileID: 0}
  m_PrefabAsset: {fileID: 0}
  m_GameObject: {fileID: 0}
  m_Enabled: 1
  m_EditorHideFlags: 0
  m_Script: {fileID: 11500000, guid: cf6258160aeff9c4ba54e7ad9c7ddf08, type: 3}
  m_Name: 2589
  m_EditorClassIdentifier: 
  originPrefabName: Building2_low
  objectName: Building2_low (3)
  position: {x: 763.7783, y: 17.5, z: 433.2342}
  rotation: {x: -0, y: -0.66417664, z: -0, w: 0.74757576}
  scale: {x: 1.0000002, y: 1, z: 1.0000002}
  sector: 1_0
  id: 2589
  layer: 0
  tag: Untagged
  material: {fileID: 2100000, guid: bd872456eb9a6d84a99dedee2e44b058, type: 2}
