%YAML 1.1
%TAG !u! tag:unity3d.com,2011:
--- !u!114 &11400000
MonoBehaviour:
  m_ObjectHideFlags: 0
  m_CorrespondingSourceObject: {fileID: 0}
  m_PrefabInstance: {fileID: 0}
  m_PrefabAsset: {fileID: 0}
  m_GameObject: {fileID: 0}
  m_Enabled: 1
  m_EditorHideFlags: 0
  m_Script: {fileID: 11500000, guid: cf6258160aeff9c4ba54e7ad9c7ddf08, type: 3}
  m_Name: 259
  m_EditorClassIdentifier: 
  originPrefabName: swing
  objectName: swing
  position: {x: 599.93, y: 20.12, z: 868.16}
  rotation: {x: -0.46833345, y: 0.5297771, z: 0.5297771, w: 0.46833345}
  scale: {x: 10, y: 10, z: 10}
  sector: 1_1
  id: 259
  layer: 0
  tag: Untagged
  material: {fileID: 2100000, guid: 08dde7adadab9cb4ea6d27fc27efcaf7, type: 2}
