%YAML 1.1
%TAG !u! tag:unity3d.com,2011:
--- !u!114 &11400000
MonoBehaviour:
  m_ObjectHideFlags: 0
  m_CorrespondingSourceObject: {fileID: 0}
  m_PrefabInstance: {fileID: 0}
  m_PrefabAsset: {fileID: 0}
  m_GameObject: {fileID: 0}
  m_Enabled: 1
  m_EditorHideFlags: 0
  m_Script: {fileID: 11500000, guid: cf6258160aeff9c4ba54e7ad9c7ddf08, type: 3}
  m_Name: 2601
  m_EditorClassIdentifier: 
  originPrefabName: cliff_low
  objectName: cliff_low (3)
  position: {x: 743.55316, y: 19.2, z: 871.55743}
  rotation: {x: -0, y: -0.71390504, z: -0, w: 0.7002426}
  scale: {x: 0.40047008, y: 0.40047, z: 0.40047008}
  sector: 1_1
  id: 2601
  layer: 0
  tag: Untagged
  material: {fileID: 0}
