%YAML 1.1
%TAG !u! tag:unity3d.com,2011:
--- !u!114 &11400000
MonoBehaviour:
  m_ObjectHideFlags: 0
  m_CorrespondingSourceObject: {fileID: 0}
  m_PrefabInstance: {fileID: 0}
  m_PrefabAsset: {fileID: 0}
  m_GameObject: {fileID: 0}
  m_Enabled: 1
  m_EditorHideFlags: 0
  m_Script: {fileID: 11500000, guid: cf6258160aeff9c4ba54e7ad9c7ddf08, type: 3}
  m_Name: 2605
  m_EditorClassIdentifier: 
  originPrefabName: Cabin_TypeA_low
  objectName: Cabin_TypeA_low (1)
  position: {x: 1470.2526, y: 794.6974, z: 3744.9758}
  rotation: {x: -0.5, y: 0.5, z: 0.5, w: 0.5}
  scale: {x: 1, y: 1, z: 1}
  sector: 2_7
  id: 2605
  layer: 0
  tag: Untagged
  material: {fileID: 2100000, guid: 5a51e20b7f535704bb52b6d61701b959, type: 2}
