%YAML 1.1
%TAG !u! tag:unity3d.com,2011:
--- !u!114 &11400000
MonoBehaviour:
  m_ObjectHideFlags: 0
  m_CorrespondingSourceObject: {fileID: 0}
  m_PrefabInstance: {fileID: 0}
  m_PrefabAsset: {fileID: 0}
  m_GameObject: {fileID: 0}
  m_Enabled: 1
  m_EditorHideFlags: 0
  m_Script: {fileID: 11500000, guid: cf6258160aeff9c4ba54e7ad9c7ddf08, type: 3}
  m_Name: 2621
  m_EditorClassIdentifier: 
  originPrefabName: Shard (7)
  objectName: Shard (10)
  position: {x: 2962.7644, y: 759.1438, z: 3690.9873}
  rotation: {x: -0.26930645, y: -0.011764138, z: -0.019440582, w: 0.9627865}
  scale: {x: 1511.3, y: 1511.2998, z: 1511.3002}
  sector: 5_7
  id: 2621
  layer: 0
  tag: Untagged
  material: {fileID: 2100000, guid: 21460ee8ba22c2c4087816cacc9df76f, type: 2}
