%YAML 1.1
%TAG !u! tag:unity3d.com,2011:
--- !u!114 &11400000
MonoBehaviour:
  m_ObjectHideFlags: 0
  m_CorrespondingSourceObject: {fileID: 0}
  m_PrefabInstance: {fileID: 0}
  m_PrefabAsset: {fileID: 0}
  m_GameObject: {fileID: 0}
  m_Enabled: 1
  m_EditorHideFlags: 0
  m_Script: {fileID: 11500000, guid: cf6258160aeff9c4ba54e7ad9c7ddf08, type: 3}
  m_Name: 2631
  m_EditorClassIdentifier: 
  originPrefabName: Crystals (2)
  objectName: Crystals (11)
  position: {x: 1442.3912, y: 793.92017, z: 3741.746}
  rotation: {x: -0.13272355, y: -0.9889741, z: -0.00012686625, w: 0.06568618}
  scale: {x: 3, y: 3, z: 3.0000002}
  sector: 2_7
  id: 2631
  layer: 0
  tag: Untagged
  material: {fileID: 2100000, guid: fe36741ede331ae408acac449eaf0149, type: 2}
