%YAML 1.1
%TAG !u! tag:unity3d.com,2011:
--- !u!114 &11400000
MonoBehaviour:
  m_ObjectHideFlags: 0
  m_CorrespondingSourceObject: {fileID: 0}
  m_PrefabInstance: {fileID: 0}
  m_PrefabAsset: {fileID: 0}
  m_GameObject: {fileID: 0}
  m_Enabled: 1
  m_EditorHideFlags: 0
  m_Script: {fileID: 11500000, guid: cf6258160aeff9c4ba54e7ad9c7ddf08, type: 3}
  m_Name: 264
  m_EditorClassIdentifier: 
  originPrefabName: PF_RegTree_1
  objectName: PF_RegTree_1 (2)
  position: {x: 3420.9, y: 49.939995, z: 382.3}
  rotation: {x: -0, y: -0, z: -0, w: 1}
  scale: {x: 4.446745, y: 6.341948, z: 4.446745}
  sector: 6_0
  id: 264
  layer: 8
  tag: Untagged
  material: {fileID: 0}
