%YAML 1.1
%TAG !u! tag:unity3d.com,2011:
--- !u!114 &11400000
MonoBehaviour:
  m_ObjectHideFlags: 0
  m_CorrespondingSourceObject: {fileID: 0}
  m_PrefabInstance: {fileID: 0}
  m_PrefabAsset: {fileID: 0}
  m_GameObject: {fileID: 0}
  m_Enabled: 1
  m_EditorHideFlags: 0
  m_Script: {fileID: 11500000, guid: cf6258160aeff9c4ba54e7ad9c7ddf08, type: 3}
  m_Name: 2665
  m_EditorClassIdentifier: 
  originPrefabName: cliff_low 1
  objectName: cliff_low 1
  position: {x: 3162.7, y: 19.5, z: 61.300003}
  rotation: {x: 0.010242572, y: -0.9993598, z: -0.0045692814, w: 0.033975057}
  scale: {x: 1.3327205, y: 1.2088616, z: 3.2091315}
  sector: 6_0
  id: 2665
  layer: 0
  tag: Untagged
  material: {fileID: 0}
