%YAML 1.1
%TAG !u! tag:unity3d.com,2011:
--- !u!114 &11400000
MonoBehaviour:
  m_ObjectHideFlags: 0
  m_CorrespondingSourceObject: {fileID: 0}
  m_PrefabInstance: {fileID: 0}
  m_PrefabAsset: {fileID: 0}
  m_GameObject: {fileID: 0}
  m_Enabled: 1
  m_EditorHideFlags: 0
  m_Script: {fileID: 11500000, guid: cf6258160aeff9c4ba54e7ad9c7ddf08, type: 3}
  m_Name: 2671
  m_EditorClassIdentifier: 
  originPrefabName: PF_RegTree_3
  objectName: PF_RegTree_3 (3)
  position: {x: 1384.7642, y: 784.1376, z: 3710.8564}
  rotation: {x: -0, y: 0.51191145, z: -0, w: 0.85903823}
  scale: {x: 1, y: 1, z: 1}
  sector: 2_7
  id: 2671
  layer: 8
  tag: Untagged
  material: {fileID: 0}
