%YAML 1.1
%TAG !u! tag:unity3d.com,2011:
--- !u!114 &11400000
MonoBehaviour:
  m_ObjectHideFlags: 0
  m_CorrespondingSourceObject: {fileID: 0}
  m_PrefabInstance: {fileID: 0}
  m_PrefabAsset: {fileID: 0}
  m_GameObject: {fileID: 0}
  m_Enabled: 1
  m_EditorHideFlags: 0
  m_Script: {fileID: 11500000, guid: cf6258160aeff9c4ba54e7ad9c7ddf08, type: 3}
  m_Name: 2683
  m_EditorClassIdentifier: 
  originPrefabName: Cabin_TypeA_low
  objectName: Cabin_TypeA_low
  position: {x: 1544.48, y: 793.12, z: 3812.9136}
  rotation: {x: 0.66313857, y: -0.2399278, z: -0.23229052, w: -0.66986793}
  scale: {x: 1, y: 1.0000001, z: 1.0000001}
  sector: 3_7
  id: 2683
  layer: 0
  tag: Untagged
  material: {fileID: 2100000, guid: 3d9e53b49f9192a44902d667dd496461, type: 2}
