%YAML 1.1
%TAG !u! tag:unity3d.com,2011:
--- !u!114 &11400000
MonoBehaviour:
  m_ObjectHideFlags: 0
  m_CorrespondingSourceObject: {fileID: 0}
  m_PrefabInstance: {fileID: 0}
  m_PrefabAsset: {fileID: 0}
  m_GameObject: {fileID: 0}
  m_Enabled: 1
  m_EditorHideFlags: 0
  m_Script: {fileID: 11500000, guid: cf6258160aeff9c4ba54e7ad9c7ddf08, type: 3}
  m_Name: 2691
  m_EditorClassIdentifier: 
  originPrefabName: Crystals (2)
  objectName: Crystals (17)
  position: {x: 1427.58, y: 796.25995, z: 3651.52}
  rotation: {x: 0.17252405, y: -0.23532508, z: 0.042488363, w: 0.95553774}
  scale: {x: 5, y: 5, z: 5.0000005}
  sector: 2_7
  id: 2691
  layer: 0
  tag: Untagged
  material: {fileID: 2100000, guid: fe36741ede331ae408acac449eaf0149, type: 2}
