%YAML 1.1
%TAG !u! tag:unity3d.com,2011:
--- !u!114 &11400000
MonoBehaviour:
  m_ObjectHideFlags: 0
  m_CorrespondingSourceObject: {fileID: 0}
  m_PrefabInstance: {fileID: 0}
  m_PrefabAsset: {fileID: 0}
  m_GameObject: {fileID: 0}
  m_Enabled: 1
  m_EditorHideFlags: 0
  m_Script: {fileID: 11500000, guid: cf6258160aeff9c4ba54e7ad9c7ddf08, type: 3}
  m_Name: 270
  m_EditorClassIdentifier: 
  originPrefabName: PF_ConiferTree_1
  objectName: PF_ConiferTree_1 (1)
  position: {x: 579.73456, y: 19.2, z: 588.9075}
  rotation: {x: -0, y: 0.72209257, z: -0, w: -0.6917965}
  scale: {x: 1.0000001, y: 1, z: 1.0000001}
  sector: 1_1
  id: 270
  layer: 8
  tag: Untagged
  material: {fileID: 0}
