%YAML 1.1
%TAG !u! tag:unity3d.com,2011:
--- !u!114 &11400000
MonoBehaviour:
  m_ObjectHideFlags: 0
  m_CorrespondingSourceObject: {fileID: 0}
  m_PrefabInstance: {fileID: 0}
  m_PrefabAsset: {fileID: 0}
  m_GameObject: {fileID: 0}
  m_Enabled: 1
  m_EditorHideFlags: 0
  m_Script: {fileID: 11500000, guid: cf6258160aeff9c4ba54e7ad9c7ddf08, type: 3}
  m_Name: 2737
  m_EditorClassIdentifier: 
  originPrefabName: Shard (1)
  objectName: Shard (2)
  position: {x: 1383.2944, y: 784.2299, z: 3714.7126}
  rotation: {x: -0, y: -0, z: -0.21418625, w: 0.9767929}
  scale: {x: 100.00001, y: 100.00001, z: 100}
  sector: 2_7
  id: 2737
  layer: 0
  tag: Untagged
  material: {fileID: 2100000, guid: fe36741ede331ae408acac449eaf0149, type: 2}
