%YAML 1.1
%TAG !u! tag:unity3d.com,2011:
--- !u!114 &11400000
MonoBehaviour:
  m_ObjectHideFlags: 0
  m_CorrespondingSourceObject: {fileID: 0}
  m_PrefabInstance: {fileID: 0}
  m_PrefabAsset: {fileID: 0}
  m_GameObject: {fileID: 0}
  m_Enabled: 1
  m_EditorHideFlags: 0
  m_Script: {fileID: 11500000, guid: cf6258160aeff9c4ba54e7ad9c7ddf08, type: 3}
  m_Name: 2739
  m_EditorClassIdentifier: 
  originPrefabName: PF_mushroom_LargeCluster2
  objectName: PF_mushroom_LargeCluster2 (3)
  position: {x: 661.19305, y: 26.76997, z: 1636.1661}
  rotation: {x: -0.0888382, y: 0.9955258, z: 0.02440622, w: -0.020988373}
  scale: {x: 2.6544, y: 2.6544008, z: 2.6544008}
  sector: 1_3
  id: 2739
  layer: 0
  tag: Untagged
  material: {fileID: 0}
