%YAML 1.1
%TAG !u! tag:unity3d.com,2011:
--- !u!114 &11400000
MonoBehaviour:
  m_ObjectHideFlags: 0
  m_CorrespondingSourceObject: {fileID: 0}
  m_PrefabInstance: {fileID: 0}
  m_PrefabAsset: {fileID: 0}
  m_GameObject: {fileID: 0}
  m_Enabled: 1
  m_EditorHideFlags: 0
  m_Script: {fileID: 11500000, guid: cf6258160aeff9c4ba54e7ad9c7ddf08, type: 3}
  m_Name: 2746
  m_EditorClassIdentifier: 
  originPrefabName: Cabin_TypeA_low
  objectName: Cabin_TypeA_low (5)
  position: {x: 1607.6514, y: 788.70996, z: 3822.39}
  rotation: {x: -0.70707107, y: 0.007114117, z: -0.05755189, w: 0.7047608}
  scale: {x: 1, y: 1.0000001, z: 1.0000002}
  sector: 3_7
  id: 2746
  layer: 0
  tag: Untagged
  material: {fileID: 2100000, guid: 5a51e20b7f535704bb52b6d61701b959, type: 2}
