%YAML 1.1
%TAG !u! tag:unity3d.com,2011:
--- !u!114 &11400000
MonoBehaviour:
  m_ObjectHideFlags: 0
  m_CorrespondingSourceObject: {fileID: 0}
  m_PrefabInstance: {fileID: 0}
  m_PrefabAsset: {fileID: 0}
  m_GameObject: {fileID: 0}
  m_Enabled: 1
  m_EditorHideFlags: 0
  m_Script: {fileID: 11500000, guid: cf6258160aeff9c4ba54e7ad9c7ddf08, type: 3}
  m_Name: 2771
  m_EditorClassIdentifier: 
  originPrefabName: mushroomHouse_TypeA_low
  objectName: mushroomHouse_TypeA_low
  position: {x: 3495.1091, y: 111.75606, z: 3507.5703}
  rotation: {x: -0, y: -0.70645356, z: -0, w: 0.70775944}
  scale: {x: 0.6999999, y: 0.7, z: 0.6999999}
  sector: 6_7
  id: 2771
  layer: 0
  tag: Untagged
  material: {fileID: 2100000, guid: 7094a8dc3841e044aa04f9297515f918, type: 2}
