%YAML 1.1
%TAG !u! tag:unity3d.com,2011:
--- !u!114 &11400000
MonoBehaviour:
  m_ObjectHideFlags: 0
  m_CorrespondingSourceObject: {fileID: 0}
  m_PrefabInstance: {fileID: 0}
  m_PrefabAsset: {fileID: 0}
  m_GameObject: {fileID: 0}
  m_Enabled: 1
  m_EditorHideFlags: 0
  m_Script: {fileID: 11500000, guid: cf6258160aeff9c4ba54e7ad9c7ddf08, type: 3}
  m_Name: 2800
  m_EditorClassIdentifier: 
  originPrefabName: lamp01
  objectName: lamp01 (2)
  position: {x: 1522.0664, y: 782.4206, z: 3954.3887}
  rotation: {x: -0.279778, y: 0.6024826, z: 0.661727, w: 0.347644}
  scale: {x: 100.00001, y: 100, z: 100.00001}
  sector: 3_7
  id: 2800
  layer: 0
  tag: Untagged
  material: {fileID: 2100000, guid: e529903d19e66bb46a79ce41bd309a28, type: 2}
