%YAML 1.1
%TAG !u! tag:unity3d.com,2011:
--- !u!114 &11400000
MonoBehaviour:
  m_ObjectHideFlags: 0
  m_CorrespondingSourceObject: {fileID: 0}
  m_PrefabInstance: {fileID: 0}
  m_PrefabAsset: {fileID: 0}
  m_GameObject: {fileID: 0}
  m_Enabled: 1
  m_EditorHideFlags: 0
  m_Script: {fileID: 11500000, guid: cf6258160aeff9c4ba54e7ad9c7ddf08, type: 3}
  m_Name: 2801
  m_EditorClassIdentifier: 
  originPrefabName: Crystals (2)
  objectName: Crystals (51)
  position: {x: 1549.6573, y: 792.8, z: 3812.07}
  rotation: {x: 0.11790935, y: -0.34077772, z: 0.08575762, w: 0.92877}
  scale: {x: 2, y: 2.2000005, z: 2}
  sector: 3_7
  id: 2801
  layer: 0
  tag: Untagged
  material: {fileID: 2100000, guid: fe36741ede331ae408acac449eaf0149, type: 2}
