%YAML 1.1
%TAG !u! tag:unity3d.com,2011:
--- !u!114 &11400000
MonoBehaviour:
  m_ObjectHideFlags: 0
  m_CorrespondingSourceObject: {fileID: 0}
  m_PrefabInstance: {fileID: 0}
  m_PrefabAsset: {fileID: 0}
  m_GameObject: {fileID: 0}
  m_Enabled: 1
  m_EditorHideFlags: 0
  m_Script: {fileID: 11500000, guid: cf6258160aeff9c4ba54e7ad9c7ddf08, type: 3}
  m_Name: 2809
  m_EditorClassIdentifier: 
  originPrefabName: cliff_low 1
  objectName: cliff_low 1 (17)
  position: {x: 1466.8, y: 771.5, z: 3615.3}
  rotation: {x: -0, y: -0.9993621, z: -0, w: 0.035712037}
  scale: {x: 1.3000001, y: 0.5, z: 2.1999998}
  sector: 2_7
  id: 2809
  layer: 0
  tag: Untagged
  material: {fileID: 0}
