%YAML 1.1
%TAG !u! tag:unity3d.com,2011:
--- !u!114 &11400000
MonoBehaviour:
  m_ObjectHideFlags: 0
  m_CorrespondingSourceObject: {fileID: 0}
  m_PrefabInstance: {fileID: 0}
  m_PrefabAsset: {fileID: 0}
  m_GameObject: {fileID: 0}
  m_Enabled: 1
  m_EditorHideFlags: 0
  m_Script: {fileID: 11500000, guid: cf6258160aeff9c4ba54e7ad9c7ddf08, type: 3}
  m_Name: 2818
  m_EditorClassIdentifier: 
  originPrefabName: Crystals (2)
  objectName: Crystals (7)
  position: {x: 1459.76, y: 791.816, z: 3676.38}
  rotation: {x: 0.028487576, y: -0.0021504576, z: 0.11078101, w: 0.9934342}
  scale: {x: 0.99999994, y: 1.5000002, z: 1}
  sector: 2_7
  id: 2818
  layer: 0
  tag: Untagged
  material: {fileID: 2100000, guid: fe36741ede331ae408acac449eaf0149, type: 2}
