%YAML 1.1
%TAG !u! tag:unity3d.com,2011:
--- !u!114 &11400000
MonoBehaviour:
  m_ObjectHideFlags: 0
  m_CorrespondingSourceObject: {fileID: 0}
  m_PrefabInstance: {fileID: 0}
  m_PrefabAsset: {fileID: 0}
  m_GameObject: {fileID: 0}
  m_Enabled: 1
  m_EditorHideFlags: 0
  m_Script: {fileID: 11500000, guid: cf6258160aeff9c4ba54e7ad9c7ddf08, type: 3}
  m_Name: 283
  m_EditorClassIdentifier: 
  originPrefabName: Cabin_TypeD_low
  objectName: Cabin_TypeD_low (1)
  position: {x: 2644.9, y: 768.63, z: 3888.9}
  rotation: {x: -0.028408153, y: -0.7170838, z: -0.6953394, w: -0.038562037}
  scale: {x: 1.0000005, y: 1.0000002, z: 1.0000001}
  sector: 5_7
  id: 283
  layer: 0
  tag: Untagged
  material: {fileID: 2100000, guid: a093c1bca0a480a409fbe066a66a8f59, type: 2}
