%YAML 1.1
%TAG !u! tag:unity3d.com,2011:
--- !u!114 &11400000
MonoBehaviour:
  m_ObjectHideFlags: 0
  m_CorrespondingSourceObject: {fileID: 0}
  m_PrefabInstance: {fileID: 0}
  m_PrefabAsset: {fileID: 0}
  m_GameObject: {fileID: 0}
  m_Enabled: 1
  m_EditorHideFlags: 0
  m_Script: {fileID: 11500000, guid: cf6258160aeff9c4ba54e7ad9c7ddf08, type: 3}
  m_Name: 2843
  m_EditorClassIdentifier: 
  originPrefabName: building4_low2
  objectName: building4_low2 (7)
  position: {x: 605.39, y: 14.97, z: 380.36}
  rotation: {x: -0, y: 0.61760163, z: -0, w: 0.7864911}
  scale: {x: 1, y: 1, z: 1}
  sector: 1_0
  id: 2843
  layer: 0
  tag: Untagged
  material: {fileID: 2100000, guid: 0e3519e58b58f7346ac4fa4fb7bcfffa, type: 2}
