%YAML 1.1
%TAG !u! tag:unity3d.com,2011:
--- !u!114 &11400000
MonoBehaviour:
  m_ObjectHideFlags: 0
  m_CorrespondingSourceObject: {fileID: 0}
  m_PrefabInstance: {fileID: 0}
  m_PrefabAsset: {fileID: 0}
  m_GameObject: {fileID: 0}
  m_Enabled: 1
  m_EditorHideFlags: 0
  m_Script: {fileID: 11500000, guid: cf6258160aeff9c4ba54e7ad9c7ddf08, type: 3}
  m_Name: 2869
  m_EditorClassIdentifier: 
  originPrefabName: stool
  objectName: stool (10)
  position: {x: 3280.2522, y: 25.923313, z: 317.87024}
  rotation: {x: 0.0068020388, y: 0.28617817, z: 0.025012178, w: 0.95782584}
  scale: {x: 0.6, y: 0.6, z: 0.6}
  sector: 6_0
  id: 2869
  layer: 0
  tag: Untagged
  material: {fileID: 2100000, guid: 9c9003e8bda32a44abf7207b5cda9f8c, type: 2}
