%YAML 1.1
%TAG !u! tag:unity3d.com,2011:
--- !u!114 &11400000
MonoBehaviour:
  m_ObjectHideFlags: 0
  m_CorrespondingSourceObject: {fileID: 0}
  m_PrefabInstance: {fileID: 0}
  m_PrefabAsset: {fileID: 0}
  m_GameObject: {fileID: 0}
  m_Enabled: 1
  m_EditorHideFlags: 0
  m_Script: {fileID: 11500000, guid: cf6258160aeff9c4ba54e7ad9c7ddf08, type: 3}
  m_Name: 2946
  m_EditorClassIdentifier: 
  originPrefabName: lamp01
  objectName: lamp01 (1)
  position: {x: 1520.4493, y: 786.47, z: 3921.1626}
  rotation: {x: -0.4862395, y: 0.4862395, z: 0.51339185, w: 0.51339185}
  scale: {x: 100.000015, y: 100.00003, z: 100.000015}
  sector: 3_7
  id: 2946
  layer: 0
  tag: Untagged
  material: {fileID: 2100000, guid: e529903d19e66bb46a79ce41bd309a28, type: 2}
