%YAML 1.1
%TAG !u! tag:unity3d.com,2011:
--- !u!114 &11400000
MonoBehaviour:
  m_ObjectHideFlags: 0
  m_CorrespondingSourceObject: {fileID: 0}
  m_PrefabInstance: {fileID: 0}
  m_PrefabAsset: {fileID: 0}
  m_GameObject: {fileID: 0}
  m_Enabled: 1
  m_EditorHideFlags: 0
  m_Script: {fileID: 11500000, guid: cf6258160aeff9c4ba54e7ad9c7ddf08, type: 3}
  m_Name: 2989
  m_EditorClassIdentifier: 
  originPrefabName: Fence Post
  objectName: Fence Post (1)
  position: {x: 1459.198, y: 794.0684, z: 3722.0574}
  rotation: {x: 0.000000021855694, y: -0, z: -0, w: 1}
  scale: {x: 100, y: 100, z: 100}
  sector: 2_7
  id: 2989
  layer: 0
  tag: Untagged
  material: {fileID: 2100000, guid: c1154d3e840764be7ac4a3cf55913826, type: 2}
