%YAML 1.1
%TAG !u! tag:unity3d.com,2011:
--- !u!114 &11400000
MonoBehaviour:
  m_ObjectHideFlags: 0
  m_CorrespondingSourceObject: {fileID: 0}
  m_PrefabInstance: {fileID: 0}
  m_PrefabAsset: {fileID: 0}
  m_GameObject: {fileID: 0}
  m_Enabled: 1
  m_EditorHideFlags: 0
  m_Script: {fileID: 11500000, guid: cf6258160aeff9c4ba54e7ad9c7ddf08, type: 3}
  m_Name: 3013
  m_EditorClassIdentifier: 
  originPrefabName: Crystals (1)
  objectName: Crystals (11)
  position: {x: 3620.29, y: 62.719997, z: 328.42004}
  rotation: {x: -0.07245558, y: 0.8269804, z: -0.029520364, w: -0.55676043}
  scale: {x: 12.918407, y: 10.134467, z: 17.94004}
  sector: 7_0
  id: 3013
  layer: 0
  tag: Untagged
  material: {fileID: 2100000, guid: 84a7dfcbe1f4aad4d9577290f0c4706d, type: 2}
