%YAML 1.1
%TAG !u! tag:unity3d.com,2011:
--- !u!114 &11400000
MonoBehaviour:
  m_ObjectHideFlags: 0
  m_CorrespondingSourceObject: {fileID: 0}
  m_PrefabInstance: {fileID: 0}
  m_PrefabAsset: {fileID: 0}
  m_GameObject: {fileID: 0}
  m_Enabled: 1
  m_EditorHideFlags: 0
  m_Script: {fileID: 11500000, guid: cf6258160aeff9c4ba54e7ad9c7ddf08, type: 3}
  m_Name: 3023
  m_EditorClassIdentifier: 
  originPrefabName: Crystals (3)
  objectName: Crystals (5)
  position: {x: 534.4, y: 16.85, z: 514.26}
  rotation: {x: -0, y: 0.502715, z: -0, w: 0.86445224}
  scale: {x: 15.906002, y: 15.906, z: 15.906002}
  sector: 1_1
  id: 3023
  layer: 0
  tag: Untagged
  material: {fileID: 2100000, guid: 84b56cef1adff5f43a0a71dbf93822b7, type: 2}
