%YAML 1.1
%TAG !u! tag:unity3d.com,2011:
--- !u!114 &11400000
MonoBehaviour:
  m_ObjectHideFlags: 0
  m_CorrespondingSourceObject: {fileID: 0}
  m_PrefabInstance: {fileID: 0}
  m_PrefabAsset: {fileID: 0}
  m_GameObject: {fileID: 0}
  m_Enabled: 1
  m_EditorHideFlags: 0
  m_Script: {fileID: 11500000, guid: cf6258160aeff9c4ba54e7ad9c7ddf08, type: 3}
  m_Name: 3028
  m_EditorClassIdentifier: 
  originPrefabName: lamp01
  objectName: lamp01 (5)
  position: {x: 1463.8132, y: 792.39996, z: 3671.7998}
  rotation: {x: -0.5264151, y: 0.47210926, z: 0.5264151, w: 0.47210926}
  scale: {x: 100, y: 100.00001, z: 100.00001}
  sector: 2_7
  id: 3028
  layer: 0
  tag: Untagged
  material: {fileID: 2100000, guid: e529903d19e66bb46a79ce41bd309a28, type: 2}
