%YAML 1.1
%TAG !u! tag:unity3d.com,2011:
--- !u!114 &11400000
MonoBehaviour:
  m_ObjectHideFlags: 0
  m_CorrespondingSourceObject: {fileID: 0}
  m_PrefabInstance: {fileID: 0}
  m_PrefabAsset: {fileID: 0}
  m_GameObject: {fileID: 0}
  m_Enabled: 1
  m_EditorHideFlags: 0
  m_Script: {fileID: 11500000, guid: cf6258160aeff9c4ba54e7ad9c7ddf08, type: 3}
  m_Name: 3035
  m_EditorClassIdentifier: 
  originPrefabName: cliff_low
  objectName: cliff_low (10)
  position: {x: 1511.3356, y: 783, z: 3903.5}
  rotation: {x: -0, y: -0.9419473, z: -0, w: 0.3357608}
  scale: {x: 0.5, y: 0.5, z: 0.6}
  sector: 3_7
  id: 3035
  layer: 0
  tag: Untagged
  material: {fileID: 0}
