%YAML 1.1
%TAG !u! tag:unity3d.com,2011:
--- !u!114 &11400000
MonoBehaviour:
  m_ObjectHideFlags: 0
  m_CorrespondingSourceObject: {fileID: 0}
  m_PrefabInstance: {fileID: 0}
  m_PrefabAsset: {fileID: 0}
  m_GameObject: {fileID: 0}
  m_Enabled: 1
  m_EditorHideFlags: 0
  m_Script: {fileID: 11500000, guid: cf6258160aeff9c4ba54e7ad9c7ddf08, type: 3}
  m_Name: 3036
  m_EditorClassIdentifier: 
  originPrefabName: SmallCrystal_low (2)
  objectName: SmallCrystal_low (24)
  position: {x: 1590.9248, y: 774.7647, z: 3992.1382}
  rotation: {x: -0.38470852, y: -0.9193795, z: -0.0759752, w: 0.031121083}
  scale: {x: 1, y: 1, z: 1}
  sector: 3_7
  id: 3036
  layer: 0
  tag: Untagged
  material: {fileID: 2100000, guid: fe36741ede331ae408acac449eaf0149, type: 2}
