%YAML 1.1
%TAG !u! tag:unity3d.com,2011:
--- !u!114 &11400000
MonoBehaviour:
  m_ObjectHideFlags: 0
  m_CorrespondingSourceObject: {fileID: 0}
  m_PrefabInstance: {fileID: 0}
  m_PrefabAsset: {fileID: 0}
  m_GameObject: {fileID: 0}
  m_Enabled: 1
  m_EditorHideFlags: 0
  m_Script: {fileID: 11500000, guid: cf6258160aeff9c4ba54e7ad9c7ddf08, type: 3}
  m_Name: 3080
  m_EditorClassIdentifier: 
  originPrefabName: PF_RegTree_4
  objectName: PF_RegTree_4 (6)
  position: {x: 213.01881, y: 14.89, z: 175.82639}
  rotation: {x: -0, y: -0.6353074, z: -0, w: 0.7722594}
  scale: {x: 1.0000001, y: 1, z: 1.0000001}
  sector: 0_0
  id: 3080
  layer: 8
  tag: Untagged
  material: {fileID: 0}
