%YAML 1.1
%TAG !u! tag:unity3d.com,2011:
--- !u!114 &11400000
MonoBehaviour:
  m_ObjectHideFlags: 0
  m_CorrespondingSourceObject: {fileID: 0}
  m_PrefabInstance: {fileID: 0}
  m_PrefabAsset: {fileID: 0}
  m_GameObject: {fileID: 0}
  m_Enabled: 1
  m_EditorHideFlags: 0
  m_Script: {fileID: 11500000, guid: cf6258160aeff9c4ba54e7ad9c7ddf08, type: 3}
  m_Name: 3174
  m_EditorClassIdentifier: 
  originPrefabName: Table01v2
  objectName: Table01v2 (2)
  position: {x: 3281.8672, y: 25.890089, z: 319.19086}
  rotation: {x: 0.008033635, y: 0.15118091, z: 0.025948657, w: 0.98813283}
  scale: {x: 2.4438999, y: 1, z: 2.3670015}
  sector: 6_0
  id: 3174
  layer: 0
  tag: Untagged
  material: {fileID: 2100000, guid: 4d47e1a3163646541bbe77c7ce6d4899, type: 2}
