%YAML 1.1
%TAG !u! tag:unity3d.com,2011:
--- !u!114 &11400000
MonoBehaviour:
  m_ObjectHideFlags: 0
  m_CorrespondingSourceObject: {fileID: 0}
  m_PrefabInstance: {fileID: 0}
  m_PrefabAsset: {fileID: 0}
  m_GameObject: {fileID: 0}
  m_Enabled: 1
  m_EditorHideFlags: 0
  m_Script: {fileID: 11500000, guid: cf6258160aeff9c4ba54e7ad9c7ddf08, type: 3}
  m_Name: 3203
  m_EditorClassIdentifier: 
  originPrefabName: MiddleRock_ver2
  objectName: MiddleRock_ver2 (2)
  position: {x: 3515.7, y: 26.842, z: 1128.8368}
  rotation: {x: -0, y: -0, z: -0, w: 1}
  scale: {x: 4.6568, y: 4.6568, z: 4.6568}
  sector: 7_2
  id: 3203
  layer: 0
  tag: Untagged
  material: {fileID: 2100000, guid: 24a786fcc332a4f47ae8a94a6a654c1c, type: 2}
