%YAML 1.1
%TAG !u! tag:unity3d.com,2011:
--- !u!114 &11400000
MonoBehaviour:
  m_ObjectHideFlags: 0
  m_CorrespondingSourceObject: {fileID: 0}
  m_PrefabInstance: {fileID: 0}
  m_PrefabAsset: {fileID: 0}
  m_GameObject: {fileID: 0}
  m_Enabled: 1
  m_EditorHideFlags: 0
  m_Script: {fileID: 11500000, guid: cf6258160aeff9c4ba54e7ad9c7ddf08, type: 3}
  m_Name: 326
  m_EditorClassIdentifier: 
  originPrefabName: Shard (1)
  objectName: Shard (1)
  position: {x: 1418.1052, y: 786.36, z: 3664.6265}
  rotation: {x: -0.10294768, y: -0.009264681, z: 0.08915173, w: 0.99064016}
  scale: {x: 150.00005, y: 150, z: 150.00002}
  sector: 2_7
  id: 326
  layer: 0
  tag: Untagged
  material: {fileID: 2100000, guid: fe36741ede331ae408acac449eaf0149, type: 2}
