%YAML 1.1
%TAG !u! tag:unity3d.com,2011:
--- !u!114 &11400000
MonoBehaviour:
  m_ObjectHideFlags: 0
  m_CorrespondingSourceObject: {fileID: 0}
  m_PrefabInstance: {fileID: 0}
  m_PrefabAsset: {fileID: 0}
  m_GameObject: {fileID: 0}
  m_Enabled: 1
  m_EditorHideFlags: 0
  m_Script: {fileID: 11500000, guid: cf6258160aeff9c4ba54e7ad9c7ddf08, type: 3}
  m_Name: 3271
  m_EditorClassIdentifier: 
  originPrefabName: Top_low
  objectName: Top_low
  position: {x: 3143.265, y: 96.19554, z: 61.175934}
  rotation: {x: 0.0022529196, y: 0.7250432, z: -0.0021399797, w: 0.68869644}
  scale: {x: 1.0000001, y: 1, z: 1.0000001}
  sector: 6_0
  id: 3271
  layer: 0
  tag: Untagged
  material: {fileID: 2100000, guid: c5344f5ddc4e8274a876bfbdb2cf7014, type: 2}
