%YAML 1.1
%TAG !u! tag:unity3d.com,2011:
--- !u!114 &11400000
MonoBehaviour:
  m_ObjectHideFlags: 0
  m_CorrespondingSourceObject: {fileID: 0}
  m_PrefabInstance: {fileID: 0}
  m_PrefabAsset: {fileID: 0}
  m_GameObject: {fileID: 0}
  m_Enabled: 1
  m_EditorHideFlags: 0
  m_Script: {fileID: 11500000, guid: cf6258160aeff9c4ba54e7ad9c7ddf08, type: 3}
  m_Name: 3290
  m_EditorClassIdentifier: 
  originPrefabName: PF_HexTerrain_LargeRock_2
  objectName: PF_HexTerrain_LargeRock_2 (1)
  position: {x: 606.28, y: 57.63, z: 1526.8}
  rotation: {x: -0, y: -0, z: -0, w: 1}
  scale: {x: 4.6693, y: 4.6693, z: 4.6693}
  sector: 1_3
  id: 3290
  layer: 0
  tag: Untagged
  material: {fileID: 0}
