%YAML 1.1
%TAG !u! tag:unity3d.com,2011:
--- !u!114 &11400000
MonoBehaviour:
  m_ObjectHideFlags: 0
  m_CorrespondingSourceObject: {fileID: 0}
  m_PrefabInstance: {fileID: 0}
  m_PrefabAsset: {fileID: 0}
  m_GameObject: {fileID: 0}
  m_Enabled: 1
  m_EditorHideFlags: 0
  m_Script: {fileID: 11500000, guid: cf6258160aeff9c4ba54e7ad9c7ddf08, type: 3}
  m_Name: 3305
  m_EditorClassIdentifier: 
  originPrefabName: Cabin_TypeB_low
  objectName: Cabin_TypeB_low
  position: {x: 1428.296, y: 796.05, z: 3615.969}
  rotation: {x: -0.5000007, y: 0.4999993, z: 0.4999993, w: 0.5000007}
  scale: {x: 1, y: 1, z: 1}
  sector: 2_7
  id: 3305
  layer: 0
  tag: Untagged
  material: {fileID: 2100000, guid: 1d9c79d2b69e1724faa9b27e55804864, type: 2}
