%YAML 1.1
%TAG !u! tag:unity3d.com,2011:
--- !u!114 &11400000
MonoBehaviour:
  m_ObjectHideFlags: 0
  m_CorrespondingSourceObject: {fileID: 0}
  m_PrefabInstance: {fileID: 0}
  m_PrefabAsset: {fileID: 0}
  m_GameObject: {fileID: 0}
  m_Enabled: 1
  m_EditorHideFlags: 0
  m_Script: {fileID: 11500000, guid: cf6258160aeff9c4ba54e7ad9c7ddf08, type: 3}
  m_Name: 3344
  m_EditorClassIdentifier: 
  originPrefabName: PF_Mushroom_Large2
  objectName: PF_Mushroom_Large2 (1)
  position: {x: 612.28, y: 57.71, z: 1533.687}
  rotation: {x: -0, y: -0, z: -0, w: 1}
  scale: {x: 9.9593, y: 9.9593, z: 9.9593}
  sector: 1_3
  id: 3344
  layer: 0
  tag: Untagged
  material: {fileID: 0}
