%YAML 1.1
%TAG !u! tag:unity3d.com,2011:
--- !u!114 &11400000
MonoBehaviour:
  m_ObjectHideFlags: 0
  m_CorrespondingSourceObject: {fileID: 0}
  m_PrefabInstance: {fileID: 0}
  m_PrefabAsset: {fileID: 0}
  m_GameObject: {fileID: 0}
  m_Enabled: 1
  m_EditorHideFlags: 0
  m_Script: {fileID: 11500000, guid: cf6258160aeff9c4ba54e7ad9c7ddf08, type: 3}
  m_Name: 335
  m_EditorClassIdentifier: 
  originPrefabName: lamp5
  objectName: lamp5 (1)
  position: {x: 3558.12, y: 113.75, z: 3389.92}
  rotation: {x: -0, y: -0.9264085, z: -0, w: -0.3765199}
  scale: {x: 199.99997, y: 200, z: 199.99997}
  sector: 7_6
  id: 335
  layer: 0
  tag: Untagged
  material: {fileID: 2100000, guid: 1e25a9f1e2cdeee49a3489ecee88d8cd, type: 2}
