%YAML 1.1
%TAG !u! tag:unity3d.com,2011:
--- !u!114 &11400000
MonoBehaviour:
  m_ObjectHideFlags: 0
  m_CorrespondingSourceObject: {fileID: 0}
  m_PrefabInstance: {fileID: 0}
  m_PrefabAsset: {fileID: 0}
  m_GameObject: {fileID: 0}
  m_Enabled: 1
  m_EditorHideFlags: 0
  m_Script: {fileID: 11500000, guid: cf6258160aeff9c4ba54e7ad9c7ddf08, type: 3}
  m_Name: 3380
  m_EditorClassIdentifier: 
  originPrefabName: BigRock_ver2
  objectName: BigRock_ver2 (1)
  position: {x: 3770.436, y: 26.919983, z: 1156.3314}
  rotation: {x: -0, y: -0, z: -0, w: 1}
  scale: {x: 1, y: 1, z: 1}
  sector: 7_2
  id: 3380
  layer: 0
  tag: Untagged
  material: {fileID: 2100000, guid: 8e8a096c216d6484a8a2558f8daf1865, type: 2}
