%YAML 1.1
%TAG !u! tag:unity3d.com,2011:
--- !u!114 &11400000
MonoBehaviour:
  m_ObjectHideFlags: 0
  m_CorrespondingSourceObject: {fileID: 0}
  m_PrefabInstance: {fileID: 0}
  m_PrefabAsset: {fileID: 0}
  m_GameObject: {fileID: 0}
  m_Enabled: 1
  m_EditorHideFlags: 0
  m_Script: {fileID: 11500000, guid: cf6258160aeff9c4ba54e7ad9c7ddf08, type: 3}
  m_Name: 3388
  m_EditorClassIdentifier: 
  originPrefabName: WoodenCrate_02
  objectName: WoodenCrate_02
  position: {x: 1487.5961, y: 793.50995, z: 3694.1572}
  rotation: {x: -0.66798645, y: -0.026311254, z: 0.029271148, w: 0.74313194}
  scale: {x: 0.99999994, y: 1, z: 1.0000001}
  sector: 2_7
  id: 3388
  layer: 0
  tag: Untagged
  material: {fileID: 2100000, guid: e49411fb77172764ba3123f1c7dc8d54, type: 2}
