%YAML 1.1
%TAG !u! tag:unity3d.com,2011:
--- !u!114 &11400000
MonoBehaviour:
  m_ObjectHideFlags: 0
  m_CorrespondingSourceObject: {fileID: 0}
  m_PrefabInstance: {fileID: 0}
  m_PrefabAsset: {fileID: 0}
  m_GameObject: {fileID: 0}
  m_Enabled: 1
  m_EditorHideFlags: 0
  m_Script: {fileID: 11500000, guid: cf6258160aeff9c4ba54e7ad9c7ddf08, type: 3}
  m_Name: 3403
  m_EditorClassIdentifier: 
  originPrefabName: cliff_low 1
  objectName: cliff_low 1 (31)
  position: {x: 1613.3596, y: 770.46387, z: 3950.8264}
  rotation: {x: -0.007431335, y: -0.51043236, z: 0.052789368, w: -0.8582639}
  scale: {x: 0.7, y: 0.3, z: 0.80000013}
  sector: 3_7
  id: 3403
  layer: 0
  tag: Untagged
  material: {fileID: 0}
