%YAML 1.1
%TAG !u! tag:unity3d.com,2011:
--- !u!114 &11400000
MonoBehaviour:
  m_ObjectHideFlags: 0
  m_CorrespondingSourceObject: {fileID: 0}
  m_PrefabInstance: {fileID: 0}
  m_PrefabAsset: {fileID: 0}
  m_GameObject: {fileID: 0}
  m_Enabled: 1
  m_EditorHideFlags: 0
  m_Script: {fileID: 11500000, guid: cf6258160aeff9c4ba54e7ad9c7ddf08, type: 3}
  m_Name: 3419
  m_EditorClassIdentifier: 
  originPrefabName: Cabin_TypeB_low
  objectName: Cabin_TypeB_low (6)
  position: {x: 2854.27, y: 759.56, z: 3849.64}
  rotation: {x: -0.2501944, y: -0.6432953, z: -0.6842896, w: 0.23520572}
  scale: {x: 1, y: 1, z: 1.0000001}
  sector: 5_7
  id: 3419
  layer: 0
  tag: Untagged
  material: {fileID: 2100000, guid: c8fa1a7508e228c4b8f60b79b5656797, type: 2}
