%YAML 1.1
%TAG !u! tag:unity3d.com,2011:
--- !u!114 &11400000
MonoBehaviour:
  m_ObjectHideFlags: 0
  m_CorrespondingSourceObject: {fileID: 0}
  m_PrefabInstance: {fileID: 0}
  m_PrefabAsset: {fileID: 0}
  m_GameObject: {fileID: 0}
  m_Enabled: 1
  m_EditorHideFlags: 0
  m_Script: {fileID: 11500000, guid: cf6258160aeff9c4ba54e7ad9c7ddf08, type: 3}
  m_Name: 3491
  m_EditorClassIdentifier: 
  originPrefabName: WoodenCrate_01
  objectName: WoodenCrate_01 (5)
  position: {x: 1465.0916, y: 793.7951, z: 3668.9055}
  rotation: {x: -0.0035346593, y: 0.0672506, z: 0.052367948, w: 0.99635464}
  scale: {x: 1, y: 1, z: 0.99999994}
  sector: 2_7
  id: 3491
  layer: 0
  tag: Untagged
  material: {fileID: 2100000, guid: 474f30d526a7a2d4eb888a2bdb878880, type: 2}
