%YAML 1.1
%TAG !u! tag:unity3d.com,2011:
--- !u!114 &11400000
MonoBehaviour:
  m_ObjectHideFlags: 0
  m_CorrespondingSourceObject: {fileID: 0}
  m_PrefabInstance: {fileID: 0}
  m_PrefabAsset: {fileID: 0}
  m_GameObject: {fileID: 0}
  m_Enabled: 1
  m_EditorHideFlags: 0
  m_Script: {fileID: 11500000, guid: cf6258160aeff9c4ba54e7ad9c7ddf08, type: 3}
  m_Name: 351
  m_EditorClassIdentifier: 
  originPrefabName: PF_WoodenBridge_Broken
  objectName: PF_WoodenBridge_Broken (6)
  position: {x: 534.21857, y: 25.416, z: 1639.6555}
  rotation: {x: -0, y: 0.9998241, z: -0, w: -0.018755225}
  scale: {x: 4.5160007, y: 4.516, z: 4.5160007}
  sector: 1_3
  id: 351
  layer: 8
  tag: Untagged
  material: {fileID: 0}
