%YAML 1.1
%TAG !u! tag:unity3d.com,2011:
--- !u!114 &11400000
MonoBehaviour:
  m_ObjectHideFlags: 0
  m_CorrespondingSourceObject: {fileID: 0}
  m_PrefabInstance: {fileID: 0}
  m_PrefabAsset: {fileID: 0}
  m_GameObject: {fileID: 0}
  m_Enabled: 1
  m_EditorHideFlags: 0
  m_Script: {fileID: 11500000, guid: cf6258160aeff9c4ba54e7ad9c7ddf08, type: 3}
  m_Name: 3518
  m_EditorClassIdentifier: 
  originPrefabName: Shard (1)
  objectName: Shard (2)
  position: {x: 1479.1515, y: 789.39, z: 3864.39}
  rotation: {x: -0.035660233, y: -0.28819144, z: 0.010740441, w: 0.9568483}
  scale: {x: 1000, y: 800, z: 1000.00006}
  sector: 2_7
  id: 3518
  layer: 0
  tag: Untagged
  material: {fileID: 2100000, guid: fe36741ede331ae408acac449eaf0149, type: 2}
