%YAML 1.1
%TAG !u! tag:unity3d.com,2011:
--- !u!114 &11400000
MonoBehaviour:
  m_ObjectHideFlags: 0
  m_CorrespondingSourceObject: {fileID: 0}
  m_PrefabInstance: {fileID: 0}
  m_PrefabAsset: {fileID: 0}
  m_GameObject: {fileID: 0}
  m_Enabled: 1
  m_EditorHideFlags: 0
  m_Script: {fileID: 11500000, guid: cf6258160aeff9c4ba54e7ad9c7ddf08, type: 3}
  m_Name: 3520
  m_EditorClassIdentifier: 
  originPrefabName: table
  objectName: table (7)
  position: {x: 3323.5762, y: 30.261768, z: 250.76}
  rotation: {x: -0.005047518, y: 0.21582073, z: 0.022829825, w: 0.9761531}
  scale: {x: 0.39999998, y: 0.40000013, z: 0.4}
  sector: 6_0
  id: 3520
  layer: 0
  tag: Untagged
  material: {fileID: 2100000, guid: 9c9003e8bda32a44abf7207b5cda9f8c, type: 2}
