%YAML 1.1
%TAG !u! tag:unity3d.com,2011:
--- !u!114 &11400000
MonoBehaviour:
  m_ObjectHideFlags: 0
  m_CorrespondingSourceObject: {fileID: 0}
  m_PrefabInstance: {fileID: 0}
  m_PrefabAsset: {fileID: 0}
  m_GameObject: {fileID: 0}
  m_Enabled: 1
  m_EditorHideFlags: 0
  m_Script: {fileID: 11500000, guid: cf6258160aeff9c4ba54e7ad9c7ddf08, type: 3}
  m_Name: 3532
  m_EditorClassIdentifier: 
  originPrefabName: Barrel
  objectName: Barrel
  position: {x: 3385.1511, y: 40.71103, z: 360.45544}
  rotation: {x: -0.0030547788, y: -0.7328456, z: -0.00069270877, w: -0.68038785}
  scale: {x: 15.000004, y: 15.000001, z: 15.000005}
  sector: 6_0
  id: 3532
  layer: 0
  tag: Untagged
  material: {fileID: 2100000, guid: 73f2163ce4795bf4d8b9cd8250baed12, type: 2}
