%YAML 1.1
%TAG !u! tag:unity3d.com,2011:
--- !u!114 &11400000
MonoBehaviour:
  m_ObjectHideFlags: 0
  m_CorrespondingSourceObject: {fileID: 0}
  m_PrefabInstance: {fileID: 0}
  m_PrefabAsset: {fileID: 0}
  m_GameObject: {fileID: 0}
  m_Enabled: 1
  m_EditorHideFlags: 0
  m_Script: {fileID: 11500000, guid: cf6258160aeff9c4ba54e7ad9c7ddf08, type: 3}
  m_Name: 3542
  m_EditorClassIdentifier: 
  originPrefabName: PF_RegTree_1
  objectName: PF_RegTree_1
  position: {x: 1405.8416, y: 786.7702, z: 3713.978}
  rotation: {x: -0.024781052, y: -0.0005928884, z: 0.02391088, w: 0.99940675}
  scale: {x: 1, y: 1, z: 0.99999994}
  sector: 2_7
  id: 3542
  layer: 8
  tag: Untagged
  material: {fileID: 0}
