%YAML 1.1
%TAG !u! tag:unity3d.com,2011:
--- !u!114 &11400000
MonoBehaviour:
  m_ObjectHideFlags: 0
  m_CorrespondingSourceObject: {fileID: 0}
  m_PrefabInstance: {fileID: 0}
  m_PrefabAsset: {fileID: 0}
  m_GameObject: {fileID: 0}
  m_Enabled: 1
  m_EditorHideFlags: 0
  m_Script: {fileID: 11500000, guid: cf6258160aeff9c4ba54e7ad9c7ddf08, type: 3}
  m_Name: 3604
  m_EditorClassIdentifier: 
  originPrefabName: Board
  objectName: Board (2)
  position: {x: 252.186, y: 15.001, z: 218.221}
  rotation: {x: -0, y: 0.09029243, z: -0, w: 0.9959153}
  scale: {x: 1, y: 1, z: 1}
  sector: 0_0
  id: 3604
  layer: 0
  tag: Untagged
  material: {fileID: 2100000, guid: b7bab55e5f5da04428fc05a9271575a9, type: 2}
