%YAML 1.1
%TAG !u! tag:unity3d.com,2011:
--- !u!114 &11400000
MonoBehaviour:
  m_ObjectHideFlags: 0
  m_CorrespondingSourceObject: {fileID: 0}
  m_PrefabInstance: {fileID: 0}
  m_PrefabAsset: {fileID: 0}
  m_GameObject: {fileID: 0}
  m_Enabled: 1
  m_EditorHideFlags: 0
  m_Script: {fileID: 11500000, guid: cf6258160aeff9c4ba54e7ad9c7ddf08, type: 3}
  m_Name: 3630
  m_EditorClassIdentifier: 
  originPrefabName: PF_RegTree_2
  objectName: PF_RegTree_2 (1)
  position: {x: 3688.01, y: 111.11, z: 3596.2}
  rotation: {x: -0, y: -0, z: -0, w: 1}
  scale: {x: 2.1714, y: 2.1714, z: 2.1714}
  sector: 7_7
  id: 3630
  layer: 8
  tag: Untagged
  material: {fileID: 0}
