%YAML 1.1
%TAG !u! tag:unity3d.com,2011:
--- !u!114 &11400000
MonoBehaviour:
  m_ObjectHideFlags: 0
  m_CorrespondingSourceObject: {fileID: 0}
  m_PrefabInstance: {fileID: 0}
  m_PrefabAsset: {fileID: 0}
  m_GameObject: {fileID: 0}
  m_Enabled: 1
  m_EditorHideFlags: 0
  m_Script: {fileID: 11500000, guid: cf6258160aeff9c4ba54e7ad9c7ddf08, type: 3}
  m_Name: 3671
  m_EditorClassIdentifier: 
  originPrefabName: Shard (1)
  objectName: Shard (37)
  position: {x: 1594.8, y: 775.39996, z: 3976.1}
  rotation: {x: 0.07302567, y: -0.73063374, z: 0.06751391, w: 0.6754877}
  scale: {x: 600.00024, y: 599.99994, z: 600.0001}
  sector: 3_7
  id: 3671
  layer: 0
  tag: Untagged
  material: {fileID: 2100000, guid: fe36741ede331ae408acac449eaf0149, type: 2}
