%YAML 1.1
%TAG !u! tag:unity3d.com,2011:
--- !u!114 &11400000
MonoBehaviour:
  m_ObjectHideFlags: 0
  m_CorrespondingSourceObject: {fileID: 0}
  m_PrefabInstance: {fileID: 0}
  m_PrefabAsset: {fileID: 0}
  m_GameObject: {fileID: 0}
  m_Enabled: 1
  m_EditorHideFlags: 0
  m_Script: {fileID: 11500000, guid: cf6258160aeff9c4ba54e7ad9c7ddf08, type: 3}
  m_Name: 3686
  m_EditorClassIdentifier: 
  originPrefabName: PF_RegTree_3
  objectName: PF_RegTree_3
  position: {x: 3883.9, y: 128.2, z: 2285.7}
  rotation: {x: -0, y: -0, z: -0, w: 1}
  scale: {x: 8.2188, y: 8.2188, z: 8.2188}
  sector: 7_4
  id: 3686
  layer: 8
  tag: Untagged
  material: {fileID: 0}
