%YAML 1.1
%TAG !u! tag:unity3d.com,2011:
--- !u!114 &11400000
MonoBehaviour:
  m_ObjectHideFlags: 0
  m_CorrespondingSourceObject: {fileID: 0}
  m_PrefabInstance: {fileID: 0}
  m_PrefabAsset: {fileID: 0}
  m_GameObject: {fileID: 0}
  m_Enabled: 1
  m_EditorHideFlags: 0
  m_Script: {fileID: 11500000, guid: cf6258160aeff9c4ba54e7ad9c7ddf08, type: 3}
  m_Name: 3687
  m_EditorClassIdentifier: 
  originPrefabName: Shard (1)
  objectName: Shard (7)
  position: {x: 1509.21, y: 795.4799, z: 3686.15}
  rotation: {x: 0.22033164, y: -0.67906284, z: 0.06628473, w: 0.6970897}
  scale: {x: 200.00003, y: 200.00003, z: 200.00002}
  sector: 3_7
  id: 3687
  layer: 0
  tag: Untagged
  material: {fileID: 2100000, guid: fe36741ede331ae408acac449eaf0149, type: 2}
