%YAML 1.1
%TAG !u! tag:unity3d.com,2011:
--- !u!114 &11400000
MonoBehaviour:
  m_ObjectHideFlags: 0
  m_CorrespondingSourceObject: {fileID: 0}
  m_PrefabInstance: {fileID: 0}
  m_PrefabAsset: {fileID: 0}
  m_GameObject: {fileID: 0}
  m_Enabled: 1
  m_EditorHideFlags: 0
  m_Script: {fileID: 11500000, guid: cf6258160aeff9c4ba54e7ad9c7ddf08, type: 3}
  m_Name: 37
  m_EditorClassIdentifier: 
  originPrefabName: cliff_low 1
  objectName: cliff_low 1 (1)
  position: {x: 936.8, y: 21, z: 1383}
  rotation: {x: -0, y: -0.4723155, z: -0, w: 0.8814296}
  scale: {x: 2.4076002, y: 1.2038, z: 1.4445603}
  sector: 1_2
  id: 37
  layer: 0
  tag: Untagged
  material: {fileID: 0}
