%YAML 1.1
%TAG !u! tag:unity3d.com,2011:
--- !u!114 &11400000
MonoBehaviour:
  m_ObjectHideFlags: 0
  m_CorrespondingSourceObject: {fileID: 0}
  m_PrefabInstance: {fileID: 0}
  m_PrefabAsset: {fileID: 0}
  m_GameObject: {fileID: 0}
  m_Enabled: 1
  m_EditorHideFlags: 0
  m_Script: {fileID: 11500000, guid: cf6258160aeff9c4ba54e7ad9c7ddf08, type: 3}
  m_Name: 3747
  m_EditorClassIdentifier: 
  originPrefabName: button_Bottom
  objectName: button_Bottom
  position: {x: 3831.7908, y: 20.318077, z: 4403.183}
  rotation: {x: -0.7071068, y: -0, z: -0, w: 0.7071068}
  scale: {x: 2, y: 2.0000005, z: 2.0000005}
  sector: 7_8
  id: 3747
  layer: 0
  tag: Untagged
  material: {fileID: 2100000, guid: e1c3918457918f14d80998e74debd462, type: 2}
