%YAML 1.1
%TAG !u! tag:unity3d.com,2011:
--- !u!114 &11400000
MonoBehaviour:
  m_ObjectHideFlags: 0
  m_CorrespondingSourceObject: {fileID: 0}
  m_PrefabInstance: {fileID: 0}
  m_PrefabAsset: {fileID: 0}
  m_GameObject: {fileID: 0}
  m_Enabled: 1
  m_EditorHideFlags: 0
  m_Script: {fileID: 11500000, guid: cf6258160aeff9c4ba54e7ad9c7ddf08, type: 3}
  m_Name: 3767
  m_EditorClassIdentifier: 
  originPrefabName: Bench
  objectName: Bench
  position: {x: 3319.8772, y: 30.846054, z: 194.16498}
  rotation: {x: -0.029361626, y: 0.9995086, z: -0.0013326933, w: -0.010897672}
  scale: {x: 1.0171025, y: 1.0171018, z: 1.017103}
  sector: 6_0
  id: 3767
  layer: 0
  tag: Untagged
  material: {fileID: 2100000, guid: 2505757ef4918ba4997e86029dbbfd7a, type: 2}
