%YAML 1.1
%TAG !u! tag:unity3d.com,2011:
--- !u!114 &11400000
MonoBehaviour:
  m_ObjectHideFlags: 0
  m_CorrespondingSourceObject: {fileID: 0}
  m_PrefabInstance: {fileID: 0}
  m_PrefabAsset: {fileID: 0}
  m_GameObject: {fileID: 0}
  m_Enabled: 1
  m_EditorHideFlags: 0
  m_Script: {fileID: 11500000, guid: cf6258160aeff9c4ba54e7ad9c7ddf08, type: 3}
  m_Name: 3769
  m_EditorClassIdentifier: 
  originPrefabName: building3_low2
  objectName: building3_low2 (8)
  position: {x: 603.4592, y: 14.96, z: 324.08008}
  rotation: {x: -0, y: -0, z: -0, w: 1}
  scale: {x: 1, y: 1, z: 1}
  sector: 1_0
  id: 3769
  layer: 0
  tag: Untagged
  material: {fileID: 2100000, guid: f0673ecb52d8f494ba142d07c567f84c, type: 2}
