%YAML 1.1
%TAG !u! tag:unity3d.com,2011:
--- !u!114 &11400000
MonoBehaviour:
  m_ObjectHideFlags: 0
  m_CorrespondingSourceObject: {fileID: 0}
  m_PrefabInstance: {fileID: 0}
  m_PrefabAsset: {fileID: 0}
  m_GameObject: {fileID: 0}
  m_Enabled: 1
  m_EditorHideFlags: 0
  m_Script: {fileID: 11500000, guid: cf6258160aeff9c4ba54e7ad9c7ddf08, type: 3}
  m_Name: 3780
  m_EditorClassIdentifier: 
  originPrefabName: building3_low2
  objectName: building3_low2 (4)
  position: {x: 632.5263, y: 15.41, z: 407.6759}
  rotation: {x: -0, y: 0.32460657, z: -0, w: 0.9458492}
  scale: {x: 1.0000001, y: 1, z: 1.0000001}
  sector: 1_0
  id: 3780
  layer: 0
  tag: Untagged
  material: {fileID: 2100000, guid: f80de1af972a50d429104283f837a253, type: 2}
