%YAML 1.1
%TAG !u! tag:unity3d.com,2011:
--- !u!114 &11400000
MonoBehaviour:
  m_ObjectHideFlags: 0
  m_CorrespondingSourceObject: {fileID: 0}
  m_PrefabInstance: {fileID: 0}
  m_PrefabAsset: {fileID: 0}
  m_GameObject: {fileID: 0}
  m_Enabled: 1
  m_EditorHideFlags: 0
  m_Script: {fileID: 11500000, guid: cf6258160aeff9c4ba54e7ad9c7ddf08, type: 3}
  m_Name: 3787
  m_EditorClassIdentifier: 
  originPrefabName: mushroomHouse_TypeB_low
  objectName: mushroomHouse_TypeB_low (3)
  position: {x: 3584.9502, y: 111.7561, z: 3353.8564}
  rotation: {x: -0, y: -0.7377749, z: -0, w: 0.67504686}
  scale: {x: 1.0000001, y: 1, z: 1.0000001}
  sector: 7_6
  id: 3787
  layer: 0
  tag: Untagged
  material: {fileID: 2100000, guid: fd47d02e6fe634645817a842167cf7f7, type: 2}
