%YAML 1.1
%TAG !u! tag:unity3d.com,2011:
--- !u!114 &11400000
MonoBehaviour:
  m_ObjectHideFlags: 0
  m_CorrespondingSourceObject: {fileID: 0}
  m_PrefabInstance: {fileID: 0}
  m_PrefabAsset: {fileID: 0}
  m_GameObject: {fileID: 0}
  m_Enabled: 1
  m_EditorHideFlags: 0
  m_Script: {fileID: 11500000, guid: cf6258160aeff9c4ba54e7ad9c7ddf08, type: 3}
  m_Name: 380
  m_EditorClassIdentifier: 
  originPrefabName: vessel_1
  objectName: vessel_1 (1)
  position: {x: 247.585, y: 15.798002, z: 384.721}
  rotation: {x: -0.11800087, y: 0.10773437, z: -0.7290145, w: 0.66558766}
  scale: {x: 0.20000003, y: 0.2, z: 0.2}
  sector: 0_0
  id: 380
  layer: 0
  tag: Untagged
  material: {fileID: 2100000, guid: 9c9003e8bda32a44abf7207b5cda9f8c, type: 2}
