%YAML 1.1
%TAG !u! tag:unity3d.com,2011:
--- !u!114 &11400000
MonoBehaviour:
  m_ObjectHideFlags: 0
  m_CorrespondingSourceObject: {fileID: 0}
  m_PrefabInstance: {fileID: 0}
  m_PrefabAsset: {fileID: 0}
  m_GameObject: {fileID: 0}
  m_Enabled: 1
  m_EditorHideFlags: 0
  m_Script: {fileID: 11500000, guid: cf6258160aeff9c4ba54e7ad9c7ddf08, type: 3}
  m_Name: 3809
  m_EditorClassIdentifier: 
  originPrefabName: slope01_low_ver2
  objectName: slope01_low_ver2 (1)
  position: {x: 504.4, y: 16.6, z: 448.2}
  rotation: {x: -0, y: 0.7044797, z: -0, w: 0.7097242}
  scale: {x: 4013.7473, y: 169.72507, z: 475.67624}
  sector: 1_0
  id: 3809
  layer: 0
  tag: Untagged
  material: {fileID: 2100000, guid: 3351dab7180931644bc2d8b01326aa7d, type: 2}
