%YAML 1.1
%TAG !u! tag:unity3d.com,2011:
--- !u!114 &11400000
MonoBehaviour:
  m_ObjectHideFlags: 0
  m_CorrespondingSourceObject: {fileID: 0}
  m_PrefabInstance: {fileID: 0}
  m_PrefabAsset: {fileID: 0}
  m_GameObject: {fileID: 0}
  m_Enabled: 1
  m_EditorHideFlags: 0
  m_Script: {fileID: 11500000, guid: cf6258160aeff9c4ba54e7ad9c7ddf08, type: 3}
  m_Name: 3823
  m_EditorClassIdentifier: 
  originPrefabName: building3_low2
  objectName: building3_low2 (15)
  position: {x: 3407.3708, y: 56.57202, z: 343.61096}
  rotation: {x: -0.0069484157, y: -0.6450812, z: 0.00862545, w: 0.7640338}
  scale: {x: 1.0000002, y: 1.0000001, z: 1.0000001}
  sector: 6_0
  id: 3823
  layer: 0
  tag: Untagged
  material: {fileID: 2100000, guid: f80de1af972a50d429104283f837a253, type: 2}
