%YAML 1.1
%TAG !u! tag:unity3d.com,2011:
--- !u!114 &11400000
MonoBehaviour:
  m_ObjectHideFlags: 0
  m_CorrespondingSourceObject: {fileID: 0}
  m_PrefabInstance: {fileID: 0}
  m_PrefabAsset: {fileID: 0}
  m_GameObject: {fileID: 0}
  m_Enabled: 1
  m_EditorHideFlags: 0
  m_Script: {fileID: 11500000, guid: cf6258160aeff9c4ba54e7ad9c7ddf08, type: 3}
  m_Name: 3848
  m_EditorClassIdentifier: 
  originPrefabName: PF_Foliage_Fern_1
  objectName: PF_Foliage_Fern_1 (9)
  position: {x: 1442.9957, y: 790.11, z: 3677.9924}
  rotation: {x: -0, y: 0.7597674, z: -0, w: 0.650195}
  scale: {x: 0.80000013, y: 0.8, z: 0.80000013}
  sector: 2_7
  id: 3848
  layer: 0
  tag: Untagged
  material: {fileID: 0}
