%YAML 1.1
%TAG !u! tag:unity3d.com,2011:
--- !u!114 &11400000
MonoBehaviour:
  m_ObjectHideFlags: 0
  m_CorrespondingSourceObject: {fileID: 0}
  m_PrefabInstance: {fileID: 0}
  m_PrefabAsset: {fileID: 0}
  m_GameObject: {fileID: 0}
  m_Enabled: 1
  m_EditorHideFlags: 0
  m_Script: {fileID: 11500000, guid: cf6258160aeff9c4ba54e7ad9c7ddf08, type: 3}
  m_Name: 3895
  m_EditorClassIdentifier: 
  originPrefabName: BigRock_ver1
  objectName: BigRock_ver1
  position: {x: 675.3, y: 40.4, z: 513.7}
  rotation: {x: -0.437971, y: -0.3172101, z: -0.68997306, w: 0.48114073}
  scale: {x: 21.259007, y: 21.259005, z: 21.259003}
  sector: 1_1
  id: 3895
  layer: 0
  tag: Untagged
  material: {fileID: 2100000, guid: a10d9d93a1f608349be324e4e1a329fe, type: 2}
