%YAML 1.1
%TAG !u! tag:unity3d.com,2011:
--- !u!114 &11400000
MonoBehaviour:
  m_ObjectHideFlags: 0
  m_CorrespondingSourceObject: {fileID: 0}
  m_PrefabInstance: {fileID: 0}
  m_PrefabAsset: {fileID: 0}
  m_GameObject: {fileID: 0}
  m_Enabled: 1
  m_EditorHideFlags: 0
  m_Script: {fileID: 11500000, guid: cf6258160aeff9c4ba54e7ad9c7ddf08, type: 3}
  m_Name: 391
  m_EditorClassIdentifier: 
  originPrefabName: Building2_low
  objectName: Building2_low (5)
  position: {x: 696.67, y: 18.04, z: 485.02}
  rotation: {x: -0.0064526703, y: -0.8896895, z: 0.0047902944, w: 0.45649537}
  scale: {x: 1.0000001, y: 1, z: 1.0000001}
  sector: 1_0
  id: 391
  layer: 0
  tag: Untagged
  material: {fileID: 2100000, guid: 221e80ae3b7c89a44b6e91dbe3f85c53, type: 2}
