%YAML 1.1
%TAG !u! tag:unity3d.com,2011:
--- !u!114 &11400000
MonoBehaviour:
  m_ObjectHideFlags: 0
  m_CorrespondingSourceObject: {fileID: 0}
  m_PrefabInstance: {fileID: 0}
  m_PrefabAsset: {fileID: 0}
  m_GameObject: {fileID: 0}
  m_Enabled: 1
  m_EditorHideFlags: 0
  m_Script: {fileID: 11500000, guid: cf6258160aeff9c4ba54e7ad9c7ddf08, type: 3}
  m_Name: 3911
  m_EditorClassIdentifier: 
  originPrefabName: PF_ConiferTree_4
  objectName: PF_ConiferTree_4 (4)
  position: {x: 1559.7485, y: 779.95, z: 4110.8447}
  rotation: {x: -0, y: -0.24175222, z: -0, w: 0.97033805}
  scale: {x: 1, y: 1.2, z: 1}
  sector: 3_8
  id: 3911
  layer: 8
  tag: Untagged
  material: {fileID: 0}
