%YAML 1.1
%TAG !u! tag:unity3d.com,2011:
--- !u!114 &11400000
MonoBehaviour:
  m_ObjectHideFlags: 0
  m_CorrespondingSourceObject: {fileID: 0}
  m_PrefabInstance: {fileID: 0}
  m_PrefabAsset: {fileID: 0}
  m_GameObject: {fileID: 0}
  m_Enabled: 1
  m_EditorHideFlags: 0
  m_Script: {fileID: 11500000, guid: cf6258160aeff9c4ba54e7ad9c7ddf08, type: 3}
  m_Name: 3978
  m_EditorClassIdentifier: 
  originPrefabName: cliff_low 1
  objectName: cliff_low 1 (32)
  position: {x: 1652.3, y: 775.96387, z: 3945.494}
  rotation: {x: -0.003143594, y: -0.8489728, z: 0.0044972985, w: -0.5284082}
  scale: {x: 0.7000003, y: 0.3, z: 1.2000008}
  sector: 3_7
  id: 3978
  layer: 0
  tag: Untagged
  material: {fileID: 0}
