%YAML 1.1
%TAG !u! tag:unity3d.com,2011:
--- !u!114 &11400000
MonoBehaviour:
  m_ObjectHideFlags: 0
  m_CorrespondingSourceObject: {fileID: 0}
  m_PrefabInstance: {fileID: 0}
  m_PrefabAsset: {fileID: 0}
  m_GameObject: {fileID: 0}
  m_Enabled: 1
  m_EditorHideFlags: 0
  m_Script: {fileID: 11500000, guid: cf6258160aeff9c4ba54e7ad9c7ddf08, type: 3}
  m_Name: 398
  m_EditorClassIdentifier: 
  originPrefabName: Building1_low
  objectName: Building1_low
  position: {x: 229.6125, y: 14.97, z: 423.12524}
  rotation: {x: -0.0000000027939677, y: 0.9828317, z: 0.000000007450581, w: 0.18450437}
  scale: {x: 1.0000001, y: 1, z: 1.0000001}
  sector: 0_0
  id: 398
  layer: 0
  tag: Untagged
  material: {fileID: 2100000, guid: 53c49ec2624ca3b4e8fd7ed90f5119c7, type: 2}
