%YAML 1.1
%TAG !u! tag:unity3d.com,2011:
--- !u!114 &11400000
MonoBehaviour:
  m_ObjectHideFlags: 0
  m_CorrespondingSourceObject: {fileID: 0}
  m_PrefabInstance: {fileID: 0}
  m_PrefabAsset: {fileID: 0}
  m_GameObject: {fileID: 0}
  m_Enabled: 1
  m_EditorHideFlags: 0
  m_Script: {fileID: 11500000, guid: cf6258160aeff9c4ba54e7ad9c7ddf08, type: 3}
  m_Name: 3999
  m_EditorClassIdentifier: 
  originPrefabName: cliff_low 1
  objectName: cliff_low 1 (7)
  position: {x: 424.9, y: 29.33999, z: 1204.9}
  rotation: {x: -0, y: 0.59495425, z: -0, w: 0.8037596}
  scale: {x: 1.4588, y: 0.5, z: 0.6000001}
  sector: 0_2
  id: 3999
  layer: 0
  tag: Untagged
  material: {fileID: 0}
