%YAML 1.1
%TAG !u! tag:unity3d.com,2011:
--- !u!114 &11400000
MonoBehaviour:
  m_ObjectHideFlags: 0
  m_CorrespondingSourceObject: {fileID: 0}
  m_PrefabInstance: {fileID: 0}
  m_PrefabAsset: {fileID: 0}
  m_GameObject: {fileID: 0}
  m_Enabled: 1
  m_EditorHideFlags: 0
  m_Script: {fileID: 11500000, guid: cf6258160aeff9c4ba54e7ad9c7ddf08, type: 3}
  m_Name: 4000
  m_EditorClassIdentifier: 
  originPrefabName: cliff_low 1
  objectName: cliff_low 1 (9)
  position: {x: 1488.07, y: 794.24, z: 3920.1}
  rotation: {x: -0, y: 0.9912968, z: -0, w: -0.13164583}
  scale: {x: 0.10000002, y: 0.05, z: 0.20000003}
  sector: 2_7
  id: 4000
  layer: 0
  tag: Untagged
  material: {fileID: 0}
