%YAML 1.1
%TAG !u! tag:unity3d.com,2011:
--- !u!114 &11400000
MonoBehaviour:
  m_ObjectHideFlags: 0
  m_CorrespondingSourceObject: {fileID: 0}
  m_PrefabInstance: {fileID: 0}
  m_PrefabAsset: {fileID: 0}
  m_GameObject: {fileID: 0}
  m_Enabled: 1
  m_EditorHideFlags: 0
  m_Script: {fileID: 11500000, guid: cf6258160aeff9c4ba54e7ad9c7ddf08, type: 3}
  m_Name: 4005
  m_EditorClassIdentifier: 
  originPrefabName: BigRock_ver2
  objectName: BigRock_ver2
  position: {x: 3664.9, y: 95.5, z: 3616.2}
  rotation: {x: 0.2318606, y: 0.3147579, z: -0.06987625, w: 0.9177611}
  scale: {x: 23.417, y: 23.416998, z: 23.416998}
  sector: 7_7
  id: 4005
  layer: 0
  tag: Untagged
  material: {fileID: 2100000, guid: 8e8a096c216d6484a8a2558f8daf1865, type: 2}
