%YAML 1.1
%TAG !u! tag:unity3d.com,2011:
--- !u!114 &11400000
MonoBehaviour:
  m_ObjectHideFlags: 0
  m_CorrespondingSourceObject: {fileID: 0}
  m_PrefabInstance: {fileID: 0}
  m_PrefabAsset: {fileID: 0}
  m_GameObject: {fileID: 0}
  m_Enabled: 1
  m_EditorHideFlags: 0
  m_Script: {fileID: 11500000, guid: cf6258160aeff9c4ba54e7ad9c7ddf08, type: 3}
  m_Name: 4019
  m_EditorClassIdentifier: 
  originPrefabName: slope01_low_ver1
  objectName: slope01_low_ver1
  position: {x: 3394.0999, y: 43.200005, z: 409.59998}
  rotation: {x: -0, y: 0.5717533, z: -0, w: 0.8204256}
  scale: {x: 394.05396, y: 394.05396, z: 394.05396}
  sector: 6_0
  id: 4019
  layer: 0
  tag: Untagged
  material: {fileID: 2100000, guid: 758461e20c2231f46a5828e43fcd862d, type: 2}
