%YAML 1.1
%TAG !u! tag:unity3d.com,2011:
--- !u!114 &11400000
MonoBehaviour:
  m_ObjectHideFlags: 0
  m_CorrespondingSourceObject: {fileID: 0}
  m_PrefabInstance: {fileID: 0}
  m_PrefabAsset: {fileID: 0}
  m_GameObject: {fileID: 0}
  m_Enabled: 1
  m_EditorHideFlags: 0
  m_Script: {fileID: 11500000, guid: cf6258160aeff9c4ba54e7ad9c7ddf08, type: 3}
  m_Name: 4028
  m_EditorClassIdentifier: 
  originPrefabName: PF_Foliage_Fern_1
  objectName: PF_Foliage_Fern_1 (13)
  position: {x: 1411.9673, y: 786.12, z: 3645.8855}
  rotation: {x: -0, y: 0.27211595, z: -0, w: 0.96226454}
  scale: {x: 1, y: 1, z: 1}
  sector: 2_7
  id: 4028
  layer: 0
  tag: Untagged
  material: {fileID: 0}
