%YAML 1.1
%TAG !u! tag:unity3d.com,2011:
--- !u!114 &11400000
MonoBehaviour:
  m_ObjectHideFlags: 0
  m_CorrespondingSourceObject: {fileID: 0}
  m_PrefabInstance: {fileID: 0}
  m_PrefabAsset: {fileID: 0}
  m_GameObject: {fileID: 0}
  m_Enabled: 1
  m_EditorHideFlags: 0
  m_Script: {fileID: 11500000, guid: cf6258160aeff9c4ba54e7ad9c7ddf08, type: 3}
  m_Name: 406
  m_EditorClassIdentifier: 
  originPrefabName: lamp01
  objectName: lamp01 (15)
  position: {x: 1576.7993, y: 800.756, z: 3577.3813}
  rotation: {x: -0.47088066, y: 0.47184873, z: 0.5266093, w: 0.5275536}
  scale: {x: 100, y: 100.000015, z: 99.99999}
  sector: 3_7
  id: 406
  layer: 0
  tag: Untagged
  material: {fileID: 2100000, guid: e529903d19e66bb46a79ce41bd309a28, type: 2}
