%YAML 1.1
%TAG !u! tag:unity3d.com,2011:
--- !u!114 &11400000
MonoBehaviour:
  m_ObjectHideFlags: 0
  m_CorrespondingSourceObject: {fileID: 0}
  m_PrefabInstance: {fileID: 0}
  m_PrefabAsset: {fileID: 0}
  m_GameObject: {fileID: 0}
  m_Enabled: 1
  m_EditorHideFlags: 0
  m_Script: {fileID: 11500000, guid: cf6258160aeff9c4ba54e7ad9c7ddf08, type: 3}
  m_Name: 4072
  m_EditorClassIdentifier: 
  originPrefabName: PF_HexBoard_StoneVar1
  objectName: PF_HexBoard_StoneVar1 (1)
  position: {x: 1861.28, y: 56.03227, z: 369.04}
  rotation: {x: -0, y: -0, z: 0.025572395, w: 0.999673}
  scale: {x: 1.5361, y: 1.5361, z: 1.5361}
  sector: 3_0
  id: 4072
  layer: 8
  tag: Untagged
  material: {fileID: 0}
