%YAML 1.1
%TAG !u! tag:unity3d.com,2011:
--- !u!114 &11400000
MonoBehaviour:
  m_ObjectHideFlags: 0
  m_CorrespondingSourceObject: {fileID: 0}
  m_PrefabInstance: {fileID: 0}
  m_PrefabAsset: {fileID: 0}
  m_GameObject: {fileID: 0}
  m_Enabled: 1
  m_EditorHideFlags: 0
  m_Script: {fileID: 11500000, guid: cf6258160aeff9c4ba54e7ad9c7ddf08, type: 3}
  m_Name: 4108
  m_EditorClassIdentifier: 
  originPrefabName: PF_TreeStump
  objectName: PF_TreeStump (2)
  position: {x: 1670.6278, y: 787.27, z: 3745.8528}
  rotation: {x: 0.08679867, y: -0, z: -0, w: 0.9962259}
  scale: {x: 1, y: 1, z: 1}
  sector: 3_7
  id: 4108
  layer: 0
  tag: Untagged
  material: {fileID: 0}
