%YAML 1.1
%TAG !u! tag:unity3d.com,2011:
--- !u!114 &11400000
MonoBehaviour:
  m_ObjectHideFlags: 0
  m_CorrespondingSourceObject: {fileID: 0}
  m_PrefabInstance: {fileID: 0}
  m_PrefabAsset: {fileID: 0}
  m_GameObject: {fileID: 0}
  m_Enabled: 1
  m_EditorHideFlags: 0
  m_Script: {fileID: 11500000, guid: cf6258160aeff9c4ba54e7ad9c7ddf08, type: 3}
  m_Name: 4116
  m_EditorClassIdentifier: 
  originPrefabName: Crystals (1)
  objectName: Crystals (7)
  position: {x: 3170.6003, y: 47.3, z: 309.7}
  rotation: {x: 0.004804855, y: 0.98690253, z: 0.1584446, w: 0.029927963}
  scale: {x: 9.991161, y: 9.991154, z: 9.991159}
  sector: 6_0
  id: 4116
  layer: 0
  tag: Untagged
  material: {fileID: 2100000, guid: 84a7dfcbe1f4aad4d9577290f0c4706d, type: 2}
