%YAML 1.1
%TAG !u! tag:unity3d.com,2011:
--- !u!114 &11400000
MonoBehaviour:
  m_ObjectHideFlags: 0
  m_CorrespondingSourceObject: {fileID: 0}
  m_PrefabInstance: {fileID: 0}
  m_PrefabAsset: {fileID: 0}
  m_GameObject: {fileID: 0}
  m_Enabled: 1
  m_EditorHideFlags: 0
  m_Script: {fileID: 11500000, guid: cf6258160aeff9c4ba54e7ad9c7ddf08, type: 3}
  m_Name: 4134
  m_EditorClassIdentifier: 
  originPrefabName: Building1_low
  objectName: Building1_low (4)
  position: {x: 631.31, y: 16.53, z: 468.26}
  rotation: {x: -0.0056919414, y: 0.927376, z: 0.0022959886, w: 0.37408057}
  scale: {x: 1.0000004, y: 1, z: 1.0000005}
  sector: 1_0
  id: 4134
  layer: 0
  tag: Untagged
  material: {fileID: 2100000, guid: 7ff9bd17018a77844934f46e4668fdd7, type: 2}
