%YAML 1.1
%TAG !u! tag:unity3d.com,2011:
--- !u!114 &11400000
MonoBehaviour:
  m_ObjectHideFlags: 0
  m_CorrespondingSourceObject: {fileID: 0}
  m_PrefabInstance: {fileID: 0}
  m_PrefabAsset: {fileID: 0}
  m_GameObject: {fileID: 0}
  m_Enabled: 1
  m_EditorHideFlags: 0
  m_Script: {fileID: 11500000, guid: cf6258160aeff9c4ba54e7ad9c7ddf08, type: 3}
  m_Name: 4158
  m_EditorClassIdentifier: 
  originPrefabName: Crystals (2)
  objectName: Crystals (50)
  position: {x: 1683.7697, y: 783.27997, z: 3839.808}
  rotation: {x: -0.044674054, y: 0.77973706, z: 0.056003675, w: -0.62199515}
  scale: {x: 2, y: 2.0000002, z: 1.9999999}
  sector: 3_7
  id: 4158
  layer: 0
  tag: Untagged
  material: {fileID: 2100000, guid: fe36741ede331ae408acac449eaf0149, type: 2}
