%YAML 1.1
%TAG !u! tag:unity3d.com,2011:
--- !u!114 &11400000
MonoBehaviour:
  m_ObjectHideFlags: 0
  m_CorrespondingSourceObject: {fileID: 0}
  m_PrefabInstance: {fileID: 0}
  m_PrefabAsset: {fileID: 0}
  m_GameObject: {fileID: 0}
  m_Enabled: 1
  m_EditorHideFlags: 0
  m_Script: {fileID: 11500000, guid: cf6258160aeff9c4ba54e7ad9c7ddf08, type: 3}
  m_Name: 4195
  m_EditorClassIdentifier: 
  originPrefabName: fence_Set_lot
  objectName: fence_Set_lot (131)
  position: {x: 2516.2415, y: 838.80475, z: 4026.839}
  rotation: {x: -0.22144783, y: -0.65763175, z: -0.67904794, w: 0.2395313}
  scale: {x: 0.7705632, y: 0.99999994, z: 1}
  sector: 5_8
  id: 4195
  layer: 0
  tag: Untagged
  material: {fileID: 2100000, guid: a1ce2172423559d46a411d49151c60ab, type: 2}
