%YAML 1.1
%TAG !u! tag:unity3d.com,2011:
--- !u!114 &11400000
MonoBehaviour:
  m_ObjectHideFlags: 0
  m_CorrespondingSourceObject: {fileID: 0}
  m_PrefabInstance: {fileID: 0}
  m_PrefabAsset: {fileID: 0}
  m_GameObject: {fileID: 0}
  m_Enabled: 1
  m_EditorHideFlags: 0
  m_Script: {fileID: 11500000, guid: cf6258160aeff9c4ba54e7ad9c7ddf08, type: 3}
  m_Name: 4246
  m_EditorClassIdentifier: 
  originPrefabName: Bench
  objectName: Bench
  position: {x: 1530.5503, y: 799.0953, z: 3729.3599}
  rotation: {x: -0, y: 0.0000014603138, z: -0, w: 1}
  scale: {x: 1.0973402, y: 1.0973402, z: 1.0973407}
  sector: 3_7
  id: 4246
  layer: 0
  tag: Untagged
  material: {fileID: 2100000, guid: 2505757ef4918ba4997e86029dbbfd7a, type: 2}
