%YAML 1.1
%TAG !u! tag:unity3d.com,2011:
--- !u!114 &11400000
MonoBehaviour:
  m_ObjectHideFlags: 0
  m_CorrespondingSourceObject: {fileID: 0}
  m_PrefabInstance: {fileID: 0}
  m_PrefabAsset: {fileID: 0}
  m_GameObject: {fileID: 0}
  m_Enabled: 1
  m_EditorHideFlags: 0
  m_Script: {fileID: 11500000, guid: cf6258160aeff9c4ba54e7ad9c7ddf08, type: 3}
  m_Name: 4265
  m_EditorClassIdentifier: 
  originPrefabName: Crate
  objectName: Crate
  position: {x: 806.93, y: 22.685, z: 430.87}
  rotation: {x: -0.01140738, y: -0.00036372282, z: 0.012367392, w: 0.99985844}
  scale: {x: 50, y: 49.999996, z: 49.999996}
  sector: 1_0
  id: 4265
  layer: 0
  tag: Untagged
  material: {fileID: 2100000, guid: 9ad6f7a16fdafa2458532b2eebf39d81, type: 2}
