%YAML 1.1
%TAG !u! tag:unity3d.com,2011:
--- !u!114 &11400000
MonoBehaviour:
  m_ObjectHideFlags: 0
  m_CorrespondingSourceObject: {fileID: 0}
  m_PrefabInstance: {fileID: 0}
  m_PrefabAsset: {fileID: 0}
  m_GameObject: {fileID: 0}
  m_Enabled: 1
  m_EditorHideFlags: 0
  m_Script: {fileID: 11500000, guid: cf6258160aeff9c4ba54e7ad9c7ddf08, type: 3}
  m_Name: 4281
  m_EditorClassIdentifier: 
  originPrefabName: MiddleCrystal_low (7)
  objectName: MiddleCrystal_low (9)
  position: {x: 2901.9, y: 790.73, z: 3855.3}
  rotation: {x: 0.060620498, y: 0.26547822, z: 0.21420175, w: 0.93806404}
  scale: {x: 24.5724, y: 27.07836, z: 13.686306}
  sector: 5_7
  id: 4281
  layer: 0
  tag: Untagged
  material: {fileID: 2100000, guid: 21460ee8ba22c2c4087816cacc9df76f, type: 2}
