%YAML 1.1
%TAG !u! tag:unity3d.com,2011:
--- !u!114 &11400000
MonoBehaviour:
  m_ObjectHideFlags: 0
  m_CorrespondingSourceObject: {fileID: 0}
  m_PrefabInstance: {fileID: 0}
  m_PrefabAsset: {fileID: 0}
  m_GameObject: {fileID: 0}
  m_Enabled: 1
  m_EditorHideFlags: 0
  m_Script: {fileID: 11500000, guid: cf6258160aeff9c4ba54e7ad9c7ddf08, type: 3}
  m_Name: 4290
  m_EditorClassIdentifier: 
  originPrefabName: Crystals (2)
  objectName: Crystals (31)
  position: {x: 1447.1879, y: 791.67, z: 3803.7341}
  rotation: {x: 0.06489283, y: -0.6900867, z: -0.062360562, w: 0.71810895}
  scale: {x: 5.0000005, y: 4.9999995, z: 5.0000014}
  sector: 2_7
  id: 4290
  layer: 0
  tag: Untagged
  material: {fileID: 2100000, guid: fe36741ede331ae408acac449eaf0149, type: 2}
