%YAML 1.1
%TAG !u! tag:unity3d.com,2011:
--- !u!114 &11400000
MonoBehaviour:
  m_ObjectHideFlags: 0
  m_CorrespondingSourceObject: {fileID: 0}
  m_PrefabInstance: {fileID: 0}
  m_PrefabAsset: {fileID: 0}
  m_GameObject: {fileID: 0}
  m_Enabled: 1
  m_EditorHideFlags: 0
  m_Script: {fileID: 11500000, guid: cf6258160aeff9c4ba54e7ad9c7ddf08, type: 3}
  m_Name: 430
  m_EditorClassIdentifier: 
  originPrefabName: SM_Candles_Var0
  objectName: SM_Candles_Var0 (7)
  position: {x: 1852.8186, y: 55.38, z: 360.61}
  rotation: {x: -0.020453673, y: 0.8657839, z: -0.011808936, w: -0.49986055}
  scale: {x: 10.3010025, y: 10.301, z: 10.301001}
  sector: 3_0
  id: 430
  layer: 0
  tag: Untagged
  material: {fileID: 2100000, guid: e6ab2d88e121395429f3c617265b0afd, type: 2}
