%YAML 1.1
%TAG !u! tag:unity3d.com,2011:
--- !u!114 &11400000
MonoBehaviour:
  m_ObjectHideFlags: 0
  m_CorrespondingSourceObject: {fileID: 0}
  m_PrefabInstance: {fileID: 0}
  m_PrefabAsset: {fileID: 0}
  m_GameObject: {fileID: 0}
  m_Enabled: 1
  m_EditorHideFlags: 0
  m_Script: {fileID: 11500000, guid: cf6258160aeff9c4ba54e7ad9c7ddf08, type: 3}
  m_Name: 4301
  m_EditorClassIdentifier: 
  originPrefabName: lamp01
  objectName: lamp01 (11)
  position: {x: 1411.3667, y: 785.94995, z: 3643.557}
  rotation: {x: -0.5131849, y: 0.49192333, z: 0.5077427, w: 0.48667234}
  scale: {x: 99.99998, y: 99.999985, z: 99.99998}
  sector: 2_7
  id: 4301
  layer: 0
  tag: Untagged
  material: {fileID: 2100000, guid: e529903d19e66bb46a79ce41bd309a28, type: 2}
