%YAML 1.1
%TAG !u! tag:unity3d.com,2011:
--- !u!114 &11400000
MonoBehaviour:
  m_ObjectHideFlags: 0
  m_CorrespondingSourceObject: {fileID: 0}
  m_PrefabInstance: {fileID: 0}
  m_PrefabAsset: {fileID: 0}
  m_GameObject: {fileID: 0}
  m_Enabled: 1
  m_EditorHideFlags: 0
  m_Script: {fileID: 11500000, guid: cf6258160aeff9c4ba54e7ad9c7ddf08, type: 3}
  m_Name: 4344
  m_EditorClassIdentifier: 
  originPrefabName: Shard (3)
  objectName: Shard (3)
  position: {x: 3949, y: 17.00048, z: 4693.3}
  rotation: {x: -0.23540427, y: -0.06077869, z: -0.24248973, w: 0.9391962}
  scale: {x: 3809.9998, y: 3809.9998, z: 3810}
  sector: 7_9
  id: 4344
  layer: 0
  tag: Untagged
  material: {fileID: 2100000, guid: a1ab44f7a3cf5614986dac6313698858, type: 2}
