%YAML 1.1
%TAG !u! tag:unity3d.com,2011:
--- !u!114 &11400000
MonoBehaviour:
  m_ObjectHideFlags: 0
  m_CorrespondingSourceObject: {fileID: 0}
  m_PrefabInstance: {fileID: 0}
  m_PrefabAsset: {fileID: 0}
  m_GameObject: {fileID: 0}
  m_Enabled: 1
  m_EditorHideFlags: 0
  m_Script: {fileID: 11500000, guid: cf6258160aeff9c4ba54e7ad9c7ddf08, type: 3}
  m_Name: 4346
  m_EditorClassIdentifier: 
  originPrefabName: cliff_low 1
  objectName: cliff_low 1
  position: {x: 195.8, y: 14.6, z: 474.6}
  rotation: {x: -0, y: -0.22073366, z: -0, w: 0.97533417}
  scale: {x: 1.9595, y: 0.5, z: 0.6000001}
  sector: 0_0
  id: 4346
  layer: 0
  tag: Untagged
  material: {fileID: 0}
