%YAML 1.1
%TAG !u! tag:unity3d.com,2011:
--- !u!114 &11400000
MonoBehaviour:
  m_ObjectHideFlags: 0
  m_CorrespondingSourceObject: {fileID: 0}
  m_PrefabInstance: {fileID: 0}
  m_PrefabAsset: {fileID: 0}
  m_GameObject: {fileID: 0}
  m_Enabled: 1
  m_EditorHideFlags: 0
  m_Script: {fileID: 11500000, guid: cf6258160aeff9c4ba54e7ad9c7ddf08, type: 3}
  m_Name: 4347
  m_EditorClassIdentifier: 
  originPrefabName: cliff_low
  objectName: cliff_low
  position: {x: 3819, y: -65.55862, z: 4875}
  rotation: {x: -0.037863214, y: 0.22996862, z: -0.15394215, w: 0.9601993}
  scale: {x: 4.5695734, y: 4.569573, z: 4.5695724}
  sector: 7_9
  id: 4347
  layer: 0
  tag: Untagged
  material: {fileID: 0}
