%YAML 1.1
%TAG !u! tag:unity3d.com,2011:
--- !u!114 &11400000
MonoBehaviour:
  m_ObjectHideFlags: 0
  m_CorrespondingSourceObject: {fileID: 0}
  m_PrefabInstance: {fileID: 0}
  m_PrefabAsset: {fileID: 0}
  m_GameObject: {fileID: 0}
  m_Enabled: 1
  m_EditorHideFlags: 0
  m_Script: {fileID: 11500000, guid: cf6258160aeff9c4ba54e7ad9c7ddf08, type: 3}
  m_Name: 4350
  m_EditorClassIdentifier: 
  originPrefabName: BigCrystal_NoScratch_low (9)
  objectName: BigCrystal_NoScratch_low (13)
  position: {x: 737.13, y: 41.476215, z: 1617.7141}
  rotation: {x: 0.9998695, y: -0, z: -0, w: -0.016154394}
  scale: {x: 4.0673, y: 4.0673003, z: 4.0673003}
  sector: 1_3
  id: 4350
  layer: 0
  tag: Untagged
  material: {fileID: 2100000, guid: a1ab44f7a3cf5614986dac6313698858, type: 2}
