%YAML 1.1
%TAG !u! tag:unity3d.com,2011:
--- !u!114 &11400000
MonoBehaviour:
  m_ObjectHideFlags: 0
  m_CorrespondingSourceObject: {fileID: 0}
  m_PrefabInstance: {fileID: 0}
  m_PrefabAsset: {fileID: 0}
  m_GameObject: {fileID: 0}
  m_Enabled: 1
  m_EditorHideFlags: 0
  m_Script: {fileID: 11500000, guid: cf6258160aeff9c4ba54e7ad9c7ddf08, type: 3}
  m_Name: 4369
  m_EditorClassIdentifier: 
  originPrefabName: BigCrystal_NoScratch_low (6)
  objectName: BigCrystal_NoScratch_low (9)
  position: {x: 3268.3003, y: 30.9, z: 237.20001}
  rotation: {x: -0.49318916, y: -0.29113528, z: -0.17951173, w: 0.7998627}
  scale: {x: 13.282074, y: 13.282074, z: 13.282074}
  sector: 6_0
  id: 4369
  layer: 0
  tag: Untagged
  material: {fileID: 2100000, guid: 84a7dfcbe1f4aad4d9577290f0c4706d, type: 2}
