%YAML 1.1
%TAG !u! tag:unity3d.com,2011:
--- !u!114 &11400000
MonoBehaviour:
  m_ObjectHideFlags: 0
  m_CorrespondingSourceObject: {fileID: 0}
  m_PrefabInstance: {fileID: 0}
  m_PrefabAsset: {fileID: 0}
  m_GameObject: {fileID: 0}
  m_Enabled: 1
  m_EditorHideFlags: 0
  m_Script: {fileID: 11500000, guid: cf6258160aeff9c4ba54e7ad9c7ddf08, type: 3}
  m_Name: 4413
  m_EditorClassIdentifier: 
  originPrefabName: Cabin_TypeD_low
  objectName: Cabin_TypeD_low
  position: {x: 2558.9155, y: 837.86, z: 3932.605}
  rotation: {x: 0.27520832, y: -0.6513528, z: -0.6217288, w: -0.3368283}
  scale: {x: 1.0000002, y: 1.0000001, z: 1.0000002}
  sector: 5_7
  id: 4413
  layer: 0
  tag: Untagged
  material: {fileID: 2100000, guid: aab96851d03710a45b34c0ced200f362, type: 2}
