%YAML 1.1
%TAG !u! tag:unity3d.com,2011:
--- !u!114 &11400000
MonoBehaviour:
  m_ObjectHideFlags: 0
  m_CorrespondingSourceObject: {fileID: 0}
  m_PrefabInstance: {fileID: 0}
  m_PrefabAsset: {fileID: 0}
  m_GameObject: {fileID: 0}
  m_Enabled: 1
  m_EditorHideFlags: 0
  m_Script: {fileID: 11500000, guid: cf6258160aeff9c4ba54e7ad9c7ddf08, type: 3}
  m_Name: 4414
  m_EditorClassIdentifier: 
  originPrefabName: Crystals (2)
  objectName: Crystals (60)
  position: {x: 1532.55, y: 791.93, z: 3841.7}
  rotation: {x: 0.051118348, y: 0.14683904, z: -0.0037445973, w: 0.9878316}
  scale: {x: 5, y: 6.5, z: 4.9999995}
  sector: 3_7
  id: 4414
  layer: 0
  tag: Untagged
  material: {fileID: 2100000, guid: fe36741ede331ae408acac449eaf0149, type: 2}
