%YAML 1.1
%TAG !u! tag:unity3d.com,2011:
--- !u!114 &11400000
MonoBehaviour:
  m_ObjectHideFlags: 0
  m_CorrespondingSourceObject: {fileID: 0}
  m_PrefabInstance: {fileID: 0}
  m_PrefabAsset: {fileID: 0}
  m_GameObject: {fileID: 0}
  m_Enabled: 1
  m_EditorHideFlags: 0
  m_Script: {fileID: 11500000, guid: cf6258160aeff9c4ba54e7ad9c7ddf08, type: 3}
  m_Name: 4479
  m_EditorClassIdentifier: 
  originPrefabName: stool
  objectName: stool (3)
  position: {x: 3345.0698, y: 31.477, z: 232.16002}
  rotation: {x: -0, y: -0.7386783, z: -0, w: 0.6740582}
  scale: {x: 0.39999995, y: 0.4, z: 0.39999995}
  sector: 6_0
  id: 4479
  layer: 0
  tag: Untagged
  material: {fileID: 2100000, guid: 9c9003e8bda32a44abf7207b5cda9f8c, type: 2}
