%YAML 1.1
%TAG !u! tag:unity3d.com,2011:
--- !u!114 &11400000
MonoBehaviour:
  m_ObjectHideFlags: 0
  m_CorrespondingSourceObject: {fileID: 0}
  m_PrefabInstance: {fileID: 0}
  m_PrefabAsset: {fileID: 0}
  m_GameObject: {fileID: 0}
  m_Enabled: 1
  m_EditorHideFlags: 0
  m_Script: {fileID: 11500000, guid: cf6258160aeff9c4ba54e7ad9c7ddf08, type: 3}
  m_Name: 4483
  m_EditorClassIdentifier: 
  originPrefabName: cliff_low 1
  objectName: cliff_low 1 (28)
  position: {x: 1587.7, y: 785, z: 3767.4}
  rotation: {x: -0.005485118, y: -0.026655063, z: -0.00014626027, w: -0.9996297}
  scale: {x: 0.7, y: 0.3, z: 1.2}
  sector: 3_7
  id: 4483
  layer: 0
  tag: Untagged
  material: {fileID: 0}
