%YAML 1.1
%TAG !u! tag:unity3d.com,2011:
--- !u!114 &11400000
MonoBehaviour:
  m_ObjectHideFlags: 0
  m_CorrespondingSourceObject: {fileID: 0}
  m_PrefabInstance: {fileID: 0}
  m_PrefabAsset: {fileID: 0}
  m_GameObject: {fileID: 0}
  m_Enabled: 1
  m_EditorHideFlags: 0
  m_Script: {fileID: 11500000, guid: cf6258160aeff9c4ba54e7ad9c7ddf08, type: 3}
  m_Name: 4492
  m_EditorClassIdentifier: 
  originPrefabName: Crystals (2)
  objectName: Crystals (38)
  position: {x: 1487.5005, y: 796.2847, z: 3636.9346}
  rotation: {x: -0, y: 0.97272414, z: -0, w: -0.23196487}
  scale: {x: 1.9999996, y: 2, z: 1.9999996}
  sector: 2_7
  id: 4492
  layer: 0
  tag: Untagged
  material: {fileID: 2100000, guid: fe36741ede331ae408acac449eaf0149, type: 2}
