%YAML 1.1
%TAG !u! tag:unity3d.com,2011:
--- !u!114 &11400000
MonoBehaviour:
  m_ObjectHideFlags: 0
  m_CorrespondingSourceObject: {fileID: 0}
  m_PrefabInstance: {fileID: 0}
  m_PrefabAsset: {fileID: 0}
  m_GameObject: {fileID: 0}
  m_Enabled: 1
  m_EditorHideFlags: 0
  m_Script: {fileID: 11500000, guid: cf6258160aeff9c4ba54e7ad9c7ddf08, type: 3}
  m_Name: 4494
  m_EditorClassIdentifier: 
  originPrefabName: Shard (1)
  objectName: Shard (28)
  position: {x: 1447.821, y: 791.2055, z: 3812.6604}
  rotation: {x: -0.0021836325, y: -0.34548137, z: -0.09531402, w: 0.93357015}
  scale: {x: 200.00003, y: 199.99998, z: 200.00003}
  sector: 2_7
  id: 4494
  layer: 0
  tag: Untagged
  material: {fileID: 2100000, guid: fe36741ede331ae408acac449eaf0149, type: 2}
