%YAML 1.1
%TAG !u! tag:unity3d.com,2011:
--- !u!114 &11400000
MonoBehaviour:
  m_ObjectHideFlags: 0
  m_CorrespondingSourceObject: {fileID: 0}
  m_PrefabInstance: {fileID: 0}
  m_PrefabAsset: {fileID: 0}
  m_GameObject: {fileID: 0}
  m_Enabled: 1
  m_EditorHideFlags: 0
  m_Script: {fileID: 11500000, guid: cf6258160aeff9c4ba54e7ad9c7ddf08, type: 3}
  m_Name: 4502
  m_EditorClassIdentifier: 
  originPrefabName: LongRock_low
  objectName: LongRock_low
  position: {x: 1380.646, y: 783.21875, z: 3714.7996}
  rotation: {x: -0, y: 0.2569603, z: -0, w: 0.96642196}
  scale: {x: 1, y: 1, z: 1}
  sector: 2_7
  id: 4502
  layer: 0
  tag: Untagged
  material: {fileID: 1992572896266015561, guid: 1a77b3e84446e614b933240051a507de, type: 3}
