%YAML 1.1
%TAG !u! tag:unity3d.com,2011:
--- !u!114 &11400000
MonoBehaviour:
  m_ObjectHideFlags: 0
  m_CorrespondingSourceObject: {fileID: 0}
  m_PrefabInstance: {fileID: 0}
  m_PrefabAsset: {fileID: 0}
  m_GameObject: {fileID: 0}
  m_Enabled: 1
  m_EditorHideFlags: 0
  m_Script: {fileID: 11500000, guid: cf6258160aeff9c4ba54e7ad9c7ddf08, type: 3}
  m_Name: 457
  m_EditorClassIdentifier: 
  originPrefabName: Cabin_TypeD_low
  objectName: Cabin_TypeD_low (2)
  position: {x: 2675.23, y: 780.63, z: 3751.64}
  rotation: {x: 0.25916156, y: 0.6680281, z: 0.6579022, w: -0.23181564}
  scale: {x: 1.0000002, y: 1.0000001, z: 1}
  sector: 5_7
  id: 457
  layer: 0
  tag: Untagged
  material: {fileID: 2100000, guid: a093c1bca0a480a409fbe066a66a8f59, type: 2}
