%YAML 1.1
%TAG !u! tag:unity3d.com,2011:
--- !u!114 &11400000
MonoBehaviour:
  m_ObjectHideFlags: 0
  m_CorrespondingSourceObject: {fileID: 0}
  m_PrefabInstance: {fileID: 0}
  m_PrefabAsset: {fileID: 0}
  m_GameObject: {fileID: 0}
  m_Enabled: 1
  m_EditorHideFlags: 0
  m_Script: {fileID: 11500000, guid: cf6258160aeff9c4ba54e7ad9c7ddf08, type: 3}
  m_Name: 4570
  m_EditorClassIdentifier: 
  originPrefabName: building3_low2
  objectName: building3_low2
  position: {x: 281.597, y: 15, z: 221.969}
  rotation: {x: -0, y: -0.76731366, z: -0, w: 0.64127207}
  scale: {x: 1.0000002, y: 1, z: 1.0000002}
  sector: 0_0
  id: 4570
  layer: 0
  tag: Untagged
  material: {fileID: 2100000, guid: 1cc91dd2df06a954c9dd0f988b52b4bd, type: 2}
