%YAML 1.1
%TAG !u! tag:unity3d.com,2011:
--- !u!114 &11400000
MonoBehaviour:
  m_ObjectHideFlags: 0
  m_CorrespondingSourceObject: {fileID: 0}
  m_PrefabInstance: {fileID: 0}
  m_PrefabAsset: {fileID: 0}
  m_GameObject: {fileID: 0}
  m_Enabled: 1
  m_EditorHideFlags: 0
  m_Script: {fileID: 11500000, guid: cf6258160aeff9c4ba54e7ad9c7ddf08, type: 3}
  m_Name: 459
  m_EditorClassIdentifier: 
  originPrefabName: PF_TallTree_1
  objectName: PF_TallTree_1 (2)
  position: {x: 3376.06, y: 38.269997, z: 283.40002}
  rotation: {x: -0, y: -0, z: -0, w: 1}
  scale: {x: 1.0420628, y: 1.0420628, z: 1.0420628}
  sector: 6_0
  id: 459
  layer: 8
  tag: Untagged
  material: {fileID: 0}
