%YAML 1.1
%TAG !u! tag:unity3d.com,2011:
--- !u!114 &11400000
MonoBehaviour:
  m_ObjectHideFlags: 0
  m_CorrespondingSourceObject: {fileID: 0}
  m_PrefabInstance: {fileID: 0}
  m_PrefabAsset: {fileID: 0}
  m_GameObject: {fileID: 0}
  m_Enabled: 1
  m_EditorHideFlags: 0
  m_Script: {fileID: 11500000, guid: cf6258160aeff9c4ba54e7ad9c7ddf08, type: 3}
  m_Name: 46
  m_EditorClassIdentifier: 
  originPrefabName: building3_low2
  objectName: building3_low2
  position: {x: 207.17, y: 15.07, z: 274.19}
  rotation: {x: -0, y: 0.7775631, z: -0, w: 0.628805}
  scale: {x: 1.0000002, y: 1, z: 1.0000002}
  sector: 0_0
  id: 46
  layer: 0
  tag: Untagged
  material: {fileID: 2100000, guid: f0673ecb52d8f494ba142d07c567f84c, type: 2}
