%YAML 1.1
%TAG !u! tag:unity3d.com,2011:
--- !u!114 &11400000
MonoBehaviour:
  m_ObjectHideFlags: 0
  m_CorrespondingSourceObject: {fileID: 0}
  m_PrefabInstance: {fileID: 0}
  m_PrefabAsset: {fileID: 0}
  m_GameObject: {fileID: 0}
  m_Enabled: 1
  m_EditorHideFlags: 0
  m_Script: {fileID: 11500000, guid: cf6258160aeff9c4ba54e7ad9c7ddf08, type: 3}
  m_Name: 4603
  m_EditorClassIdentifier: 
  originPrefabName: building4_low2
  objectName: building4_low2 (7)
  position: {x: 752.85, y: 16.18, z: 389}
  rotation: {x: -0.0069990535, y: -0.4525352, z: 0.013789957, w: 0.8916124}
  scale: {x: 0.9999999, y: 1, z: 1}
  sector: 1_0
  id: 4603
  layer: 0
  tag: Untagged
  material: {fileID: 2100000, guid: 0bd801a3c4ae97c44a8588aa16b83064, type: 2}
