%YAML 1.1
%TAG !u! tag:unity3d.com,2011:
--- !u!114 &11400000
MonoBehaviour:
  m_ObjectHideFlags: 0
  m_CorrespondingSourceObject: {fileID: 0}
  m_PrefabInstance: {fileID: 0}
  m_PrefabAsset: {fileID: 0}
  m_GameObject: {fileID: 0}
  m_Enabled: 1
  m_EditorHideFlags: 0
  m_Script: {fileID: 11500000, guid: cf6258160aeff9c4ba54e7ad9c7ddf08, type: 3}
  m_Name: 4613
  m_EditorClassIdentifier: 
  originPrefabName: slope01_low_ver1
  objectName: slope01_low_ver1
  position: {x: 874.2, y: 32.06, z: 1316}
  rotation: {x: -0, y: 0.82226646, z: -0, w: 0.56910276}
  scale: {x: 284.44006, y: 284.43997, z: 284.44006}
  sector: 1_2
  id: 4613
  layer: 0
  tag: Untagged
  material: {fileID: 2100000, guid: 758461e20c2231f46a5828e43fcd862d, type: 2}
