%YAML 1.1
%TAG !u! tag:unity3d.com,2011:
--- !u!114 &11400000
MonoBehaviour:
  m_ObjectHideFlags: 0
  m_CorrespondingSourceObject: {fileID: 0}
  m_PrefabInstance: {fileID: 0}
  m_PrefabAsset: {fileID: 0}
  m_GameObject: {fileID: 0}
  m_Enabled: 1
  m_EditorHideFlags: 0
  m_Script: {fileID: 11500000, guid: cf6258160aeff9c4ba54e7ad9c7ddf08, type: 3}
  m_Name: 4629
  m_EditorClassIdentifier: 
  originPrefabName: PF_RegTree_2
  objectName: PF_RegTree_2 (2)
  position: {x: 1432.5028, y: 788.66, z: 3671.961}
  rotation: {x: 0.01822709, y: -0.6484366, z: 0.021384135, w: 0.76075}
  scale: {x: 1.0000002, y: 1.0000001, z: 1.0000001}
  sector: 2_7
  id: 4629
  layer: 8
  tag: Untagged
  material: {fileID: 0}
