%YAML 1.1
%TAG !u! tag:unity3d.com,2011:
--- !u!114 &11400000
MonoBehaviour:
  m_ObjectHideFlags: 0
  m_CorrespondingSourceObject: {fileID: 0}
  m_PrefabInstance: {fileID: 0}
  m_PrefabAsset: {fileID: 0}
  m_GameObject: {fileID: 0}
  m_Enabled: 1
  m_EditorHideFlags: 0
  m_Script: {fileID: 11500000, guid: cf6258160aeff9c4ba54e7ad9c7ddf08, type: 3}
  m_Name: 4643
  m_EditorClassIdentifier: 
  originPrefabName: PF_HexTerrain_LargeRock_1
  objectName: PF_HexTerrain_LargeRock_1 (4)
  position: {x: 660.1876, y: 26.753, z: 1595.2777}
  rotation: {x: -0, y: 0.6437437, z: -0, w: 0.76524127}
  scale: {x: 5.7885027, y: 7.8497844, z: 9.05264}
  sector: 1_3
  id: 4643
  layer: 0
  tag: Untagged
  material: {fileID: 0}
