%YAML 1.1
%TAG !u! tag:unity3d.com,2011:
--- !u!114 &11400000
MonoBehaviour:
  m_ObjectHideFlags: 0
  m_CorrespondingSourceObject: {fileID: 0}
  m_PrefabInstance: {fileID: 0}
  m_PrefabAsset: {fileID: 0}
  m_GameObject: {fileID: 0}
  m_Enabled: 1
  m_EditorHideFlags: 0
  m_Script: {fileID: 11500000, guid: cf6258160aeff9c4ba54e7ad9c7ddf08, type: 3}
  m_Name: 4649
  m_EditorClassIdentifier: 
  originPrefabName: MiddleCrystal_low (2)
  objectName: MiddleCrystal_low (6)
  position: {x: 1674.6616, y: 785.43, z: 3743.6777}
  rotation: {x: -0.2921546, y: -0, z: -0, w: 0.9563711}
  scale: {x: 5, y: 8, z: 7}
  sector: 3_7
  id: 4649
  layer: 0
  tag: Untagged
  material: {fileID: 2100000, guid: fe36741ede331ae408acac449eaf0149, type: 2}
