%YAML 1.1
%TAG !u! tag:unity3d.com,2011:
--- !u!114 &11400000
MonoBehaviour:
  m_ObjectHideFlags: 0
  m_CorrespondingSourceObject: {fileID: 0}
  m_PrefabInstance: {fileID: 0}
  m_PrefabAsset: {fileID: 0}
  m_GameObject: {fileID: 0}
  m_Enabled: 1
  m_EditorHideFlags: 0
  m_Script: {fileID: 11500000, guid: cf6258160aeff9c4ba54e7ad9c7ddf08, type: 3}
  m_Name: 466
  m_EditorClassIdentifier: 
  originPrefabName: SmallCrystal_low (2)
  objectName: SmallCrystal_low (14)
  position: {x: 1560.7821, y: 791.5, z: 3740.2349}
  rotation: {x: -0.1527542, y: -0.38938925, z: 0.33171463, w: 0.84558123}
  scale: {x: 1.0000001, y: 1.0000001, z: 1}
  sector: 3_7
  id: 466
  layer: 0
  tag: Untagged
  material: {fileID: 2100000, guid: fe36741ede331ae408acac449eaf0149, type: 2}
