%YAML 1.1
%TAG !u! tag:unity3d.com,2011:
--- !u!114 &11400000
MonoBehaviour:
  m_ObjectHideFlags: 0
  m_CorrespondingSourceObject: {fileID: 0}
  m_PrefabInstance: {fileID: 0}
  m_PrefabAsset: {fileID: 0}
  m_GameObject: {fileID: 0}
  m_Enabled: 1
  m_EditorHideFlags: 0
  m_Script: {fileID: 11500000, guid: cf6258160aeff9c4ba54e7ad9c7ddf08, type: 3}
  m_Name: 4671
  m_EditorClassIdentifier: 
  originPrefabName: Shard (1)
  objectName: Shard (4)
  position: {x: 1550.1619, y: 789.48035, z: 3694.2876}
  rotation: {x: 0.14549784, y: 0.49866515, z: 0.08533596, w: 0.8502243}
  scale: {x: 250, y: 250, z: 250}
  sector: 3_7
  id: 4671
  layer: 0
  tag: Untagged
  material: {fileID: 2100000, guid: fe36741ede331ae408acac449eaf0149, type: 2}
