%YAML 1.1
%TAG !u! tag:unity3d.com,2011:
--- !u!114 &11400000
MonoBehaviour:
  m_ObjectHideFlags: 0
  m_CorrespondingSourceObject: {fileID: 0}
  m_PrefabInstance: {fileID: 0}
  m_PrefabAsset: {fileID: 0}
  m_GameObject: {fileID: 0}
  m_Enabled: 1
  m_EditorHideFlags: 0
  m_Script: {fileID: 11500000, guid: cf6258160aeff9c4ba54e7ad9c7ddf08, type: 3}
  m_Name: 4675
  m_EditorClassIdentifier: 
  originPrefabName: BigCrystal_NoScratch_low (5)
  objectName: BigCrystal_NoScratch_low (8)
  position: {x: 199.88857, y: 16.548, z: 390.511}
  rotation: {x: 0.99629277, y: -0, z: -0, w: -0.08602747}
  scale: {x: 1, y: 1.0000001, z: 1.0000001}
  sector: 0_0
  id: 4675
  layer: 0
  tag: Untagged
  material: {fileID: 2100000, guid: 84b56cef1adff5f43a0a71dbf93822b7, type: 2}
