%YAML 1.1
%TAG !u! tag:unity3d.com,2011:
--- !u!114 &11400000
MonoBehaviour:
  m_ObjectHideFlags: 0
  m_CorrespondingSourceObject: {fileID: 0}
  m_PrefabInstance: {fileID: 0}
  m_PrefabAsset: {fileID: 0}
  m_GameObject: {fileID: 0}
  m_Enabled: 1
  m_EditorHideFlags: 0
  m_Script: {fileID: 11500000, guid: cf6258160aeff9c4ba54e7ad9c7ddf08, type: 3}
  m_Name: 4677
  m_EditorClassIdentifier: 
  originPrefabName: Shard (2)
  objectName: Shard (3)
  position: {x: 3690.5999, y: 110.270004, z: 3390}
  rotation: {x: -0.3507856, y: 0.12887901, z: -0.20998493, w: 0.90346336}
  scale: {x: 1510.3467, y: 1510.3469, z: 1510.3468}
  sector: 7_6
  id: 4677
  layer: 0
  tag: Untagged
  material: {fileID: 2100000, guid: 84b56cef1adff5f43a0a71dbf93822b7, type: 2}
