%YAML 1.1
%TAG !u! tag:unity3d.com,2011:
--- !u!114 &11400000
MonoBehaviour:
  m_ObjectHideFlags: 0
  m_CorrespondingSourceObject: {fileID: 0}
  m_PrefabInstance: {fileID: 0}
  m_PrefabAsset: {fileID: 0}
  m_GameObject: {fileID: 0}
  m_Enabled: 1
  m_EditorHideFlags: 0
  m_Script: {fileID: 11500000, guid: cf6258160aeff9c4ba54e7ad9c7ddf08, type: 3}
  m_Name: 4710
  m_EditorClassIdentifier: 
  originPrefabName: PF_HexTerrain_Ramp_Bottom
  objectName: PF_HexTerrain_Ramp_Bottom (1)
  position: {x: 1907.5011, y: 55.28, z: 368.1}
  rotation: {x: -0, y: -0, z: -0.058602143, w: 0.9982814}
  scale: {x: 1.9912997, y: 1.9912997, z: 1.9913}
  sector: 3_0
  id: 4710
  layer: 8
  tag: Untagged
  material: {fileID: 0}
