%YAML 1.1
%TAG !u! tag:unity3d.com,2011:
--- !u!114 &11400000
MonoBehaviour:
  m_ObjectHideFlags: 0
  m_CorrespondingSourceObject: {fileID: 0}
  m_PrefabInstance: {fileID: 0}
  m_PrefabAsset: {fileID: 0}
  m_GameObject: {fileID: 0}
  m_Enabled: 1
  m_EditorHideFlags: 0
  m_Script: {fileID: 11500000, guid: cf6258160aeff9c4ba54e7ad9c7ddf08, type: 3}
  m_Name: 4712
  m_EditorClassIdentifier: 
  originPrefabName: Building1_low
  objectName: Building1_low
  position: {x: 216.69, y: 15.01, z: 370.87}
  rotation: {x: -0, y: 0.45653886, z: -0, w: 0.8897035}
  scale: {x: 1, y: 1, z: 1}
  sector: 0_0
  id: 4712
  layer: 0
  tag: Untagged
  material: {fileID: 2100000, guid: 84332c368c74f164dbbf68b028786d38, type: 2}
