%YAML 1.1
%TAG !u! tag:unity3d.com,2011:
--- !u!114 &11400000
MonoBehaviour:
  m_ObjectHideFlags: 0
  m_CorrespondingSourceObject: {fileID: 0}
  m_PrefabInstance: {fileID: 0}
  m_PrefabAsset: {fileID: 0}
  m_GameObject: {fileID: 0}
  m_Enabled: 1
  m_EditorHideFlags: 0
  m_Script: {fileID: 11500000, guid: cf6258160aeff9c4ba54e7ad9c7ddf08, type: 3}
  m_Name: 4763
  m_EditorClassIdentifier: 
  originPrefabName: fence_Set_lot
  objectName: fence_Set_lot (97)
  position: {x: 2476.46, y: 837.03, z: 3869.02}
  rotation: {x: -0.67429966, y: 0.21773766, z: 0.21288472, w: 0.67274845}
  scale: {x: 0.770563, y: 1.0000002, z: 1.0000001}
  sector: 4_7
  id: 4763
  layer: 0
  tag: Untagged
  material: {fileID: 2100000, guid: a1ce2172423559d46a411d49151c60ab, type: 2}
