%YAML 1.1
%TAG !u! tag:unity3d.com,2011:
--- !u!114 &11400000
MonoBehaviour:
  m_ObjectHideFlags: 0
  m_CorrespondingSourceObject: {fileID: 0}
  m_PrefabInstance: {fileID: 0}
  m_PrefabAsset: {fileID: 0}
  m_GameObject: {fileID: 0}
  m_Enabled: 1
  m_EditorHideFlags: 0
  m_Script: {fileID: 11500000, guid: cf6258160aeff9c4ba54e7ad9c7ddf08, type: 3}
  m_Name: 4787
  m_EditorClassIdentifier: 
  originPrefabName: Crystals (2)
  objectName: Crystals (14)
  position: {x: 1437.3401, y: 789.6239, z: 3668.108}
  rotation: {x: 0.1861981, y: -0.011623342, z: 0.021438902, w: 0.98220956}
  scale: {x: 1.5016, y: 1.5016003, z: 1.5016}
  sector: 2_7
  id: 4787
  layer: 0
  tag: Untagged
  material: {fileID: 2100000, guid: fe36741ede331ae408acac449eaf0149, type: 2}
