%YAML 1.1
%TAG !u! tag:unity3d.com,2011:
--- !u!114 &11400000
MonoBehaviour:
  m_ObjectHideFlags: 0
  m_CorrespondingSourceObject: {fileID: 0}
  m_PrefabInstance: {fileID: 0}
  m_PrefabAsset: {fileID: 0}
  m_GameObject: {fileID: 0}
  m_Enabled: 1
  m_EditorHideFlags: 0
  m_Script: {fileID: 11500000, guid: cf6258160aeff9c4ba54e7ad9c7ddf08, type: 3}
  m_Name: 4803
  m_EditorClassIdentifier: 
  originPrefabName: cliff_low 1
  objectName: cliff_low 1
  position: {x: 275.5, y: 14.99725, z: 126.8}
  rotation: {x: -0, y: 0.050958857, z: -0, w: -0.9987008}
  scale: {x: 1.5318999, y: 0.5, z: 0.60000014}
  sector: 0_0
  id: 4803
  layer: 0
  tag: Untagged
  material: {fileID: 0}
