%YAML 1.1
%TAG !u! tag:unity3d.com,2011:
--- !u!114 &11400000
MonoBehaviour:
  m_ObjectHideFlags: 0
  m_CorrespondingSourceObject: {fileID: 0}
  m_PrefabInstance: {fileID: 0}
  m_PrefabAsset: {fileID: 0}
  m_GameObject: {fileID: 0}
  m_Enabled: 1
  m_EditorHideFlags: 0
  m_Script: {fileID: 11500000, guid: cf6258160aeff9c4ba54e7ad9c7ddf08, type: 3}
  m_Name: 481
  m_EditorClassIdentifier: 
  originPrefabName: cliff_low 1
  objectName: cliff_low 1
  position: {x: 3837.329, y: -7.200001, z: 4563.238}
  rotation: {x: -0, y: -0.8892321, z: -0, w: 0.4574563}
  scale: {x: 1.6148002, y: 1.6148, z: 1.6148002}
  sector: 7_9
  id: 481
  layer: 0
  tag: Untagged
  material: {fileID: 0}
