%YAML 1.1
%TAG !u! tag:unity3d.com,2011:
--- !u!114 &11400000
MonoBehaviour:
  m_ObjectHideFlags: 0
  m_CorrespondingSourceObject: {fileID: 0}
  m_PrefabInstance: {fileID: 0}
  m_PrefabAsset: {fileID: 0}
  m_GameObject: {fileID: 0}
  m_Enabled: 1
  m_EditorHideFlags: 0
  m_Script: {fileID: 11500000, guid: cf6258160aeff9c4ba54e7ad9c7ddf08, type: 3}
  m_Name: 4812
  m_EditorClassIdentifier: 
  originPrefabName: fence_low
  objectName: fence_low
  position: {x: 2742.13, y: 793.54706, z: 3810.08}
  rotation: {x: -0.6444367, y: 0.29103503, z: 0.29103497, w: 0.6444367}
  scale: {x: 0.7705631, y: 1.0000002, z: 1.0000002}
  sector: 5_7
  id: 4812
  layer: 0
  tag: Untagged
  material: {fileID: 2100000, guid: 9c7aaa892a67d924e952d5d660fd8138, type: 2}
