%YAML 1.1
%TAG !u! tag:unity3d.com,2011:
--- !u!114 &11400000
MonoBehaviour:
  m_ObjectHideFlags: 0
  m_CorrespondingSourceObject: {fileID: 0}
  m_PrefabInstance: {fileID: 0}
  m_PrefabAsset: {fileID: 0}
  m_GameObject: {fileID: 0}
  m_Enabled: 1
  m_EditorHideFlags: 0
  m_Script: {fileID: 11500000, guid: cf6258160aeff9c4ba54e7ad9c7ddf08, type: 3}
  m_Name: 4818
  m_EditorClassIdentifier: 
  originPrefabName: Shard (1)
  objectName: Shard (39)
  position: {x: 1465.0178, y: 786.06995, z: 3927.17}
  rotation: {x: -0, y: -0.64802986, z: -0, w: 0.761615}
  scale: {x: 300.00003, y: 350, z: 300.00003}
  sector: 2_7
  id: 4818
  layer: 0
  tag: Untagged
  material: {fileID: 2100000, guid: fe36741ede331ae408acac449eaf0149, type: 2}
