%YAML 1.1
%TAG !u! tag:unity3d.com,2011:
--- !u!114 &11400000
MonoBehaviour:
  m_ObjectHideFlags: 0
  m_CorrespondingSourceObject: {fileID: 0}
  m_PrefabInstance: {fileID: 0}
  m_PrefabAsset: {fileID: 0}
  m_GameObject: {fileID: 0}
  m_Enabled: 1
  m_EditorHideFlags: 0
  m_Script: {fileID: 11500000, guid: cf6258160aeff9c4ba54e7ad9c7ddf08, type: 3}
  m_Name: 4846
  m_EditorClassIdentifier: 
  originPrefabName: PF_TallTree_2
  objectName: PF_TallTree_2
  position: {x: 2472.3, y: 837, z: 3954.7}
  rotation: {x: -0, y: -0, z: -0, w: 1}
  scale: {x: 5.1083, y: 5.1083, z: 5.1083}
  sector: 4_7
  id: 4846
  layer: 8
  tag: Untagged
  material: {fileID: 0}
