%YAML 1.1
%TAG !u! tag:unity3d.com,2011:
--- !u!114 &11400000
MonoBehaviour:
  m_ObjectHideFlags: 0
  m_CorrespondingSourceObject: {fileID: 0}
  m_PrefabInstance: {fileID: 0}
  m_PrefabAsset: {fileID: 0}
  m_GameObject: {fileID: 0}
  m_Enabled: 1
  m_EditorHideFlags: 0
  m_Script: {fileID: 11500000, guid: cf6258160aeff9c4ba54e7ad9c7ddf08, type: 3}
  m_Name: 4860
  m_EditorClassIdentifier: 
  originPrefabName: lamp2
  objectName: lamp2 (12)
  position: {x: 3347.34, y: 27.910002, z: 321.96}
  rotation: {x: -0.7055446, y: -0.046976782, z: -0.046976753, w: 0.70554465}
  scale: {x: 100, y: 100.00001, z: 100}
  sector: 6_0
  id: 4860
  layer: 0
  tag: Untagged
  material: {fileID: 2100000, guid: 1706951de166c3c41ae4a01f5a1073d6, type: 2}
