%YAML 1.1
%TAG !u! tag:unity3d.com,2011:
--- !u!114 &11400000
MonoBehaviour:
  m_ObjectHideFlags: 0
  m_CorrespondingSourceObject: {fileID: 0}
  m_PrefabInstance: {fileID: 0}
  m_PrefabAsset: {fileID: 0}
  m_GameObject: {fileID: 0}
  m_Enabled: 1
  m_EditorHideFlags: 0
  m_Script: {fileID: 11500000, guid: cf6258160aeff9c4ba54e7ad9c7ddf08, type: 3}
  m_Name: 4874
  m_EditorClassIdentifier: 
  originPrefabName: Cabin_TypeB_low
  objectName: Cabin_TypeB_low (4)
  position: {x: 2663.79, y: 780.88, z: 3767.39}
  rotation: {x: -0.687874, y: -0.19387177, z: -0.16379651, w: 0.68001014}
  scale: {x: 0.9999999, y: 1.0000001, z: 1}
  sector: 5_7
  id: 4874
  layer: 0
  tag: Untagged
  material: {fileID: 2100000, guid: 1d9c79d2b69e1724faa9b27e55804864, type: 2}
