%YAML 1.1
%TAG !u! tag:unity3d.com,2011:
--- !u!114 &11400000
MonoBehaviour:
  m_ObjectHideFlags: 0
  m_CorrespondingSourceObject: {fileID: 0}
  m_PrefabInstance: {fileID: 0}
  m_PrefabAsset: {fileID: 0}
  m_GameObject: {fileID: 0}
  m_Enabled: 1
  m_EditorHideFlags: 0
  m_Script: {fileID: 11500000, guid: cf6258160aeff9c4ba54e7ad9c7ddf08, type: 3}
  m_Name: 4885
  m_EditorClassIdentifier: 
  originPrefabName: LongRock_ver1
  objectName: LongRock_ver1 (2)
  position: {x: 3577.2998, y: 73.50001, z: 78.4}
  rotation: {x: 0.26573572, y: -0.48043042, z: 0.27512378, w: 0.7892263}
  scale: {x: 22.908407, y: 54.700363, z: 40.457832}
  sector: 7_0
  id: 4885
  layer: 0
  tag: Untagged
  material: {fileID: 2100000, guid: 44f03d5a026811e46b777802de6d50ab, type: 2}
