%YAML 1.1
%TAG !u! tag:unity3d.com,2011:
--- !u!114 &11400000
MonoBehaviour:
  m_ObjectHideFlags: 0
  m_CorrespondingSourceObject: {fileID: 0}
  m_PrefabInstance: {fileID: 0}
  m_PrefabAsset: {fileID: 0}
  m_GameObject: {fileID: 0}
  m_Enabled: 1
  m_EditorHideFlags: 0
  m_Script: {fileID: 11500000, guid: cf6258160aeff9c4ba54e7ad9c7ddf08, type: 3}
  m_Name: 4944
  m_EditorClassIdentifier: 
  originPrefabName: Prefab_SmallBarrel_color01
  objectName: Prefab_SmallBarrel_color01
  position: {x: 3288.3962, y: 29.044062, z: 233.66858}
  rotation: {x: -0, y: -0, z: -4.656613e-10, w: 1.0000001}
  scale: {x: 1.5794998, y: 1.5795, z: 1.5794998}
  sector: 6_0
  id: 4944
  layer: 0
  tag: Untagged
  material: {fileID: 2100000, guid: c758c5a4b3834b644b1145534af1f7b9, type: 2}
