%YAML 1.1
%TAG !u! tag:unity3d.com,2011:
--- !u!114 &11400000
MonoBehaviour:
  m_ObjectHideFlags: 0
  m_CorrespondingSourceObject: {fileID: 0}
  m_PrefabInstance: {fileID: 0}
  m_PrefabAsset: {fileID: 0}
  m_GameObject: {fileID: 0}
  m_Enabled: 1
  m_EditorHideFlags: 0
  m_Script: {fileID: 11500000, guid: cf6258160aeff9c4ba54e7ad9c7ddf08, type: 3}
  m_Name: 4997
  m_EditorClassIdentifier: 
  originPrefabName: cliff_low
  objectName: cliff_low (9)
  position: {x: 1498.4, y: 791.8, z: 3916.7}
  rotation: {x: -0, y: -0.982364, z: -0, w: 0.18697882}
  scale: {x: 0.20000008, y: 0.25, z: 0.20000008}
  sector: 2_7
  id: 4997
  layer: 0
  tag: Untagged
  material: {fileID: 0}
