%YAML 1.1
%TAG !u! tag:unity3d.com,2011:
--- !u!114 &11400000
MonoBehaviour:
  m_ObjectHideFlags: 0
  m_CorrespondingSourceObject: {fileID: 0}
  m_PrefabInstance: {fileID: 0}
  m_PrefabAsset: {fileID: 0}
  m_GameObject: {fileID: 0}
  m_Enabled: 1
  m_EditorHideFlags: 0
  m_Script: {fileID: 11500000, guid: cf6258160aeff9c4ba54e7ad9c7ddf08, type: 3}
  m_Name: 4999
  m_EditorClassIdentifier: 
  originPrefabName: PF_TallTree_1
  objectName: PF_TallTree_1 (1)
  position: {x: 3435, y: 111.6, z: 1644}
  rotation: {x: -0, y: -0, z: -0, w: 1}
  scale: {x: 5.0111, y: 5.0111, z: 5.0111}
  sector: 6_3
  id: 4999
  layer: 8
  tag: Untagged
  material: {fileID: 0}
