%YAML 1.1
%TAG !u! tag:unity3d.com,2011:
--- !u!114 &11400000
MonoBehaviour:
  m_ObjectHideFlags: 0
  m_CorrespondingSourceObject: {fileID: 0}
  m_PrefabInstance: {fileID: 0}
  m_PrefabAsset: {fileID: 0}
  m_GameObject: {fileID: 0}
  m_Enabled: 1
  m_EditorHideFlags: 0
  m_Script: {fileID: 11500000, guid: cf6258160aeff9c4ba54e7ad9c7ddf08, type: 3}
  m_Name: 5004
  m_EditorClassIdentifier: 
  originPrefabName: MiddleCrystal_low (7)
  objectName: MiddleCrystal_low (10)
  position: {x: 2812.7, y: 779.6, z: 3909.9}
  rotation: {x: -0, y: -0, z: -0.41645673, w: 0.90915555}
  scale: {x: 58.92646, y: 58.92646, z: 58.926468}
  sector: 5_7
  id: 5004
  layer: 0
  tag: Untagged
  material: {fileID: 2100000, guid: 21460ee8ba22c2c4087816cacc9df76f, type: 2}
