%YAML 1.1
%TAG !u! tag:unity3d.com,2011:
--- !u!114 &11400000
MonoBehaviour:
  m_ObjectHideFlags: 0
  m_CorrespondingSourceObject: {fileID: 0}
  m_PrefabInstance: {fileID: 0}
  m_PrefabAsset: {fileID: 0}
  m_GameObject: {fileID: 0}
  m_Enabled: 1
  m_EditorHideFlags: 0
  m_Script: {fileID: 11500000, guid: cf6258160aeff9c4ba54e7ad9c7ddf08, type: 3}
  m_Name: 5025
  m_EditorClassIdentifier: 
  originPrefabName: fence_low
  objectName: fence_low (2)
  position: {x: 1485.87, y: 793.20386, z: 3690.0857}
  rotation: {x: -0.7061321, y: -0.03711397, z: 0.03711397, w: 0.7061321}
  scale: {x: 0.7705631, y: 1, z: 1.0000001}
  sector: 2_7
  id: 5025
  layer: 0
  tag: Untagged
  material: {fileID: 2100000, guid: 9c7aaa892a67d924e952d5d660fd8138, type: 2}
