%YAML 1.1
%TAG !u! tag:unity3d.com,2011:
--- !u!114 &11400000
MonoBehaviour:
  m_ObjectHideFlags: 0
  m_CorrespondingSourceObject: {fileID: 0}
  m_PrefabInstance: {fileID: 0}
  m_PrefabAsset: {fileID: 0}
  m_GameObject: {fileID: 0}
  m_Enabled: 1
  m_EditorHideFlags: 0
  m_Script: {fileID: 11500000, guid: cf6258160aeff9c4ba54e7ad9c7ddf08, type: 3}
  m_Name: 5041
  m_EditorClassIdentifier: 
  originPrefabName: PF_HexTerrain_LargeRock_4
  objectName: PF_HexTerrain_LargeRock_4 (5)
  position: {x: 633.35, y: 21.585, z: 1633.4}
  rotation: {x: -0, y: -0, z: 0.0574374, w: 0.99834913}
  scale: {x: 2.2534006, y: 2.2534006, z: 2.2534}
  sector: 1_3
  id: 5041
  layer: 0
  tag: Untagged
  material: {fileID: 0}
