%YAML 1.1
%TAG !u! tag:unity3d.com,2011:
--- !u!114 &11400000
MonoBehaviour:
  m_ObjectHideFlags: 0
  m_CorrespondingSourceObject: {fileID: 0}
  m_PrefabInstance: {fileID: 0}
  m_PrefabAsset: {fileID: 0}
  m_GameObject: {fileID: 0}
  m_Enabled: 1
  m_EditorHideFlags: 0
  m_Script: {fileID: 11500000, guid: cf6258160aeff9c4ba54e7ad9c7ddf08, type: 3}
  m_Name: 5071
  m_EditorClassIdentifier: 
  originPrefabName: LongRock_ver1
  objectName: LongRock_ver1 (17)
  position: {x: 3784.5, y: 10, z: -18.699997}
  rotation: {x: -0.09536895, y: 0.6027958, z: 0.78306156, w: 0.11981922}
  scale: {x: 34.942013, y: 90.27112, z: 46.074524}
  sector: 7_0
  id: 5071
  layer: 0
  tag: Untagged
  material: {fileID: 2100000, guid: 44f03d5a026811e46b777802de6d50ab, type: 2}
