%YAML 1.1
%TAG !u! tag:unity3d.com,2011:
--- !u!114 &11400000
MonoBehaviour:
  m_ObjectHideFlags: 0
  m_CorrespondingSourceObject: {fileID: 0}
  m_PrefabInstance: {fileID: 0}
  m_PrefabAsset: {fileID: 0}
  m_GameObject: {fileID: 0}
  m_Enabled: 1
  m_EditorHideFlags: 0
  m_Script: {fileID: 11500000, guid: cf6258160aeff9c4ba54e7ad9c7ddf08, type: 3}
  m_Name: 5079
  m_EditorClassIdentifier: 
  originPrefabName: SmallCrystal_low (2)
  objectName: SmallCrystal_low (5)
  position: {x: 1469.6816, y: 793.4389, z: 3668.5586}
  rotation: {x: -0, y: -0, z: 0.18486461, w: 0.98276407}
  scale: {x: 1, y: 1, z: 1}
  sector: 2_7
  id: 5079
  layer: 0
  tag: Untagged
  material: {fileID: 2100000, guid: fe36741ede331ae408acac449eaf0149, type: 2}
