%YAML 1.1
%TAG !u! tag:unity3d.com,2011:
--- !u!114 &11400000
MonoBehaviour:
  m_ObjectHideFlags: 0
  m_CorrespondingSourceObject: {fileID: 0}
  m_PrefabInstance: {fileID: 0}
  m_PrefabAsset: {fileID: 0}
  m_GameObject: {fileID: 0}
  m_Enabled: 1
  m_EditorHideFlags: 0
  m_Script: {fileID: 11500000, guid: cf6258160aeff9c4ba54e7ad9c7ddf08, type: 3}
  m_Name: 5083
  m_EditorClassIdentifier: 
  originPrefabName: cliff_low 1
  objectName: cliff_low 1
  position: {x: 447.2, y: -19.189, z: 1120.6}
  rotation: {x: -0, y: 0.6292554, z: -0, w: 0.7771987}
  scale: {x: 1.0000002, y: 1.26915, z: 0.6000004}
  sector: 0_2
  id: 5083
  layer: 0
  tag: Untagged
  material: {fileID: 0}
