%YAML 1.1
%TAG !u! tag:unity3d.com,2011:
--- !u!114 &11400000
MonoBehaviour:
  m_ObjectHideFlags: 0
  m_CorrespondingSourceObject: {fileID: 0}
  m_PrefabInstance: {fileID: 0}
  m_PrefabAsset: {fileID: 0}
  m_GameObject: {fileID: 0}
  m_Enabled: 1
  m_EditorHideFlags: 0
  m_Script: {fileID: 11500000, guid: cf6258160aeff9c4ba54e7ad9c7ddf08, type: 3}
  m_Name: 5093
  m_EditorClassIdentifier: 
  originPrefabName: stool
  objectName: stool (20)
  position: {x: 3325.0952, y: 30.338917, z: 252.84613}
  rotation: {x: -0.024714839, y: 0.34475753, z: 0.005920886, w: 0.93834776}
  scale: {x: 0.40000004, y: 0.4, z: 0.40000004}
  sector: 6_0
  id: 5093
  layer: 0
  tag: Untagged
  material: {fileID: 2100000, guid: 9c9003e8bda32a44abf7207b5cda9f8c, type: 2}
