%YAML 1.1
%TAG !u! tag:unity3d.com,2011:
--- !u!114 &11400000
MonoBehaviour:
  m_ObjectHideFlags: 0
  m_CorrespondingSourceObject: {fileID: 0}
  m_PrefabInstance: {fileID: 0}
  m_PrefabAsset: {fileID: 0}
  m_GameObject: {fileID: 0}
  m_Enabled: 1
  m_EditorHideFlags: 0
  m_Script: {fileID: 11500000, guid: cf6258160aeff9c4ba54e7ad9c7ddf08, type: 3}
  m_Name: 511
  m_EditorClassIdentifier: 
  originPrefabName: BigCrystal_NoScratch_low (1)
  objectName: BigCrystal_NoScratch_low (1)
  position: {x: 1421.48, y: 786.4099, z: 3659.99}
  rotation: {x: 0.6339313, y: -0, z: -0, w: 0.7733894}
  scale: {x: 5, y: 5.000001, z: 5.000001}
  sector: 2_7
  id: 511
  layer: 0
  tag: Untagged
  material: {fileID: 2100000, guid: fe36741ede331ae408acac449eaf0149, type: 2}
