%YAML 1.1
%TAG !u! tag:unity3d.com,2011:
--- !u!114 &11400000
MonoBehaviour:
  m_ObjectHideFlags: 0
  m_CorrespondingSourceObject: {fileID: 0}
  m_PrefabInstance: {fileID: 0}
  m_PrefabAsset: {fileID: 0}
  m_GameObject: {fileID: 0}
  m_Enabled: 1
  m_EditorHideFlags: 0
  m_Script: {fileID: 11500000, guid: cf6258160aeff9c4ba54e7ad9c7ddf08, type: 3}
  m_Name: 5112
  m_EditorClassIdentifier: 
  originPrefabName: Crystals (2)
  objectName: Crystals (9)
  position: {x: 1467.69, y: 792.61993, z: 3666.5752}
  rotation: {x: 0.05874161, y: 0.15725364, z: 0.12951486, w: 0.97726494}
  scale: {x: 4, y: 5, z: 4}
  sector: 2_7
  id: 5112
  layer: 0
  tag: Untagged
  material: {fileID: 2100000, guid: fe36741ede331ae408acac449eaf0149, type: 2}
