%YAML 1.1
%TAG !u! tag:unity3d.com,2011:
--- !u!114 &11400000
MonoBehaviour:
  m_ObjectHideFlags: 0
  m_CorrespondingSourceObject: {fileID: 0}
  m_PrefabInstance: {fileID: 0}
  m_PrefabAsset: {fileID: 0}
  m_GameObject: {fileID: 0}
  m_Enabled: 1
  m_EditorHideFlags: 0
  m_Script: {fileID: 11500000, guid: cf6258160aeff9c4ba54e7ad9c7ddf08, type: 3}
  m_Name: 5176
  m_EditorClassIdentifier: 
  originPrefabName: Cabin_TypeB_low
  objectName: Cabin_TypeB_low
  position: {x: 1030.7876, y: 234.61, z: 2715.8533}
  rotation: {x: -0.046553496, y: -0.70557266, z: -0.70557266, w: 0.046553496}
  scale: {x: 1, y: 1, z: 1}
  sector: 2_5
  id: 5176
  layer: 0
  tag: Untagged
  material: {fileID: 2100000, guid: c8fa1a7508e228c4b8f60b79b5656797, type: 2}
