%YAML 1.1
%TAG !u! tag:unity3d.com,2011:
--- !u!114 &11400000
MonoBehaviour:
  m_ObjectHideFlags: 0
  m_CorrespondingSourceObject: {fileID: 0}
  m_PrefabInstance: {fileID: 0}
  m_PrefabAsset: {fileID: 0}
  m_GameObject: {fileID: 0}
  m_Enabled: 1
  m_EditorHideFlags: 0
  m_Script: {fileID: 11500000, guid: cf6258160aeff9c4ba54e7ad9c7ddf08, type: 3}
  m_Name: 534
  m_EditorClassIdentifier: 
  originPrefabName: BigCrystal_NoScratch_low (6)
  objectName: BigCrystal_NoScratch_low (11)
  position: {x: 3197.5, y: 20.1, z: 232.90001}
  rotation: {x: -0, y: -0, z: -0, w: 1}
  scale: {x: 10.86, y: 10.86, z: 10.86}
  sector: 6_0
  id: 534
  layer: 0
  tag: Untagged
  material: {fileID: 2100000, guid: 84a7dfcbe1f4aad4d9577290f0c4706d, type: 2}
