%YAML 1.1
%TAG !u! tag:unity3d.com,2011:
--- !u!114 &11400000
MonoBehaviour:
  m_ObjectHideFlags: 0
  m_CorrespondingSourceObject: {fileID: 0}
  m_PrefabInstance: {fileID: 0}
  m_PrefabAsset: {fileID: 0}
  m_GameObject: {fileID: 0}
  m_Enabled: 1
  m_EditorHideFlags: 0
  m_Script: {fileID: 11500000, guid: cf6258160aeff9c4ba54e7ad9c7ddf08, type: 3}
  m_Name: 54
  m_EditorClassIdentifier: 
  originPrefabName: mushroomHouse_TypeB_low
  objectName: mushroomHouse_TypeB_low
  position: {x: 3476.078, y: 111.75609, z: 3391.6682}
  rotation: {x: -0, y: -0.34698012, z: -0, w: 0.9378725}
  scale: {x: 1, y: 1, z: 1}
  sector: 6_6
  id: 54
  layer: 0
  tag: Untagged
  material: {fileID: 2100000, guid: fd47d02e6fe634645817a842167cf7f7, type: 2}
