%YAML 1.1
%TAG !u! tag:unity3d.com,2011:
--- !u!114 &11400000
MonoBehaviour:
  m_ObjectHideFlags: 0
  m_CorrespondingSourceObject: {fileID: 0}
  m_PrefabInstance: {fileID: 0}
  m_PrefabAsset: {fileID: 0}
  m_GameObject: {fileID: 0}
  m_Enabled: 1
  m_EditorHideFlags: 0
  m_Script: {fileID: 11500000, guid: cf6258160aeff9c4ba54e7ad9c7ddf08, type: 3}
  m_Name: 547
  m_EditorClassIdentifier: 
  originPrefabName: BigRock_ver1
  objectName: BigRock_ver1 (2)
  position: {x: 3509.8, y: 29.8, z: 1129.6}
  rotation: {x: -0, y: -0, z: 0.48262766, w: 0.87582564}
  scale: {x: 14.656, y: 14.656, z: 14.656}
  sector: 7_2
  id: 547
  layer: 0
  tag: Untagged
  material: {fileID: 2100000, guid: a10d9d93a1f608349be324e4e1a329fe, type: 2}
