%YAML 1.1
%TAG !u! tag:unity3d.com,2011:
--- !u!114 &11400000
MonoBehaviour:
  m_ObjectHideFlags: 0
  m_CorrespondingSourceObject: {fileID: 0}
  m_PrefabInstance: {fileID: 0}
  m_PrefabAsset: {fileID: 0}
  m_GameObject: {fileID: 0}
  m_Enabled: 1
  m_EditorHideFlags: 0
  m_Script: {fileID: 11500000, guid: cf6258160aeff9c4ba54e7ad9c7ddf08, type: 3}
  m_Name: 551
  m_EditorClassIdentifier: 
  originPrefabName: Crystals (2)
  objectName: Crystals (44)
  position: {x: 1568.5671, y: 766.9899, z: 4045.8801}
  rotation: {x: 0.018530529, y: -0.9445086, z: 0.17451106, w: 0.27767965}
  scale: {x: 7.9999995, y: 11.000001, z: 7.999999}
  sector: 3_8
  id: 551
  layer: 0
  tag: Untagged
  material: {fileID: 2100000, guid: fe36741ede331ae408acac449eaf0149, type: 2}
