%YAML 1.1
%TAG !u! tag:unity3d.com,2011:
--- !u!114 &11400000
MonoBehaviour:
  m_ObjectHideFlags: 0
  m_CorrespondingSourceObject: {fileID: 0}
  m_PrefabInstance: {fileID: 0}
  m_PrefabAsset: {fileID: 0}
  m_GameObject: {fileID: 0}
  m_Enabled: 1
  m_EditorHideFlags: 0
  m_Script: {fileID: 11500000, guid: cf6258160aeff9c4ba54e7ad9c7ddf08, type: 3}
  m_Name: 557
  m_EditorClassIdentifier: 
  originPrefabName: frewood_1
  objectName: frewood_1
  position: {x: 3337.478, y: 28.37523, z: 85.32283}
  rotation: {x: -0.03439297, y: -0.000052382326, z: -0.0015221508, w: 0.9994073}
  scale: {x: 0.20000002, y: 0.20000003, z: 0.19999999}
  sector: 6_0
  id: 557
  layer: 0
  tag: Untagged
  material: {fileID: 2100000, guid: 9c9003e8bda32a44abf7207b5cda9f8c, type: 2}
