%YAML 1.1
%TAG !u! tag:unity3d.com,2011:
--- !u!114 &11400000
MonoBehaviour:
  m_ObjectHideFlags: 0
  m_CorrespondingSourceObject: {fileID: 0}
  m_PrefabInstance: {fileID: 0}
  m_PrefabAsset: {fileID: 0}
  m_GameObject: {fileID: 0}
  m_Enabled: 1
  m_EditorHideFlags: 0
  m_Script: {fileID: 11500000, guid: cf6258160aeff9c4ba54e7ad9c7ddf08, type: 3}
  m_Name: 558
  m_EditorClassIdentifier: 
  originPrefabName: BigCrystal_NoScratch_low (7)
  objectName: BigCrystal_NoScratch_low (8)
  position: {x: 1754.8, y: 826.9, z: 3450.9}
  rotation: {x: -0, y: -0, z: -0, w: 1}
  scale: {x: 30, y: 30, z: 30}
  sector: 3_6
  id: 558
  layer: 0
  tag: Untagged
  material: {fileID: 2100000, guid: 21460ee8ba22c2c4087816cacc9df76f, type: 2}
