%YAML 1.1
%TAG !u! tag:unity3d.com,2011:
--- !u!114 &11400000
MonoBehaviour:
  m_ObjectHideFlags: 0
  m_CorrespondingSourceObject: {fileID: 0}
  m_PrefabInstance: {fileID: 0}
  m_PrefabAsset: {fileID: 0}
  m_GameObject: {fileID: 0}
  m_Enabled: 1
  m_EditorHideFlags: 0
  m_Script: {fileID: 11500000, guid: cf6258160aeff9c4ba54e7ad9c7ddf08, type: 3}
  m_Name: 561
  m_EditorClassIdentifier: 
  originPrefabName: cliff_low
  objectName: cliff_low (12)
  position: {x: 644.79, y: 21.234, z: 655.81}
  rotation: {x: -0, y: -0.060216866, z: -0, w: -0.99818534}
  scale: {x: 0.60954225, y: 0.23086561, z: 0.42841828}
  sector: 1_1
  id: 561
  layer: 0
  tag: Untagged
  material: {fileID: 0}
