%YAML 1.1
%TAG !u! tag:unity3d.com,2011:
--- !u!114 &11400000
MonoBehaviour:
  m_ObjectHideFlags: 0
  m_CorrespondingSourceObject: {fileID: 0}
  m_PrefabInstance: {fileID: 0}
  m_PrefabAsset: {fileID: 0}
  m_GameObject: {fileID: 0}
  m_Enabled: 1
  m_EditorHideFlags: 0
  m_Script: {fileID: 11500000, guid: cf6258160aeff9c4ba54e7ad9c7ddf08, type: 3}
  m_Name: 564
  m_EditorClassIdentifier: 
  originPrefabName: Bench
  objectName: Bench (1)
  position: {x: 1440.1913, y: 796.3701, z: 3647.243}
  rotation: {x: -0, y: 0.7071068, z: -0, w: -0.7071068}
  scale: {x: 1.0973405, y: 1.0973402, z: 1.097341}
  sector: 2_7
  id: 564
  layer: 0
  tag: Untagged
  material: {fileID: 2100000, guid: 2505757ef4918ba4997e86029dbbfd7a, type: 2}
