%YAML 1.1
%TAG !u! tag:unity3d.com,2011:
--- !u!114 &11400000
MonoBehaviour:
  m_ObjectHideFlags: 0
  m_CorrespondingSourceObject: {fileID: 0}
  m_PrefabInstance: {fileID: 0}
  m_PrefabAsset: {fileID: 0}
  m_GameObject: {fileID: 0}
  m_Enabled: 1
  m_EditorHideFlags: 0
  m_Script: {fileID: 11500000, guid: cf6258160aeff9c4ba54e7ad9c7ddf08, type: 3}
  m_Name: 589
  m_EditorClassIdentifier: 
  originPrefabName: BigRock_ver1
  objectName: BigRock_ver1
  position: {x: 3424.8, y: 91, z: 3478.5}
  rotation: {x: -0, y: -0, z: -0, w: 1}
  scale: {x: 36.81, y: 36.81, z: 36.81}
  sector: 6_6
  id: 589
  layer: 0
  tag: Untagged
  material: {fileID: 2100000, guid: a10d9d93a1f608349be324e4e1a329fe, type: 2}
