%YAML 1.1
%TAG !u! tag:unity3d.com,2011:
--- !u!114 &11400000
MonoBehaviour:
  m_ObjectHideFlags: 0
  m_CorrespondingSourceObject: {fileID: 0}
  m_PrefabInstance: {fileID: 0}
  m_PrefabAsset: {fileID: 0}
  m_GameObject: {fileID: 0}
  m_Enabled: 1
  m_EditorHideFlags: 0
  m_Script: {fileID: 11500000, guid: cf6258160aeff9c4ba54e7ad9c7ddf08, type: 3}
  m_Name: 591
  m_EditorClassIdentifier: 
  originPrefabName: Prefab_SmallCrate02_color01
  objectName: Prefab_SmallCrate02_color01
  position: {x: 213.48698, y: 14.982, z: 404.915}
  rotation: {x: -0, y: -0.38618448, z: -0, w: 0.92242163}
  scale: {x: 1.0000001, y: 1, z: 1.0000001}
  sector: 0_0
  id: 591
  layer: 0
  tag: Untagged
  material: {fileID: 2100000, guid: c758c5a4b3834b644b1145534af1f7b9, type: 2}
