%YAML 1.1
%TAG !u! tag:unity3d.com,2011:
--- !u!114 &11400000
MonoBehaviour:
  m_ObjectHideFlags: 0
  m_CorrespondingSourceObject: {fileID: 0}
  m_PrefabInstance: {fileID: 0}
  m_PrefabAsset: {fileID: 0}
  m_GameObject: {fileID: 0}
  m_Enabled: 1
  m_EditorHideFlags: 0
  m_Script: {fileID: 11500000, guid: cf6258160aeff9c4ba54e7ad9c7ddf08, type: 3}
  m_Name: 599
  m_EditorClassIdentifier: 
  originPrefabName: Building1_low
  objectName: Building1_low
  position: {x: 605.92, y: 16.25, z: 463.77}
  rotation: {x: -0.0067020166, y: 0.7998458, z: -0.005028714, w: 0.60014707}
  scale: {x: 1.0000001, y: 0.99999994, z: 1.0000001}
  sector: 1_0
  id: 599
  layer: 0
  tag: Untagged
  material: {fileID: 2100000, guid: 84332c368c74f164dbbf68b028786d38, type: 2}
