%YAML 1.1
%TAG !u! tag:unity3d.com,2011:
--- !u!114 &11400000
MonoBehaviour:
  m_ObjectHideFlags: 0
  m_CorrespondingSourceObject: {fileID: 0}
  m_PrefabInstance: {fileID: 0}
  m_PrefabAsset: {fileID: 0}
  m_GameObject: {fileID: 0}
  m_Enabled: 1
  m_EditorHideFlags: 0
  m_Script: {fileID: 11500000, guid: cf6258160aeff9c4ba54e7ad9c7ddf08, type: 3}
  m_Name: 600
  m_EditorClassIdentifier: 
  originPrefabName: Cabin_TypeB_low
  objectName: Cabin_TypeB_low (8)
  position: {x: 2747.6, y: 760.9176, z: 3712.8}
  rotation: {x: 0.118334666, y: -0.69713485, z: -0.69713473, w: -0.11833467}
  scale: {x: 1, y: 1.0000001, z: 1}
  sector: 5_7
  id: 600
  layer: 0
  tag: Untagged
  material: {fileID: 2100000, guid: b71830094d28b7942ae5def6d7435c06, type: 2}
