%YAML 1.1
%TAG !u! tag:unity3d.com,2011:
--- !u!114 &11400000
MonoBehaviour:
  m_ObjectHideFlags: 0
  m_CorrespondingSourceObject: {fileID: 0}
  m_PrefabInstance: {fileID: 0}
  m_PrefabAsset: {fileID: 0}
  m_GameObject: {fileID: 0}
  m_Enabled: 1
  m_EditorHideFlags: 0
  m_Script: {fileID: 11500000, guid: cf6258160aeff9c4ba54e7ad9c7ddf08, type: 3}
  m_Name: 618
  m_EditorClassIdentifier: 
  originPrefabName: Crystals
  objectName: Crystals (1)
  position: {x: 3649.4, y: 38.43286, z: 2455.2}
  rotation: {x: -0, y: 0.8004112, z: -0, w: 0.5994514}
  scale: {x: 6.8311276, y: 6.8311253, z: 6.8311276}
  sector: 7_4
  id: 618
  layer: 0
  tag: Untagged
  material: {fileID: 2100000, guid: a1ab44f7a3cf5614986dac6313698858, type: 2}
