%YAML 1.1
%TAG !u! tag:unity3d.com,2011:
--- !u!114 &11400000
MonoBehaviour:
  m_ObjectHideFlags: 0
  m_CorrespondingSourceObject: {fileID: 0}
  m_PrefabInstance: {fileID: 0}
  m_PrefabAsset: {fileID: 0}
  m_GameObject: {fileID: 0}
  m_Enabled: 1
  m_EditorHideFlags: 0
  m_Script: {fileID: 11500000, guid: cf6258160aeff9c4ba54e7ad9c7ddf08, type: 3}
  m_Name: 619
  m_EditorClassIdentifier: 
  originPrefabName: lamppost
  objectName: lamppost
  position: {x: 600.6852, y: 20.02, z: 877.2027}
  rotation: {x: -0.47252244, y: 0.52604425, z: 0.52604425, w: 0.47252244}
  scale: {x: 0.8, y: 0.8, z: 0.8}
  sector: 1_1
  id: 619
  layer: 0
  tag: Untagged
  material: {fileID: 2100000, guid: 75247aa582c4d7d428150acc8571321d, type: 2}
