%YAML 1.1
%TAG !u! tag:unity3d.com,2011:
--- !u!114 &11400000
MonoBehaviour:
  m_ObjectHideFlags: 0
  m_CorrespondingSourceObject: {fileID: 0}
  m_PrefabInstance: {fileID: 0}
  m_PrefabAsset: {fileID: 0}
  m_GameObject: {fileID: 0}
  m_Enabled: 1
  m_EditorHideFlags: 0
  m_Script: {fileID: 11500000, guid: cf6258160aeff9c4ba54e7ad9c7ddf08, type: 3}
  m_Name: 644
  m_EditorClassIdentifier: 
  originPrefabName: Crystals (2)
  objectName: Crystals (61)
  position: {x: 1541.99, y: 789.93195, z: 3883.32}
  rotation: {x: -0.13406515, y: -0.941435, z: 0.0976719, w: -0.29357615}
  scale: {x: 1.0000002, y: 1, z: 1.0000004}
  sector: 3_7
  id: 644
  layer: 0
  tag: Untagged
  material: {fileID: 2100000, guid: fe36741ede331ae408acac449eaf0149, type: 2}
