%YAML 1.1
%TAG !u! tag:unity3d.com,2011:
--- !u!114 &11400000
MonoBehaviour:
  m_ObjectHideFlags: 0
  m_CorrespondingSourceObject: {fileID: 0}
  m_PrefabInstance: {fileID: 0}
  m_PrefabAsset: {fileID: 0}
  m_GameObject: {fileID: 0}
  m_Enabled: 1
  m_EditorHideFlags: 0
  m_Script: {fileID: 11500000, guid: cf6258160aeff9c4ba54e7ad9c7ddf08, type: 3}
  m_Name: 647
  m_EditorClassIdentifier: 
  originPrefabName: building4_low2
  objectName: building4_low2 (10)
  position: {x: 714.8838, y: 18.040195, z: 478.61536}
  rotation: {x: -0.0049154265, y: -0.8625873, z: 0.0028827202, w: 0.5058763}
  scale: {x: 1.0000004, y: 0.99999994, z: 1.0000004}
  sector: 1_0
  id: 647
  layer: 0
  tag: Untagged
  material: {fileID: 2100000, guid: 0bd801a3c4ae97c44a8588aa16b83064, type: 2}
