%YAML 1.1
%TAG !u! tag:unity3d.com,2011:
--- !u!114 &11400000
MonoBehaviour:
  m_ObjectHideFlags: 0
  m_CorrespondingSourceObject: {fileID: 0}
  m_PrefabInstance: {fileID: 0}
  m_PrefabAsset: {fileID: 0}
  m_GameObject: {fileID: 0}
  m_Enabled: 1
  m_EditorHideFlags: 0
  m_Script: {fileID: 11500000, guid: cf6258160aeff9c4ba54e7ad9c7ddf08, type: 3}
  m_Name: 675
  m_EditorClassIdentifier: 
  originPrefabName: Prefab_BigBarrel_color01
  objectName: Prefab_BigBarrel_color01 (3)
  position: {x: 803.97736, y: 22.138, z: 430.364}
  rotation: {x: 0.0042424574, y: 0.0024490256, z: 0.030103086, w: 0.9995348}
  scale: {x: 1, y: 0.99999994, z: 1}
  sector: 1_0
  id: 675
  layer: 0
  tag: Untagged
  material: {fileID: 2100000, guid: c758c5a4b3834b644b1145534af1f7b9, type: 2}
