%YAML 1.1
%TAG !u! tag:unity3d.com,2011:
--- !u!114 &11400000
MonoBehaviour:
  m_ObjectHideFlags: 0
  m_CorrespondingSourceObject: {fileID: 0}
  m_PrefabInstance: {fileID: 0}
  m_PrefabAsset: {fileID: 0}
  m_GameObject: {fileID: 0}
  m_Enabled: 1
  m_EditorHideFlags: 0
  m_Script: {fileID: 11500000, guid: cf6258160aeff9c4ba54e7ad9c7ddf08, type: 3}
  m_Name: 69
  m_EditorClassIdentifier: 
  originPrefabName: StoneWall_low
  objectName: StoneWall_low (519)
  position: {x: 1386.2672, y: 236.50314, z: 2694.7178}
  rotation: {x: -0.111367345, y: 0.7001333, z: -0.062065873, w: 0.7025372}
  scale: {x: 1, y: 1, z: 1}
  sector: 2_5
  id: 69
  layer: 0
  tag: Untagged
  material: {fileID: 2100000, guid: d9bef21c518766a4a94d454c814e7d41, type: 2}
