%YAML 1.1
%TAG !u! tag:unity3d.com,2011:
--- !u!114 &11400000
MonoBehaviour:
  m_ObjectHideFlags: 0
  m_CorrespondingSourceObject: {fileID: 0}
  m_PrefabInstance: {fileID: 0}
  m_PrefabAsset: {fileID: 0}
  m_GameObject: {fileID: 0}
  m_Enabled: 1
  m_EditorHideFlags: 0
  m_Script: {fileID: 11500000, guid: cf6258160aeff9c4ba54e7ad9c7ddf08, type: 3}
  m_Name: 690
  m_EditorClassIdentifier: 
  originPrefabName: Shard (2)
  objectName: Shard (4)
  position: {x: 3694.2, y: 111.61, z: 3389.9}
  rotation: {x: 0.061410308, y: -0.02111859, z: -0.3245145, w: 0.9436489}
  scale: {x: 638.3534, y: 638.3534, z: 638.3533}
  sector: 7_6
  id: 690
  layer: 0
  tag: Untagged
  material: {fileID: 2100000, guid: 84b56cef1adff5f43a0a71dbf93822b7, type: 2}
