%YAML 1.1
%TAG !u! tag:unity3d.com,2011:
--- !u!114 &11400000
MonoBehaviour:
  m_ObjectHideFlags: 0
  m_CorrespondingSourceObject: {fileID: 0}
  m_PrefabInstance: {fileID: 0}
  m_PrefabAsset: {fileID: 0}
  m_GameObject: {fileID: 0}
  m_Enabled: 1
  m_EditorHideFlags: 0
  m_Script: {fileID: 11500000, guid: cf6258160aeff9c4ba54e7ad9c7ddf08, type: 3}
  m_Name: 702
  m_EditorClassIdentifier: 
  originPrefabName: cliff_low
  objectName: cliff_low (1)
  position: {x: 632.7, y: 7.3, z: 508.7}
  rotation: {x: -0, y: 0.006178283, z: -0, w: 0.9999809}
  scale: {x: 1, y: 1, z: -0.5593523}
  sector: 1_1
  id: 702
  layer: 0
  tag: Untagged
  material: {fileID: 0}
