%YAML 1.1
%TAG !u! tag:unity3d.com,2011:
--- !u!114 &11400000
MonoBehaviour:
  m_ObjectHideFlags: 0
  m_CorrespondingSourceObject: {fileID: 0}
  m_PrefabInstance: {fileID: 0}
  m_PrefabAsset: {fileID: 0}
  m_GameObject: {fileID: 0}
  m_Enabled: 1
  m_EditorHideFlags: 0
  m_Script: {fileID: 11500000, guid: cf6258160aeff9c4ba54e7ad9c7ddf08, type: 3}
  m_Name: 703
  m_EditorClassIdentifier: 
  originPrefabName: cliff_low
  objectName: cliff_low
  position: {x: 3952, y: -34, z: 1135}
  rotation: {x: -0, y: -0.7091279, z: -0, w: 0.70507985}
  scale: {x: 3.8635702, y: 3.8635707, z: 5.4043617}
  sector: 7_2
  id: 703
  layer: 0
  tag: Untagged
  material: {fileID: 0}
