%YAML 1.1
%TAG !u! tag:unity3d.com,2011:
--- !u!114 &11400000
MonoBehaviour:
  m_ObjectHideFlags: 0
  m_CorrespondingSourceObject: {fileID: 0}
  m_PrefabInstance: {fileID: 0}
  m_PrefabAsset: {fileID: 0}
  m_GameObject: {fileID: 0}
  m_Enabled: 1
  m_EditorHideFlags: 0
  m_Script: {fileID: 11500000, guid: cf6258160aeff9c4ba54e7ad9c7ddf08, type: 3}
  m_Name: 704
  m_EditorClassIdentifier: 
  originPrefabName: Crystals
  objectName: Crystals
  position: {x: 429.29, y: 25.574718, z: 1249}
  rotation: {x: 0.04973688, y: 0.66160625, z: -0.0560884, w: 0.7460949}
  scale: {x: 16.358004, y: 16.358004, z: 16.358002}
  sector: 0_2
  id: 704
  layer: 0
  tag: Untagged
  material: {fileID: 2100000, guid: a1ab44f7a3cf5614986dac6313698858, type: 2}
