%YAML 1.1
%TAG !u! tag:unity3d.com,2011:
--- !u!114 &11400000
MonoBehaviour:
  m_ObjectHideFlags: 0
  m_CorrespondingSourceObject: {fileID: 0}
  m_PrefabInstance: {fileID: 0}
  m_PrefabAsset: {fileID: 0}
  m_GameObject: {fileID: 0}
  m_Enabled: 1
  m_EditorHideFlags: 0
  m_Script: {fileID: 11500000, guid: cf6258160aeff9c4ba54e7ad9c7ddf08, type: 3}
  m_Name: 714
  m_EditorClassIdentifier: 
  originPrefabName: building4_low2
  objectName: building4_low2 (2)
  position: {x: 3281.24, y: 26.159986, z: 312.96}
  rotation: {x: 0.013833569, y: 0.7769121, z: 0.018682413, w: 0.6291797}
  scale: {x: 0.99999976, y: 1, z: 0.99999976}
  sector: 6_0
  id: 714
  layer: 0
  tag: Untagged
  material: {fileID: 2100000, guid: 0e3519e58b58f7346ac4fa4fb7bcfffa, type: 2}
