%YAML 1.1
%TAG !u! tag:unity3d.com,2011:
--- !u!114 &11400000
MonoBehaviour:
  m_ObjectHideFlags: 0
  m_CorrespondingSourceObject: {fileID: 0}
  m_PrefabInstance: {fileID: 0}
  m_PrefabAsset: {fileID: 0}
  m_GameObject: {fileID: 0}
  m_Enabled: 1
  m_EditorHideFlags: 0
  m_Script: {fileID: 11500000, guid: cf6258160aeff9c4ba54e7ad9c7ddf08, type: 3}
  m_Name: 73
  m_EditorClassIdentifier: 
  originPrefabName: slope01_low_ver2
  objectName: slope01_low_ver2 (2)
  position: {x: 3401, y: 46.100002, z: 346.09998}
  rotation: {x: -0, y: -0, z: -0, w: 1}
  scale: {x: 510.54434, y: 916.5673, z: 677.7007}
  sector: 6_0
  id: 73
  layer: 0
  tag: Untagged
  material: {fileID: 2100000, guid: 3351dab7180931644bc2d8b01326aa7d, type: 2}
