%YAML 1.1
%TAG !u! tag:unity3d.com,2011:
--- !u!114 &11400000
MonoBehaviour:
  m_ObjectHideFlags: 0
  m_CorrespondingSourceObject: {fileID: 0}
  m_PrefabInstance: {fileID: 0}
  m_PrefabAsset: {fileID: 0}
  m_GameObject: {fileID: 0}
  m_Enabled: 1
  m_EditorHideFlags: 0
  m_Script: {fileID: 11500000, guid: cf6258160aeff9c4ba54e7ad9c7ddf08, type: 3}
  m_Name: 772
  m_EditorClassIdentifier: 
  originPrefabName: Crystals
  objectName: Crystals
  position: {x: 3636.58, y: 37.92, z: 2444.31}
  rotation: {x: -0.00097277144, y: 0.99901074, z: 0.034178816, w: 0.028433092}
  scale: {x: 14.574, y: 14.573998, z: 14.574}
  sector: 7_4
  id: 772
  layer: 0
  tag: Untagged
  material: {fileID: 2100000, guid: a1ab44f7a3cf5614986dac6313698858, type: 2}
