%YAML 1.1
%TAG !u! tag:unity3d.com,2011:
--- !u!114 &11400000
MonoBehaviour:
  m_ObjectHideFlags: 0
  m_CorrespondingSourceObject: {fileID: 0}
  m_PrefabInstance: {fileID: 0}
  m_PrefabAsset: {fileID: 0}
  m_GameObject: {fileID: 0}
  m_Enabled: 1
  m_EditorHideFlags: 0
  m_Script: {fileID: 11500000, guid: cf6258160aeff9c4ba54e7ad9c7ddf08, type: 3}
  m_Name: 793
  m_EditorClassIdentifier: 
  originPrefabName: Building2_low
  objectName: Building2_low (3)
  position: {x: 206.95052, y: 15.046, z: 363.2589}
  rotation: {x: 0.000023228642, y: 0.46959734, z: -0.000012354868, w: 0.88288075}
  scale: {x: 1.0000001, y: 1, z: 1.0000001}
  sector: 0_0
  id: 793
  layer: 0
  tag: Untagged
  material: {fileID: 2100000, guid: bd872456eb9a6d84a99dedee2e44b058, type: 2}
