%YAML 1.1
%TAG !u! tag:unity3d.com,2011:
--- !u!114 &11400000
MonoBehaviour:
  m_ObjectHideFlags: 0
  m_CorrespondingSourceObject: {fileID: 0}
  m_PrefabInstance: {fileID: 0}
  m_PrefabAsset: {fileID: 0}
  m_GameObject: {fileID: 0}
  m_Enabled: 1
  m_EditorHideFlags: 0
  m_Script: {fileID: 11500000, guid: cf6258160aeff9c4ba54e7ad9c7ddf08, type: 3}
  m_Name: 870
  m_EditorClassIdentifier: 
  originPrefabName: cliff_low 1
  objectName: cliff_low 1 (24)
  position: {x: 1530.69, y: 784.1753, z: 3732.4844}
  rotation: {x: 0.00013533096, y: -0.026655462, z: 0.000003608635, w: -0.9996447}
  scale: {x: 0.3, y: 0.29999998, z: 1}
  sector: 3_7
  id: 870
  layer: 0
  tag: Untagged
  material: {fileID: 0}
