%YAML 1.1
%TAG !u! tag:unity3d.com,2011:
--- !u!114 &11400000
MonoBehaviour:
  m_ObjectHideFlags: 0
  m_CorrespondingSourceObject: {fileID: 0}
  m_PrefabInstance: {fileID: 0}
  m_PrefabAsset: {fileID: 0}
  m_GameObject: {fileID: 0}
  m_Enabled: 1
  m_EditorHideFlags: 0
  m_Script: {fileID: 11500000, guid: cf6258160aeff9c4ba54e7ad9c7ddf08, type: 3}
  m_Name: 877
  m_EditorClassIdentifier: 
  originPrefabName: PF_TallTree_2
  objectName: PF_TallTree_2 (10)
  position: {x: 1616.0074, y: 795.35, z: 3796.5242}
  rotation: {x: -0, y: -0.20949301, z: -0, w: 0.97781014}
  scale: {x: 1, y: 1, z: 1}
  sector: 3_7
  id: 877
  layer: 8
  tag: Untagged
  material: {fileID: 0}
