%YAML 1.1
%TAG !u! tag:unity3d.com,2011:
--- !u!114 &11400000
MonoBehaviour:
  m_ObjectHideFlags: 0
  m_CorrespondingSourceObject: {fileID: 0}
  m_PrefabInstance: {fileID: 0}
  m_PrefabAsset: {fileID: 0}
  m_GameObject: {fileID: 0}
  m_Enabled: 1
  m_EditorHideFlags: 0
  m_Script: {fileID: 11500000, guid: cf6258160aeff9c4ba54e7ad9c7ddf08, type: 3}
  m_Name: 894
  m_EditorClassIdentifier: 
  originPrefabName: Shard (3)
  objectName: Shard (3)
  position: {x: 711.79974, y: 31.23, z: 1452.39}
  rotation: {x: -0, y: -0, z: 0.18433407, w: 0.98286366}
  scale: {x: 150.72998, y: 150.72998, z: 150.73}
  sector: 1_2
  id: 894
  layer: 0
  tag: Untagged
  material: {fileID: 2100000, guid: a1ab44f7a3cf5614986dac6313698858, type: 2}
