%YAML 1.1
%TAG !u! tag:unity3d.com,2011:
--- !u!114 &11400000
MonoBehaviour:
  m_ObjectHideFlags: 0
  m_CorrespondingSourceObject: {fileID: 0}
  m_PrefabInstance: {fileID: 0}
  m_PrefabAsset: {fileID: 0}
  m_GameObject: {fileID: 0}
  m_Enabled: 1
  m_EditorHideFlags: 0
  m_Script: {fileID: 11500000, guid: cf6258160aeff9c4ba54e7ad9c7ddf08, type: 3}
  m_Name: 950
  m_EditorClassIdentifier: 
  originPrefabName: MiddleCrystal_low (2)
  objectName: MiddleCrystal_low (4)
  position: {x: 1560.2944, y: 794.5, z: 3608.92}
  rotation: {x: -0, y: -0.8147002, z: -0, w: 0.5798825}
  scale: {x: 3.000001, y: 2, z: 1.0000002}
  sector: 3_7
  id: 950
  layer: 0
  tag: Untagged
  material: {fileID: 2100000, guid: fe36741ede331ae408acac449eaf0149, type: 2}
