%YAML 1.1
%TAG !u! tag:unity3d.com,2011:
--- !u!114 &11400000
MonoBehaviour:
  m_ObjectHideFlags: 0
  m_CorrespondingSourceObject: {fileID: 0}
  m_PrefabInstance: {fileID: 0}
  m_PrefabAsset: {fileID: 0}
  m_GameObject: {fileID: 0}
  m_Enabled: 1
  m_EditorHideFlags: 0
  m_Script: {fileID: 11500000, guid: cf6258160aeff9c4ba54e7ad9c7ddf08, type: 3}
  m_Name: 974
  m_EditorClassIdentifier: 
  originPrefabName: fence_Set_lot
  objectName: fence_Set_lot (138)
  position: {x: 2479.58, y: 838.21, z: 3999.2}
  rotation: {x: 0.3589303, y: -0.6210862, z: -0.6170788, w: -0.32347324}
  scale: {x: 0.7705631, y: 1.0000004, z: 1.0000004}
  sector: 4_7
  id: 974
  layer: 0
  tag: Untagged
  material: {fileID: 2100000, guid: a1ce2172423559d46a411d49151c60ab, type: 2}
