%YAML 1.1
%TAG !u! tag:unity3d.com,2011:
--- !u!114 &11400000
MonoBehaviour:
  m_ObjectHideFlags: 0
  m_CorrespondingSourceObject: {fileID: 0}
  m_PrefabInstance: {fileID: 0}
  m_PrefabAsset: {fileID: 0}
  m_GameObject: {fileID: 0}
  m_Enabled: 1
  m_EditorHideFlags: 0
  m_Script: {fileID: 11500000, guid: cf6258160aeff9c4ba54e7ad9c7ddf08, type: 3}
  m_Name: 991
  m_EditorClassIdentifier: 
  originPrefabName: Tile
  objectName: Tile (2)
  position: {x: 3804.85, y: 36.2, z: 4463.79}
  rotation: {x: -0, y: 0.21204144, z: -0, w: 0.9772607}
  scale: {x: 1.5, y: 1, z: 1.5}
  sector: 7_8
  id: 991
  layer: 0
  tag: Untagged
  material: {fileID: 2100000, guid: d912784180c6964459665df2f7d29bca, type: 2}
