%YAML 1.1
%TAG !u! tag:unity3d.com,2011:
--- !u!114 &11400000
MonoBehaviour:
  m_ObjectHideFlags: 0
  m_CorrespondingSourceObject: {fileID: 0}
  m_PrefabInstance: {fileID: 0}
  m_PrefabAsset: {fileID: 0}
  m_GameObject: {fileID: 0}
  m_Enabled: 1
  m_EditorHideFlags: 0
  m_Script: {fileID: 11500000, guid: cf6258160aeff9c4ba54e7ad9c7ddf08, type: 3}
  m_Name: 993
  m_EditorClassIdentifier: 
  originPrefabName: Crystals (3)
  objectName: Crystals (4)
  position: {x: 171.04, y: 15.26, z: 240.32}
  rotation: {x: -0, y: 0.42543778, z: -0, w: 0.9049877}
  scale: {x: 19.740051, y: 19.740051, z: 19.740051}
  sector: 0_0
  id: 993
  layer: 0
  tag: Untagged
  material: {fileID: 2100000, guid: 84b56cef1adff5f43a0a71dbf93822b7, type: 2}
