%YAML 1.1
%TAG !u! tag:unity3d.com,2011:
--- !u!114 &11400000
MonoBehaviour:
  m_ObjectHideFlags: 0
  m_CorrespondingSourceObject: {fileID: 0}
  m_PrefabInstance: {fileID: 0}
  m_PrefabAsset: {fileID: 0}
  m_GameObject: {fileID: 0}
  m_Enabled: 1
  m_EditorHideFlags: 0
  m_Script: {fileID: 11500000, guid: 8669eb7373694504ebe02c970f0d3070, type: 3}
  m_Name: Trauma 2
  m_EditorClassIdentifier: 
  icon: {fileID: 21300000, guid: b621ed3fa4195e44a980edec28691a9e, type: 3}
  id: 2
  content: {fileID: 21300000, guid: 2925dfd85aa3ed24f87e429bb26d9654, type: 3}
