%YAML 1.1
%TAG !u! tag:unity3d.com,2011:
--- !u!114 &-5513348208671733128
MonoBehaviour:
  m_ObjectHideFlags: 11
  m_CorrespondingSourceObject: {fileID: 0}
  m_PrefabInstance: {fileID: 0}
  m_PrefabAsset: {fileID: 0}
  m_GameObject: {fileID: 0}
  m_Enabled: 1
  m_EditorHideFlags: 0
  m_Script: {fileID: 11500000, guid: d0353a89b1f911e48b9e16bdc9f2e058, type: 3}
  m_Name: 
  m_EditorClassIdentifier: 
  version: 4
--- !u!21 &2100000
Material:
  serializedVersion: 6
  m_ObjectHideFlags: 0
  m_CorrespondingSourceObject: {fileID: 0}
  m_PrefabInstance: {fileID: 0}
  m_PrefabAsset: {fileID: 0}
  m_Name: Galaxy2
  m_Shader: {fileID: 4800000, guid: a3a4fe4479a5cc6459bd7596e9c7c449, type: 3}
  m_ShaderKeywords: EnableCaustic EnableFresnel EnableInnerLight EnableLayer0 EnableLayer1
    EnableLayer2 EnableSpecular EnableSurfaceMask
  m_LightmapFlags: 4
  m_EnableInstancingVariants: 0
  m_DoubleSidedGI: 0
  m_CustomRenderQueue: -1
  stringTagMap: {}
  disabledShaderPasses: []
  m_SavedProperties:
    serializedVersion: 3
    m_TexEnvs:
    - _BaseMap:
        m_Texture: {fileID: 0}
        m_Scale: {x: 1, y: 1}
        m_Offset: {x: 0, y: 0}
    - _BumpMap:
        m_Texture: {fileID: 0}
        m_Scale: {x: 1, y: 1}
        m_Offset: {x: 0, y: 0}
    - _CausticMap:
        m_Texture: {fileID: 2800000, guid: 2d73df7815f9fc04f90266eb042007fb, type: 3}
        m_Scale: {x: 1, y: 1}
        m_Offset: {x: 0, y: 0}
    - _DetailAlbedoMap:
        m_Texture: {fileID: 0}
        m_Scale: {x: 1, y: 1}
        m_Offset: {x: 0, y: 0}
    - _DetailMask:
        m_Texture: {fileID: 0}
        m_Scale: {x: 1, y: 1}
        m_Offset: {x: 0, y: 0}
    - _DetailNormalMap:
        m_Texture: {fileID: 0}
        m_Scale: {x: 1, y: 1}
        m_Offset: {x: 0, y: 0}
    - _EmissionMap:
        m_Texture: {fileID: 0}
        m_Scale: {x: 1, y: 1}
        m_Offset: {x: 0, y: 0}
    - _Layer0Tex:
        m_Texture: {fileID: 2800000, guid: 51f98993213da984d9a67e83e4c32c41, type: 3}
        m_Scale: {x: 1, y: 1}
        m_Offset: {x: 0, y: 0}
    - _Layer1Tex:
        m_Texture: {fileID: 2800000, guid: 06211109019903d44b393746fc09ce98, type: 3}
        m_Scale: {x: 1, y: 1}
        m_Offset: {x: 0, y: 0}
    - _Layer2Tex:
        m_Texture: {fileID: 2800000, guid: e91a34f83a869934bb6bec957fc717bc, type: 3}
        m_Scale: {x: 1, y: 1}
        m_Offset: {x: 0, y: 0}
    - _MainTex:
        m_Texture: {fileID: 0}
        m_Scale: {x: 1, y: 1}
        m_Offset: {x: 0, y: 0}
    - _MarbleTex:
        m_Texture: {fileID: 2800000, guid: 51f98993213da984d9a67e83e4c32c41, type: 3}
        m_Scale: {x: 1, y: 1}
        m_Offset: {x: 0, y: 0}
    - _MetallicGlossMap:
        m_Texture: {fileID: 0}
        m_Scale: {x: 1, y: 1}
        m_Offset: {x: 0, y: 0}
    - _OcclusionMap:
        m_Texture: {fileID: 0}
        m_Scale: {x: 1, y: 1}
        m_Offset: {x: 0, y: 0}
    - _ParallaxMap:
        m_Texture: {fileID: 0}
        m_Scale: {x: 1, y: 1}
        m_Offset: {x: 0, y: 0}
    - _SpecGlossMap:
        m_Texture: {fileID: 0}
        m_Scale: {x: 1, y: 1}
        m_Offset: {x: 0, y: 0}
    - _SurfaceAlphaMaskTex:
        m_Texture: {fileID: 2800000, guid: 8910b01af054a8847b4932566253d794, type: 3}
        m_Scale: {x: 1, y: 1}
        m_Offset: {x: 0, y: 0}
    - unity_Lightmaps:
        m_Texture: {fileID: 0}
        m_Scale: {x: 1, y: 1}
        m_Offset: {x: 0, y: 0}
    - unity_LightmapsInd:
        m_Texture: {fileID: 0}
        m_Scale: {x: 1, y: 1}
        m_Offset: {x: 0, y: 0}
    - unity_ShadowMasks:
        m_Texture: {fileID: 0}
        m_Scale: {x: 1, y: 1}
        m_Offset: {x: 0, y: 0}
    m_Floats:
    - _AlphaClip: 0
    - _Blend: 0
    - _BumpScale: 1
    - _CausticScrollSpeed: 4.38
    - _ClearCoatMask: 0
    - _ClearCoatSmoothness: 0
    - _Cull: 2
    - _Cutoff: 0.5
    - _DetailAlbedoMapScale: 1
    - _DetailNormalMapScale: 1
    - _DstBlend: 0
    - _EnableCaustic: 1
    - _EnableFog: 0
    - _EnableFresnel: 1
    - _EnableFresnelUseSkybox: 0
    - _EnableInnerLight: 1
    - _EnableLayer1: 1
    - _EnableLayer2: 1
    - _EnableRefraction: 0
    - _EnableSpecular: 1
    - _EnableSurfaceMask: 1
    - _EnvironmentReflections: 1
    - _FresnelTightness: 1.91
    - _GlossMapScale: 0
    - _Glossiness: 0
    - _GlossyReflections: 0
    - _InnerLightTightness: 12
    - _Layer0SpeedX: 0.3
    - _Layer0SpeedY: 0
    - _Layer1SpeedX: -0.3
    - _Layer1SpeedY: 0.09
    - _Layer2SpeedX: 0
    - _Layer2SpeedY: 0
    - _LayerDepthFalloff: 0.742
    - _LayerHeightBias: 0.0508
    - _LayerHeightBiasStep: 0.101
    - _MarbleHeightCausticOffset: -0.5
    - _MarbleHeightScale: 0.332
    - _Metallic: 0
    - _OcclusionStrength: 1
    - _Parallax: 0.005
    - _QueueOffset: 0
    - _ReceiveShadows: 1
    - _RefractionStrength: 0.2
    - _Smoothness: 0.5
    - _SmoothnessTextureChannel: 0
    - _SpecularBrightness: 0.242
    - _SpecularHighlights: 1
    - _SpecularTightness: 1.4
    - _SrcBlend: 1
    - _Surface: 0
    - _WorkflowMode: 1
    - _ZWrite: 1
    m_Colors:
    - _BaseColor: {r: 1, g: 1, b: 1, a: 1}
    - _CausticTint: {r: 0.036504917, g: 0, b: 0.21698111, a: 0.891}
    - _Color: {r: 1, g: 1, b: 1, a: 1}
    - _EmissionColor: {r: 0, g: 0, b: 0, a: 1}
    - _FresnelColorInside: {r: 0.009319185, g: 0, b: 0.16037738, a: 1}
    - _FresnelColorOutside: {r: 0.47547168, g: 0.7094251, b: 1, a: 1}
    - _InnerLightColorInside: {r: 1, g: 1, b: 1, a: 1}
    - _InnerLightColorOutside: {r: 0.17243664, g: 0.027062729, b: 0.8437221, a: 1}
    - _Layer0Tint: {r: 0.99134284, g: 1, b: 0.65471697, a: 1}
    - _Layer1Tint: {r: 1, g: 0, b: 0.98537207, a: 1}
    - _Layer2Tint: {r: 0.45671368, g: 0, b: 1, a: 1}
    - _SpecColor: {r: 0.19999996, g: 0.19999996, b: 0.19999996, a: 1}
    - _SurfaceAlphaColor: {r: 0.35452777, g: 0.15294117, b: 1, a: 1}
  m_BuildTextureStacks: []
