%YAML 1.1
%TAG !u! tag:unity3d.com,2011:
--- !u!21 &2100000
Material:
  serializedVersion: 6
  m_ObjectHideFlags: 0
  m_CorrespondingSourceObject: {fileID: 0}
  m_PrefabInstance: {fileID: 0}
  m_PrefabAsset: {fileID: 0}
  m_Name: Galaxy
  m_Shader: {fileID: 4800000, guid: a3a4fe4479a5cc6459bd7596e9c7c449, type: 3}
  m_ShaderKeywords: EnableCaustic EnableFresnel EnableInnerLight EnableLayer0 EnableLayer1
    EnableLayer2 EnableSpecular EnableSurfaceMask
  m_LightmapFlags: 4
  m_EnableInstancingVariants: 0
  m_DoubleSidedGI: 0
  m_CustomRenderQueue: -1
  stringTagMap: {}
  disabledShaderPasses: []
  m_SavedProperties:
    serializedVersion: 3
    m_TexEnvs:
    - _BumpMap:
        m_Texture: {fileID: 0}
        m_Scale: {x: 1, y: 1}
        m_Offset: {x: 0, y: 0}
    - _CausticMap:
        m_Texture: {fileID: 2800000, guid: 2d73df7815f9fc04f90266eb042007fb, type: 3}
        m_Scale: {x: 1, y: 1}
        m_Offset: {x: 0, y: 0}
    - _DetailAlbedoMap:
        m_Texture: {fileID: 0}
        m_Scale: {x: 1, y: 1}
        m_Offset: {x: 0, y: 0}
    - _DetailMask:
        m_Texture: {fileID: 0}
        m_Scale: {x: 1, y: 1}
        m_Offset: {x: 0, y: 0}
    - _DetailNormalMap:
        m_Texture: {fileID: 0}
        m_Scale: {x: 1, y: 1}
        m_Offset: {x: 0, y: 0}
    - _EmissionMap:
        m_Texture: {fileID: 0}
        m_Scale: {x: 1, y: 1}
        m_Offset: {x: 0, y: 0}
    - _Layer0Tex:
        m_Texture: {fileID: 2800000, guid: 51f98993213da984d9a67e83e4c32c41, type: 3}
        m_Scale: {x: 0.5, y: 1}
        m_Offset: {x: 0, y: 0}
    - _Layer1Tex:
        m_Texture: {fileID: 2800000, guid: 06211109019903d44b393746fc09ce98, type: 3}
        m_Scale: {x: 1, y: 1}
        m_Offset: {x: 0, y: 0}
    - _Layer2Tex:
        m_Texture: {fileID: 2800000, guid: e91a34f83a869934bb6bec957fc717bc, type: 3}
        m_Scale: {x: 1, y: 1}
        m_Offset: {x: 0, y: 0}
    - _MainTex:
        m_Texture: {fileID: 0}
        m_Scale: {x: 1, y: 1}
        m_Offset: {x: 0, y: 0}
    - _MarbleTex:
        m_Texture: {fileID: 2800000, guid: 51f98993213da984d9a67e83e4c32c41, type: 3}
        m_Scale: {x: 1, y: 1}
        m_Offset: {x: 0, y: 0}
    - _MetallicGlossMap:
        m_Texture: {fileID: 0}
        m_Scale: {x: 1, y: 1}
        m_Offset: {x: 0, y: 0}
    - _OcclusionMap:
        m_Texture: {fileID: 0}
        m_Scale: {x: 1, y: 1}
        m_Offset: {x: 0, y: 0}
    - _ParallaxMap:
        m_Texture: {fileID: 0}
        m_Scale: {x: 1, y: 1}
        m_Offset: {x: 0, y: 0}
    - _SurfaceAlphaMaskTex:
        m_Texture: {fileID: 2800000, guid: 8910b01af054a8847b4932566253d794, type: 3}
        m_Scale: {x: 1, y: 1}
        m_Offset: {x: 0, y: 0}
    m_Floats:
    - _BumpScale: 1
    - _CausticBrightness: 0.26
    - _CausticScrollSpeed: 0.3
    - _Cutoff: 0.5
    - _DetailNormalMapScale: 1
    - _DstBlend: 0
    - _EnableCaustic: 1
    - _EnableFog: 0
    - _EnableFresnel: 1
    - _EnableFresnelUseSkybox: 0
    - _EnableInnerLight: 1
    - _EnableLayer0: 1
    - _EnableLayer1: 1
    - _EnableLayer2: 1
    - _EnableRefraction: 0
    - _EnableSpecular: 1
    - _EnableSurfaceMask: 1
    - _FresnelTightness: 4.52
    - _GlossMapScale: 1
    - _Glossiness: 0.5
    - _GlossyReflections: 1
    - _HeightBias: 0.1
    - _HeightBiasStep: 0.1
    - _HeightScale: 0.1
    - _InnerLightTightness: 19.6
    - _Layer0Speed: 0
    - _Layer0SpeedX: 0.3
    - _Layer0SpeedY: 0
    - _Layer1Speed: 0
    - _Layer1SpeedX: -0.3
    - _Layer1SpeedY: 0
    - _Layer2Speed: 0
    - _Layer2SpeedX: 0
    - _Layer2SpeedY: 0
    - _LayerDepthFalloff: 0.742
    - _LayerHeightBias: 0.0508
    - _LayerHeightBiasStep: 0.101
    - _LayerSpeed: 0
    - _MarbleHeightCausticOffset: -0.5
    - _MarbleHeightScale: 0.332
    - _Metallic: 0
    - _Mode: 0
    - _OcclusionStrength: 1
    - _Parallax: 0.02
    - _RefractionStrength: 0.2
    - _SmoothnessTextureChannel: 0
    - _SpecularBrightness: 0.242
    - _SpecularHighlights: 1
    - _SpecularTightness: 1.4
    - _SrcBlend: 1
    - _UVSec: 0
    - _ZWrite: 1
    m_Colors:
    - _CausticTint: {r: 0, g: 0.14923933, b: 0.19852942, a: 0.891}
    - _Color: {r: 1, g: 1, b: 1, a: 1}
    - _EmissionColor: {r: 0, g: 0, b: 0, a: 1}
    - _FresnelColorInside: {r: 0, g: 0.25517225, b: 1, a: 1}
    - _FresnelColorOutside: {r: 1, g: 1, b: 1, a: 1}
    - _InnerLightColorInside: {r: 1, g: 1, b: 1, a: 1}
    - _InnerLightColorOutside: {r: 0, g: 0.37931037, b: 1, a: 1}
    - _Layer0Tint: {r: 0, g: 1, b: 0.7103448, a: 1}
    - _Layer1Tint: {r: 0, g: 0.5862069, b: 1, a: 1}
    - _Layer2Tint: {r: 0.26206923, g: 0, b: 1, a: 1}
    - _MeiosisPos: {r: 0, g: 0, b: 0, a: 0}
    - _MyVector: {r: 0, g: 0, b: 0, a: 0}
    - _SurfaceAlphaColor: {r: 0.1544118, g: 0.82505053, b: 1, a: 1}
  m_BuildTextureStacks: []
