%YAML 1.1
%TAG !u! tag:unity3d.com,2011:
--- !u!21 &2100000
Material:
  serializedVersion: 6
  m_ObjectHideFlags: 0
  m_CorrespondingSourceObject: {fileID: 0}
  m_PrefabInstance: {fileID: 0}
  m_PrefabAsset: {fileID: 0}
  m_Name: Trauma
  m_Shader: {fileID: 4800000, guid: 4c5b48e76c3e60e4c81e91714d6db20c, type: 3}
  m_ShaderKeywords: EnableFresnel EnableInnerLight EnableLayer0 EnableLayer1 EnableRefraction
    EnableSpecular EnableSurfaceMask
  m_LightmapFlags: 4
  m_EnableInstancingVariants: 0
  m_DoubleSidedGI: 0
  m_CustomRenderQueue: 3000
  stringTagMap: {}
  disabledShaderPasses: []
  m_SavedProperties:
    serializedVersion: 3
    m_TexEnvs:
    - _BumpMap:
        m_Texture: {fileID: 0}
        m_Scale: {x: 1, y: 1}
        m_Offset: {x: 0, y: 0}
    - _CausticMap:
        m_Texture: {fileID: 0}
        m_Scale: {x: 1, y: 1}
        m_Offset: {x: 0, y: 0}
    - _DetailAlbedoMap:
        m_Texture: {fileID: 0}
        m_Scale: {x: 1, y: 1}
        m_Offset: {x: 0, y: 0}
    - _DetailMask:
        m_Texture: {fileID: 0}
        m_Scale: {x: 1, y: 1}
        m_Offset: {x: 0, y: 0}
    - _DetailNormalMap:
        m_Texture: {fileID: 0}
        m_Scale: {x: 1, y: 1}
        m_Offset: {x: 0, y: 0}
    - _EmissionMap:
        m_Texture: {fileID: 0}
        m_Scale: {x: 1, y: 1}
        m_Offset: {x: 0, y: 0}
    - _Layer0Tex:
        m_Texture: {fileID: 2800000, guid: 52d06c3108b604f46a7edc064913af90, type: 3}
        m_Scale: {x: 3, y: 3}
        m_Offset: {x: 0.1, y: 0.1}
    - _Layer1Tex:
        m_Texture: {fileID: 2800000, guid: 51f98993213da984d9a67e83e4c32c41, type: 3}
        m_Scale: {x: 1, y: 1}
        m_Offset: {x: 0, y: 0}
    - _Layer2Tex:
        m_Texture: {fileID: 0}
        m_Scale: {x: 1, y: 1}
        m_Offset: {x: 0, y: 0}
    - _MainTex:
        m_Texture: {fileID: 0}
        m_Scale: {x: 1, y: 1}
        m_Offset: {x: 0, y: 0}
    - _MarbleTex:
        m_Texture: {fileID: 2800000, guid: 20da242b149bc054ab73423d1d1931bf, type: 3}
        m_Scale: {x: 1, y: 1}
        m_Offset: {x: 0, y: 0}
    - _MetallicGlossMap:
        m_Texture: {fileID: 0}
        m_Scale: {x: 1, y: 1}
        m_Offset: {x: 0, y: 0}
    - _OcclusionMap:
        m_Texture: {fileID: 0}
        m_Scale: {x: 1, y: 1}
        m_Offset: {x: 0, y: 0}
    - _ParallaxMap:
        m_Texture: {fileID: 0}
        m_Scale: {x: 1, y: 1}
        m_Offset: {x: 0, y: 0}
    - _SurfaceAlphaMaskTex:
        m_Texture: {fileID: 0}
        m_Scale: {x: 1, y: 1}
        m_Offset: {x: 0, y: 0}
    m_Floats:
    - _BumpScale: 1
    - _CausticBrightness: 0.26
    - _CausticScrollSpeed: 0
    - _Cutoff: 0.5
    - _DetailNormalMapScale: 1
    - _DstBlend: 0
    - _EnableCaustic: 0
    - _EnableFog: 0
    - _EnableFresnel: 1
    - _EnableFresnelUseSkybox: 0
    - _EnableInnerLight: 1
    - _EnableLayer0: 1
    - _EnableLayer1: 1
    - _EnableLayer2: 0
    - _EnableRefraction: 1
    - _EnableSpecular: 1
    - _EnableSurfaceMask: 1
    - _FresnelTightness: 0.85
    - _GlossMapScale: 1
    - _Glossiness: 0.5
    - _GlossyReflections: 1
    - _HeightBias: 0.1
    - _HeightBiasStep: 0.1
    - _HeightScale: 0.1
    - _InnerLightTightness: 13
    - _Layer0Speed: 0
    - _Layer0SpeedX: -0.02
    - _Layer0SpeedY: 0
    - _Layer1Speed: 0
    - _Layer1SpeedX: 0
    - _Layer1SpeedY: 0
    - _Layer2Speed: 0
    - _Layer2SpeedX: 0
    - _Layer2SpeedY: 0
    - _LayerDepthFalloff: 0.45
    - _LayerHeightBias: 0.11
    - _LayerHeightBiasStep: 0.09
    - _LayerSpeed: 0
    - _MarbleHeightCausticOffset: 0
    - _MarbleHeightScale: 0.5
    - _Metallic: 0
    - _Mode: 0
    - _OcclusionStrength: 1
    - _Parallax: 0.02
    - _RefractionStrength: 0.529
    - _SmoothnessTextureChannel: 0
    - _SpecularBrightness: 0.868
    - _SpecularHighlights: 1
    - _SpecularTightness: 20.6
    - _SrcBlend: 1
    - _UVSec: 0
    - _ZWrite: 1
    m_Colors:
    - _CausticTint: {r: 0.2205882, g: 0.18031855, b: 0.074610725, a: 0.891}
    - _Color: {r: 1, g: 1, b: 1, a: 1}
    - _EmissionColor: {r: 0, g: 0, b: 0, a: 1}
    - _FresnelColorInside: {r: 0, g: 0.25517225, b: 1, a: 1}
    - _FresnelColorOutside: {r: 1, g: 1, b: 1, a: 1}
    - _InnerLightColorInside: {r: 1, g: 0.39310342, b: 0, a: 1}
    - _InnerLightColorOutside: {r: 1, g: 0, b: 0, a: 1}
    - _Layer0Tint: {r: 1, g: 0, b: 0.2734213, a: 1}
    - _Layer1Tint: {r: 1, g: 1, b: 1, a: 1}
    - _Layer2Tint: {r: 1, g: 1, b: 1, a: 1}
    - _MeiosisPos: {r: 0, g: 0, b: 0, a: 0}
    - _MyVector: {r: 0, g: 0, b: 0, a: 0}
    - _SurfaceAlphaColor: {r: 0.33496612, g: 0.11807961, b: 0.38235295, a: 1}
  m_BuildTextureStacks: []
