%YAML 1.1
%TAG !u! tag:unity3d.com,2011:
--- !u!114 &-2511018690511595653
MonoBehaviour:
  m_ObjectHideFlags: 11
  m_CorrespondingSourceObject: {fileID: 0}
  m_PrefabInstance: {fileID: 0}
  m_PrefabAsset: {fileID: 0}
  m_GameObject: {fileID: 0}
  m_Enabled: 1
  m_EditorHideFlags: 0
  m_Script: {fileID: 11500000, guid: d0353a89b1f911e48b9e16bdc9f2e058, type: 3}
  m_Name: 
  m_EditorClassIdentifier: 
  version: 4
--- !u!21 &2100000
Material:
  serializedVersion: 6
  m_ObjectHideFlags: 0
  m_CorrespondingSourceObject: {fileID: 0}
  m_PrefabInstance: {fileID: 0}
  m_PrefabAsset: {fileID: 0}
  m_Name: GerstnerMeterial3
  m_Shader: {fileID: -6465566751694194690, guid: dfe7ac869aba44140a0b6d5eb228918a, type: 3}
  m_ShaderKeywords: 
  m_LightmapFlags: 4
  m_EnableInstancingVariants: 0
  m_DoubleSidedGI: 0
  m_CustomRenderQueue: -1
  stringTagMap: {}
  disabledShaderPasses: []
  m_SavedProperties:
    serializedVersion: 3
    m_TexEnvs:
    - Texture2D_1616bd685ba54e99bac41d3f079b4de8:
        m_Texture: {fileID: 2800000, guid: 25f858588c4b1134a85bc1fe9aae0729, type: 3}
        m_Scale: {x: 1, y: 1}
        m_Offset: {x: 0, y: 0}
    - Texture2D_762f1a511c264107a8ddd2135a9cf9e6:
        m_Texture: {fileID: 2800000, guid: 7527d265b3293b34f8ac2c7da9c11b28, type: 3}
        m_Scale: {x: 1, y: 1}
        m_Offset: {x: 0, y: 0}
    - Texture2D_e5dde58a27734649942c57786ae15001:
        m_Texture: {fileID: 2800000, guid: 1847c427ebed2b7469dd22667fe6e4e0, type: 3}
        m_Scale: {x: 1, y: 1}
        m_Offset: {x: 0, y: 0}
    - _BaseMap:
        m_Texture: {fileID: 0}
        m_Scale: {x: 1, y: 1}
        m_Offset: {x: 0, y: 0}
    - _BumpMap:
        m_Texture: {fileID: 0}
        m_Scale: {x: 1, y: 1}
        m_Offset: {x: 0, y: 0}
    - _DetailAlbedoMap:
        m_Texture: {fileID: 0}
        m_Scale: {x: 1, y: 1}
        m_Offset: {x: 0, y: 0}
    - _DetailMask:
        m_Texture: {fileID: 0}
        m_Scale: {x: 1, y: 1}
        m_Offset: {x: 0, y: 0}
    - _DetailNormalMap:
        m_Texture: {fileID: 0}
        m_Scale: {x: 1, y: 1}
        m_Offset: {x: 0, y: 0}
    - _EmissionMap:
        m_Texture: {fileID: 0}
        m_Scale: {x: 1, y: 1}
        m_Offset: {x: 0, y: 0}
    - _Foam_656eb80c20ab405ea55b40b47c02f923_Texture2D9369853f0b1c4b89996ce4e939039c39_1122345919:
        m_Texture: {fileID: 0}
        m_Scale: {x: 1, y: 1}
        m_Offset: {x: 0, y: 0}
    - _MainTex:
        m_Texture: {fileID: 0}
        m_Scale: {x: 1, y: 1}
        m_Offset: {x: 0, y: 0}
    - _MetallicGlossMap:
        m_Texture: {fileID: 0}
        m_Scale: {x: 1, y: 1}
        m_Offset: {x: 0, y: 0}
    - _OcclusionMap:
        m_Texture: {fileID: 0}
        m_Scale: {x: 1, y: 1}
        m_Offset: {x: 0, y: 0}
    - _ParallaxMap:
        m_Texture: {fileID: 0}
        m_Scale: {x: 1, y: 1}
        m_Offset: {x: 0, y: 0}
    - _Reflection_e3b312fccc7e45d9b7a810bbbc36d3f5_Texture2D09035a94b81740049b1af2e9d28a3513_4254040937:
        m_Texture: {fileID: 8400000, guid: a0c72a3d1dcd4e448a4d79e6a66cfb6e, type: 2}
        m_Scale: {x: 1, y: 1}
        m_Offset: {x: 0, y: 0}
    - _Reflection_e3b312fccc7e45d9b7a810bbbc36d3f5_Texture2D1d64b92bf1674ba3a988ffc1014d1dc2_645056932:
        m_Texture: {fileID: 2800000, guid: 1b3fbc643dca2eb46b358d6a68012be1, type: 3}
        m_Scale: {x: 1, y: 1}
        m_Offset: {x: 0, y: 0}
    - _SpecGlossMap:
        m_Texture: {fileID: 0}
        m_Scale: {x: 1, y: 1}
        m_Offset: {x: 0, y: 0}
    - unity_Lightmaps:
        m_Texture: {fileID: 0}
        m_Scale: {x: 1, y: 1}
        m_Offset: {x: 0, y: 0}
    - unity_LightmapsInd:
        m_Texture: {fileID: 0}
        m_Scale: {x: 1, y: 1}
        m_Offset: {x: 0, y: 0}
    - unity_ShadowMasks:
        m_Texture: {fileID: 0}
        m_Scale: {x: 1, y: 1}
        m_Offset: {x: 0, y: 0}
    m_Floats:
    - Vector1_0f2210b6471a4bcd8323fe8e5bd8f7ca: 0.5
    - Vector1_1553fb5fff784d09a271e09ba3e2f690: 26.9
    - Vector1_2c3ed53dca9e4dbb998b3fc501f1e398: 6.2
    - Vector1_431AA8EF: 10
    - Vector1_46393079c0c2406986d34392d6dbc628: 0.3
    - Vector1_4B1628F4: 0
    - Vector1_76F34D1B: 0.8
    - Vector1_7EAA09FD: 1
    - Vector1_816eb84cc4054598ac4a325575f65a21: -1.09
    - Vector1_92bfdb007f2e44e89f065835563627a4: 1
    - Vector1_934c1c811a104df5af9dfa91eff8e9df: 5.06
    - Vector1_9C650A25: -0.78
    - Vector1_C9F53F9: 0.58
    - Vector1_F0AF1EEC: 0.6
    - Vector1_b610c380d39749d9be46be90cd22af7b: 1.2
    - Vector1_c3bf335400634b929ca30157c9866df7: 184.5
    - Vector1_cb8dd2e2a8a2434b9fa5366c80d69841: 0.88
    - Vector1_d4d59991d51b4ce2a5df5f9312d4a3e0: 0.1
    - Vector1_ea2098f75f5140a2a8d90835f2327215: 0.8
    - Vector1_eb51c44cadb84b428a711484f047d697: 1
    - _AlphaClip: 0
    - _Blend: 0
    - _BumpScale: 1
    - _ClearCoatMask: 0
    - _ClearCoatSmoothness: 0
    - _Cull: 2
    - _Cutoff: 0.5
    - _DetailAlbedoMapScale: 1
    - _DetailNormalMapScale: 1
    - _DstBlend: 0
    - _EnvironmentReflections: 1
    - _GlossMapScale: 0
    - _Glossiness: 0
    - _GlossyReflections: 0
    - _Metallic: 0
    - _OcclusionStrength: 1
    - _Parallax: 0.005
    - _QueueOffset: 0
    - _ReceiveShadows: 1
    - _Smoothness: 0.5
    - _SmoothnessTextureChannel: 0
    - _SpecularHighlights: 1
    - _SrcBlend: 1
    - _Surface: 0
    - _WorkflowMode: 1
    - _ZWrite: 1
    m_Colors:
    - Color_872450ffa4864e0dad7e96cdcd8f2694: {r: 1, g: 1, b: 1, a: 1}
    - Color_984800ed53084f53be224d3d0799fe47: {r: 0.29476675, g: 0.599976, b: 0.75471693, a: 1}
    - Color_C8EFB06C: {r: 0.6452829, g: 1, b: 0.9971376, a: 0.41960785}
    - Vector2_04cd4f6ea5d94583944ff84f7ea0ef4e: {r: 0.005, g: 0.005, b: 0, a: 0}
    - Vector2_0502c4e72bc14723b4c0a0e209970bae: {r: 0.02, g: 0.02, b: 0, a: 0}
    - Vector2_057c2c1c00c0465c89f8d83c1df13a8b: {r: 30, g: 100, b: 0, a: 0}
    - Vector2_0c058134256c4fb29c59f3e1fb448d52: {r: 0, g: 0.05, b: 0, a: 0}
    - Vector2_5a7bcffc95f843ecac390f13b1bbf8b8: {r: 0, g: 0.05, b: 0, a: 0}
    - Vector2_6ba318de772e4930ab2f663eb716b726: {r: 0.01, g: 0.01, b: 0, a: 0}
    - Vector2_c05f9a1fa1494c81918da972d9af276e: {r: 0, g: 0, b: 0, a: 0}
    - Vector2_d5b1a7849d8a4bb986fc13e33e26a06a: {r: 0.005, g: 0.005, b: 0, a: 0}
    - Vector3_110DB033: {r: -0.54, g: 0, b: -0.01, a: 0}
    - Vector3_13778AA8: {r: 0.01, g: 0, b: -0.05, a: 0}
    - Vector3_8495EC90: {r: 0, g: 0, b: -0.02, a: 0}
    - Vector3_BB5DA054: {r: -0.04, g: 0, b: -0.1, a: 0}
    - Vector4_2DF06505: {r: 0.1, g: 0.2, b: 1, a: 4}
    - _BaseColor: {r: 1, g: 1, b: 1, a: 1}
    - _Color: {r: 1, g: 1, b: 1, a: 1}
    - _EmissionColor: {r: 0, g: 0, b: 0, a: 1}
    - _SpecColor: {r: 0.19999996, g: 0.19999996, b: 0.19999996, a: 1}
  m_BuildTextureStacks: []
