%YAML 1.1
%TAG !u! tag:unity3d.com,2011:
--- !u!114 &11400000
MonoBehaviour:
  m_ObjectHideFlags: 0
  m_CorrespondingSourceObject: {fileID: 0}
  m_PrefabInstance: {fileID: 0}
  m_PrefabAsset: {fileID: 0}
  m_GameObject: {fileID: 0}
  m_Enabled: 1
  m_EditorHideFlags: 0
  m_Script: {fileID: 11500000, guid: 879c73f26c7ad684399a6dd8ce2da619, type: 3}
  m_Name: 1_5
  m_EditorClassIdentifier: 
  x: 1
  z: 5
  sectorSize: 500
  center: {x: 750, y: 2750}
  targetTerrain: {fileID: 0}
  objectDatas:
  - {fileID: 11400000, guid: 0656e7d99f70dc641866419b3a4f7407, type: 2}
  - {fileID: 11400000, guid: b11b98235f2e0dd44b3c0fb345bfa5ce, type: 2}
  - {fileID: 11400000, guid: f15f6f92f2fcb7e48a0f7214d99fd193, type: 2}
  - {fileID: 11400000, guid: d6a75d834635d914ca983402e093c7f9, type: 2}
  - {fileID: 11400000, guid: 01a45ad9dd720ef4b98496a7d01c9d66, type: 2}
  - {fileID: 11400000, guid: cf19805a1ab98984a8d8701e748d6f7f, type: 2}
  - {fileID: 11400000, guid: 564bb86204710474aad9bfa02444a92f, type: 2}
  - {fileID: 11400000, guid: 4cf8e297bfb7f1c429c09e849806a66c, type: 2}
  - {fileID: 11400000, guid: 5632ac5c834277e44b187722c5af6356, type: 2}
  - {fileID: 11400000, guid: 3f0e2c5132e406b41b47c2c283a97c3a, type: 2}
  - {fileID: 11400000, guid: a898172888e4fb44da882121fba5ff74, type: 2}
  - {fileID: 11400000, guid: d3bdc3d3efeb2de4691ae0113403d333, type: 2}
  - {fileID: 11400000, guid: d780a6dd27275eb48b0c3d5387a18971, type: 2}
