%YAML 1.1
%TAG !u! tag:unity3d.com,2011:
--- !u!114 &11400000
MonoBehaviour:
  m_ObjectHideFlags: 0
  m_CorrespondingSourceObject: {fileID: 0}
  m_PrefabInstance: {fileID: 0}
  m_PrefabAsset: {fileID: 0}
  m_GameObject: {fileID: 0}
  m_Enabled: 1
  m_EditorHideFlags: 0
  m_Script: {fileID: 11500000, guid: 879c73f26c7ad684399a6dd8ce2da619, type: 3}
  m_Name: 2_3
  m_EditorClassIdentifier: 
  x: 2
  z: 3
  sectorSize: 500
  center: {x: 1250, y: 1750}
  targetTerrain: {fileID: 0}
  objectDatas:
  - {fileID: 11400000, guid: fc0cf10cdfc3c5b47afca95efa7ad49b, type: 2}
  - {fileID: 11400000, guid: a95414e5e5d721c4790a3692d868147a, type: 2}
  - {fileID: 11400000, guid: 9930d15a9de911247aebdb6634e57bda, type: 2}
