%YAML 1.1
%TAG !u! tag:unity3d.com,2011:
--- !u!114 &11400000
MonoBehaviour:
  m_ObjectHideFlags: 0
  m_CorrespondingSourceObject: {fileID: 0}
  m_PrefabInstance: {fileID: 0}
  m_PrefabAsset: {fileID: 0}
  m_GameObject: {fileID: 0}
  m_Enabled: 1
  m_EditorHideFlags: 0
  m_Script: {fileID: 11500000, guid: 879c73f26c7ad684399a6dd8ce2da619, type: 3}
  m_Name: 2_8
  m_EditorClassIdentifier: 
  x: 2
  z: 8
  sectorSize: 500
  center: {x: 1250, y: 4250}
  targetTerrain: {fileID: 0}
  objectDatas:
  - {fileID: 11400000, guid: 389d250c423fee6488f34e7848649d8b, type: 2}
  - {fileID: 11400000, guid: e394698d089365044a9afc8b2575dcf6, type: 2}
  - {fileID: 11400000, guid: cd00fffaed9424c4ca554423f6374e4d, type: 2}
  - {fileID: 11400000, guid: 0d5aa41fc6d15224aa354563d94f8839, type: 2}
  - {fileID: 11400000, guid: 9b51afa7aecef0841995c949cc53eeab, type: 2}
  - {fileID: 11400000, guid: b575aa1516ecb694b8238f5292251d39, type: 2}
