%YAML 1.1
%TAG !u! tag:unity3d.com,2011:
--- !u!114 &11400000
MonoBehaviour:
  m_ObjectHideFlags: 0
  m_CorrespondingSourceObject: {fileID: 0}
  m_PrefabInstance: {fileID: 0}
  m_PrefabAsset: {fileID: 0}
  m_GameObject: {fileID: 0}
  m_Enabled: 1
  m_EditorHideFlags: 0
  m_Script: {fileID: 11500000, guid: 879c73f26c7ad684399a6dd8ce2da619, type: 3}
  m_Name: 4_7
  m_EditorClassIdentifier: 
  x: 4
  z: 7
  sectorSize: 500
  center: {x: 2250, y: 3750}
  targetTerrain: {fileID: 0}
  objectDatas:
  - {fileID: 11400000, guid: fe8ddaa6be2654943b04e63aa66d11a2, type: 2}
  - {fileID: 11400000, guid: 3ad0f9e6f13ef0e47920590b6ac6a50b, type: 2}
  - {fileID: 11400000, guid: 31c57d7b9e2ddcd4587f49a704d2e06d, type: 2}
  - {fileID: 11400000, guid: ec1cb4fd0fba72f43a528cd57e383e54, type: 2}
  - {fileID: 11400000, guid: 7511cd9ce94b9c54cb869dfb834f5180, type: 2}
  - {fileID: 11400000, guid: 11474f4586f87894a967174770df0c74, type: 2}
  - {fileID: 11400000, guid: 122e32f1f79ae9a48bc1abf2825a999d, type: 2}
  - {fileID: 11400000, guid: 0deaaab424fd4f64180cb9579246766a, type: 2}
  - {fileID: 11400000, guid: 3967d1389ff0c6c48893437dd34344ea, type: 2}
  - {fileID: 11400000, guid: a215c78986ab66b4b96c3bfdcb40768b, type: 2}
  - {fileID: 11400000, guid: f386b8c107addd94f99f768d1d4d3876, type: 2}
  - {fileID: 11400000, guid: 023c3c9b9260dea49aab57eabe147b8a, type: 2}
  - {fileID: 11400000, guid: b0b73fa347fe11c4889be4f930b01758, type: 2}
  - {fileID: 11400000, guid: 47e9dda5954b3904a86f18a66714cfb1, type: 2}
  - {fileID: 11400000, guid: 9af10dbe15fbf4f46809fa6ce737c506, type: 2}
  - {fileID: 11400000, guid: 4e30cbf313b2a184a8f3a8f5df51c0d2, type: 2}
  - {fileID: 11400000, guid: 548f2c97f490901418ca50c44f6fee8c, type: 2}
  - {fileID: 11400000, guid: ea6f33c9187bd944490cf9a452e067e5, type: 2}
  - {fileID: 11400000, guid: bdd635d2ed960f44c9629daacd24ccdc, type: 2}
  - {fileID: 11400000, guid: 66e184447db5f4247b374a3956c37146, type: 2}
  - {fileID: 11400000, guid: 4bd0e78b86f02384197518bbc870fe60, type: 2}
  - {fileID: 11400000, guid: 8c08f42074911af46b091559480cde1a, type: 2}
  - {fileID: 11400000, guid: 56db479030d8554499538838f0da3024, type: 2}
  - {fileID: 11400000, guid: d626a27fd8788254c97c685553ee1c81, type: 2}
  - {fileID: 11400000, guid: d6051344439810a44a06dedec8e6ea73, type: 2}
  - {fileID: 11400000, guid: e3317a7e63d1c9540a61ac9cdedcbb61, type: 2}
  - {fileID: 11400000, guid: be0564fdc4214684b80348a868cd273d, type: 2}
  - {fileID: 11400000, guid: f59664f300c0af444a3b6534930db905, type: 2}
  - {fileID: 11400000, guid: 28a9d247c1687ff408467db23da9e268, type: 2}
  - {fileID: 11400000, guid: b13fdfa549937fd40b3c9ac466a8bf21, type: 2}
  - {fileID: 11400000, guid: 4906556ba0a876c4db0db02fc50fad24, type: 2}
  - {fileID: 11400000, guid: 933a312115b7f2a4e9d0696e78be8618, type: 2}
  - {fileID: 11400000, guid: c35e319c0b409d44ebb128af6617d1ff, type: 2}
  - {fileID: 11400000, guid: 4d22ddc83fe4c22429ac2a66c0ce95a7, type: 2}
  - {fileID: 11400000, guid: 0212d64754b8eff47b68941f32d0518e, type: 2}
  - {fileID: 11400000, guid: 0990040c1f7ee344092ca58aa3df51e3, type: 2}
  - {fileID: 11400000, guid: d9df886e7ee5e5e48877a9d8a6f0db28, type: 2}
  - {fileID: 11400000, guid: 18ecc79fe07b7bf4383c27458bb287c7, type: 2}
  - {fileID: 11400000, guid: 1fd78e4a20c403441b67cd10e1ac3174, type: 2}
  - {fileID: 11400000, guid: 6efb1ee5b297c3d4d965c217190a9a6e, type: 2}
  - {fileID: 11400000, guid: 63fd34426e25b4b4ba284f58c2b583e9, type: 2}
  - {fileID: 11400000, guid: 78937ddd9851f8b49877a30ceeafee1f, type: 2}
  - {fileID: 11400000, guid: 740eff2a54ee90c47bb6513d73b053dd, type: 2}
  - {fileID: 11400000, guid: c1033ce1bb8f76545a974fca89ab67fe, type: 2}
  - {fileID: 11400000, guid: 6acc94c9b3e6dbd4c9b05099f7f70ae1, type: 2}
  - {fileID: 11400000, guid: b6132a1c49ed7a74c913d44ce9756965, type: 2}
  - {fileID: 11400000, guid: 94b3c1838e4c2734496d1fc6205a2fe5, type: 2}
  - {fileID: 11400000, guid: 3389c1887ee6f994095347fb6854968f, type: 2}
  - {fileID: 11400000, guid: 96e436a70e555804d9f9181baad4c2c3, type: 2}
  - {fileID: 11400000, guid: a5b335a69768ea6469db47761384f2ba, type: 2}
  - {fileID: 11400000, guid: ad35c797ad81a454ea5f7ceca7d4562d, type: 2}
  - {fileID: 11400000, guid: b5aa84bfce5305b46b7e321644a77c95, type: 2}
  - {fileID: 11400000, guid: 5c3bc5d67dea9944a8e1059020e1ca2a, type: 2}
  - {fileID: 11400000, guid: 83bb535b561e8024393fb010d625fde8, type: 2}
  - {fileID: 11400000, guid: eef30fd6674a0e04abb635be90423966, type: 2}
  - {fileID: 11400000, guid: b0a3e8408111ba142b576d423190a15c, type: 2}
  - {fileID: 11400000, guid: 861cb6b990cfb4d4ba3372e7349799f7, type: 2}
