%YAML 1.1
%TAG !u! tag:unity3d.com,2011:
--- !u!114 &11400000
MonoBehaviour:
  m_ObjectHideFlags: 0
  m_CorrespondingSourceObject: {fileID: 0}
  m_PrefabInstance: {fileID: 0}
  m_PrefabAsset: {fileID: 0}
  m_GameObject: {fileID: 0}
  m_Enabled: 1
  m_EditorHideFlags: 0
  m_Script: {fileID: 11500000, guid: 879c73f26c7ad684399a6dd8ce2da619, type: 3}
  m_Name: 6_4
  m_EditorClassIdentifier: 
  x: 6
  z: 4
  sectorSize: 500
  center: {x: 3250, y: 2250}
  targetTerrain: {fileID: 0}
  objectDatas:
  - {fileID: 11400000, guid: 50f1b972a12dddc4095778c9e88d08a2, type: 2}
  - {fileID: 11400000, guid: 330a9a1114ac1a446a9a87612eda370c, type: 2}
