%YAML 1.1
%TAG !u! tag:unity3d.com,2011:
--- !u!114 &11400000
MonoBehaviour:
  m_ObjectHideFlags: 0
  m_CorrespondingSourceObject: {fileID: 0}
  m_PrefabInstance: {fileID: 0}
  m_PrefabAsset: {fileID: 0}
  m_GameObject: {fileID: 0}
  m_Enabled: 1
  m_EditorHideFlags: 0
  m_Script: {fileID: 11500000, guid: 879c73f26c7ad684399a6dd8ce2da619, type: 3}
  m_Name: 6_7
  m_EditorClassIdentifier: 
  x: 6
  z: 7
  sectorSize: 500
  center: {x: 3250, y: 3750}
  targetTerrain: {fileID: 0}
  objectDatas:
  - {fileID: 11400000, guid: 57381b8676a44f848a9f8187a1afbcad, type: 2}
  - {fileID: 11400000, guid: 53c97b879431e954589b80d4d67b01ab, type: 2}
  - {fileID: 11400000, guid: 2c748be9cba9d9d46a5eb41383c9d989, type: 2}
  - {fileID: 11400000, guid: 57ad2089167888e4995e6377a2ded434, type: 2}
  - {fileID: 11400000, guid: 75d3f250a4077fd4e9b921203f807640, type: 2}
  - {fileID: 11400000, guid: fd3e44a25bf274d4f87311f8b7fd5d58, type: 2}
  - {fileID: 11400000, guid: e01a2d83f94917843b8be6dff6f23f2d, type: 2}
  - {fileID: 11400000, guid: b1ab3fa621fe6ac4086b77face6ac445, type: 2}
  - {fileID: 11400000, guid: 71040d9361eb2584880a8be2d64b2b8e, type: 2}
