%YAML 1.1
%TAG !u! tag:unity3d.com,2011:
--- !u!114 &11400000
MonoBehaviour:
  m_ObjectHideFlags: 0
  m_CorrespondingSourceObject: {fileID: 0}
  m_PrefabInstance: {fileID: 0}
  m_PrefabAsset: {fileID: 0}
  m_GameObject: {fileID: 0}
  m_Enabled: 1
  m_EditorHideFlags: 0
  m_Script: {fileID: 11500000, guid: 879c73f26c7ad684399a6dd8ce2da619, type: 3}
  m_Name: 7_7
  m_EditorClassIdentifier: 
  x: 7
  z: 7
  sectorSize: 500
  center: {x: 3750, y: 3750}
  targetTerrain: {fileID: 0}
  objectDatas:
  - {fileID: 11400000, guid: 8eae0822741cb14459168e5277da1f93, type: 2}
  - {fileID: 11400000, guid: bcf69fec98b1f454594e6177a7e64bbe, type: 2}
  - {fileID: 11400000, guid: a03c03d7532d7be4589285ff09df6248, type: 2}
  - {fileID: 11400000, guid: 0ea48ae8f94ae954487245916fa8669a, type: 2}
  - {fileID: 11400000, guid: 8e0d6b850054f0149b3def6ea4c23e12, type: 2}
  - {fileID: 11400000, guid: 4b91b57cb148623488a66ba3f8c82823, type: 2}
  - {fileID: 11400000, guid: 731da1f476dc3d8428ddd4cf0153c3df, type: 2}
  - {fileID: 11400000, guid: 255022f0938fc8d4c96c39119426fc1b, type: 2}
  - {fileID: 11400000, guid: 6db30837d31ecf043adcbce86b5cd22d, type: 2}
  - {fileID: 11400000, guid: 177fb9249da64ed44bcca4bd7ae563c8, type: 2}
  - {fileID: 11400000, guid: f647926ec6f970a4299da596925200a2, type: 2}
  - {fileID: 11400000, guid: 7da469f0549c5bc4b9d618b078b37f84, type: 2}
  - {fileID: 11400000, guid: 793ea83c731d7e3498d50737f267c40d, type: 2}
  - {fileID: 11400000, guid: 4595039cda948ae4dba7fc2a04a07fb0, type: 2}
  - {fileID: 11400000, guid: c226bac7cc413c746a9a910f2a26500d, type: 2}
  - {fileID: 11400000, guid: 4f31a4d4efff9d94ba428c592e36625c, type: 2}
  - {fileID: 11400000, guid: 8f4ae203768889a47a5db9b4dd0be38e, type: 2}
  - {fileID: 11400000, guid: f6da9c375cb09e94388b92e34ee26b82, type: 2}
  - {fileID: 11400000, guid: cdf04c62e3831d148b2fe3ae1a29b2bd, type: 2}
  - {fileID: 11400000, guid: f160b2e69d105d34eab10b2a3647d423, type: 2}
  - {fileID: 11400000, guid: ad4d642c640dc1d4785bca0c7a3fcda9, type: 2}
  - {fileID: 11400000, guid: 14f700beb96cf684f94f6a889bd6c2ea, type: 2}
  - {fileID: 11400000, guid: b29a2003a731eb647b9d1f54afccf66a, type: 2}
  - {fileID: 11400000, guid: 25d5c7bac4d406e4fbc12c4d2ef24a6f, type: 2}
  - {fileID: 11400000, guid: f9ca91dc38beb134384dca93d9806fff, type: 2}
  - {fileID: 11400000, guid: d6fd3222ea6a44f44b62217e256d3dda, type: 2}
  - {fileID: 11400000, guid: bdfc922684be1264995dc032f194d2f2, type: 2}
  - {fileID: 11400000, guid: 771a11ddbc187be4c9e98fe54eb568e0, type: 2}
  - {fileID: 11400000, guid: 95d40e0414c3bae41a074b974c321df4, type: 2}
  - {fileID: 11400000, guid: c32653c9a59170a428c73c11c1295cfe, type: 2}
  - {fileID: 11400000, guid: 9b74c8ccc5aff8f43b311be649514ace, type: 2}
  - {fileID: 11400000, guid: 7af5e04c765d36c4a8c72669089b51a5, type: 2}
  - {fileID: 11400000, guid: 6719b40283b0b34498841289c3930cf1, type: 2}
  - {fileID: 11400000, guid: 4f128f6e52b2f6047a51e7c27a90e127, type: 2}
  - {fileID: 11400000, guid: e20d38fed27e4ab47800d69b6ba50ef9, type: 2}
  - {fileID: 11400000, guid: 7b9a2f946b47e424b966b49856682e2f, type: 2}
  - {fileID: 11400000, guid: 0f8901a40ac809e4aa4983a385f53506, type: 2}
  - {fileID: 11400000, guid: c05747af1380bbd47b57933dc7313424, type: 2}
  - {fileID: 11400000, guid: 59ac4e967886c814e92662713c21052b, type: 2}
  - {fileID: 11400000, guid: 5f403aff990b4fe4992e943d93f13a1c, type: 2}
  - {fileID: 11400000, guid: 4562e1d10ef8e4944a42d371be419dbb, type: 2}
