%YAML 1.1
%TAG !u! tag:unity3d.com,2011:
--- !u!114 &11400000
MonoBehaviour:
  m_ObjectHideFlags: 0
  m_CorrespondingSourceObject: {fileID: 0}
  m_PrefabInstance: {fileID: 0}
  m_PrefabAsset: {fileID: 0}
  m_GameObject: {fileID: 0}
  m_Enabled: 1
  m_EditorHideFlags: 0
  m_Script: {fileID: 11500000, guid: 879c73f26c7ad684399a6dd8ce2da619, type: 3}
  m_Name: 7_9
  m_EditorClassIdentifier: 
  x: 7
  z: 9
  sectorSize: 500
  center: {x: 3750, y: 4750}
  targetTerrain: {fileID: 0}
  objectDatas:
  - {fileID: 11400000, guid: 239e9c957f927f44991a8d5724d6d6c5, type: 2}
  - {fileID: 11400000, guid: 1764f502c5b691c45b3c175f0317a5f3, type: 2}
  - {fileID: 11400000, guid: 9779df42a2c4e044ca60fb9b195c71e8, type: 2}
  - {fileID: 11400000, guid: 858ca99fb8135d240ae363943de9aeb9, type: 2}
  - {fileID: 11400000, guid: 30084510652bafc47bd570d5118fcae9, type: 2}
  - {fileID: 11400000, guid: b0a449612b05dc9459c793cbfeaae41e, type: 2}
  - {fileID: 11400000, guid: e2b093fdffff4a04e8939ebf14787107, type: 2}
  - {fileID: 11400000, guid: 2e7110257bb681642864a7add99fd1dd, type: 2}
  - {fileID: 11400000, guid: 29e3022542a1d8849add34abc9f14f7b, type: 2}
  - {fileID: 11400000, guid: ec2930e37001e7c49a2146b8fdc81413, type: 2}
