%YAML 1.1
%TAG !u! tag:unity3d.com,2011:
--- !u!114 &11400000
MonoBehaviour:
  m_ObjectHideFlags: 0
  m_CorrespondingSourceObject: {fileID: 0}
  m_PrefabInstance: {fileID: 0}
  m_PrefabAsset: {fileID: 0}
  m_GameObject: {fileID: 0}
  m_Enabled: 1
  m_EditorHideFlags: 0
  m_Script: {fileID: 11500000, guid: 88289eb1172d4414be476e96d1390f06, type: 3}
  m_Name: Cumulonimbus - Low
  m_EditorClassIdentifier: 
  Sampler:
    VolumeTexture: {fileID: 11700000, guid: 73cc96bf0c41610469d78e661bf73d8b, type: 2}
    Tiling: {x: 1, y: 1}
    Octave: 7.7
    Sculpture: 0.622
    Sculpture2: 0.118
    Sculpture3: -0.084
    Sculpture4: 0.42
    Warp: 0.177
    Softness: 0.503
    NearSoftnessScale: 1.088
    Density: 0.525
    Scale: 5.8
  HorizontalShape:
    FromHeight: 759.577
    ToHeight: 1858.9359
    SoftnessTop: 0.869
    SoftnessBottom: 0.152
    Figure: 0.494
    MaxDistance: 37749
  Lighting:
    Intensity: 0.452
    Quality: 0.625
    Scattering: 0.411
    Shading: 0.348
    ShadingDistance: 0.457
    Transparency: 0
    Mie: 0.226
