%YAML 1.1
%TAG !u! tag:unity3d.com,2011:
--- !u!114 &11400000
MonoBehaviour:
  m_ObjectHideFlags: 0
  m_CorrespondingSourceObject: {fileID: 0}
  m_PrefabInstance: {fileID: 0}
  m_PrefabAsset: {fileID: 0}
  m_GameObject: {fileID: 0}
  m_Enabled: 1
  m_EditorHideFlags: 0
  m_Script: {fileID: 11500000, guid: 88289eb1172d4414be476e96d1390f06, type: 3}
  m_Name: Cumulus - High
  m_EditorClassIdentifier: 
  Sampler:
    VolumeTexture: {fileID: 11700000, guid: 49f7cc1640cb2da4581356fee10c0019, type: 2}
    Tiling: {x: 1, y: 1}
    Octave: 5
    Sculpture: 0.63
    Sculpture2: -0.78
    Sculpture3: 0.85
    Sculpture4: 0.49
    Warp: 0.7
    Softness: 0.521
    NearSoftnessScale: 1
    Density: 0.054
    Scale: 1.4
  HorizontalShape:
    FromHeight: 880.12573
    ToHeight: 1135.9412
    SoftnessTop: 0.5
    SoftnessBottom: 0.522
    Figure: 0.7
    MaxDistance: 3000
  Lighting:
    Intensity: 1
    Quality: 0.746
    Scattering: 0.301
    Shading: 0.569
    ShadingDistance: 0.133
    Transparency: 0.1
    Mie: 0.078
