%YAML 1.1
%TAG !u! tag:unity3d.com,2011:
--- !u!114 &11400000
MonoBehaviour:
  m_ObjectHideFlags: 0
  m_CorrespondingSourceObject: {fileID: 0}
  m_PrefabInstance: {fileID: 0}
  m_PrefabAsset: {fileID: 0}
  m_GameObject: {fileID: 0}
  m_Enabled: 1
  m_EditorHideFlags: 0
  m_Script: {fileID: 11500000, guid: 78b3fd9154634ebdb8c8a48960b9a16a, type: 3}
  m_Name: BadWord1
  m_EditorClassIdentifier: 
  NodeLinks:
  - BaseNodeGUID: f775e718-25d7-4e8e-ac56-35cf14d1736b
    PortName: Next
    TargetNodeGUID: 52653c0a-662b-4ae6-991e-d5fdf222fca6
  DialogueNodeData:
  - NodeGUID: 52653c0a-662b-4ae6-991e-d5fdf222fca6
    DialogueText: "...\uBB50\uC57C?"
    Position: {x: 308, y: 201}
  ExposedProperties: []
  CommentBlockData: []
