%YAML 1.1
%TAG !u! tag:unity3d.com,2011:
--- !u!114 &11400000
MonoBehaviour:
  m_ObjectHideFlags: 0
  m_CorrespondingSourceObject: {fileID: 0}
  m_PrefabInstance: {fileID: 0}
  m_PrefabAsset: {fileID: 0}
  m_GameObject: {fileID: 0}
  m_Enabled: 1
  m_EditorHideFlags: 0
  m_Script: {fileID: 11500000, guid: 98bc2de57a079b94b85709dbda8a4aee, type: 3}
  m_Name: EndTest
  m_EditorClassIdentifier: 
  NodeLinks:
  - BaseNodeGUID: 71a7ce25-5e0b-4d7c-987e-786d48a2bdb9
    PortName: Next
    TargetNodeGUID: b873cd88-54cb-4d76-8a57-4ceb4447ce66
  - BaseNodeGUID: b873cd88-54cb-4d76-8a57-4ceb4447ce66
    PortName: Option 0
    TargetNodeGUID: 6641b31d-43f4-4cc7-a131-cd96f2a9aaca
  QuestNodeData:
  - NodeGUID: b873cd88-54cb-4d76-8a57-4ceb4447ce66
    QuestText: Node
    QeustGiver: NPC1
    questDialogue: {fileID: 11400000, guid: 0dbf464171692f748815c09eb2d25a7f, type: 2}
    successConditionEnum: 1
    successCondition:
      destination: Sphere (4)
      targetObject:
      - player1
      - player0
      collection: []
      obj: 
      dialogue: {fileID: 0}
      limitSec: 0
    Position: {x: 214.4, y: 203.2}
  - NodeGUID: 6641b31d-43f4-4cc7-a131-cd96f2a9aaca
    QuestText: Node
    QeustGiver: NPC1
    questDialogue: {fileID: 11400000, guid: 1f20f0d487ee97644a03fa027f43862b, type: 2}
    successConditionEnum: 4
    successCondition:
      destination: 
      targetObject: []
      collection: []
      obj: NPC1
      dialogue: {fileID: 11400000, guid: 4aac5cac4b7c46540ba08bc9abd0c823, type: 2}
      limitSec: 0
    Position: {x: 584.8, y: 205.59999}
  ExposedProperties: []
  CommentBlockData: []
