%YAML 1.1
%TAG !u! tag:unity3d.com,2011:
--- !u!114 &11400000
MonoBehaviour:
  m_ObjectHideFlags: 0
  m_CorrespondingSourceObject: {fileID: 0}
  m_PrefabInstance: {fileID: 0}
  m_PrefabAsset: {fileID: 0}
  m_GameObject: {fileID: 0}
  m_Enabled: 1
  m_EditorHideFlags: 0
  m_Script: {fileID: 11500000, guid: 78b3fd9154634ebdb8c8a48960b9a16a, type: 3}
  m_Name: Floating Quest2-Talk
  m_EditorClassIdentifier: 
  NodeLinks:
  - BaseNodeGUID: 8cfdaa13-43ac-41f3-b7a3-a2611244dfff
    PortName: Next
    TargetNodeGUID: bbbfad3f-4ec0-4388-9dba-129f2a958e47
  - BaseNodeGUID: bbbfad3f-4ec0-4388-9dba-129f2a958e47
    PortName: "\uC774\uC81C \uC815\uBCF4\uB97C \uC54C\uB824\uC918!"
    TargetNodeGUID: 5dbf3dd2-faaa-46b3-ba3b-264445e4abcc
  DialogueNodeData:
  - NodeGUID: bbbfad3f-4ec0-4388-9dba-129f2a958e47
    DialogueText: "\uC74C \uC88B\uC544!  \uC774 \uC57D\uCD08\uC57C!"
    Position: {x: 222, y: 200}
  - NodeGUID: 5dbf3dd2-faaa-46b3-ba3b-264445e4abcc
    DialogueText: "\uC800\uAE30 \uC800 \uBE44\uC5B4\uC788\uB294 \uC808\uBCBD\uC5D0
      \uAC00\uC57C\uD574! \uC18C\uBB38\uC5D0 \uC758\uD558\uBA74 \uC544\uC8FC \uC7A0\uAE50\uB3D9\uC548
      \uB098\uD0C0\uB098\uB294 \uBBF8\uB85C\uB97C \uC9C0\uB098\uAC00\uC57C \uD55C\uB300!
      \uAC00\uAE30\uC804\uC5D0 \uAF2D \uC774\uC7A5\uB2D8\uAED8 \uB9D0\uD558\uACE0
      \uAC00!"
    Position: {x: 567, y: 200}
  ExposedProperties: []
  CommentBlockData: []
