%YAML 1.1
%TAG !u! tag:unity3d.com,2011:
--- !u!114 &11400000
MonoBehaviour:
  m_ObjectHideFlags: 0
  m_CorrespondingSourceObject: {fileID: 0}
  m_PrefabInstance: {fileID: 0}
  m_PrefabAsset: {fileID: 0}
  m_GameObject: {fileID: 0}
  m_Enabled: 1
  m_EditorHideFlags: 0
  m_Script: {fileID: 11500000, guid: 98bc2de57a079b94b85709dbda8a4aee, type: 3}
  m_Name: Floating Island Main Quest
  m_EditorClassIdentifier: 
  NodeLinks:
  - BaseNodeGUID: e7b84621-b44c-438d-9b8d-4cba13461124
    PortName: Next
    TargetNodeGUID: 5d904899-a5ab-4d0b-9a3e-8d807d71deb3
  - BaseNodeGUID: 5d904899-a5ab-4d0b-9a3e-8d807d71deb3
    PortName: "\uC218\uB77D"
    TargetNodeGUID: ecffd8c5-63b7-474f-918e-ac3ec1fd7ace
  - BaseNodeGUID: ecffd8c5-63b7-474f-918e-ac3ec1fd7ace
    PortName: "\uC218\uB77D"
    TargetNodeGUID: 10e15f66-bc7b-4824-a4af-14838075460e
  QuestNodeData:
  - NodeGUID: 5d904899-a5ab-4d0b-9a3e-8d807d71deb3
    QuestText: "\uC815\uBCF4\uB97C \uC544\uB294 \uB9C8\uC744 \uC8FC\uBBFC\uC5D0\uAC8C
      \uAC00\uC790!"
    QeustGiver: Quset1_Giver
    questDialogue: {fileID: 11400000, guid: c1666680b7e870b4aba1409ccb2eb6c7, type: 2}
    successConditionEnum: 1
    successCondition:
      destination: Quest1_Destination
      targetObject:
      - player0
      collection: []
      obj: 
      dialogue: {fileID: 0}
      limitSec: 0
    Position: {x: 252, y: 188}
  - NodeGUID: ecffd8c5-63b7-474f-918e-ac3ec1fd7ace
    QuestText: "\uC57D\uCD08\uB97C \uCC3E\uC544 \uC57D\uC0AC\uC5D0\uAC8C \uAC00\uC838\uB2E4\uC8FC\uC790!"
    QeustGiver: Quest2_Giver
    questDialogue: {fileID: 11400000, guid: e9b859efa2db6834e9ee6fe66767b170, type: 2}
    successConditionEnum: 6
    successCondition:
      destination: 
      targetObject: []
      collection:
      - Collection 1
      obj: Quest2_Giver
      dialogue: {fileID: 11400000, guid: f4300fcc2a0a94c46b3498af8386876c, type: 2}
      limitSec: 0
    Position: {x: 744, y: 188}
  - NodeGUID: 10e15f66-bc7b-4824-a4af-14838075460e
    QuestText: "\uBC14\uC704\uB97C \uB098\uBB34 \uC55E\uC73C\uB85C \uCE58\uC6B0\uC790!"
    QeustGiver: Quest3_Giver
    questDialogue: {fileID: 11400000, guid: a2190d6dc2202b4439baedf6cd30eaa3, type: 2}
    successConditionEnum: 1
    successCondition:
      destination: Quest3 Destination
      targetObject:
      - Quest3 target
      collection: []
      obj: 
      dialogue: {fileID: 0}
      limitSec: 0
    Position: {x: 1222, y: 188}
  ExposedProperties: []
  CommentBlockData: []
