%YAML 1.1
%TAG !u! tag:unity3d.com,2011:
--- !u!114 &11400000
MonoBehaviour:
  m_ObjectHideFlags: 0
  m_CorrespondingSourceObject: {fileID: 0}
  m_PrefabInstance: {fileID: 0}
  m_PrefabAsset: {fileID: 0}
  m_GameObject: {fileID: 0}
  m_Enabled: 1
  m_EditorHideFlags: 0
  m_Script: {fileID: 11500000, guid: 78b3fd9154634ebdb8c8a48960b9a16a, type: 3}
  m_Name: Floating Quest3
  m_EditorClassIdentifier: 
  NodeLinks:
  - BaseNodeGUID: 8cfdaa13-43ac-41f3-b7a3-a2611244dfff
    PortName: Next
    TargetNodeGUID: bbbfad3f-4ec0-4388-9dba-129f2a958e47
  - BaseNodeGUID: bbbfad3f-4ec0-4388-9dba-129f2a958e47
    PortName: "\uD0D1\uC5D0 \uAC00\uAE30\uC804\uC5D0 \uB9D0\uD558\uB77C \uD574\uC11C.."
    TargetNodeGUID: 5dbf3dd2-faaa-46b3-ba3b-264445e4abcc
  - BaseNodeGUID: 5dbf3dd2-faaa-46b3-ba3b-264445e4abcc
    PortName: "\uC808\uBCBD\uBC11\uC5D0 \uC57D\uC0AC\uAC00..."
    TargetNodeGUID: cca79706-cabd-4e3b-8c2b-ade81800dcf6
  - BaseNodeGUID: cca79706-cabd-4e3b-8c2b-ade81800dcf6
    PortName: "\uBB50.. \uBB50..?"
    TargetNodeGUID: 6e60114c-ed91-44b3-a873-3cae9bc0b4ed
  DialogueNodeData:
  - NodeGUID: bbbfad3f-4ec0-4388-9dba-129f2a958e47
    DialogueText: "\uCC98\uC74C \uBCF4\uB294 \uCE5C\uAD6C\uB124! "
    Position: {x: 222, y: 200}
  - NodeGUID: 5dbf3dd2-faaa-46b3-ba3b-264445e4abcc
    DialogueText: "\uB204\uAC00?"
    Position: {x: 567, y: 200}
  - NodeGUID: cca79706-cabd-4e3b-8c2b-ade81800dcf6
    DialogueText: "\uB0B4\uAC00 \uACE4\uB780\uD55C \uC77C\uC774 \uC788\uB294 \uAC83\uC744
      \uC54C\uACE0 \uB2A5\uB825\uC788\uB294 \uCE5C\uAD6C\uB97C \uBCF4\uB0B4\uC8FC\uC5C8\uB098
      \uBCF4\uB124!"
    Position: {x: 892, y: 179}
  - NodeGUID: 6e60114c-ed91-44b3-a873-3cae9bc0b4ed
    DialogueText: "\uC800 \uD070 \uBC14\uC704\uB54C\uBB38\uC5D0 \uB9C8\uC744\uC0AC\uB78C\uB4E4
      \uD1B5\uD589\uD558\uB294\uB370 \uBD88\uD3B8\uC744 \uACAA\uACE0\uC788\uC5B4.
      \uC774\uAC83\uC880 \uC800 \uB098\uBB34 \uC55E\uC73C\uB85C \uCE58\uC6CC\uC8FC\uAC8C\uB098!"
    Position: {x: 1429, y: 161}
  ExposedProperties: []
  CommentBlockData: []
