%YAML 1.1
%TAG !u! tag:unity3d.com,2011:
--- !u!114 &11400000
MonoBehaviour:
  m_ObjectHideFlags: 0
  m_CorrespondingSourceObject: {fileID: 0}
  m_PrefabInstance: {fileID: 0}
  m_PrefabAsset: {fileID: 0}
  m_GameObject: {fileID: 0}
  m_Enabled: 1
  m_EditorHideFlags: 0
  m_Script: {fileID: 11500000, guid: 98bc2de57a079b94b85709dbda8a4aee, type: 3}
  m_Name: Floating Island Main Quest 3
  m_EditorClassIdentifier: 
  NodeLinks:
  - BaseNodeGUID: e7b84621-b44c-438d-9b8d-4cba13461124
    PortName: Next
    TargetNodeGUID: 5d904899-a5ab-4d0b-9a3e-8d807d71deb3
  QuestNodeData:
  - NodeGUID: 5d904899-a5ab-4d0b-9a3e-8d807d71deb3
    QuestText: "\uBC14\uC704\uB97C \uB098\uBB34 \uC55E\uC73C\uB85C \uCE58\uC6B0\uC790!"
    QeustGiver: Quest3_Giver
    questDialogue: {fileID: 11400000, guid: a2190d6dc2202b4439baedf6cd30eaa3, type: 2}
    successConditionEnum: 1
    successCondition:
      destination: Quest3 Destination
      targetObject:
      - Quest3 target
      collection:
      - Collection 1
      obj: Quest2_Giver
      dialogue: {fileID: 11400000, guid: f4300fcc2a0a94c46b3498af8386876c, type: 2}
      limitSec: 0
    Position: {x: 239, y: 151}
  ExposedProperties: []
  CommentBlockData: []
