%YAML 1.1
%TAG !u! tag:unity3d.com,2011:
--- !u!114 &11400000
MonoBehaviour:
  m_ObjectHideFlags: 0
  m_CorrespondingSourceObject: {fileID: 0}
  m_PrefabInstance: {fileID: 0}
  m_PrefabAsset: {fileID: 0}
  m_GameObject: {fileID: 0}
  m_Enabled: 1
  m_EditorHideFlags: 0
  m_Script: {fileID: 11500000, guid: 98bc2de57a079b94b85709dbda8a4aee, type: 3}
  m_Name: Forest Quest 2
  m_EditorClassIdentifier: 
  NodeLinks:
  - BaseNodeGUID: 23fc0a3e-f5dc-4372-a655-22f1688c85d7
    PortName: Next
    TargetNodeGUID: a0521916-c7ee-4d84-8728-aeb30f4c16a5
  - BaseNodeGUID: a0521916-c7ee-4d84-8728-aeb30f4c16a5
    PortName: "\uD6C4.."
    TargetNodeGUID: 30f8a014-6b97-4f1d-b790-53fbbdcb6700
  QuestNodeData:
  - NodeGUID: a0521916-c7ee-4d84-8728-aeb30f4c16a5
    QuestText: "\uC6D0\uC11D 9\uAC1C\uB97C \uBAA8\uC73C\uC790!"
    QeustGiver: Quest 2 Giver
    questDialogue: {fileID: 11400000, guid: 369a12a08e6afa3439b526ec59364b65, type: 2}
    successConditionEnum: 2
    successCondition:
      destination: 
      targetObject: []
      collection:
      - Quest Gemstone Green
      - Quest Gemstone Green (2)
      - Quest Gemstone Green (1)
      - Quest Gemstone Red
      - Quest Gemstone Red (2)
      - Quest Gemstone Red (1)
      - Quest Gemstone Orange (1)
      - Quest Gemstone Orange
      - Quest Gemstone Orange (2)
      obj: Quest 2 Giver
      dialogue: {fileID: 11400000, guid: 369a12a08e6afa3439b526ec59364b65, type: 2}
      limitSec: 30
    Position: {x: 243, y: 200}
  - NodeGUID: 30f8a014-6b97-4f1d-b790-53fbbdcb6700
    QuestText: "\uC774\uC7A5\uC5D0\uAC8C \uC6D0\uC11D\uC744 \uAC74\uB124\uC8FC\uC790!"
    QeustGiver: Quest 2 Giver
    questDialogue: {fileID: 11400000, guid: 4f7579710ba1a064889e4fb79de84670, type: 2}
    successConditionEnum: 4
    successCondition:
      destination: 
      targetObject: []
      collection: []
      obj: Quest 2 Giver
      dialogue: {fileID: 11400000, guid: 609da12581f81f443866d490c6caf811, type: 2}
      limitSec: 0
    Position: {x: 788, y: 200}
  ExposedProperties: []
  CommentBlockData: []
