%YAML 1.1
%TAG !u! tag:unity3d.com,2011:
--- !u!114 &11400000
MonoBehaviour:
  m_ObjectHideFlags: 0
  m_CorrespondingSourceObject: {fileID: 0}
  m_PrefabInstance: {fileID: 0}
  m_PrefabAsset: {fileID: 0}
  m_GameObject: {fileID: 0}
  m_Enabled: 1
  m_EditorHideFlags: 0
  m_Script: {fileID: 11500000, guid: 78b3fd9154634ebdb8c8a48960b9a16a, type: 3}
  m_Name: Lake Quest 1-4
  m_EditorClassIdentifier: 
  NodeLinks:
  - BaseNodeGUID: eeaa6a50-f87a-40a3-bec5-6679bb66e9e4
    PortName: Next
    TargetNodeGUID: 775d526c-910a-48e5-b59b-513cdc0b93cd
  - BaseNodeGUID: 775d526c-910a-48e5-b59b-513cdc0b93cd
    PortName: "\uC5B4\uB5A4 \uC9DC\uC99D\uB098\uB294 \uCE5C\uAD6C\uAC00 \uB9D0\uC744
      \uC804\uD574 \uB2EC\uB798\uC11C"
    TargetNodeGUID: 65793a3e-a7d9-4b85-8531-048d21b256e9
  - BaseNodeGUID: 775d526c-910a-48e5-b59b-513cdc0b93cd
    PortName: "\uC808\uBCBD \uBC0F\uC5D0 \uC0AC\uB294 \uCE5C\uAD6C\uAC00 \uB9D0\uC744
      \uC804\uD574\uB2EC\uB798\uC11C.."
    TargetNodeGUID: 5cc9214f-b919-4674-a48f-2d7bc946c61b
  - BaseNodeGUID: 65793a3e-a7d9-4b85-8531-048d21b256e9
    PortName: "\uBBF8\uB85C\uAC00 \uC788\uB294 \uC808\uBCBD\uC5D0 \uC0AC\uB294 \uADF8
      \uB140\uC11D \uB9D0\uC774\uC57C."
    TargetNodeGUID: a693a8e1-a276-439b-8241-7ef7fa58cfe3
  - BaseNodeGUID: 5cc9214f-b919-4674-a48f-2d7bc946c61b
    PortName: "\uB108\uD55C\uD14C \uBBF8\uC548\uD558\uB314\uC5B4..."
    TargetNodeGUID: a693a8e1-a276-439b-8241-7ef7fa58cfe3
  - BaseNodeGUID: a693a8e1-a276-439b-8241-7ef7fa58cfe3
    PortName: "\uC751 \uB9DE\uC544..."
    TargetNodeGUID: 5e244cb5-5f7a-4e79-a971-3ba776e7b8e8
  - BaseNodeGUID: a693a8e1-a276-439b-8241-7ef7fa58cfe3
    PortName: "\uC5B4\uC774\uC5C6\uC9C0\uB9CC \uB9DE\uC544."
    TargetNodeGUID: 5e244cb5-5f7a-4e79-a971-3ba776e7b8e8
  DialogueNodeData:
  - NodeGUID: 775d526c-910a-48e5-b59b-513cdc0b93cd
    DialogueText: "\uBB34\uC2A8\uC77C\uC774\uC57C? \uBB50 \uB9C8\uC2DC\uB7EC \uC654\uC5B4?"
    Position: {x: 265, y: 206}
  - NodeGUID: 65793a3e-a7d9-4b85-8531-048d21b256e9
    DialogueText: "\uC9DC\uC99D\uB098\uB294 \uCE5C\uAD6C?"
    Position: {x: 645, y: 295}
  - NodeGUID: 5cc9214f-b919-4674-a48f-2d7bc946c61b
    DialogueText: "\uB09C \uADF8 \uB140\uC11D\uC5D0\uAC8C \uB4E4\uC744 \uB9D0 \uC5C6\uC5B4!"
    Position: {x: 654, y: 169}
  - NodeGUID: a693a8e1-a276-439b-8241-7ef7fa58cfe3
    DialogueText: "\uC124\uB9C8 \uC0AC\uACFC\uB97C \uC2DC\uD0A8\uAC70\uC57C?"
    Position: {x: 1027, y: 172}
  - NodeGUID: 5e244cb5-5f7a-4e79-a971-3ba776e7b8e8
    DialogueText: "\uADF8\uCE5C\uAD6C\uC5D0\uAC8C \uC601\uC6D0\uD788 \uBCF4\uC9C0
      \uB9D0\uC790\uACE0 \uC804\uD574\uC918!"
    Position: {x: 1327, y: 185}
  ExposedProperties: []
  CommentBlockData: []
