%YAML 1.1
%TAG !u! tag:unity3d.com,2011:
--- !u!114 &11400000
MonoBehaviour:
  m_ObjectHideFlags: 0
  m_CorrespondingSourceObject: {fileID: 0}
  m_PrefabInstance: {fileID: 0}
  m_PrefabAsset: {fileID: 0}
  m_GameObject: {fileID: 0}
  m_Enabled: 1
  m_EditorHideFlags: 0
  m_Script: {fileID: 11500000, guid: 98bc2de57a079b94b85709dbda8a4aee, type: 3}
  m_Name: Lake Village Main Quest_Demo
  m_EditorClassIdentifier: 
  NodeLinks:
  - BaseNodeGUID: e6e4dd7b-60f5-4f96-8781-1586f2a1eef5
    PortName: Next
    TargetNodeGUID: 141a7c49-26c2-44fa-9dfe-328573b6e198
  - BaseNodeGUID: 74b68e5a-369e-4305-b4f5-2c9eecdd23b5
    PortName: "\uD655\uC778"
    TargetNodeGUID: c9600ee5-3e21-4f77-a7d8-98a788ee54c3
  - BaseNodeGUID: 141a7c49-26c2-44fa-9dfe-328573b6e198
    PortName: "\uD655\uC778"
    TargetNodeGUID: 74b68e5a-369e-4305-b4f5-2c9eecdd23b5
  - BaseNodeGUID: c9600ee5-3e21-4f77-a7d8-98a788ee54c3
    PortName: "\uD655\uC778"
    TargetNodeGUID: 8526eb21-72d8-4bf2-9d5b-dcbc47983acf
  - BaseNodeGUID: 8526eb21-72d8-4bf2-9d5b-dcbc47983acf
    PortName: Next
    TargetNodeGUID: 5936ae6c-a2e9-4a72-88a9-6540795d7b22
  QuestNodeData:
  - NodeGUID: 74b68e5a-369e-4305-b4f5-2c9eecdd23b5
    QuestText: "\uCE74\uD398\uB97C \uC6B4\uC601\uD558\uB294 \uCE5C\uAD6C\uC5D0\uAC8C
      \uB9D0\uC744 \uC804\uD574\uC8FC\uC790!"
    QeustGiver: Lake Quest1 GIver NPC
    questDialogue: {fileID: 11400000, guid: 7180e2273b434b449939bb663875a7e2, type: 2}
    successConditionEnum: 4
    successCondition:
      destination: 
      targetObject: []
      collection: []
      obj: Lake Quest 1-3 Partner
      dialogue: {fileID: 11400000, guid: fb24b3a4dc92dd24c885ada5a9bbc947, type: 2}
      limitSec: 0
    Position: {x: 751.2, y: 200}
  - NodeGUID: 141a7c49-26c2-44fa-9dfe-328573b6e198
    QuestText: "\uD638\uC218\uC5D0 \uBE60\uC9C4 \uBB3C\uAC74\uC744 \uCC3E\uC544\uC8FC\uC790!"
    QeustGiver: Lake Quest1 GIver NPC
    questDialogue: {fileID: 11400000, guid: 1c315532c0bce574cbaf840d7ea6c66a, type: 2}
    successConditionEnum: 6
    successCondition:
      destination: 
      targetObject: []
      collection:
      - Lake Quest1 collection
      obj: Lake Quest1 GIver NPC
      dialogue: {fileID: 11400000, guid: 69c1df8b5d2d2e14da691035124b230d, type: 2}
      limitSec: 0
    Position: {x: 255.2, y: 182.4}
  - NodeGUID: c9600ee5-3e21-4f77-a7d8-98a788ee54c3
    QuestText: "\uB9C8\uC744 \uC774\uC7A5\uC744 \uCC3E\uC544 \uB9D0\uC744 \uAC78\uC790!"
    QeustGiver: Lake Quest1 GIver NPC
    questDialogue: {fileID: 11400000, guid: 459c37b8e028cda4b84b0a9c304230ae, type: 2}
    successConditionEnum: 4
    successCondition:
      destination: 
      targetObject: []
      collection: []
      obj: Lake Quest2 Giver NPC
      dialogue: {fileID: 11400000, guid: 1736d58608be5eb45a68d551f5b5b960, type: 2}
      limitSec: 0
    Position: {x: 1276, y: 200}
  - NodeGUID: 8526eb21-72d8-4bf2-9d5b-dcbc47983acf
    QuestText: "\uB9C8\uC744 \uC774\uC7A5\uC758 \uC190\uC8FC\uB97C \uCC3E\uC790!"
    QeustGiver: Lake Quest2 Giver NPC
    questDialogue: {fileID: 11400000, guid: d7d9a33b93544d849a4f86a09eee602f, type: 2}
    successConditionEnum: 4
    successCondition:
      destination: 
      targetObject: []
      collection: []
      obj: Lake Quest 2-1 Target NPC
      dialogue: {fileID: 11400000, guid: 7caaad8bca196814a92d40f12dc79d05, type: 2}
      limitSec: 0
    Position: {x: 1704, y: 200}
  - NodeGUID: 5936ae6c-a2e9-4a72-88a9-6540795d7b22
    QuestText: "\uC190\uC8FC\uB97C \uB9C8\uC744 \uC774\uC7A5\uC5D0\uAC8C \uB370\uB824\uB2E4\uC8FC\uC790!"
    QeustGiver: Lake Quest 2-1 Target NPC
    questDialogue: {fileID: 11400000, guid: bcf4d96e06378ef409ace02c1a9ce30e, type: 2}
    successConditionEnum: 9
    successCondition:
      destination: Lake Quest 2-1 Target NPC Transforms
      targetObject:
      - Lake Quest 2-1 Target NPC
      collection: []
      obj: 
      dialogue: {fileID: 0}
      limitSec: 50
    Position: {x: 2157.6, y: 196.8}
  ExposedProperties: []
  CommentBlockData: []
