%YAML 1.1
%TAG !u! tag:unity3d.com,2011:
--- !u!114 &11400000
MonoBehaviour:
  m_ObjectHideFlags: 0
  m_CorrespondingSourceObject: {fileID: 0}
  m_PrefabInstance: {fileID: 0}
  m_PrefabAsset: {fileID: 0}
  m_GameObject: {fileID: 0}
  m_Enabled: 1
  m_EditorHideFlags: 0
  m_Script: {fileID: 11500000, guid: 98bc2de57a079b94b85709dbda8a4aee, type: 3}
  m_Name: LTF Quest 1
  m_EditorClassIdentifier: 
  NodeLinks:
  - BaseNodeGUID: 06a07085-e5ed-4054-8bbe-69634891d124
    PortName: Next
    TargetNodeGUID: 32839938-ef9f-4415-8737-685a980b1149
  QuestNodeData:
  - NodeGUID: 32839938-ef9f-4415-8737-685a980b1149
    QuestText: "\uBC84\uC12F 8\uAC1C\uB97C \uBAA8\uC73C\uC790!"
    QeustGiver: LTF Quest 1 Giver
    questDialogue: {fileID: 11400000, guid: 6061cdb62ceff024e8543a6b6cc1745d, type: 2}
    successConditionEnum: 2
    successCondition:
      destination: 
      targetObject: []
      collection:
      - 'LTF Collection '
      - LTF Collection 2
      - LTF Collection 1
      - LTF Collection 3
      - LTF Collection 4
      - LTF Collection 5
      - LTF Collection 6
      - LTF Collection 7
      obj: 
      dialogue: {fileID: 0}
      limitSec: 0
    Position: {x: 252, y: 197.59999}
  ExposedProperties: []
  CommentBlockData: []
