%YAML 1.1
%TAG !u! tag:unity3d.com,2011:
--- !u!114 &11400000
MonoBehaviour:
  m_ObjectHideFlags: 0
  m_CorrespondingSourceObject: {fileID: 0}
  m_PrefabInstance: {fileID: 0}
  m_PrefabAsset: {fileID: 0}
  m_GameObject: {fileID: 0}
  m_Enabled: 1
  m_EditorHideFlags: 0
  m_Script: {fileID: 11500000, guid: 98bc2de57a079b94b85709dbda8a4aee, type: 3}
  m_Name: New Quest
  m_EditorClassIdentifier: 
  NodeLinks:
  - BaseNodeGUID: 085ebb74-84e6-42f4-b78a-9a7b7d1132cb
    PortName: Next
    TargetNodeGUID: 0808e768-2ab2-4856-82b8-b68451a839b5
  - BaseNodeGUID: e874134a-4948-4c13-b57d-fbfb00dd39a3
    PortName: Option 0
    TargetNodeGUID: 1a4c959b-856c-40fe-ab62-4c43646cf91f
  - BaseNodeGUID: 0808e768-2ab2-4856-82b8-b68451a839b5
    PortName: Option 0
    TargetNodeGUID: e874134a-4948-4c13-b57d-fbfb00dd39a3
  QuestNodeData:
  - NodeGUID: e874134a-4948-4c13-b57d-fbfb00dd39a3
    QuestText: quest2
    QeustGiver: NPC1
    questDialogue: {fileID: 11400000, guid: 4aac5cac4b7c46540ba08bc9abd0c823, type: 2}
    successConditionEnum: 2
    successCondition:
      destination: 
      targetObject: []
      collection:
      - Sphere
      obj: 
      dialogue: {fileID: 0}
      limitSec: 0
    Position: {x: 632.8, y: 182.4}
  - NodeGUID: 1a4c959b-856c-40fe-ab62-4c43646cf91f
    QuestText: quest3
    QeustGiver: NPC1
    questDialogue: {fileID: 11400000, guid: 1f20f0d487ee97644a03fa027f43862b, type: 2}
    successConditionEnum: 4
    successCondition:
      destination: 
      targetObject: []
      collection: []
      obj: NPC2
      dialogue: {fileID: 11400000, guid: ca7ba7993b7801c428ee1672bf86d88d, type: 2}
      limitSec: 0
    Position: {x: 1043.2, y: 173.59999}
  - NodeGUID: 0808e768-2ab2-4856-82b8-b68451a839b5
    QuestText: quest1
    QeustGiver: NPC1
    questDialogue: {fileID: 11400000, guid: 0dbf464171692f748815c09eb2d25a7f, type: 2}
    successConditionEnum: 3
    successCondition:
      destination: gameobject
      targetObject:
      - player1
      - player0
      collection:
      - Sphere (1)
      - Sphere (2)
      - Sphere (3)
      obj: 
      dialogue: {fileID: 0}
      limitSec: 0
    Position: {x: 171.2, y: 176}
  ExposedProperties: []
  CommentBlockData: []
