%YAML 1.1
%TAG !u! tag:unity3d.com,2011:
--- !u!114 &11400000
MonoBehaviour:
  m_ObjectHideFlags: 0
  m_CorrespondingSourceObject: {fileID: 0}
  m_PrefabInstance: {fileID: 0}
  m_PrefabAsset: {fileID: 0}
  m_GameObject: {fileID: 0}
  m_Enabled: 1
  m_EditorHideFlags: 0
  m_Script: {fileID: 11500000, guid: 78b3fd9154634ebdb8c8a48960b9a16a, type: 3}
  m_Name: Part2_GotoTownQuest_Dialogue
  m_EditorClassIdentifier: 
  NodeLinks:
  - BaseNodeGUID: d820f929-b918-4d59-ba43-5f0cf53bf0eb
    PortName: Next
    TargetNodeGUID: 35c45c80-f269-4961-a28a-f7d279e82349
  - BaseNodeGUID: 35c45c80-f269-4961-a28a-f7d279e82349
    PortName: "\uB098 \uC800\uAE30\uC5D0 \uC788\uB294 \uC0B0"
    TargetNodeGUID: de63823c-e204-4b86-a78c-efb838d1ca7b
  - BaseNodeGUID: de63823c-e204-4b86-a78c-efb838d1ca7b
    PortName: "\uB108\uAC00 \uC0B4\uB358 \uB9C8\uC744\uC774 \uC5B4\uB518\uB370?"
    TargetNodeGUID: e1c66259-3eba-46ac-ab88-5936fa5af0b6
  - BaseNodeGUID: e1c66259-3eba-46ac-ab88-5936fa5af0b6
    PortName: "\uCC9C\uCC9C\uD788 \uAC00\uBA74 \uC548\uB3FC?"
    TargetNodeGUID: fd76743f-f9a5-4395-90a1-cce81c86a1d5
  - BaseNodeGUID: fd76743f-f9a5-4395-90a1-cce81c86a1d5
    PortName: "\uAC70 \uCC38.."
    TargetNodeGUID: 639dc325-51a8-46aa-8a47-d9d9c5bfba8b
  DialogueNodeData:
  - NodeGUID: 35c45c80-f269-4961-a28a-f7d279e82349
    DialogueText: "\uC5B4\uB77C! \uC5B4\uB514\uAC00\uACE0 \uC788\uC5B4?"
    Position: {x: 331, y: 164}
  - NodeGUID: de63823c-e204-4b86-a78c-efb838d1ca7b
    DialogueText: "\uC74C.. \uC800\uAE30 \uC0B0 \uC62C\uB77C\uAC00\uAE30 \uB9CC\uB9CC\uCE58
      \uC54A\uC744 \uD150\uB370, \uB0B4\uAC00 \uC0B4\uB358 \uB9C8\uC744\uC5D0 \uAC00\uC11C
      \uD78C\uD2B8\uB77C\uB3C4 \uC5BB\uACE0 \uAC00~"
    Position: {x: 635, y: -28}
  - NodeGUID: e1c66259-3eba-46ac-ab88-5936fa5af0b6
    DialogueText: "\uBC14\uC704\uB4E4\uB85C \uB9C9\uD600\uC788\uB294 \uB9C8\uC744\uC774\uC57C,
      \uB0B4\uAC00 \uC544\uBE60\uC5D0\uAC8C \uD154\uB808\uD30C\uC2DC\uB85C \uB9D0\uC744
      \uC804\uD574\uB458\uD14C\uB2C8 \uC5BC\uB978 \uAC00\uBD10!"
    Position: {x: 1224, y: 55}
  - NodeGUID: 639dc325-51a8-46aa-8a47-d9d9c5bfba8b
    DialogueText: "\uC5BC\uB978! \uB6F0\uC5B4!"
    Position: {x: 2727, y: 109}
  - NodeGUID: fd76743f-f9a5-4395-90a1-cce81c86a1d5
    DialogueText: "\uC6B0\uB9AC \uB9C8\uC744 \uC0AC\uB78C\uB4E4\uC774 \uC678\uBD80\uC778\uD55C\uD14C\uB294
      \uC880 \uAC01\uBC15\uD558\uAC70\uB4E0.. \uC544\uB9C8 \uBE68\uB9AC \uC548\uAC00\uBA74
      \uC544\uBE60\uB294 \uD78C\uD2B8\uACE0 \uBB50\uACE0 \uC544\uC608 \uB9D0\uB3C4
      \uC548\uC11E\uC73C\uB824 \uD560\uAC70\uC57C"
    Position: {x: 1925, y: 76}
  ExposedProperties: []
  CommentBlockData:
  - ChildNodes: []
    Position: {x: 1974, y: 271}
    Title: Comment Block
