%YAML 1.1
%TAG !u! tag:unity3d.com,2011:
--- !u!114 &11400000
MonoBehaviour:
  m_ObjectHideFlags: 0
  m_CorrespondingSourceObject: {fileID: 0}
  m_PrefabInstance: {fileID: 0}
  m_PrefabAsset: {fileID: 0}
  m_GameObject: {fileID: 0}
  m_Enabled: 1
  m_EditorHideFlags: 0
  m_Script: {fileID: 11500000, guid: 98bc2de57a079b94b85709dbda8a4aee, type: 3}
  m_Name: Part2_GotoTownQuest
  m_EditorClassIdentifier: 
  NodeLinks:
  - BaseNodeGUID: 64670973-9c85-40fa-83ee-200af4593612
    PortName: Next
    TargetNodeGUID: 81c77d7b-8436-4483-a3cf-55853ebefc08
  QuestNodeData:
  - NodeGUID: 81c77d7b-8436-4483-a3cf-55853ebefc08
    QuestText: Node
    QeustGiver: Idle2 NPC Part2_Starter
    questDialogue: {fileID: 11400000, guid: 2389de19849dfd84eac94efea199b1b4, type: 2}
    successConditionEnum: 9
    successCondition:
      destination: part2 destination
      targetObject:
      - player1
      - player0
      collection: []
      obj: 
      dialogue: {fileID: 0}
      limitSec: 120
    Position: {x: 327, y: 163}
  ExposedProperties: []
  CommentBlockData: []
