%YAML 1.1
%TAG !u! tag:unity3d.com,2011:
--- !u!114 &11400000
MonoBehaviour:
  m_ObjectHideFlags: 0
  m_CorrespondingSourceObject: {fileID: 0}
  m_PrefabInstance: {fileID: 0}
  m_PrefabAsset: {fileID: 0}
  m_GameObject: {fileID: 0}
  m_Enabled: 1
  m_EditorHideFlags: 0
  m_Script: {fileID: 11500000, guid: 98bc2de57a079b94b85709dbda8a4aee, type: 3}
  m_Name: QuestFollow
  m_EditorClassIdentifier: 
  NodeLinks:
  - BaseNodeGUID: 085ebb74-84e6-42f4-b78a-9a7b7d1132cb
    PortName: Next
    TargetNodeGUID: 7f17bbe8-a321-4fa5-bba4-33c6f98a1504
  QuestNodeData:
  - NodeGUID: 7f17bbe8-a321-4fa5-bba4-33c6f98a1504
    QuestText: Follow Test
    QeustGiver: Key Target NPC
    questDialogue: {fileID: 11400000, guid: e7868186597d245418dee1837d0cb14d, type: 2}
    successConditionEnum: 1
    successCondition:
      destination: well
      targetObject:
      - Key Target NPC
      collection: []
      obj: 
      dialogue: {fileID: 0}
      limitSec: 0
    Position: {x: 223.2, y: 202.4}
  ExposedProperties: []
  CommentBlockData: []
