%YAML 1.1
%TAG !u! tag:unity3d.com,2011:
--- !u!114 &11400000
MonoBehaviour:
  m_ObjectHideFlags: 0
  m_CorrespondingSourceObject: {fileID: 0}
  m_PrefabInstance: {fileID: 0}
  m_PrefabAsset: {fileID: 0}
  m_GameObject: {fileID: 0}
  m_Enabled: 1
  m_EditorHideFlags: 0
  m_Script: {fileID: 11500000, guid: bc354d31d6d36894c8ea19aa4b83eb0b, type: 3}
  m_Name: save
  m_EditorClassIdentifier: 
  savePoint: {x: 1457.9167, y: 792.3552, z: 3672.1018}
  inventoryDatas:
  - id: 1
    count: 1
  collectedTraumaCount: 0
  quest: {fileID: 11400000, guid: 70e5e6525b29665469de628266c47408, type: 2}
  acceptedQuests:
  - NodeGUID: 0808e768-2ab2-4856-82b8-b68451a839b5
    QuestText: quest1
    QeustGiver: NPC1
    questDialogue: {fileID: 11400000, guid: 0dbf464171692f748815c09eb2d25a7f, type: 2}
    successConditionEnum: 3
    successCondition:
      destination: gameobject
      targetObject:
      - player1
      - player0
      collection:
      - Sphere (1)
      - Sphere (2)
      - Sphere (3)
      obj: 
      dialogue: {fileID: 0}
      limitSec: 0
    Position: {x: 171.2, y: 176}
  canAccpetQuests: []
  currQuestGuid: 
