%YAML 1.1
%TAG !u! tag:unity3d.com,2011:
--- !u!114 &11400000
MonoBehaviour:
  m_ObjectHideFlags: 0
  m_CorrespondingSourceObject: {fileID: 0}
  m_PrefabInstance: {fileID: 0}
  m_PrefabAsset: {fileID: 0}
  m_GameObject: {fileID: 0}
  m_Enabled: 1
  m_EditorHideFlags: 0
  m_Script: {fileID: 11500000, guid: 78b3fd9154634ebdb8c8a48960b9a16a, type: 3}
  m_Name: testFollowNpcDialogue
  m_EditorClassIdentifier: 
  NodeLinks:
  - BaseNodeGUID: 75f1e173-e093-4387-9df9-31386f56073f
    PortName: Next
    TargetNodeGUID: 21e94843-e625-49d2-adfb-7f6e2b5b5b7a
  DialogueNodeData:
  - NodeGUID: 21e94843-e625-49d2-adfb-7f6e2b5b5b7a
    DialogueText: 11
    Position: {x: 230.4, y: 200.8}
  ExposedProperties: []
  CommentBlockData: []
