%YAML 1.1
%TAG !u! tag:unity3d.com,2011:
--- !u!114 &11400000
MonoBehaviour:
  m_ObjectHideFlags: 0
  m_CorrespondingSourceObject: {fileID: 0}
  m_PrefabInstance: {fileID: 0}
  m_PrefabAsset: {fileID: 0}
  m_GameObject: {fileID: 0}
  m_Enabled: 1
  m_EditorHideFlags: 0
  m_Script: {fileID: 11500000, guid: 78b3fd9154634ebdb8c8a48960b9a16a, type: 3}
  m_Name: timeAttackTest2
  m_EditorClassIdentifier: 
  NodeLinks:
  - BaseNodeGUID: 0c38ead4-c596-4ac6-aacf-c0aee4dc93cd
    PortName: Next
    TargetNodeGUID: 200dfa8e-eee0-4343-8b7c-a77c53d6a4ab
  DialogueNodeData:
  - NodeGUID: 200dfa8e-eee0-4343-8b7c-a77c53d6a4ab
    DialogueText: ok
    Position: {x: 281.6, y: 195.2}
  ExposedProperties: []
  CommentBlockData: []
