%YAML 1.1
%TAG !u! tag:unity3d.com,2011:
--- !u!114 &11400000
MonoBehaviour:
  m_ObjectHideFlags: 0
  m_CorrespondingSourceObject: {fileID: 0}
  m_PrefabInstance: {fileID: 0}
  m_PrefabAsset: {fileID: 0}
  m_GameObject: {fileID: 0}
  m_Enabled: 1
  m_EditorHideFlags: 0
  m_Script: {fileID: 11500000, guid: 78b3fd9154634ebdb8c8a48960b9a16a, type: 3}
  m_Name: Tutorial_Quest4_HintDialogue1
  m_EditorClassIdentifier: 
  NodeLinks:
  - BaseNodeGUID: 7f46c98c-37ef-4a62-9a9f-bc5810a10c60
    PortName: Next
    TargetNodeGUID: ba509b98-4b7d-4136-b1e7-1d52ad55bee9
  DialogueNodeData:
  - NodeGUID: ba509b98-4b7d-4136-b1e7-1d52ad55bee9
    DialogueText: "\uD070 \uB9C8\uC744? \uD070 \uB9C8\uC744\uC740 \uB108\uAC00 \uAC00\uB358
      \uBC29\uD5A5 \uADF8\uB300\uB85C \uCB49 \uAC00\uBA74 \uB3FC~"
    Position: {x: 274, y: 157}
  ExposedProperties: []
  CommentBlockData: []
