%YAML 1.1
%TAG !u! tag:unity3d.com,2011:
--- !u!114 &11400000
MonoBehaviour:
  m_ObjectHideFlags: 0
  m_CorrespondingSourceObject: {fileID: 0}
  m_PrefabInstance: {fileID: 0}
  m_PrefabAsset: {fileID: 0}
  m_GameObject: {fileID: 0}
  m_Enabled: 1
  m_EditorHideFlags: 0
  m_Script: {fileID: 11500000, guid: 78b3fd9154634ebdb8c8a48960b9a16a, type: 3}
  m_Name: Tutorial_Quest5_Dialogue2
  m_EditorClassIdentifier: 
  NodeLinks:
  - BaseNodeGUID: b9564318-ab5d-4428-8f97-ff31c75869b7
    PortName: Next
    TargetNodeGUID: 84855899-1195-42a5-9053-8da7a9bda848
  DialogueNodeData:
  - NodeGUID: 84855899-1195-42a5-9053-8da7a9bda848
    DialogueText: "\uC544\uC9C1 \uC0DD\uAC01 \uC911\uC774\uB77C\uB124 \uC870\uAE08
      \uB354 \uAE30\uB2E4\uB9AC\uAC8C.."
    Position: {x: 293, y: 186}
  ExposedProperties: []
  CommentBlockData: []
