%YAML 1.1
%TAG !u! tag:unity3d.com,2011:
--- !u!21 &2100000
Material:
  serializedVersion: 6
  m_ObjectHideFlags: 0
  m_CorrespondingSourceObject: {fileID: 0}
  m_PrefabInstance: {fileID: 0}
  m_PrefabAsset: {fileID: 0}
  m_Name: M_StoneFloor-Slabs
  m_Shader: {fileID: -6465566751694194690, guid: fe3d56264dcf32948ab46c66af3f66ef, type: 3}
  m_ShaderKeywords: DIRTLAYER_ON MOSSLAYER_ON
  m_LightmapFlags: 4
  m_EnableInstancingVariants: 0
  m_DoubleSidedGI: 1
  m_CustomRenderQueue: -1
  stringTagMap: {}
  disabledShaderPasses: []
  m_SavedProperties:
    serializedVersion: 3
    m_TexEnvs:
    - Texture2D_13561D16:
        m_Texture: {fileID: 0}
        m_Scale: {x: 1, y: 1}
        m_Offset: {x: 0, y: 0}
    - Texture2D_145DB1A1:
        m_Texture: {fileID: 0}
        m_Scale: {x: 1, y: 1}
        m_Offset: {x: 0, y: 0}
    - Texture2D_2651F676:
        m_Texture: {fileID: 2800000, guid: 8490157df628e3046883eca7a93f59da, type: 3}
        m_Scale: {x: 1, y: 1}
        m_Offset: {x: 0, y: 0}
    - Texture2D_7053DB5B:
        m_Texture: {fileID: 2800000, guid: 5bd0c74a2b7cbd245a83a753db6334be, type: 3}
        m_Scale: {x: 1, y: 1}
        m_Offset: {x: 0, y: 0}
    - Texture2D_8605872C:
        m_Texture: {fileID: 2800000, guid: 9ab2c73e74b3515469f660ef96754ade, type: 3}
        m_Scale: {x: 1, y: 1}
        m_Offset: {x: 0, y: 0}
    - Texture2D_A5E5BEF6:
        m_Texture: {fileID: 0}
        m_Scale: {x: 1, y: 1}
        m_Offset: {x: 0, y: 0}
    - Texture2D_AE40B555:
        m_Texture: {fileID: 2800000, guid: e0492eb99ca18be409c7e6cba757e5de, type: 3}
        m_Scale: {x: 1, y: 1}
        m_Offset: {x: 0, y: 0}
    - Texture2D_C38FE78A:
        m_Texture: {fileID: 0}
        m_Scale: {x: 1, y: 1}
        m_Offset: {x: 0, y: 0}
    - Texture2D_F2031A8B:
        m_Texture: {fileID: 2800000, guid: 81941e35a4d7d6a4986eec5c4506564a, type: 3}
        m_Scale: {x: 1, y: 1}
        m_Offset: {x: 0, y: 0}
    - Texture2D_F420B07C:
        m_Texture: {fileID: 2800000, guid: f4501a7b4fb24034bb8d036ed6ff1408, type: 3}
        m_Scale: {x: 1, y: 1}
        m_Offset: {x: 0, y: 0}
    - _BaseMap:
        m_Texture: {fileID: 0}
        m_Scale: {x: 1, y: 1}
        m_Offset: {x: 0, y: 0}
    - _BumpMap:
        m_Texture: {fileID: 0}
        m_Scale: {x: 1, y: 1}
        m_Offset: {x: 0, y: 0}
    - _EmissionMap:
        m_Texture: {fileID: 0}
        m_Scale: {x: 1, y: 1}
        m_Offset: {x: 0, y: 0}
    - _MainTex:
        m_Texture: {fileID: 0}
        m_Scale: {x: 1, y: 1}
        m_Offset: {x: 0, y: 0}
    - _MetallicGlossMap:
        m_Texture: {fileID: 0}
        m_Scale: {x: 1, y: 1}
        m_Offset: {x: 0, y: 0}
    - _OcclusionMap:
        m_Texture: {fileID: 0}
        m_Scale: {x: 1, y: 1}
        m_Offset: {x: 0, y: 0}
    - _SMoss_CFA09700_Texture2DFEA0E222_1096749520:
        m_Texture: {fileID: 0}
        m_Scale: {x: 1, y: 1}
        m_Offset: {x: 0, y: 0}
    - _SampleTexture2DLOD_DA3C42C8_Texture_1:
        m_Texture: {fileID: 2800000, guid: c824f68977069d347a3447bbd192e44e, type: 3}
        m_Scale: {x: 1, y: 1}
        m_Offset: {x: 0, y: 0}
    - _SampleTexture2D_0e5114afc400f08f9a5b908da248e203_Texture_1:
        m_Texture: {fileID: 2800000, guid: a3f95a6f5c878b94ba5137ffd65da379, type: 3}
        m_Scale: {x: 1, y: 1}
        m_Offset: {x: 0, y: 0}
    - _SampleTexture2D_10F51BFB_Texture_1:
        m_Texture: {fileID: 2800000, guid: a3f95a6f5c878b94ba5137ffd65da379, type: 3}
        m_Scale: {x: 1, y: 1}
        m_Offset: {x: 0, y: 0}
    - _SampleTexture2D_125bedfeb55c118bbdb0e6848a0e1054_Texture_1:
        m_Texture: {fileID: 2800000, guid: 3881623f8b345e1499f206f12f34437c, type: 3}
        m_Scale: {x: 1, y: 1}
        m_Offset: {x: 0, y: 0}
    - _SampleTexture2D_26A20566_Texture_1:
        m_Texture: {fileID: 2800000, guid: a3f95a6f5c878b94ba5137ffd65da379, type: 3}
        m_Scale: {x: 1, y: 1}
        m_Offset: {x: 0, y: 0}
    - _SampleTexture2D_3da5e6f4ba25088992b0984304b9d84e_Texture_1:
        m_Texture: {fileID: 2800000, guid: 02ff002e6aa9b3044bb22b87b9a59578, type: 3}
        m_Scale: {x: 1, y: 1}
        m_Offset: {x: 0, y: 0}
    - _SampleTexture2D_4EC83B63_Texture_1:
        m_Texture: {fileID: 2800000, guid: d54bd2e6fc49a3940a3732f14326d560, type: 3}
        m_Scale: {x: 1, y: 1}
        m_Offset: {x: 0, y: 0}
    - _SampleTexture2D_5776f1d8f6fa5c8ca2305dcaf5b73d11_Texture_1:
        m_Texture: {fileID: 2800000, guid: 7e13607ca5bb50e47a8f61593e2c5051, type: 3}
        m_Scale: {x: 1, y: 1}
        m_Offset: {x: 0, y: 0}
    - _SampleTexture2D_6313CA_Texture_1:
        m_Texture: {fileID: 2800000, guid: 6386e1077bc0d2d42ba7cba47434d2ba, type: 3}
        m_Scale: {x: 1, y: 1}
        m_Offset: {x: 0, y: 0}
    - _SampleTexture2D_6E5969D_Texture_1:
        m_Texture: {fileID: 2800000, guid: 5bd0c74a2b7cbd245a83a753db6334be, type: 3}
        m_Scale: {x: 1, y: 1}
        m_Offset: {x: 0, y: 0}
    - _SampleTexture2D_72A6B1C2_Texture_1:
        m_Texture: {fileID: 2800000, guid: 7e13607ca5bb50e47a8f61593e2c5051, type: 3}
        m_Scale: {x: 1, y: 1}
        m_Offset: {x: 0, y: 0}
    - _SampleTexture2D_853F80F0_Texture_1:
        m_Texture: {fileID: 2800000, guid: c824f68977069d347a3447bbd192e44e, type: 3}
        m_Scale: {x: 1, y: 1}
        m_Offset: {x: 0, y: 0}
    - _SampleTexture2D_88E1B1CB_Texture_1:
        m_Texture: {fileID: 2800000, guid: 262bde398c8bbe041bca4aaf3d1e8f99, type: 3}
        m_Scale: {x: 1, y: 1}
        m_Offset: {x: 0, y: 0}
    - _SampleTexture2D_898ebebbaa92318982c55a42eeef0dec_Texture_1:
        m_Texture: {fileID: 2800000, guid: d54bd2e6fc49a3940a3732f14326d560, type: 3}
        m_Scale: {x: 1, y: 1}
        m_Offset: {x: 0, y: 0}
    - _SampleTexture2D_91040C50_Texture_1:
        m_Texture: {fileID: 2800000, guid: 81941e35a4d7d6a4986eec5c4506564a, type: 3}
        m_Scale: {x: 1, y: 1}
        m_Offset: {x: 0, y: 0}
    - _SampleTexture2D_B29CAE0C_Texture_1:
        m_Texture: {fileID: 2800000, guid: d4ac42e2ecfd24f4dbb794ca480b2afa, type: 3}
        m_Scale: {x: 1, y: 1}
        m_Offset: {x: 0, y: 0}
    - _SampleTexture2D_B74AB5CB_Texture_1:
        m_Texture: {fileID: 2800000, guid: d165cbfbd14975c47bdeb223d2d15bbd, type: 3}
        m_Scale: {x: 1, y: 1}
        m_Offset: {x: 0, y: 0}
    - _SampleTexture2D_B799E0F7_Texture_1:
        m_Texture: {fileID: 2800000, guid: 3881623f8b345e1499f206f12f34437c, type: 3}
        m_Scale: {x: 1, y: 1}
        m_Offset: {x: 0, y: 0}
    - _SampleTexture2D_C5DC9E02_Texture_1:
        m_Texture: {fileID: 2800000, guid: 02ff002e6aa9b3044bb22b87b9a59578, type: 3}
        m_Scale: {x: 1, y: 1}
        m_Offset: {x: 0, y: 0}
    - _SampleTexture2D_C9A871C5_Texture_1:
        m_Texture: {fileID: 2800000, guid: 2e27ed1ae72f4e54485a6eebc06197e6, type: 3}
        m_Scale: {x: 1, y: 1}
        m_Offset: {x: 0, y: 0}
    - _SampleTexture2D_CF32F88F_Texture_1:
        m_Texture: {fileID: 2800000, guid: 8490157df628e3046883eca7a93f59da, type: 3}
        m_Scale: {x: 1, y: 1}
        m_Offset: {x: 0, y: 0}
    - _SampleTexture2D_CF422D65_Texture_1:
        m_Texture: {fileID: 2800000, guid: 7e13607ca5bb50e47a8f61593e2c5051, type: 3}
        m_Scale: {x: 1, y: 1}
        m_Offset: {x: 0, y: 0}
    - _SampleTexture2D_DC714A22_Texture_1:
        m_Texture: {fileID: 2800000, guid: 6be21e4410c736c40aa6c632e4b1c8fe, type: 3}
        m_Scale: {x: 1, y: 1}
        m_Offset: {x: 0, y: 0}
    - _SampleTexture2D_E2E582D7_Texture_1:
        m_Texture: {fileID: 2800000, guid: d165cbfbd14975c47bdeb223d2d15bbd, type: 3}
        m_Scale: {x: 1, y: 1}
        m_Offset: {x: 0, y: 0}
    - _SampleTexture2D_bb67141759c5868097627b3f3d55f7c9_Texture_1:
        m_Texture: {fileID: 2800000, guid: d165cbfbd14975c47bdeb223d2d15bbd, type: 3}
        m_Scale: {x: 1, y: 1}
        m_Offset: {x: 0, y: 0}
    - _SpecGlossMap:
        m_Texture: {fileID: 0}
        m_Scale: {x: 1, y: 1}
        m_Offset: {x: 0, y: 0}
    - unity_Lightmaps:
        m_Texture: {fileID: 0}
        m_Scale: {x: 1, y: 1}
        m_Offset: {x: 0, y: 0}
    - unity_LightmapsInd:
        m_Texture: {fileID: 0}
        m_Scale: {x: 1, y: 1}
        m_Offset: {x: 0, y: 0}
    - unity_ShadowMasks:
        m_Texture: {fileID: 0}
        m_Scale: {x: 1, y: 1}
        m_Offset: {x: 0, y: 0}
    m_Floats:
    - Boolean_2D024B60: 0
    - Boolean_33057D03: 1
    - Boolean_5AE17364: 1
    - Boolean_6CAA8319: 1
    - Boolean_A7DA8E42: 0
    - Boolean_A9EA093A: 0
    - Boolean_B5F2A7FF: 0
    - Boolean_C4CB3C40: 1
    - Boolean_DC7B5A41: 0
    - Boolean_E4739EAB: 0
    - Boolean_EE12DF40: 0
    - DIRTLAYER: 1
    - EMISSION_ANI: 0
    - MOSSLAYER: 1
    - Vector1_1C212B02: -0.528
    - Vector1_27F4563C: 0
    - Vector1_2F05CBFC: 1
    - Vector1_34CBA231: 2
    - Vector1_36E10A09: 0.02
    - Vector1_3AD4F289: 0
    - Vector1_3E7579F5: 0.785
    - Vector1_3F6510D5: 0.04
    - Vector1_4D2493FC: 0.58
    - Vector1_4E714DEF: 0
    - Vector1_507F558B: 0
    - Vector1_50DE430D: 0
    - Vector1_56070B55: -3.95
    - Vector1_5882A43A: 0.172
    - Vector1_59D074A3: 10
    - Vector1_5AB1E12D: 1.111
    - Vector1_6F323EAC: -1.16
    - Vector1_7261A750: 0
    - Vector1_73D6ABBC: 0
    - Vector1_79D49E42: 1.06
    - Vector1_7C21D00B: 0.047
    - Vector1_7E80E06: 1
    - Vector1_7FAD4BB5: -3.5
    - Vector1_8A8366DA: 0
    - Vector1_8E54ECA: 0
    - Vector1_954425FA: 0
    - Vector1_9AEC64E3: -3.3
    - Vector1_9F45A997: 0
    - Vector1_A3B2A0FD: -0.33
    - Vector1_A8FA7E71: 0
    - Vector1_AD8592C4: 0.131
    - Vector1_B14EFD3E: 0.488
    - Vector1_B83988F6: 0
    - Vector1_CECF23E6: 0.1
    - Vector1_D3224A15: 0
    - Vector1_D55A8D16: 0.163
    - Vector1_DE1EE159: 0.016
    - Vector1_DFCA6C31: 1
    - Vector1_E19DA037: 0.63
    - Vector1_E3284158: 0
    - Vector1_F0921479: -4.5
    - Vector1_F82D82A1: 0
    - Vector1_FE69C59C: 0
    - _AlphaClip: 0
    - _Blend: 0
    - _BumpScale: 1
    - _Cull: 2
    - _Cutoff: 0.5
    - _DstBlend: 0
    - _EnvironmentReflections: 1
    - _GlossMapScale: 0
    - _Glossiness: 0
    - _GlossyReflections: 0
    - _Metallic: 0
    - _OcclusionStrength: 1
    - _QueueOffset: 0
    - _ReceiveShadows: 1
    - _Smoothness: 0.5
    - _SmoothnessTextureChannel: 0
    - _SpecularHighlights: 1
    - _SrcBlend: 1
    - _Surface: 0
    - _WorkflowMode: 1
    - _ZWrite: 1
    m_Colors:
    - Color_257FFD63: {r: 0.9811321, g: 0.39337838, b: 0.39337838, a: 0}
    - Color_2ECBB47B: {r: 0.92401576, g: 0.56037736, b: 1, a: 1}
    - Color_9B4883CA: {r: 0.4811321, g: 0.45182604, b: 0.40623888, a: 0}
    - Color_CF6194D3: {r: 0, g: 0.3624995, b: 0.4150943, a: 0}
    - Color_F24E895E: {r: 0.06082235, g: 0.4811321, b: 0.09676434, a: 1}
    - Vector2_CCF3E5F7: {r: -0.35, g: 0, b: 0, a: 0}
    - _BaseColor: {r: 1, g: 1, b: 1, a: 1}
    - _Color: {r: 1, g: 1, b: 1, a: 1}
    - _EmissionColor: {r: 0, g: 0, b: 0, a: 1}
    - _SpecColor: {r: 0.19999996, g: 0.19999996, b: 0.19999996, a: 1}
  m_BuildTextureStacks: []
