%YAML 1.1
%TAG !u! tag:unity3d.com,2011:
--- !u!1045 &1
EditorBuildSettings:
  m_ObjectHideFlags: 0
  serializedVersion: 2
  m_Scenes:
  - enabled: 1
    path: Assets/06.Scenes/CutSceneFolder/TitleScene.unity
    guid: 87bd29e85e56f8c4eb6862da4fc973f2
  - enabled: 1
    path: Assets/06.Scenes/CutSceneFolder/OpeningCutScene1.unity
    guid: 4d4065664a555c64788c5351801c8bcc
  - enabled: 1
    path: Assets/06.Scenes/Loading.unity
    guid: cd51552088c999547bad81a4d03cbab1
  - enabled: 1
    path: Assets/06.Scenes/MainGame.unity
    guid: 33c6e9dbc83448e40bafa00f4aa3a534
  - enabled: 1
    path: Assets/06.Scenes/CutSceneFolder/EndingCutScene1.unity
    guid: 59aba41ed29fe7740bb2f1d1ddd92ab0
  - enabled: 1
    path: Assets/06.Scenes/CutSceneFolder/EndingCutScene2.unity
    guid: 988b1709735eb2d43b190d5f5cacd9e2
  - enabled: 1
    path: Assets/06.Scenes/CutSceneFolder/EndingCutScene3.unity
    guid: f7bc658dcad5dfb429ae15f74554db30
  m_configObjects: {}
