%YAML 1.1
%TAG !u! tag:unity3d.com,2011:
--- !u!1 &475425979587560592
GameObject:
  m_ObjectHideFlags: 0
  m_CorrespondingSourceObject: {fileID: 0}
  m_PrefabInstance: {fileID: 0}
  m_PrefabAsset: {fileID: 0}
  serializedVersion: 6
  m_Component:
  - component: {fileID: 475425979587560598}
  - component: {fileID: 475425979587560593}
  - component: {fileID: 475425979587560599}
  m_Layer: 0
  m_Name: Presettings
  m_TagString: Untagged
  m_Icon: {fileID: 0}
  m_NavMeshLayer: 0
  m_StaticEditorFlags: 0
  m_IsActive: 1
--- !u!4 &475425979587560598
Transform:
  m_ObjectHideFlags: 0
  m_CorrespondingSourceObject: {fileID: 0}
  m_PrefabInstance: {fileID: 0}
  m_PrefabAsset: {fileID: 0}
  m_GameObject: {fileID: 475425979587560592}
  m_LocalRotation: {x: 0, y: 0, z: 0, w: 1}
  m_LocalPosition: {x: 1869.8912, y: 567.4997, z: 3872.743}
  m_LocalScale: {x: 1, y: 1, z: 1}
  m_Children: []
  m_Father: {fileID: 0}
  m_RootOrder: 0
  m_LocalEulerAnglesHint: {x: 0, y: 0, z: 0}
--- !u!114 &475425979587560593
MonoBehaviour:
  m_ObjectHideFlags: 0
  m_CorrespondingSourceObject: {fileID: 0}
  m_PrefabInstance: {fileID: 0}
  m_PrefabAsset: {fileID: 0}
  m_GameObject: {fileID: 475425979587560592}
  m_Enabled: 1
  m_EditorHideFlags: 0
  m_Script: {fileID: 11500000, guid: 4fae1735c7439d14ea474f78740ef318, type: 3}
  m_Name: 
  m_EditorClassIdentifier: 
  outlineMaterial: {fileID: 2100000, guid: aefb70a7d99fad74db62dd0911d9fcc4, type: 2}
  npcOutlineMaterial: {fileID: 2100000, guid: 7d429f204746ca84a9450b4eeb9b51a0, type: 2}
  outlineScale: 0.1
  npcOutlineScale: 0.05
  outlineColor: {r: 1, g: 0.472966, b: 0, a: 1}
--- !u!114 &475425979587560599
MonoBehaviour:
  m_ObjectHideFlags: 0
  m_CorrespondingSourceObject: {fileID: 0}
  m_PrefabInstance: {fileID: 0}
  m_PrefabAsset: {fileID: 0}
  m_GameObject: {fileID: 475425979587560592}
  m_Enabled: 1
  m_EditorHideFlags: 0
  m_Script: {fileID: 11500000, guid: cc25a6857605825419d653a2e6f35c86, type: 3}
  m_Name: 
  m_EditorClassIdentifier: 
  GravityMaterial: {fileID: 2100000, guid: 2dca07e763599ae49a2988520bde193e, type: 2}
  Colors:
  - {r: 1, g: 0, b: 0, a: 1}
  - {r: 1, g: 0.5991546, b: 0, a: 15}
  - {r: 1, g: 0.936213, b: 0, a: 1}
  - {r: 0, g: 0.59510183, b: 1, a: 1}
  - {r: 0.07123971, g: 1, b: 0, a: 1}
