%YAML 1.1
%TAG !u! tag:unity3d.com,2011:
--- !u!114 &11400000
MonoBehaviour:
  m_ObjectHideFlags: 0
  m_CorrespondingSourceObject: {fileID: 0}
  m_PrefabInstance: {fileID: 0}
  m_PrefabAsset: {fileID: 0}
  m_GameObject: {fileID: 0}
  m_Enabled: 1
  m_EditorHideFlags: 0
  m_Script: {fileID: 11500000, guid: 879c73f26c7ad684399a6dd8ce2da619, type: 3}
  m_Name: 12_19
  m_EditorClassIdentifier: 
  x: 12
  z: 19
  sectorSize: 200
  center: {x: 2500, y: 3900}
  targetTerrain: {fileID: 0}
  objectDatas:
  - {fileID: 11400000, guid: 3a3578906a184ec4e87c668f9583cd75, type: 2}
  - {fileID: 11400000, guid: 28686c78895ce8a429c6e558174bd18d, type: 2}
  - {fileID: 11400000, guid: da7abcdb758004a47aff8e917189cba6, type: 2}
  - {fileID: 11400000, guid: 082c4d8d9a485cd4085c8ea74582b797, type: 2}
  - {fileID: 11400000, guid: 8408834721c0c4e429194c7e883d9ec0, type: 2}
  - {fileID: 11400000, guid: d4c4e33892e580546b82617e7fda12ca, type: 2}
  - {fileID: 11400000, guid: 27a6cde81af54064c97c7af311dd546c, type: 2}
  - {fileID: 11400000, guid: 52e7e499404c3254685331ea5861c8ec, type: 2}
  - {fileID: 11400000, guid: 4b8e792b09fa0df4cbf846f237163d82, type: 2}
  - {fileID: 11400000, guid: b5d55fac05a84564da3845099003ed64, type: 2}
  - {fileID: 11400000, guid: b9fbfc57f4872f94fafe277c6fa2e0a9, type: 2}
  - {fileID: 11400000, guid: 785a35fba68246e4795cd5b2e3851563, type: 2}
  - {fileID: 11400000, guid: 525f1582a49fbed46b7eb5f9124a7aaf, type: 2}
  - {fileID: 11400000, guid: 278f607ac3003f14a8184be39e87e48d, type: 2}
  - {fileID: 11400000, guid: aa1f836d44128934ba0c4062f9487a0d, type: 2}
  - {fileID: 11400000, guid: 20da898b0e9a3444192f058cd0e28bc7, type: 2}
  - {fileID: 11400000, guid: a7d164c8652e4e646b223dd745402423, type: 2}
  - {fileID: 11400000, guid: 29f5b52f144ad024da695d2d7d4187c6, type: 2}
  - {fileID: 11400000, guid: dd299c0c622b6f14393801597090158e, type: 2}
  - {fileID: 11400000, guid: 9173e20cbd7909541a0b75dd46f5cab3, type: 2}
  - {fileID: 11400000, guid: 165182ff389d6e64cba001a5341f4ed5, type: 2}
  - {fileID: 11400000, guid: 917f9de28d4923e40993c161852df92c, type: 2}
  - {fileID: 11400000, guid: 228d3291b8f67914fb4c965a11feb6a9, type: 2}
  - {fileID: 11400000, guid: 699c8a906627228489eaf5a5bd8e6d88, type: 2}
  - {fileID: 11400000, guid: 56227e4c81957de4d8d7b73235c358d3, type: 2}
  - {fileID: 11400000, guid: 8cd31ac09e3475446ad2b95d7013d9ef, type: 2}
  - {fileID: 11400000, guid: a2021c6ef331d1c4484d06556023010c, type: 2}
  - {fileID: 11400000, guid: 79b2afd4af759da489b4a6f767cfa850, type: 2}
  - {fileID: 11400000, guid: 42e3e48d5aff45e4cb95c256ce605c24, type: 2}
  - {fileID: 11400000, guid: d761c6bed52afbb4b8899b0955682e4c, type: 2}
  - {fileID: 11400000, guid: 30f04d8e6d4138f46a27ccbb8cc7bf89, type: 2}
  - {fileID: 11400000, guid: 49628885fb2438c49921b3ec349915ac, type: 2}
  - {fileID: 11400000, guid: b8ede04ec9d5c3d4db9f1d2da3813a80, type: 2}
  - {fileID: 11400000, guid: d076c09218cca12498408e3955842703, type: 2}
  - {fileID: 11400000, guid: 459aead336507d24d81bca29e0aae095, type: 2}
  - {fileID: 11400000, guid: 1624e6bc18cc69a40b67503a5814e059, type: 2}
  - {fileID: 11400000, guid: 21883528c9218c948895dbeaaf1656d8, type: 2}
  - {fileID: 11400000, guid: 038fe85c780c1e3459c2a86bf1a1c1bc, type: 2}
  - {fileID: 11400000, guid: c63e2a9f45d9ca64ca5a7f881960fdee, type: 2}
  - {fileID: 11400000, guid: e49a92366d1f4474b90d0a3058aba68d, type: 2}
  - {fileID: 11400000, guid: 11dbc303a0e542b448e2f1e67d1d71d3, type: 2}
  - {fileID: 11400000, guid: 152903d3902966a47a4dbb87c58e27e8, type: 2}
  - {fileID: 11400000, guid: c75dc30fa95dd5d40b861d70434ef457, type: 2}
  - {fileID: 11400000, guid: 772ea38b93d2ca745a51c07b5d7eb135, type: 2}
  - {fileID: 11400000, guid: b0ce6d4053509dc43b4331fb9a8ad288, type: 2}
  - {fileID: 11400000, guid: 83b3cc6bc8bdc294da94b660c8966e69, type: 2}
  - {fileID: 11400000, guid: fbba7f82875840548a6240d6b7be7741, type: 2}
  - {fileID: 11400000, guid: b014347c04cdfc64c9dfcb36dead00ea, type: 2}
  - {fileID: 11400000, guid: 1e7945dea2f9b8a4e91430567be7e77e, type: 2}
  - {fileID: 11400000, guid: fffa1002440f12642b5864f6a8e2e320, type: 2}
  - {fileID: 11400000, guid: 8292cbae07c923c45a1695416a0ff1d1, type: 2}
  - {fileID: 11400000, guid: a0ee96fff07ebd14bb9b993d8d5d866a, type: 2}
  - {fileID: 11400000, guid: dbec498c3f5c9f1438b4fd0d7afbc22c, type: 2}
  - {fileID: 11400000, guid: 427c8a33c373d324abb59c2d01af8d50, type: 2}
  - {fileID: 11400000, guid: 248d3268b043d5b419a3e785d60b953a, type: 2}
  - {fileID: 11400000, guid: 88b0f42b499608a4aacfb85eeca73589, type: 2}
  - {fileID: 11400000, guid: b3f06f36a75634f449aa873161ffd040, type: 2}
  - {fileID: 11400000, guid: 1c706429d950329429b96ba12ea5df0c, type: 2}
  - {fileID: 11400000, guid: b8ca7f434925d2b4f87f5a087c22f2e8, type: 2}
  - {fileID: 11400000, guid: 0826ce61353d71840a9f96be5fce86c1, type: 2}
  - {fileID: 11400000, guid: f223972f5ee4f1949b0a692c2b9e5c75, type: 2}
  - {fileID: 11400000, guid: 944df711d147ec24b824074cea607ea1, type: 2}
  - {fileID: 11400000, guid: 15465dafb83e76e4084c08c6ffb0d230, type: 2}
  - {fileID: 11400000, guid: c8829da0c3c01c54b9e264cacbd2863c, type: 2}
  - {fileID: 11400000, guid: e227b9d2fed96864dac541218225005d, type: 2}
  - {fileID: 11400000, guid: 72b44c5faecba49488c88eeb95e655c4, type: 2}
  - {fileID: 11400000, guid: cef5b99865967b34ebccbfddd4f097a6, type: 2}
  - {fileID: 11400000, guid: ebec0bae54bef174a96b31f022c8fc77, type: 2}
  - {fileID: 11400000, guid: fd1940d084d43664a875d3ba0037291b, type: 2}
  - {fileID: 11400000, guid: e12004bbeeee36744865aab7abc480f3, type: 2}
  - {fileID: 11400000, guid: a630cea7325b6044eab998b2bbd41582, type: 2}
  - {fileID: 11400000, guid: e0e39ae0ca376b44e80def75c547a5c2, type: 2}
  - {fileID: 11400000, guid: feeaea38ec21c334593124f401ee1d5e, type: 2}
  - {fileID: 11400000, guid: 971dc6fd9755b5240ba6dd0eb7e8a767, type: 2}
  - {fileID: 11400000, guid: 44da25e0e9bda45409dcab1c4edca7a4, type: 2}
  - {fileID: 11400000, guid: 7edccabf9877d0841a61bb108b8cfe8f, type: 2}
  - {fileID: 11400000, guid: a359d3491a508d54aa88b67e41d0b89c, type: 2}
