%YAML 1.1
%TAG !u! tag:unity3d.com,2011:
--- !u!114 &11400000
MonoBehaviour:
  m_ObjectHideFlags: 0
  m_CorrespondingSourceObject: {fileID: 0}
  m_PrefabInstance: {fileID: 0}
  m_PrefabAsset: {fileID: 0}
  m_GameObject: {fileID: 0}
  m_Enabled: 1
  m_EditorHideFlags: 0
  m_Script: {fileID: 11500000, guid: 879c73f26c7ad684399a6dd8ce2da619, type: 3}
  m_Name: 13_18
  m_EditorClassIdentifier: 
  x: 13
  z: 18
  sectorSize: 200
  center: {x: 2700, y: 3700}
  targetTerrain: {fileID: 0}
  objectDatas:
  - {fileID: 11400000, guid: e25a85748128f924987fd39a68497c2b, type: 2}
  - {fileID: 11400000, guid: d0ee61409ddb1c4409e246a37e278cc9, type: 2}
  - {fileID: 11400000, guid: 8bea6139835210b4785401581a9db06c, type: 2}
  - {fileID: 11400000, guid: e746f46d71e2fc84f9195273d64147ed, type: 2}
  - {fileID: 11400000, guid: 3af29e2a59f38cc4c9fbd314070f0f4d, type: 2}
  - {fileID: 11400000, guid: 0d8f22a6ff5201a42a54e19f1ddfedeb, type: 2}
  - {fileID: 11400000, guid: 41392af9516801d4c87bc6a8e0768eaa, type: 2}
  - {fileID: 11400000, guid: 4a123b1ef331bd24f81e774fa336098b, type: 2}
  - {fileID: 11400000, guid: 34b6ea181592a6d47aa51bb557689a32, type: 2}
  - {fileID: 11400000, guid: e85e8308c4cf6cd41aceed934ad2b0b5, type: 2}
  - {fileID: 11400000, guid: 56344af32545d2f43b3a2abe0b5455ab, type: 2}
  - {fileID: 11400000, guid: 0b9874d25dc16874ba74de9c22d5cdf9, type: 2}
  - {fileID: 11400000, guid: 793134c9e6fdc024c8b0a32ce8575a03, type: 2}
  - {fileID: 11400000, guid: 8b4938df4aa3b9e439fb8a77a831e2c3, type: 2}
  - {fileID: 11400000, guid: b4b5d8c99fc6cbe47866f49ec8db76a5, type: 2}
  - {fileID: 11400000, guid: 22fa5964d10932e4e9b1874fb348d50b, type: 2}
  - {fileID: 11400000, guid: 6c56cf474e46f1443beefd06ca3c482d, type: 2}
  - {fileID: 11400000, guid: 1e89959449c90454ba1ca57eb010dd91, type: 2}
  - {fileID: 11400000, guid: 3b8ebe7fe3182ad4dbbedb54a3945661, type: 2}
  - {fileID: 11400000, guid: 10cc9b05ff0ee8948a5cfa144823fb93, type: 2}
  - {fileID: 11400000, guid: 0f63efad995fa79429a30719fa438d9e, type: 2}
  - {fileID: 11400000, guid: 0bb72cd4e7fe5c54f832e9529856df3f, type: 2}
  - {fileID: 11400000, guid: a44abfd72e77850409b92ac625596260, type: 2}
  - {fileID: 11400000, guid: 9096da7399556cc4a85e86b9291dcc55, type: 2}
  - {fileID: 11400000, guid: 3f557867097fa064a940554a22e38a94, type: 2}
  - {fileID: 11400000, guid: 0bf347b82df428541b72681ce34403bc, type: 2}
  - {fileID: 11400000, guid: eb28a2a301615ce49a83796fdd72c103, type: 2}
  - {fileID: 11400000, guid: 72a4a59234380414ca60a20013ea4a0d, type: 2}
  - {fileID: 11400000, guid: 02dc1b0533af78144a52ad3e6d45bb5f, type: 2}
  - {fileID: 11400000, guid: f242c7c7bf6eb514b9cceb2ed3f7777a, type: 2}
  - {fileID: 11400000, guid: b46a1526562783d4ea6ecfc7b40f09cc, type: 2}
  - {fileID: 11400000, guid: eda112735b489e54b89c3b65aab628f9, type: 2}
  - {fileID: 11400000, guid: 0f9a99318a93c2546b6af65e6d4788a4, type: 2}
  - {fileID: 11400000, guid: 777dd5d8b4c47684fbb445aeabf7642f, type: 2}
  - {fileID: 11400000, guid: a1003dcb04a8eff438c08ad1ad4d2763, type: 2}
  - {fileID: 11400000, guid: c7f61360fb6aa86498c444df466af982, type: 2}
  - {fileID: 11400000, guid: 28f287b9038c06c40adfd44bfa5ff128, type: 2}
  - {fileID: 11400000, guid: 28057dff8f5612c48b05b5d782a09529, type: 2}
  - {fileID: 11400000, guid: 7da0781f3d184674cbd42b40d9388ed2, type: 2}
  - {fileID: 11400000, guid: e837b0855bdcd5c409d1a88bfca5596f, type: 2}
  - {fileID: 11400000, guid: 1a62b27a648b6c24ebd16fe64eeb4bf6, type: 2}
  - {fileID: 11400000, guid: be87b9ab6f9f09c4cba5336c628a6160, type: 2}
  - {fileID: 11400000, guid: 3703c4f271b11d540802afaacabc2f4d, type: 2}
  - {fileID: 11400000, guid: c76ce3cd4af48554fabef57e9dab47fe, type: 2}
  - {fileID: 11400000, guid: 3c5322ea4b3ed8546b86cae0f6dec3f9, type: 2}
  - {fileID: 11400000, guid: abcd1c0eb6ebd4449947ef86a7f2be4b, type: 2}
  - {fileID: 11400000, guid: faeb77ebc8899fc469e1dbe45abbeefb, type: 2}
  - {fileID: 11400000, guid: dc15535c9f3ea27448a1ad1eaaf1f952, type: 2}
  - {fileID: 11400000, guid: 9b8104c07fc66874ba1f485300363c54, type: 2}
  - {fileID: 11400000, guid: 3601eed437a8b434891fff2d68aec529, type: 2}
  - {fileID: 11400000, guid: e6d6be66cc0d1354bb099d520b48a2bd, type: 2}
  - {fileID: 11400000, guid: 7a871e06069b2c744a0ec59c5224b283, type: 2}
