%YAML 1.1
%TAG !u! tag:unity3d.com,2011:
--- !u!114 &11400000
MonoBehaviour:
  m_ObjectHideFlags: 0
  m_CorrespondingSourceObject: {fileID: 0}
  m_PrefabInstance: {fileID: 0}
  m_PrefabAsset: {fileID: 0}
  m_GameObject: {fileID: 0}
  m_Enabled: 1
  m_EditorHideFlags: 0
  m_Script: {fileID: 11500000, guid: 879c73f26c7ad684399a6dd8ce2da619, type: 3}
  m_Name: 14_19
  m_EditorClassIdentifier: 
  x: 14
  z: 19
  sectorSize: 200
  center: {x: 2900, y: 3900}
  targetTerrain: {fileID: 0}
  objectDatas:
  - {fileID: 11400000, guid: b3d08fa765a9c2a42af467e1c6dff3ef, type: 2}
  - {fileID: 11400000, guid: 7e039df8afd5c27429712ccf3f37560b, type: 2}
  - {fileID: 11400000, guid: 0fa6f0a50c8108f40bf8be5e0c562cc1, type: 2}
  - {fileID: 11400000, guid: 27654cd57ac8c4448a98ee978f52f720, type: 2}
  - {fileID: 11400000, guid: 18a4fae21d8af214996395d7ddccc8bc, type: 2}
  - {fileID: 11400000, guid: 4ab710f0551b9e6408b5ebc6ece76763, type: 2}
  - {fileID: 11400000, guid: 135cd0e6cf4dc5045b6d0cc8cacf6487, type: 2}
  - {fileID: 11400000, guid: 1a124b165129df54ebf9a9ed3c04b1d6, type: 2}
  - {fileID: 11400000, guid: d30157e38d6dd1349983c9ba7c27e979, type: 2}
  - {fileID: 11400000, guid: ad2d119dc559f0a479f2420659732571, type: 2}
  - {fileID: 11400000, guid: 45cbb4f4cfe93624f9c78842676c764c, type: 2}
  - {fileID: 11400000, guid: 9ef7888a4c0dfd2488ae59726e334a25, type: 2}
  - {fileID: 11400000, guid: dee5914af1fc1384f8637d72445f871d, type: 2}
  - {fileID: 11400000, guid: 0ce1c3db80c0b33458235ab5b7a1c377, type: 2}
  - {fileID: 11400000, guid: 6b43e47194bf61149a35fc2f44a3b4d9, type: 2}
  - {fileID: 11400000, guid: 6675df929be97cd4c99dd64f0f648c42, type: 2}
  - {fileID: 11400000, guid: c82877b48e8966c4295c228b745c605f, type: 2}
  - {fileID: 11400000, guid: bc6206abb85276f479e99e3d92fa229f, type: 2}
  - {fileID: 11400000, guid: f963df07f9e09064eadbaef187e0aa82, type: 2}
  - {fileID: 11400000, guid: 3a97b121a8edcf546a58813753db3e7b, type: 2}
  - {fileID: 11400000, guid: 53314ce3b0a6a2f4fbf5c25b299e7331, type: 2}
  - {fileID: 11400000, guid: f1de4180beb9fa04f930d1c6d862c959, type: 2}
  - {fileID: 11400000, guid: 9a05c86ebdc974341ab3521132bff4c6, type: 2}
  - {fileID: 11400000, guid: e0332eb3d09ab7c448a1de955e3f7a20, type: 2}
  - {fileID: 11400000, guid: f2a223a58b57bd149b6e75dc27c85ad9, type: 2}
  - {fileID: 11400000, guid: c490b10015498614899dc446714ee0e7, type: 2}
  - {fileID: 11400000, guid: 4448d6ae5543a4e49a3cb2fe7ab79c18, type: 2}
  - {fileID: 11400000, guid: b149148cc7c85ad4db4e78a7e8daf55f, type: 2}
  - {fileID: 11400000, guid: 1361cf7fdf1668b4bbb9fd0d962703aa, type: 2}
  - {fileID: 11400000, guid: 96dc512b4563ed049929e369fc33ac6b, type: 2}
  - {fileID: 11400000, guid: 0693f14bc0dde6a478a0be1963df04ee, type: 2}
  - {fileID: 11400000, guid: 2b4aa55b26284f94fa6fe03bb5f4f34d, type: 2}
