%YAML 1.1
%TAG !u! tag:unity3d.com,2011:
--- !u!114 &11400000
MonoBehaviour:
  m_ObjectHideFlags: 0
  m_CorrespondingSourceObject: {fileID: 0}
  m_PrefabInstance: {fileID: 0}
  m_PrefabAsset: {fileID: 0}
  m_GameObject: {fileID: 0}
  m_Enabled: 1
  m_EditorHideFlags: 0
  m_Script: {fileID: 11500000, guid: 879c73f26c7ad684399a6dd8ce2da619, type: 3}
  m_Name: 15_0
  m_EditorClassIdentifier: 
  x: 15
  z: 0
  sectorSize: 200
  center: {x: 3100, y: 100}
  targetTerrain: {fileID: 0}
  objectDatas:
  - {fileID: 11400000, guid: 1298e133ea7c09d4c920ba7c406cc81c, type: 2}
  - {fileID: 11400000, guid: 1d6a3b872b1f0ee4ea50819aa61242d0, type: 2}
  - {fileID: 11400000, guid: 646deffed08446847bcb8bf13fc319d2, type: 2}
  - {fileID: 11400000, guid: b9c82af203b7b7b45b26f20116cfd8a3, type: 2}
  - {fileID: 11400000, guid: 0fe6f68d894402a428da3e34328338a3, type: 2}
  - {fileID: 11400000, guid: 2ba37106abea56b4493d8e753ab3d5fa, type: 2}
  - {fileID: 11400000, guid: f7aa0058c3df2b14580bb4249fc1a0b9, type: 2}
  - {fileID: 11400000, guid: b4d34b2bbf170784f9748f0562df9f67, type: 2}
  - {fileID: 11400000, guid: 864c185fb8a033345a2439c8be76643a, type: 2}
  - {fileID: 11400000, guid: 67f402e5f878fa542a09586c60a0370a, type: 2}
  - {fileID: 11400000, guid: 33488bc1b39d13748a002b30650dff9d, type: 2}
  - {fileID: 11400000, guid: d9eac7d311930c947bd716b82213f5a8, type: 2}
  - {fileID: 11400000, guid: ca885746d9ebe0d449df2509f63d7416, type: 2}
  - {fileID: 11400000, guid: c64c24ec862705445a14713c03b18f0c, type: 2}
  - {fileID: 11400000, guid: 817c87cbea7c7304e842ae834df6c4ce, type: 2}
  - {fileID: 11400000, guid: c38c3c9236e899e47a726c49685a1fec, type: 2}
  - {fileID: 11400000, guid: 45e8b81d44195944b87e6dacd5dfa9b5, type: 2}
  - {fileID: 11400000, guid: 4b1a1fca476fcc746a864f7035842413, type: 2}
  - {fileID: 11400000, guid: 7e448eac86be2e0489446ef4f2a44764, type: 2}
  - {fileID: 11400000, guid: b7144a00ac6ca5448827f467f4554145, type: 2}
  - {fileID: 11400000, guid: 8e8835280165eda44a18d034a0437674, type: 2}
  - {fileID: 11400000, guid: 2dad8614d020aae478c519d1d243f297, type: 2}
  - {fileID: 11400000, guid: b8aa9d2cbed3b354887b406825a0732e, type: 2}
  - {fileID: 11400000, guid: e3a706e566de4e94d84f6d13f7421b37, type: 2}
  - {fileID: 11400000, guid: f4c81f2a3944e324b934d9398c00f916, type: 2}
  - {fileID: 11400000, guid: 0a78add3ef44dfc4a9a8105cb243b6ee, type: 2}
  - {fileID: 11400000, guid: b3c6f3257e076454e888fa78a98599ea, type: 2}
  - {fileID: 11400000, guid: 584c5857355c30b46b412072125fe2bf, type: 2}
  - {fileID: 11400000, guid: 23fe43db0e2f52b4a8ca9061c0413619, type: 2}
  - {fileID: 11400000, guid: ddf69742ec285b840b1d1face195d8e9, type: 2}
  - {fileID: 11400000, guid: 768961563f586404994a37468bbb0cb7, type: 2}
  - {fileID: 11400000, guid: d46cba345804b784697a2776dde7ca26, type: 2}
  - {fileID: 11400000, guid: 4b2577dec0257c045a1c4d026af08fce, type: 2}
  - {fileID: 11400000, guid: dcb576a60e2c2574b90dca4b40d316ba, type: 2}
  - {fileID: 11400000, guid: e5886ba4ee1aff84e99c9cd2fccfa677, type: 2}
  - {fileID: 11400000, guid: 5f858116a2eb0b846a96691dd1f8c68c, type: 2}
  - {fileID: 11400000, guid: 2f1e1251df8282144bd565b38a71fddd, type: 2}
  - {fileID: 11400000, guid: 4517efb7fe24ab0458b74b0bb686d883, type: 2}
  - {fileID: 11400000, guid: 1ce234713c720314384a6a69bda0074e, type: 2}
  - {fileID: 11400000, guid: a6ce510f71cf0c84ca9c9bc392e2d4ab, type: 2}
  - {fileID: 11400000, guid: b00f4d607fc71984ab7934c4356338c0, type: 2}
  - {fileID: 11400000, guid: ab75e461f39144648be28ad6ec58eda1, type: 2}
  - {fileID: 11400000, guid: ff92160d9fedd36488183e68748d3265, type: 2}
  - {fileID: 11400000, guid: e54b9ab867353fb40807f3c6ad2680b7, type: 2}
  - {fileID: 11400000, guid: 400a1e164b5fede45924739b1aaa1071, type: 2}
  - {fileID: 11400000, guid: 031f09ad4b42761459dbd5f9f12fab3d, type: 2}
  - {fileID: 11400000, guid: ce1331c98667d944f93f3ace45c32da4, type: 2}
  - {fileID: 11400000, guid: 59b5a2a8864d1d9479a7aa0830317147, type: 2}
  - {fileID: 11400000, guid: 2d124c3ef8732214da3eec0a3c1f4057, type: 2}
  - {fileID: 11400000, guid: 488ee7499fe0de045a7eb3c465eb2781, type: 2}
  - {fileID: 11400000, guid: 472141b5dd23bdd4fb52189498f482bc, type: 2}
  - {fileID: 11400000, guid: 2297193e88865b04d9ec243b81f8246e, type: 2}
  - {fileID: 11400000, guid: 6a52a3bba87fdaf4ebd66ea8bc095c00, type: 2}
  - {fileID: 11400000, guid: 2aef8ddcebcae5342b762181268eeb6f, type: 2}
  - {fileID: 11400000, guid: 3b5500ce1f49724498728691f9121151, type: 2}
  - {fileID: 11400000, guid: d7f222df47a7eaa4292111a23158cad6, type: 2}
  - {fileID: 11400000, guid: f0f2343eb031a8f40b4d300a68c15f59, type: 2}
  - {fileID: 11400000, guid: 019cc913874aa114c928f1b0c8d26771, type: 2}
  - {fileID: 11400000, guid: 171dfe421f924d54788158530dc883ca, type: 2}
  - {fileID: 11400000, guid: c0f9f6a5b368724469d8c5123e5e5e5f, type: 2}
  - {fileID: 11400000, guid: 93198e0287b41f34a8789fb98cbfc0f7, type: 2}
  - {fileID: 11400000, guid: 17b0a2085985867449461943a54fac99, type: 2}
  - {fileID: 11400000, guid: 147928d4403a1e64f987caa80b727eea, type: 2}
  - {fileID: 11400000, guid: 6f090c0d915f3294e9f7c420c6a90cde, type: 2}
  - {fileID: 11400000, guid: 66b039183f93d20458e53bc37660e8a9, type: 2}
  - {fileID: 11400000, guid: ccee347ac141bfa4db508ce1bfab2236, type: 2}
  - {fileID: 11400000, guid: 28cdf7bad117e2146a655daa258d08ee, type: 2}
  - {fileID: 11400000, guid: 24c38e15c2d0865439b0a3ad48f4be9b, type: 2}
  - {fileID: 11400000, guid: 515fc214153736e4cb38b5c4f9bdc9c7, type: 2}
  - {fileID: 11400000, guid: 00cdb843881bb544c98f4b6f57e4592f, type: 2}
  - {fileID: 11400000, guid: 5a91902f37ce3e941adf7c65ba38425a, type: 2}
  - {fileID: 11400000, guid: ff90c07c2f3eb8249a464d2287d8bd51, type: 2}
  - {fileID: 11400000, guid: 97e0af1d80c2e9447b93479313d6106e, type: 2}
  - {fileID: 11400000, guid: 71588e7d456b8454999c2bcd5a751a46, type: 2}
  - {fileID: 11400000, guid: 9561057901fc9ec4b9ce00d08cc1f028, type: 2}
  - {fileID: 11400000, guid: 6593e0b5aab513b41bef9207c4276fa8, type: 2}
  - {fileID: 11400000, guid: 36e2f0a0740a13643aebe419ed6561fb, type: 2}
  - {fileID: 11400000, guid: 6718188879b97134a8322bda3c1aa2ff, type: 2}
  - {fileID: 11400000, guid: 6aec69572a65cc44bba8abd63a41569b, type: 2}
  - {fileID: 11400000, guid: aee0d7c95e43d2e49a5004ce9f50f89b, type: 2}
  - {fileID: 11400000, guid: 47babae6e28e66f4eb5c5685e4cad5b6, type: 2}
  - {fileID: 11400000, guid: 8b6e15446d3e7594a850059181efdd28, type: 2}
  - {fileID: 11400000, guid: b7a41b0781b74364c94c75a3eb0cb7b6, type: 2}
  - {fileID: 11400000, guid: 45124461612d28741bd3350e380f7311, type: 2}
  - {fileID: 11400000, guid: a6dabb728a2688c4597c42bb7a3794b8, type: 2}
  - {fileID: 11400000, guid: 27dff273b13ab6348a535b941a0f4235, type: 2}
  - {fileID: 11400000, guid: 2c2e6b91e8c33fd40b875e7be6e592ee, type: 2}
  - {fileID: 11400000, guid: 466f0c175df184445bb690864bcb3c05, type: 2}
  - {fileID: 11400000, guid: 269d25e5c91a8e74ca2a2f09d80c79bc, type: 2}
  - {fileID: 11400000, guid: d497939cd99fabd46a08fb9e081684c1, type: 2}
  - {fileID: 11400000, guid: e04c97ec6b48b244788008df28912e48, type: 2}
  - {fileID: 11400000, guid: 7caf9f4fe006bf841802c6ec5cf25b5e, type: 2}
  - {fileID: 11400000, guid: 401ed392f37f94d41ac21c33d6912cc9, type: 2}
  - {fileID: 11400000, guid: c0d042f8100a06b47b95b0dca57df871, type: 2}
  - {fileID: 11400000, guid: 6937d4fc66a126a4393728f26b10e3b8, type: 2}
  - {fileID: 11400000, guid: 27102a91e072319408fbc84573fab598, type: 2}
  - {fileID: 11400000, guid: 9e760ef7506d040499dfbc001db6d15c, type: 2}
  - {fileID: 11400000, guid: 121f48bdf7f0f2a458015fb2c5a6aecf, type: 2}
  - {fileID: 11400000, guid: 92e312c2c35b7ce429e2af92213d86da, type: 2}
  - {fileID: 11400000, guid: 113f859f5d1ec954a8776df49c15ac14, type: 2}
  - {fileID: 11400000, guid: 449874a4d67c6f541ba65d049b5fadb1, type: 2}
  - {fileID: 11400000, guid: ab6ec94f927fa224887b887197e428af, type: 2}
  - {fileID: 11400000, guid: 8552a01dd518b984fae91e20f42383e1, type: 2}
  - {fileID: 11400000, guid: 1636da039ccf4e84498545eeb1f24acd, type: 2}
  - {fileID: 11400000, guid: 018b524408d5391429c6e387212f6085, type: 2}
  - {fileID: 11400000, guid: d9f9d0192d01bfd44bcb6fcfae60619b, type: 2}
  - {fileID: 11400000, guid: 29999c7d54b03664cb063fc6c60507f5, type: 2}
  - {fileID: 11400000, guid: 1057cdf5c3d255f47bc01f48d2b73f48, type: 2}
  - {fileID: 11400000, guid: 83a6c6df6c409de499423d4b4e1b73ef, type: 2}
  - {fileID: 11400000, guid: 9b47053da159c694d8f8ec5554ecfc1e, type: 2}
  - {fileID: 11400000, guid: f9ca1f08cf6cc6143abbde60c9aaf1f0, type: 2}
  - {fileID: 11400000, guid: d4e0361cfc7b83348b387946d6ed637e, type: 2}
  - {fileID: 11400000, guid: 6f4c1d46522b3494d87251021b0ed6aa, type: 2}
  - {fileID: 11400000, guid: dd54edf378d74ab4c890fff2cf1021b3, type: 2}
  - {fileID: 11400000, guid: 22f94a4fd159c22488736b70ab8f7825, type: 2}
  - {fileID: 11400000, guid: 7cfcfe931ff08b94e8dff419465ddb02, type: 2}
  - {fileID: 11400000, guid: 7f54d66a0e0ee3a438aedd5125fdedb1, type: 2}
  - {fileID: 11400000, guid: a1884494c750afd40861b5abd537f2ef, type: 2}
  - {fileID: 11400000, guid: a8b4b62c21b3a0543900eedebbf9ba9b, type: 2}
  - {fileID: 11400000, guid: 782f5afd3b452614696089a6de1176f0, type: 2}
  - {fileID: 11400000, guid: d49bfd1aa5a2d9541a5c6a806b0c21fc, type: 2}
  - {fileID: 11400000, guid: 9e35c79dceca04541ae95b1c1cb3061e, type: 2}
  - {fileID: 11400000, guid: 07905f5a3f66a434f8afad5c7dfe8e90, type: 2}
  - {fileID: 11400000, guid: aa472f313a535994d8bf06f77f799941, type: 2}
  - {fileID: 11400000, guid: df214f2e59263da4fb964aedf094e08f, type: 2}
  - {fileID: 11400000, guid: dbf85c7790da28a4894d401ed88dd054, type: 2}
  - {fileID: 11400000, guid: 4d3c37ac569182e4f95fd3a0eb9b0c43, type: 2}
  - {fileID: 11400000, guid: d4829e85f26bb7a4fa25120be9f3e033, type: 2}
  - {fileID: 11400000, guid: 85e31e7209da197409faec84df2fb68c, type: 2}
  - {fileID: 11400000, guid: 91fc38f1ddd18414dbf04ecb6bdb7394, type: 2}
  - {fileID: 11400000, guid: 725a1fae1d8d282439e5aab9b21d0c7a, type: 2}
  - {fileID: 11400000, guid: 594d5f548f33f074f9e69a9b27344100, type: 2}
  - {fileID: 11400000, guid: e2186eba22d5fac47914c9072b8e1e36, type: 2}
  - {fileID: 11400000, guid: a41802178ab9f674cac6faefd1093928, type: 2}
  - {fileID: 11400000, guid: 2ad8fa098c2b9c344a1b3fd5dc77990c, type: 2}
  - {fileID: 11400000, guid: 4c5f3ea7506c6b04a8593412265c9c07, type: 2}
  - {fileID: 11400000, guid: cfb07927c651a7f498915321fc846e8e, type: 2}
  - {fileID: 11400000, guid: e6c9d4cf466d6924ab2baf9f1ac7bfad, type: 2}
  - {fileID: 11400000, guid: c1594f9c21532d64698b3c8514558519, type: 2}
  - {fileID: 11400000, guid: 710cd6c2a6bf3614db7c2c0fc2350d45, type: 2}
  - {fileID: 11400000, guid: 7cb15a6ee2e2969438cb661b3a21d6c9, type: 2}
  - {fileID: 11400000, guid: c7a998aa408b67f448012a9722327356, type: 2}
  - {fileID: 11400000, guid: 18574136f0283924898177f0224250ee, type: 2}
  - {fileID: 11400000, guid: d826f940015eed14eb0cbb92faf45a87, type: 2}
  - {fileID: 11400000, guid: bd5f6845670cf88419faa8e4c0cdd5eb, type: 2}
