%YAML 1.1
%TAG !u! tag:unity3d.com,2011:
--- !u!114 &11400000
MonoBehaviour:
  m_ObjectHideFlags: 0
  m_CorrespondingSourceObject: {fileID: 0}
  m_PrefabInstance: {fileID: 0}
  m_PrefabAsset: {fileID: 0}
  m_GameObject: {fileID: 0}
  m_Enabled: 1
  m_EditorHideFlags: 0
  m_Script: {fileID: 11500000, guid: 879c73f26c7ad684399a6dd8ce2da619, type: 3}
  m_Name: 16_0
  m_EditorClassIdentifier: 
  x: 16
  z: 0
  sectorSize: 200
  center: {x: 3300, y: 100}
  targetTerrain: {fileID: 0}
  objectDatas:
  - {fileID: 11400000, guid: e66b79284f79b0440864dac48d70c35c, type: 2}
  - {fileID: 11400000, guid: 3181a5e753b65ec4884cc41842911652, type: 2}
  - {fileID: 11400000, guid: f5a06c022982326458e67143713cfd2a, type: 2}
  - {fileID: 11400000, guid: a03bdcfc18082da448f4111c9430d955, type: 2}
  - {fileID: 11400000, guid: 9b24e3d2aafd7dc47b15a26c2a82bfcf, type: 2}
  - {fileID: 11400000, guid: 32942656660d61a4a802e96a52588112, type: 2}
  - {fileID: 11400000, guid: bbaae7d48d28d08498f034c7f227a8d0, type: 2}
  - {fileID: 11400000, guid: 4b0736c1482f0e94390422f701168ec5, type: 2}
  - {fileID: 11400000, guid: ce75d46fed002c8409e85346fab9ea7d, type: 2}
  - {fileID: 11400000, guid: 299948ff5e1bca646be3ea7ee3cff844, type: 2}
  - {fileID: 11400000, guid: 1222ebbb23ebabe44a8b31682e852948, type: 2}
  - {fileID: 11400000, guid: 444b38b7fd1cc7745a3a5c0ad6a3e161, type: 2}
  - {fileID: 11400000, guid: e9dbbfec2bf81244eb090e77052952a1, type: 2}
  - {fileID: 11400000, guid: e7aa3570f2be37e469720cef8055acd7, type: 2}
  - {fileID: 11400000, guid: f65765f428f028f4a99c239da0930cc6, type: 2}
  - {fileID: 11400000, guid: 031d29bde5d78e949a75fe89631f7fa7, type: 2}
  - {fileID: 11400000, guid: ccc6e0f2aaa2c9240bc723d2bb609195, type: 2}
  - {fileID: 11400000, guid: 638a8917eb0956c4d8ebd47a3b448aac, type: 2}
  - {fileID: 11400000, guid: 2cd608b0c9b63ec47983a46b48c806e4, type: 2}
  - {fileID: 11400000, guid: 601ce3202d5b19e4aaa780e4b47b1d25, type: 2}
  - {fileID: 11400000, guid: fe314563022519648b05a7e6ccdb07e5, type: 2}
  - {fileID: 11400000, guid: 8bc890575d6fbe8458498e5bc83323c9, type: 2}
  - {fileID: 11400000, guid: 44233209d3935d24b8687b9ae4eedde5, type: 2}
  - {fileID: 11400000, guid: 9b268eec9ea603d419e87977b9cc6e90, type: 2}
  - {fileID: 11400000, guid: 4967d9810ca3cc54ebad0b0c2e1d388e, type: 2}
  - {fileID: 11400000, guid: 2c33f7db2ea543e4b83f15cdaee55284, type: 2}
  - {fileID: 11400000, guid: 37ab362b2c72dd6428e5fc0171a9f445, type: 2}
  - {fileID: 11400000, guid: 804b556e0f7ef1f438d006c312a62826, type: 2}
  - {fileID: 11400000, guid: d5341360c94dd7a4aa0749af41ee8eb7, type: 2}
  - {fileID: 11400000, guid: 7ff1918098371284c8ff66a00a00fbc2, type: 2}
  - {fileID: 11400000, guid: 72cd0fa102597c440ab0d6a6df0bc4a0, type: 2}
  - {fileID: 11400000, guid: 1166daffe7aeadb41915cf8255b73a90, type: 2}
  - {fileID: 11400000, guid: 70b6833ae8ec0a045aed4187ff463e2d, type: 2}
  - {fileID: 11400000, guid: 46cbf4635d546694caf674bb413f7e02, type: 2}
  - {fileID: 11400000, guid: 9b33fbea6ebc5b646888bdc62a21c9a4, type: 2}
  - {fileID: 11400000, guid: 2893f357d980a9b41a025a35af5c9c27, type: 2}
  - {fileID: 11400000, guid: 2ffe6585871c5d54f97101e815dcc05a, type: 2}
  - {fileID: 11400000, guid: 487781f62bf64f74988b70ca2955006a, type: 2}
  - {fileID: 11400000, guid: 578dcec0e41b5d849aec96c3fffc4f66, type: 2}
  - {fileID: 11400000, guid: 91e43fdbe3b049f4c8699fb84734cd9c, type: 2}
  - {fileID: 11400000, guid: e23684d9e291bed48b5df1beb24f5b90, type: 2}
  - {fileID: 11400000, guid: a8222b76e8dbe7144b863c94524c78c5, type: 2}
  - {fileID: 11400000, guid: 2668328158b04134caed57a956e0651b, type: 2}
  - {fileID: 11400000, guid: 3a0a8467c2715f04b85235028e75bff3, type: 2}
  - {fileID: 11400000, guid: 40cdb6816b52b4d49b124dee9bc95433, type: 2}
  - {fileID: 11400000, guid: 7395079fe2a44e248834984b9762afcb, type: 2}
  - {fileID: 11400000, guid: 5df4c06a209ef8545b660df68e08b1f4, type: 2}
  - {fileID: 11400000, guid: a5b930e7167341a44bc1b2e884c2083a, type: 2}
  - {fileID: 11400000, guid: a9aa334e2dbf48745802ce3a63579a99, type: 2}
  - {fileID: 11400000, guid: 7b5240f0fcb74254b9d4dc9ca01ccc93, type: 2}
  - {fileID: 11400000, guid: f1fc217a88620e545beb4a3a63288ab6, type: 2}
  - {fileID: 11400000, guid: 76525b4103bd6a44c894627b7347bee0, type: 2}
  - {fileID: 11400000, guid: b46b83ae1abe64540be740bf15cd2688, type: 2}
  - {fileID: 11400000, guid: d2b308877dd8d0845b64af8544f303ad, type: 2}
  - {fileID: 11400000, guid: a2da3c8aa002abe47aae575ee9bf13e8, type: 2}
  - {fileID: 11400000, guid: 25cb910762e6fc64ca280de9ba5c36ce, type: 2}
  - {fileID: 11400000, guid: 3c45dd9e10f9a6d458c7b9b7fa9836fe, type: 2}
  - {fileID: 11400000, guid: 81841480ea502db42a6ffe890ab5c530, type: 2}
  - {fileID: 11400000, guid: cac0519abbf63744c98fa941cc043f71, type: 2}
  - {fileID: 11400000, guid: 124dee9c865fa8e4e9bf0792c2dcbca2, type: 2}
  - {fileID: 11400000, guid: de360b8f649db97478fdb2d8332964c6, type: 2}
  - {fileID: 11400000, guid: 78091876a1b00704c9dc3c9f4b665d93, type: 2}
  - {fileID: 11400000, guid: 3f19385b8389e5641b941bf7482c3c7d, type: 2}
  - {fileID: 11400000, guid: 0e5c940eb6d68984590a9fbd71422ba8, type: 2}
  - {fileID: 11400000, guid: 541fd3aee41aef9498ad68f1dd51a2c1, type: 2}
  - {fileID: 11400000, guid: 6d1cb7daa45a4814696c2afd0f47647a, type: 2}
  - {fileID: 11400000, guid: 34113607f7f40914e94e7dda862e0197, type: 2}
  - {fileID: 11400000, guid: 815d127393a0f9f47840a2f3f59066cf, type: 2}
  - {fileID: 11400000, guid: 91bb454d9d41adc4eb65e18dc56033d3, type: 2}
  - {fileID: 11400000, guid: 07bb7d93ba1abba428f108b47e8df5ed, type: 2}
  - {fileID: 11400000, guid: bf7a4b23784fc8d4fb3a39c855399c50, type: 2}
  - {fileID: 11400000, guid: 008186337815f19419e25024afcf94e4, type: 2}
  - {fileID: 11400000, guid: 34b85f0044940e941a5f62dc9ee49d68, type: 2}
  - {fileID: 11400000, guid: 314793c701215484fafbda36538ae1ab, type: 2}
  - {fileID: 11400000, guid: 0994b1e94c192084e879cd68229024ea, type: 2}
  - {fileID: 11400000, guid: 0d8cbd29faafb5d429673d36dc3e7934, type: 2}
  - {fileID: 11400000, guid: 0e316d5580ae978419cf095f0910c824, type: 2}
  - {fileID: 11400000, guid: bdd36e2bb6df00e4f81e808fce732640, type: 2}
  - {fileID: 11400000, guid: 02959666d2f5723488ad9d2b245262da, type: 2}
  - {fileID: 11400000, guid: 7cf36fcf3b1b33d4492da0e04275f1b6, type: 2}
  - {fileID: 11400000, guid: 5e8ebd1ff4efdfe47aa50638d10124b6, type: 2}
  - {fileID: 11400000, guid: 9cf264dc327405c48be2a5824b1445fc, type: 2}
  - {fileID: 11400000, guid: 85ae74c02c3522249bdf4dd876f4c6cf, type: 2}
  - {fileID: 11400000, guid: 22a72b68946396c45a245817b82f7c1a, type: 2}
  - {fileID: 11400000, guid: 48db6ca06d7a3f84991e9d72f275064b, type: 2}
  - {fileID: 11400000, guid: fad686bbd9b8d884fa46531aca68b60d, type: 2}
  - {fileID: 11400000, guid: 73fd36cefa1265341ba24800693d8bd8, type: 2}
  - {fileID: 11400000, guid: 728153134828aff4ba837ccf6b589147, type: 2}
  - {fileID: 11400000, guid: a708155e7ab61e24f894c1d776397593, type: 2}
  - {fileID: 11400000, guid: ad70ff6c03e227148a1506dcb455748b, type: 2}
  - {fileID: 11400000, guid: 18b7382f04032294db9d65143a5f54ca, type: 2}
  - {fileID: 11400000, guid: d4045fccc7277f34d831bd82bf443c1f, type: 2}
  - {fileID: 11400000, guid: 7d6eaad96cb2255449ffeeaed42c549b, type: 2}
  - {fileID: 11400000, guid: 52f46aab91b397c4c9a9d6bb3f5b2ac9, type: 2}
  - {fileID: 11400000, guid: 3915ea11fb4e9b740b9109b4b8032b99, type: 2}
  - {fileID: 11400000, guid: 7cb24482f364e9e4587efeb58eb1928a, type: 2}
  - {fileID: 11400000, guid: 2d041ba99201a6a43b4c90f1a2ee6f26, type: 2}
  - {fileID: 11400000, guid: 7a8af900c325dac4784a52310a8dd4ad, type: 2}
  - {fileID: 11400000, guid: 3711f0dac704052488bf821e6415d476, type: 2}
  - {fileID: 11400000, guid: 89e15f6be6bc4a84da4c437b5f19e8a3, type: 2}
  - {fileID: 11400000, guid: a5b3165ad46520247829c05a5e0fb93d, type: 2}
  - {fileID: 11400000, guid: b2c0438fc6d177c4dbb554b451de2dba, type: 2}
  - {fileID: 11400000, guid: ceaa8fbfcc9abbb43aa0bf36ddc4a55d, type: 2}
  - {fileID: 11400000, guid: 515823f00d14c3e41b2e89026a867efe, type: 2}
  - {fileID: 11400000, guid: e5e5ed808e4d3984d9cd34a25a883e3b, type: 2}
  - {fileID: 11400000, guid: 4f5eaf456baa2354f8cfcc3d41d5f640, type: 2}
  - {fileID: 11400000, guid: e9ea3691737fa3e488fa4a705240d718, type: 2}
  - {fileID: 11400000, guid: 7241343b9b13645429079592d2bd8415, type: 2}
  - {fileID: 11400000, guid: 9ea2fed6b5659e5418a310f69a5faacf, type: 2}
  - {fileID: 11400000, guid: 667b5486408c4c6489b0d6a220742649, type: 2}
  - {fileID: 11400000, guid: 7dec2ddc91c95f044a2badb1f815bd8e, type: 2}
  - {fileID: 11400000, guid: 6ebfa37b684f2de41a623dd4b9905a38, type: 2}
  - {fileID: 11400000, guid: d6a34245a85b561459beb98c4e239558, type: 2}
  - {fileID: 11400000, guid: 1e903dd680b2ee64493ca03470b71bca, type: 2}
  - {fileID: 11400000, guid: 21c6a108cc460a546bba5242e4f661a5, type: 2}
  - {fileID: 11400000, guid: 72e40a86de5a0c945b826854ebc975f2, type: 2}
  - {fileID: 11400000, guid: 81a194dd7df8f724193610afe807cbe5, type: 2}
  - {fileID: 11400000, guid: ed2509e212dd5d14dba1c65c8a484f3c, type: 2}
  - {fileID: 11400000, guid: 9ca0f49fff2e63d49a6cc1afbda37e8f, type: 2}
  - {fileID: 11400000, guid: b63fae6c894e8194987b515bb8668092, type: 2}
  - {fileID: 11400000, guid: 352b22a12a48efa4cb8a42ac122109bc, type: 2}
  - {fileID: 11400000, guid: cb71cc4a5496a424ea6645d513763409, type: 2}
  - {fileID: 11400000, guid: c7079ad108200694aae8a4f55894839c, type: 2}
  - {fileID: 11400000, guid: 1be2ac164cb02a64ca723a99b66f1f8b, type: 2}
  - {fileID: 11400000, guid: a32578f1655537640a08be4ae584dc08, type: 2}
  - {fileID: 11400000, guid: 3d03c6dcbc8e6d443b0e372418290961, type: 2}
  - {fileID: 11400000, guid: 583b4f85610d49747abb44acd3bb5bd6, type: 2}
  - {fileID: 11400000, guid: 6b595c99927675d4f8f85c21159e7fb6, type: 2}
  - {fileID: 11400000, guid: 4326052bf62629e4fb104009c8d7c078, type: 2}
  - {fileID: 11400000, guid: 542f879cc2f8e654ebe526ecff2d7ab6, type: 2}
  - {fileID: 11400000, guid: fc5862916955ca547898700d1fa43aee, type: 2}
  - {fileID: 11400000, guid: 554e2701ced51344aa80c37ec701ac8d, type: 2}
  - {fileID: 11400000, guid: 1e90712bddb34b54482e28c1f3851725, type: 2}
  - {fileID: 11400000, guid: fab7d4dd5d636f34f98b46dff7b84ec4, type: 2}
  - {fileID: 11400000, guid: e7afe5dc7a0f52e4c97cfb0dd3bf22aa, type: 2}
  - {fileID: 11400000, guid: 39eda24870a96d3439a2c9bca53edb59, type: 2}
  - {fileID: 11400000, guid: de2c12f356b3e1e4ca46c79c9fe418ae, type: 2}
  - {fileID: 11400000, guid: 483fd642ec1123145a98e45977d374ac, type: 2}
  - {fileID: 11400000, guid: d4c1888f386fdc2438bb04442378e608, type: 2}
  - {fileID: 11400000, guid: 9666459f03d25ed428acf903437fab2c, type: 2}
  - {fileID: 11400000, guid: ee021e0b9ef19f44fbc8d760dda457e9, type: 2}
  - {fileID: 11400000, guid: 0915aef622e0e2848af7412d6943ca50, type: 2}
  - {fileID: 11400000, guid: 4e9b44ace9b0051448facc7aa77bac2d, type: 2}
  - {fileID: 11400000, guid: 3e4f4733f3c83eb4eb64eaa285cd3fa8, type: 2}
  - {fileID: 11400000, guid: a90d822b2bcb9824cb99714ac32f74d7, type: 2}
  - {fileID: 11400000, guid: ba663fa265feee64bae8779ad5bd5284, type: 2}
  - {fileID: 11400000, guid: cd3d76c2a989b6a4a8dfa8d5cb4ff47b, type: 2}
  - {fileID: 11400000, guid: 34197db0196e93a4b8eb11b907c3e0eb, type: 2}
  - {fileID: 11400000, guid: cf248e431aa176a429529044db3cccfb, type: 2}
  - {fileID: 11400000, guid: 46c71d02ab729ab4f9bbf69e4052fc38, type: 2}
  - {fileID: 11400000, guid: 6b7a3f1f0850eae49b2eb6cd36a257ec, type: 2}
  - {fileID: 11400000, guid: fce575fa6734fec489331ce8ba40ef19, type: 2}
  - {fileID: 11400000, guid: 79baa39e6ceb42f4aa05be7ff373805f, type: 2}
  - {fileID: 11400000, guid: 09c8461449615a74fa4eb62e8ad6ade1, type: 2}
  - {fileID: 11400000, guid: d91a4ee94323ba24e924adab8da89d82, type: 2}
  - {fileID: 11400000, guid: eef24622f5917234aaa9a4dc7064d60b, type: 2}
  - {fileID: 11400000, guid: 9f9f673c49e983d4cafb215bb996de80, type: 2}
  - {fileID: 11400000, guid: 90bf2c0fe874940429c9f7f10d0d0fdd, type: 2}
  - {fileID: 11400000, guid: de33544f73757b24b80ec744926f19e5, type: 2}
  - {fileID: 11400000, guid: 2397be791ae08a8408b36b37b0b91d6c, type: 2}
  - {fileID: 11400000, guid: 9fd44c082624f4d4ab2fcc4c0bb40ab4, type: 2}
  - {fileID: 11400000, guid: 0f772b4506798c64b9578d3e534cfcac, type: 2}
  - {fileID: 11400000, guid: 62f3a8ed41eede64096c1913cb1b3dc1, type: 2}
  - {fileID: 11400000, guid: 9ed3a7dcae3fc9f47aae2e4188acad33, type: 2}
  - {fileID: 11400000, guid: 3102222c32efb7c48ac9f5dbcae6d33a, type: 2}
  - {fileID: 11400000, guid: 45c5c21ff9e959844b28d3a282ce9bc9, type: 2}
  - {fileID: 11400000, guid: e1842a2af4dafed48a8a67ec8858d48e, type: 2}
  - {fileID: 11400000, guid: 9ef74d28daa77a142adf6f17fb895c9d, type: 2}
  - {fileID: 11400000, guid: 118b660c7339e40458dfe6f7711f2c8d, type: 2}
  - {fileID: 11400000, guid: bb1eb3e12edbae140ac7ee6a8fdc7988, type: 2}
  - {fileID: 11400000, guid: 3a0abd9ee439cea44a4b09e6fe696ec1, type: 2}
  - {fileID: 11400000, guid: d3e54ad93f5173d4e9a578551bee6b15, type: 2}
  - {fileID: 11400000, guid: 542336c0f1c2409419c3f2f5d9c97331, type: 2}
  - {fileID: 11400000, guid: c1c12e9d97b52aa43a2c4dbcd32ffbe3, type: 2}
  - {fileID: 11400000, guid: f3211aa1dc1e8694895124b9b9680f4b, type: 2}
  - {fileID: 11400000, guid: 32d97e76869db5e4c88b4ab47f716ce2, type: 2}
  - {fileID: 11400000, guid: 117a7f3eea098ce4ca4412de1de1275d, type: 2}
  - {fileID: 11400000, guid: 466f83b32b6ad4f4c93efef05d71ff8d, type: 2}
  - {fileID: 11400000, guid: 46dc551e725d67e4e9711b1227a0f46c, type: 2}
  - {fileID: 11400000, guid: 1e4af580cafcce0478e3c2e2c51a4f9b, type: 2}
  - {fileID: 11400000, guid: 9b04d3a53d0a51e4a8a513eb7f1a8675, type: 2}
  - {fileID: 11400000, guid: 4b4ca2986f0626d448a76720f875590e, type: 2}
  - {fileID: 11400000, guid: 2f75c639bfbc5f04bb8b97e17dd1289e, type: 2}
  - {fileID: 11400000, guid: 9840b0ac3460efd4caadb3f7efa22772, type: 2}
  - {fileID: 11400000, guid: 9755c994904d3c343b254a20de3f65fe, type: 2}
  - {fileID: 11400000, guid: 22238fd79b9141d488680ce54bb6a097, type: 2}
  - {fileID: 11400000, guid: 03b2f17904f25d34088b001b335e8fe3, type: 2}
  - {fileID: 11400000, guid: b8e8f0a8211a46a41b636792570bf955, type: 2}
  - {fileID: 11400000, guid: bed605847f535064fa38046228ab7f78, type: 2}
  - {fileID: 11400000, guid: a6b08f9ed92364c498584d765a2a7daa, type: 2}
  - {fileID: 11400000, guid: be0bb5061dcc7584abd205266a05a949, type: 2}
  - {fileID: 11400000, guid: 50a650404846e2848a52604c1e6ad38f, type: 2}
  - {fileID: 11400000, guid: 2420cbca5defa5f4b993fa92fa6ac2d1, type: 2}
  - {fileID: 11400000, guid: 8e589a5e3166aaf438d5c914c4925936, type: 2}
  - {fileID: 11400000, guid: 7667dc22c6709ae4fab3e04272270b4f, type: 2}
  - {fileID: 11400000, guid: c4c3a611da2bb0f40ac0f9bcb6f5e5b5, type: 2}
  - {fileID: 11400000, guid: 6964171b2c3c1c94bba3003d1776fdca, type: 2}
  - {fileID: 11400000, guid: b8ee75483d7d1c849b56c9d28334f2f6, type: 2}
  - {fileID: 11400000, guid: d1fc11985bc1da749bafc130c5cf0657, type: 2}
  - {fileID: 11400000, guid: 7267562e1e0c52045b0094310e77896c, type: 2}
  - {fileID: 11400000, guid: f11fdd2ce3063fa46a3fcbe234e7a28c, type: 2}
  - {fileID: 11400000, guid: b5b24b1e78f56684a9886a192e69da04, type: 2}
  - {fileID: 11400000, guid: addcfe1c658484d4d91a91747c155c39, type: 2}
  - {fileID: 11400000, guid: 2ae98e1c62aa68249997ca42808e33b2, type: 2}
  - {fileID: 11400000, guid: dfdb88f30d88fdd40a6c0a23ff3aa71f, type: 2}
