%YAML 1.1
%TAG !u! tag:unity3d.com,2011:
--- !u!114 &11400000
MonoBehaviour:
  m_ObjectHideFlags: 0
  m_CorrespondingSourceObject: {fileID: 0}
  m_PrefabInstance: {fileID: 0}
  m_PrefabAsset: {fileID: 0}
  m_GameObject: {fileID: 0}
  m_Enabled: 1
  m_EditorHideFlags: 0
  m_Script: {fileID: 11500000, guid: 879c73f26c7ad684399a6dd8ce2da619, type: 3}
  m_Name: 16_1
  m_EditorClassIdentifier: 
  x: 16
  z: 1
  sectorSize: 200
  center: {x: 3300, y: 300}
  targetTerrain: {fileID: 0}
  objectDatas:
  - {fileID: 11400000, guid: 41a5255eeb1192e47a1eb457882cf407, type: 2}
  - {fileID: 11400000, guid: a8ad97489a0f533459c12b8e6e325060, type: 2}
  - {fileID: 11400000, guid: e729d863551f2534fac0d9538c8fcfcc, type: 2}
  - {fileID: 11400000, guid: 253a5e40e99db724bb44a8e1978152f1, type: 2}
  - {fileID: 11400000, guid: 45afb4fd51f634645a515617cabb2fd7, type: 2}
  - {fileID: 11400000, guid: f6712a724a07a17488a9ce79b0676b74, type: 2}
  - {fileID: 11400000, guid: 111545e228e60ab438f92b5c6b65a52d, type: 2}
  - {fileID: 11400000, guid: 69e4733e5d7b78d4d9601349e1cd9c9e, type: 2}
  - {fileID: 11400000, guid: 1da513cc792daf448b757879045b86d0, type: 2}
  - {fileID: 11400000, guid: b0759766c98f74843b281d7e9cd0e62f, type: 2}
  - {fileID: 11400000, guid: 575c0f2c7b2862b4682ee0da9dafd910, type: 2}
  - {fileID: 11400000, guid: 06ae5fe8caaaf99488344fcd6965ea0f, type: 2}
  - {fileID: 11400000, guid: 04c94449559c8ce47af9893fd37a6ea9, type: 2}
  - {fileID: 11400000, guid: e2552abe389e9f648bfb1ba95dad0fa8, type: 2}
  - {fileID: 11400000, guid: 9e346598b3ae1774da17b564851a1220, type: 2}
  - {fileID: 11400000, guid: a46c8ecf21ac3a240a87e62d93a1b8af, type: 2}
  - {fileID: 11400000, guid: 6e61a42cefbb83041a24e8b998e4c540, type: 2}
  - {fileID: 11400000, guid: 010dc8b8871cea345947ed0ad04b7b89, type: 2}
  - {fileID: 11400000, guid: 6d31eaff22cc82c4aa88270fc02d9fb3, type: 2}
  - {fileID: 11400000, guid: 0d9851d8ced448d449650685d9659007, type: 2}
  - {fileID: 11400000, guid: 512527a39efa31742b0e6ab86dc6665d, type: 2}
  - {fileID: 11400000, guid: febc7b11ae0a2014ba27eedc468bc2a1, type: 2}
  - {fileID: 11400000, guid: cb1e163b043b3904e8434edec0a51e05, type: 2}
  - {fileID: 11400000, guid: 6aafb2ebf2979754b801d353b1a53ac7, type: 2}
  - {fileID: 11400000, guid: f162a3193b04ff84497f8ad6a2e81d93, type: 2}
  - {fileID: 11400000, guid: b951403551434824eba122a7265efe14, type: 2}
  - {fileID: 11400000, guid: 48f8624fc34917d4d95b94550ae2d506, type: 2}
  - {fileID: 11400000, guid: 8022bd2c335fcdb478c1f5043840384e, type: 2}
  - {fileID: 11400000, guid: 642d02a622d23b747b1dbd3d783fd610, type: 2}
  - {fileID: 11400000, guid: 55b883e92d08fab48a1245804989e030, type: 2}
  - {fileID: 11400000, guid: 1eb01be35eaa20b458e87914edcff420, type: 2}
  - {fileID: 11400000, guid: 26963f4537cd6dd49b747d3949f57968, type: 2}
  - {fileID: 11400000, guid: d5b646813576d2843b0a6906ef3fefde, type: 2}
  - {fileID: 11400000, guid: b956c207be0649f44ab917292fe8094a, type: 2}
  - {fileID: 11400000, guid: 04b4662f07d308e4a8e28526195db3b2, type: 2}
  - {fileID: 11400000, guid: 821313f5af03bf143982087cfa87b890, type: 2}
  - {fileID: 11400000, guid: 3257b6fa406685845a646c682d4a478d, type: 2}
  - {fileID: 11400000, guid: 5eb6b848e7ace2d46adc2c20230e3dd4, type: 2}
  - {fileID: 11400000, guid: 7be77f22d0af36d4b9532697df2a4c67, type: 2}
  - {fileID: 11400000, guid: a7851a341adbfdd409436fde261ca96e, type: 2}
  - {fileID: 11400000, guid: 3be9c5d591fa1874c8ca9fd00f48742b, type: 2}
  - {fileID: 11400000, guid: f80d5dab631bd3d43bac443230d3c983, type: 2}
  - {fileID: 11400000, guid: 751edfb7b0d9a1348802bb8b33225e59, type: 2}
  - {fileID: 11400000, guid: 1f16528c25e30e342acbd5f8e66e28d6, type: 2}
  - {fileID: 11400000, guid: 293ec7bc8e6653447a02ffcff773a41b, type: 2}
  - {fileID: 11400000, guid: 39eaef002ecb66149a8938543fb50841, type: 2}
  - {fileID: 11400000, guid: f0bf3b97e0b364d48a344462b0d12fd5, type: 2}
  - {fileID: 11400000, guid: bf43b2e1d03b13c48a1e84a6ab4d61c7, type: 2}
  - {fileID: 11400000, guid: 6dd2349186b6aec46aba73e9fd2d8f48, type: 2}
  - {fileID: 11400000, guid: 70b3dca2fd68ae34fad159c410af9431, type: 2}
  - {fileID: 11400000, guid: d20bc4b0e1f835f4dba61f8a89e6f53a, type: 2}
  - {fileID: 11400000, guid: 8997bce1db6880241a11eee16168a237, type: 2}
  - {fileID: 11400000, guid: 77844293719f84d44aa8f5a1f080ae42, type: 2}
  - {fileID: 11400000, guid: 3d599ba84bf696e4e95a9afaa3080095, type: 2}
  - {fileID: 11400000, guid: 595a7aa2d8021194c8c7f0f40afa47f0, type: 2}
  - {fileID: 11400000, guid: 3fb5b68c29573644891e3cec36ff59b9, type: 2}
  - {fileID: 11400000, guid: d2f0f029aa9e54f419e9dab006d821c3, type: 2}
  - {fileID: 11400000, guid: 2d5360ae538b01c4c893e16a90b5ffe6, type: 2}
  - {fileID: 11400000, guid: 22c87404ecb6efb4b96af0fa31fc302d, type: 2}
  - {fileID: 11400000, guid: 75166972fbb4d4d46895af317c9906a8, type: 2}
  - {fileID: 11400000, guid: 60c132471e6e8b34aaaa6d27d2f82d01, type: 2}
  - {fileID: 11400000, guid: adf4ed07e9ac9ca4cb9fb2b0745f9540, type: 2}
  - {fileID: 11400000, guid: eafbb159068259948be371f087760af9, type: 2}
  - {fileID: 11400000, guid: 2c9933edc8c8cfb498be97dc0f37fd0d, type: 2}
  - {fileID: 11400000, guid: 4f26ddffb5b27724d967ddd83412a52b, type: 2}
  - {fileID: 11400000, guid: 5b9e843069ab6764bac50f28837bfda8, type: 2}
  - {fileID: 11400000, guid: ba86d3a21f766764a99cefc76a634775, type: 2}
  - {fileID: 11400000, guid: a470f6159d973d64186117af320463ec, type: 2}
  - {fileID: 11400000, guid: 387e25b995a480946ac4bcbbc0e4cf9e, type: 2}
  - {fileID: 11400000, guid: fa7f125aa69af62488b6aa01cfcc6d91, type: 2}
  - {fileID: 11400000, guid: cca76e065ba5fd34d9115987af9ee8fc, type: 2}
  - {fileID: 11400000, guid: 205701105c901c44cbf42b14e796e968, type: 2}
  - {fileID: 11400000, guid: 9572563527791d64a8f0a9c07e1fa2df, type: 2}
  - {fileID: 11400000, guid: da73f1be5d24b5f44a22722f821a6bd7, type: 2}
  - {fileID: 11400000, guid: f50064f8923e83d41b034ee514a5602a, type: 2}
  - {fileID: 11400000, guid: e31c4ce49ed4dd64ba72d0aeeb41ab5c, type: 2}
  - {fileID: 11400000, guid: 327352c0bc6e4ce4ca5d0a146a3523a6, type: 2}
  - {fileID: 11400000, guid: 16c5e85cc3e12004186d9ee36b5e4d38, type: 2}
  - {fileID: 11400000, guid: d965248335e85964b99f9534fb32336a, type: 2}
  - {fileID: 11400000, guid: ea5046d055af7d24e9eca20952765188, type: 2}
  - {fileID: 11400000, guid: f2fd6e56630ee7d4e9795f7ce389e3c4, type: 2}
  - {fileID: 11400000, guid: 88d2bc95ab886bc4480656fd2b48d577, type: 2}
  - {fileID: 11400000, guid: ed44f132f05ceb243bec9d915bf65143, type: 2}
  - {fileID: 11400000, guid: fb1e0a8ea93b75f4fb1e93884d73e92c, type: 2}
  - {fileID: 11400000, guid: 18cc9c851e19ba449a479e0caaeb5dd3, type: 2}
  - {fileID: 11400000, guid: 08d7af0c7f803aa4891499a760929477, type: 2}
  - {fileID: 11400000, guid: 8d61d7b421df07f44814fb83509f64ec, type: 2}
  - {fileID: 11400000, guid: b0eff3ba28e6c664bb45eccc4986b3ab, type: 2}
  - {fileID: 11400000, guid: 65fde67eb74ad214392e5e12a99fe316, type: 2}
  - {fileID: 11400000, guid: d327a8bebc96d9e43a979a56f5ddc50a, type: 2}
  - {fileID: 11400000, guid: 2ae651d82b5a45e48bffccea4ccc3591, type: 2}
  - {fileID: 11400000, guid: b9e9f4a38ff3204478fc432d0ec42e89, type: 2}
  - {fileID: 11400000, guid: 24d3de6ed3d09494f92199596c4bb8d1, type: 2}
  - {fileID: 11400000, guid: f758527740523664c8ef869f510c42ca, type: 2}
  - {fileID: 11400000, guid: f30928d748c555a4bbfa183410debe96, type: 2}
  - {fileID: 11400000, guid: 37d4dcd288ed07440a0919a0c0c0e80e, type: 2}
  - {fileID: 11400000, guid: 8e6f6c1792f16b04eade1e2818f34eec, type: 2}
  - {fileID: 11400000, guid: 97943f720e97a85429c2112b0315ecdf, type: 2}
  - {fileID: 11400000, guid: 0cf84c23b64c1e34cb88ac6884a42040, type: 2}
  - {fileID: 11400000, guid: 55e951864b7b554408ddfcafd4dd0328, type: 2}
  - {fileID: 11400000, guid: c733b2c0ab0f46349aab59e62dbe0959, type: 2}
  - {fileID: 11400000, guid: ef6f9312367220c4a93ca444ac0b6828, type: 2}
  - {fileID: 11400000, guid: 040c7e94d5353ea4aabddeae83300673, type: 2}
  - {fileID: 11400000, guid: d0f4a8bf7ade66242a21ae65d5c2585e, type: 2}
  - {fileID: 11400000, guid: 480bed37774733f40b0af55d20b13101, type: 2}
  - {fileID: 11400000, guid: adff6f4fe14e00548be78d4174e1b324, type: 2}
  - {fileID: 11400000, guid: 5735b53b8564cb443bd71c2020d41998, type: 2}
  - {fileID: 11400000, guid: 3985ca231d0c45c4fbd5e8ae5cfbc68d, type: 2}
  - {fileID: 11400000, guid: 55f5dbf1a5898c34abbe6e97607cbb3c, type: 2}
  - {fileID: 11400000, guid: 046a3ff11afd73244beeccf1acf56207, type: 2}
  - {fileID: 11400000, guid: 14fc320504de9b34a94fd4257c8258ea, type: 2}
  - {fileID: 11400000, guid: 425cacef9617d4346a044db199b5d796, type: 2}
  - {fileID: 11400000, guid: 1530c2f0b351d3543b95985fb1af8c3c, type: 2}
  - {fileID: 11400000, guid: c61481df10be4f14bb4ed94453b49b05, type: 2}
  - {fileID: 11400000, guid: 697ed4ec594c01340898d414fe26dfd9, type: 2}
  - {fileID: 11400000, guid: 18ce00b64e37d6745b14bbb2759bda8f, type: 2}
  - {fileID: 11400000, guid: cd19345060107a24d85a885d6a066a95, type: 2}
  - {fileID: 11400000, guid: 40d4a07df053b384c9b9c1641a824de3, type: 2}
  - {fileID: 11400000, guid: fbb5700757627014299b2a491431fcb1, type: 2}
  - {fileID: 11400000, guid: 68ece138b0d01674f8384646794d445a, type: 2}
  - {fileID: 11400000, guid: 2a9cac201a8e7be4eb6f8f5ac899a283, type: 2}
  - {fileID: 11400000, guid: 16776ee0a5fae7f4e827ab802af2367e, type: 2}
  - {fileID: 11400000, guid: fcc30d78782cad744b088262ebdfb91e, type: 2}
  - {fileID: 11400000, guid: e06b85ef0dcb32945b2728069455d52c, type: 2}
  - {fileID: 11400000, guid: a87fceeb4a5ce444cb989a4ebbc78cef, type: 2}
  - {fileID: 11400000, guid: cff7a342a5bc3cf4a98f3f34c0c18c89, type: 2}
  - {fileID: 11400000, guid: fe5344af1c776dd4994e145fd17d4899, type: 2}
  - {fileID: 11400000, guid: 6d2a88ab8fe505746afe1a7de1b3c8f3, type: 2}
  - {fileID: 11400000, guid: b083f7ab3bd21db4b905d16ee968c343, type: 2}
  - {fileID: 11400000, guid: 12e06cb868f43c34882d9c2216592969, type: 2}
  - {fileID: 11400000, guid: 9fed6bc954790084ab43bdbb9335361f, type: 2}
  - {fileID: 11400000, guid: eea8e63331f40b04fa3bfe8d368d21bf, type: 2}
  - {fileID: 11400000, guid: 2492589e15b42414bbe5da5dfae08753, type: 2}
  - {fileID: 11400000, guid: 107bdd8c1d548524dbcfca1e4d53dbaf, type: 2}
  - {fileID: 11400000, guid: a64e48b6f739ef44585cdf0fb17b22e0, type: 2}
  - {fileID: 11400000, guid: 9404b9ae3559296428fc88c8daae96be, type: 2}
  - {fileID: 11400000, guid: 715152c942554974f860d00bc4a5c28b, type: 2}
  - {fileID: 11400000, guid: e29efbbe2abc06d4480eac03bb51788e, type: 2}
  - {fileID: 11400000, guid: e45c2ec7356bf3040bbaee5fc9b9e684, type: 2}
  - {fileID: 11400000, guid: b9b0fc01a68a9924a89e62c74ee30293, type: 2}
  - {fileID: 11400000, guid: 953214f516313f2419ab497daaabc96a, type: 2}
  - {fileID: 11400000, guid: 1c63f8b15bdadd64e9e828daf7debe24, type: 2}
  - {fileID: 11400000, guid: 4188129eeed30354690888e396654140, type: 2}
  - {fileID: 11400000, guid: 1f4101fae0aa9b74e851d902ba17293a, type: 2}
  - {fileID: 11400000, guid: 46c94a8166777e64b9e78f38f63e22a8, type: 2}
  - {fileID: 11400000, guid: b5784cd42057c3e4da80e6231c2fa8da, type: 2}
  - {fileID: 11400000, guid: ae2ccad8255c3c8449b66b834e06b2a3, type: 2}
  - {fileID: 11400000, guid: f61eb44c43d430b4d845dabca11a48a0, type: 2}
  - {fileID: 11400000, guid: 9978e15cee406aa44ae24f68d27bd3c7, type: 2}
  - {fileID: 11400000, guid: b0dc916c4bc197449b19e9ea1a87557f, type: 2}
  - {fileID: 11400000, guid: 4bd750978e4307d46bb12bf5505a23e0, type: 2}
  - {fileID: 11400000, guid: bab6026948c806b4f91d482d6e860cc5, type: 2}
  - {fileID: 11400000, guid: 61d32db4b0642284dba4e129bb5c05dd, type: 2}
  - {fileID: 11400000, guid: 5b1e73e08d17ddf4683ec4ba57a76324, type: 2}
  - {fileID: 11400000, guid: 5100df2a7d0c0044f88e43aacb2b725e, type: 2}
  - {fileID: 11400000, guid: df9f2add5a833bf47a8672bb6bbbf798, type: 2}
  - {fileID: 11400000, guid: e634b4d4025151f41aef3caca9d70451, type: 2}
  - {fileID: 11400000, guid: fd9aaf8af64c7c5418a3d0bd6f1ddf4b, type: 2}
  - {fileID: 11400000, guid: 2000a11a2b7f1164eb98a23e738081a4, type: 2}
  - {fileID: 11400000, guid: 9a279175769c3d64eb25e99708831312, type: 2}
  - {fileID: 11400000, guid: 2a3dd16054d8a6943a5c01b4e386c240, type: 2}
  - {fileID: 11400000, guid: 65d3220d6741e5c45aadb3d290848835, type: 2}
  - {fileID: 11400000, guid: 1ee290490367b9349ae93c9d4a58855c, type: 2}
  - {fileID: 11400000, guid: a3ad620e83f630b4f89b3e43f1c70922, type: 2}
  - {fileID: 11400000, guid: 3b2888663469f2f4e82b9a45871f8d56, type: 2}
  - {fileID: 11400000, guid: 0318112471f10f8408d2c24e0b5bc0d5, type: 2}
  - {fileID: 11400000, guid: 71a534994dd9cc74da0ca78b1a78fa3e, type: 2}
  - {fileID: 11400000, guid: 4d42a0e4e320a2e4dbb30d0c501fb724, type: 2}
  - {fileID: 11400000, guid: 042b96e8d5f90f2419750e06e243969e, type: 2}
  - {fileID: 11400000, guid: 9d8263e40f338284189743142428d875, type: 2}
  - {fileID: 11400000, guid: 70fd382b45b10364eafad53dd2aff4d1, type: 2}
  - {fileID: 11400000, guid: 69d5091e90fd0ef49800e3796311aaea, type: 2}
  - {fileID: 11400000, guid: 088c45cebe7c4b74481596732a851138, type: 2}
  - {fileID: 11400000, guid: 5cd154684a0024e459188555daa6486d, type: 2}
  - {fileID: 11400000, guid: 3324278e19d8d064ab439fc06cd15fef, type: 2}
  - {fileID: 11400000, guid: 150af044f3350a148a6c2e4a648fa5bc, type: 2}
  - {fileID: 11400000, guid: a86389b688489874c948d44ee766045c, type: 2}
  - {fileID: 11400000, guid: 65c6285c44165e14988c937f05649698, type: 2}
  - {fileID: 11400000, guid: 72ef7ecde1fa4bf42aff2c0cab354c5d, type: 2}
  - {fileID: 11400000, guid: 08355b7765187e5458c5e785586b75f0, type: 2}
  - {fileID: 11400000, guid: 9f18dc5333a66d64fbbec6b05df01f56, type: 2}
  - {fileID: 11400000, guid: 4107a84be7dda6748ab12ccccdaefccd, type: 2}
  - {fileID: 11400000, guid: 4cd4e052269f6b1499e9ce69b4ba644f, type: 2}
  - {fileID: 11400000, guid: 4ef2381511b39e048970b87ede8858ff, type: 2}
  - {fileID: 11400000, guid: 9a4641982e02796479e44c7844a3112e, type: 2}
  - {fileID: 11400000, guid: 9c9acc38fa3991a40832909f1842bf24, type: 2}
  - {fileID: 11400000, guid: 601baec7b30c8a14ab5c6b21dd4d69b0, type: 2}
  - {fileID: 11400000, guid: 6c8fb518eba144b448ef372792575607, type: 2}
  - {fileID: 11400000, guid: 34202efd68f1db040b0a5a4d5ca17385, type: 2}
  - {fileID: 11400000, guid: cdf80bc0f1bda5244af363aba5e61af7, type: 2}
  - {fileID: 11400000, guid: 2a7429f72fffe86499a1c6e3aad10c81, type: 2}
  - {fileID: 11400000, guid: ee89769893e09a044b5f66df87ea6627, type: 2}
  - {fileID: 11400000, guid: 377873c2380951340be15876c5746f6f, type: 2}
  - {fileID: 11400000, guid: 6132f0aa7dad15a45b1c9c970ed16816, type: 2}
  - {fileID: 11400000, guid: ef7623188f26a2b428a70a639f85c838, type: 2}
  - {fileID: 11400000, guid: c9b494a4fd66844489153cbcb04c7d06, type: 2}
  - {fileID: 11400000, guid: 6b063926fbcc3894f96f7199557a4449, type: 2}
  - {fileID: 11400000, guid: c1e9d04e390c7b54090e4c883a94b609, type: 2}
  - {fileID: 11400000, guid: accdb43d87aede941a2b337cec6e8109, type: 2}
  - {fileID: 11400000, guid: 8cc235abded1da84987db7adc85d58c4, type: 2}
  - {fileID: 11400000, guid: 2f322a3df4a18004bb7e9266f1ca4da9, type: 2}
  - {fileID: 11400000, guid: 201933b0cc7071943ad8b04874e74996, type: 2}
  - {fileID: 11400000, guid: 942850ceba26007429859f8e01572a96, type: 2}
  - {fileID: 11400000, guid: fcee4d0fe563e6f4888b013551b9e11c, type: 2}
  - {fileID: 11400000, guid: 1a3bf3726bc85ca4499113d8f705b306, type: 2}
  - {fileID: 11400000, guid: e03afb8a5322d0d41afbe626619757e2, type: 2}
  - {fileID: 11400000, guid: e733b984e5e2c0143a5aad6fa214e7c2, type: 2}
  - {fileID: 11400000, guid: 77e544a12deff2749972d271d908216e, type: 2}
  - {fileID: 11400000, guid: 0956183384f40c142afc323087c39cd7, type: 2}
  - {fileID: 11400000, guid: cc833e0325e1cb343bb3817b41f264e2, type: 2}
  - {fileID: 11400000, guid: a2107896b0066e24e91f2821748a7aa9, type: 2}
  - {fileID: 11400000, guid: 9d2540815f4d92546ba4e7a7e109f8b9, type: 2}
  - {fileID: 11400000, guid: a57225d1d776fb04d84d0b336a7e65d6, type: 2}
  - {fileID: 11400000, guid: 7749c5637c4672947be14a3c8e0866a7, type: 2}
  - {fileID: 11400000, guid: 78a84058d4f3edc4c958b9da51ebdb84, type: 2}
  - {fileID: 11400000, guid: 0184139151035a04e8e2907dda442819, type: 2}
  - {fileID: 11400000, guid: fe981117b0bb25e42af7ff37063303d9, type: 2}
  - {fileID: 11400000, guid: 1f7a90d7cd787fd4ebc6c4a6b8f490fb, type: 2}
  - {fileID: 11400000, guid: bc21ed07f19e9dd478b1185c1e551959, type: 2}
  - {fileID: 11400000, guid: 0d7e02ab2b9dee14cbe8b6f8dba29073, type: 2}
  - {fileID: 11400000, guid: 338c0a86d20b7bf41828d4e7eb173d57, type: 2}
  - {fileID: 11400000, guid: ac080bd0246f51b4490f6f7977be12f6, type: 2}
  - {fileID: 11400000, guid: 06e41303e6c78fd4796bcc7ca643d6a4, type: 2}
  - {fileID: 11400000, guid: fd935fc1aa82656419f6158dd27eb006, type: 2}
  - {fileID: 11400000, guid: 8d5d07c65f8a2604588ade8fbfa05ddc, type: 2}
  - {fileID: 11400000, guid: f05b9c50f3763a54485f38d96c573570, type: 2}
  - {fileID: 11400000, guid: 805fdd9c70ab1df48a196b80ebc3a399, type: 2}
  - {fileID: 11400000, guid: cc38bc900873c0c478a04f44aed8fc58, type: 2}
  - {fileID: 11400000, guid: 4a348f19a8b91394cb03ef107ff89b40, type: 2}
  - {fileID: 11400000, guid: 965268fdc1be0074889707ba8f93ef44, type: 2}
  - {fileID: 11400000, guid: 6a4836beec212a24a97598526217dd5b, type: 2}
  - {fileID: 11400000, guid: 6d797a21d93bc5d439d261346208f9f5, type: 2}
  - {fileID: 11400000, guid: 06b12c722bb89ec4ab88ad1ee929c63e, type: 2}
  - {fileID: 11400000, guid: 3327f43a6cccfa1478a38af0ebcd079d, type: 2}
  - {fileID: 11400000, guid: 8195a80d6c01a71488fb134d72a5095e, type: 2}
  - {fileID: 11400000, guid: d02d59b9e097fc441ace783652fc7612, type: 2}
  - {fileID: 11400000, guid: 1f9682dc0d927604d923fd7ade2e2063, type: 2}
  - {fileID: 11400000, guid: 44e0ddecbfb019045b8b3aaabc7f7756, type: 2}
  - {fileID: 11400000, guid: 6f3f5d37af0a7d243a870847053f5d4b, type: 2}
  - {fileID: 11400000, guid: 0e259109117788342a8d2e493a179c15, type: 2}
  - {fileID: 11400000, guid: 0fa9da59956c242448ad6cb0942b30cf, type: 2}
  - {fileID: 11400000, guid: 6666ab5afd465d5488c438336b889980, type: 2}
  - {fileID: 11400000, guid: 632676225466aa34c9941dde3bcce393, type: 2}
  - {fileID: 11400000, guid: ba0d1c85e39d85b47aaae1510f52ff4c, type: 2}
  - {fileID: 11400000, guid: 49aae24668182f74b8d73c80204c2b2e, type: 2}
  - {fileID: 11400000, guid: 4e7a349149bacb246b7322bfd1cf9ffc, type: 2}
  - {fileID: 11400000, guid: 7d79ee03fb4d2a240b41cbb0b12dd0e7, type: 2}
  - {fileID: 11400000, guid: 425b0975d2caca241a92e58f36bfcee1, type: 2}
  - {fileID: 11400000, guid: cb1540b19f2d7e14f925209cac2fcdee, type: 2}
  - {fileID: 11400000, guid: 3f53da9731589b1468b0daa2b98cb3dc, type: 2}
  - {fileID: 11400000, guid: 548fad0d8279903419776206119ed17f, type: 2}
  - {fileID: 11400000, guid: 25b7d5238eb9aa54091839ffa565fc86, type: 2}
  - {fileID: 11400000, guid: 589a9df26bef68c4fb3655fcd9767cd3, type: 2}
  - {fileID: 11400000, guid: 3ca188fcd68ba6a4abc9018edada1c7a, type: 2}
  - {fileID: 11400000, guid: 50192781789d79747a38bbe1e9a5ab3d, type: 2}
  - {fileID: 11400000, guid: 7e9b96e44e84fdd45857f67ae5d8224f, type: 2}
  - {fileID: 11400000, guid: 77ab60d1476143c4ca873d73e68a5682, type: 2}
  - {fileID: 11400000, guid: dc935fb1dcbae5b4b9c9ed3c5dc3d2ee, type: 2}
  - {fileID: 11400000, guid: 894029eb632323f43966610ffaeee2d9, type: 2}
  - {fileID: 11400000, guid: 25b83ac4a0cb9504481a2b8e66450316, type: 2}
  - {fileID: 11400000, guid: a082a053a9b816c4a99031d2e61e508d, type: 2}
  - {fileID: 11400000, guid: 6bf8dbba31b6e8145a0042efbbe39cad, type: 2}
  - {fileID: 11400000, guid: 79790eadce5200b448888aa8f630db68, type: 2}
