%YAML 1.1
%TAG !u! tag:unity3d.com,2011:
--- !u!114 &11400000
MonoBehaviour:
  m_ObjectHideFlags: 0
  m_CorrespondingSourceObject: {fileID: 0}
  m_PrefabInstance: {fileID: 0}
  m_PrefabAsset: {fileID: 0}
  m_GameObject: {fileID: 0}
  m_Enabled: 1
  m_EditorHideFlags: 0
  m_Script: {fileID: 11500000, guid: 879c73f26c7ad684399a6dd8ce2da619, type: 3}
  m_Name: 16_22
  m_EditorClassIdentifier: 
  x: 16
  z: 22
  sectorSize: 200
  center: {x: 3300, y: 4500}
  targetTerrain: {fileID: 0}
  objectDatas:
  - {fileID: 11400000, guid: ea8ca9e97bbc85b4da4d8c43c00f75da, type: 2}
  - {fileID: 11400000, guid: d254a3e058bf096459a4c60e01ac2033, type: 2}
  - {fileID: 11400000, guid: 2354d6ae1a14c7344816861616331c09, type: 2}
  - {fileID: 11400000, guid: 07d1756aa749aa84a9424cd61d3b826b, type: 2}
  - {fileID: 11400000, guid: 8331f7644f775f04b9900413384a6617, type: 2}
  - {fileID: 11400000, guid: e13fcc93c5e7efe47860bec8fafa6f66, type: 2}
  - {fileID: 11400000, guid: d513993dd5fb7b046ac2dabcf4973d88, type: 2}
  - {fileID: 11400000, guid: 6c7c8006bf0f8ac4b979e74e7453730d, type: 2}
  - {fileID: 11400000, guid: defbb2ec986fca943945af00eb358c57, type: 2}
  - {fileID: 11400000, guid: 3563ae940d7f753408610be1e398f3c8, type: 2}
  - {fileID: 11400000, guid: ea03fecfb6b6af042aa621f1fea8e7eb, type: 2}
  - {fileID: 11400000, guid: b008d2055240b3640a0e2d6edeaec6e4, type: 2}
  - {fileID: 11400000, guid: 86a17846dd7bc7649a6eebe313787b79, type: 2}
  - {fileID: 11400000, guid: ea04611ce92cf7e48bdf822920f5810a, type: 2}
  - {fileID: 11400000, guid: 61f5883d9ab763544af5b886b87dd90a, type: 2}
  - {fileID: 11400000, guid: d3655b4793c6acd47b236e7506b7bc12, type: 2}
  - {fileID: 11400000, guid: 7177b074a910f4746865a2c96f57b46a, type: 2}
  - {fileID: 11400000, guid: 6eecbbd8dcbc3ec4bbe4ae2d788838a8, type: 2}
  - {fileID: 11400000, guid: f27e53dd9e3820140a46f9ca8c6f7f05, type: 2}
  - {fileID: 11400000, guid: 7128f834ccce2064280954ace1132eda, type: 2}
