%YAML 1.1
%TAG !u! tag:unity3d.com,2011:
--- !u!114 &11400000
MonoBehaviour:
  m_ObjectHideFlags: 0
  m_CorrespondingSourceObject: {fileID: 0}
  m_PrefabInstance: {fileID: 0}
  m_PrefabAsset: {fileID: 0}
  m_GameObject: {fileID: 0}
  m_Enabled: 1
  m_EditorHideFlags: 0
  m_Script: {fileID: 11500000, guid: 879c73f26c7ad684399a6dd8ce2da619, type: 3}
  m_Name: 16_23
  m_EditorClassIdentifier: 
  x: 16
  z: 23
  sectorSize: 200
  center: {x: 3300, y: 4700}
  targetTerrain: {fileID: 0}
  objectDatas:
  - {fileID: 11400000, guid: dfe5757049adc724ca376a300d4cfdbd, type: 2}
  - {fileID: 11400000, guid: f5428fdc8f9e2de478f8fd5f2fae098d, type: 2}
  - {fileID: 11400000, guid: fab46e4cd1d5d6f4fba08f4b0862381d, type: 2}
  - {fileID: 11400000, guid: d05aae53a20c4b143be874bbc05c1aeb, type: 2}
  - {fileID: 11400000, guid: 31c384ae18b4c5a45b30ecbb4191f003, type: 2}
  - {fileID: 11400000, guid: 5f7a484843d495745ac8ee6267d81424, type: 2}
  - {fileID: 11400000, guid: 5b0c06975ebcead4aa2e4e43797e85df, type: 2}
  - {fileID: 11400000, guid: 0cd36559fc536a74984d3233620cb2c8, type: 2}
  - {fileID: 11400000, guid: bb01b1e3274da9d45b8e0434b1ef7292, type: 2}
  - {fileID: 11400000, guid: 344a44ca0d17bc941a7687ae26ac2a81, type: 2}
  - {fileID: 11400000, guid: 276a8a9647d82c1489d54fd368b6540c, type: 2}
  - {fileID: 11400000, guid: fe16025270f144d46bb6e9c0231dbeb1, type: 2}
  - {fileID: 11400000, guid: ade827d45bf39d447bbedaff65799878, type: 2}
  - {fileID: 11400000, guid: 765f975859388d04cb0233d880af4308, type: 2}
  - {fileID: 11400000, guid: 4dec72582da1f7d49b5c4ad0f0393769, type: 2}
  - {fileID: 11400000, guid: 0f094b0f2baf6aa4dbc7cd19558fb1ea, type: 2}
  - {fileID: 11400000, guid: 9e7225a65500ecf44891a80e1873eecd, type: 2}
  - {fileID: 11400000, guid: 6a9dc4715c01dc04ba1736171c1c59b5, type: 2}
  - {fileID: 11400000, guid: bcc8f7a71094318478f490c9010239b4, type: 2}
  - {fileID: 11400000, guid: bdfd752936c11d745b69660a67389e97, type: 2}
  - {fileID: 11400000, guid: 4b1c880bce22ecd44b183a69d19231c5, type: 2}
  - {fileID: 11400000, guid: 9f600114ce4f734488d3b502fdcd44fd, type: 2}
  - {fileID: 11400000, guid: cf0165f62cf3d5f4ab65109d1d59808d, type: 2}
  - {fileID: 11400000, guid: b16887280947d754ea4712b12c18645d, type: 2}
  - {fileID: 11400000, guid: 1c04406b75dd4a040a10e3617c8126ab, type: 2}
  - {fileID: 11400000, guid: a08dfeab88162aa46b8b2b8c6e2d5624, type: 2}
  - {fileID: 11400000, guid: 4b0586330a87bc84a986183d5a614b63, type: 2}
  - {fileID: 11400000, guid: e1f47abc295027044b415595e62683ab, type: 2}
  - {fileID: 11400000, guid: 2b45d96679d09ff40b9d4106a8c5f23f, type: 2}
