%YAML 1.1
%TAG !u! tag:unity3d.com,2011:
--- !u!114 &11400000
MonoBehaviour:
  m_ObjectHideFlags: 0
  m_CorrespondingSourceObject: {fileID: 0}
  m_PrefabInstance: {fileID: 0}
  m_PrefabAsset: {fileID: 0}
  m_GameObject: {fileID: 0}
  m_Enabled: 1
  m_EditorHideFlags: 0
  m_Script: {fileID: 11500000, guid: 879c73f26c7ad684399a6dd8ce2da619, type: 3}
  m_Name: 17_0
  m_EditorClassIdentifier: 
  x: 17
  z: 0
  sectorSize: 200
  center: {x: 3500, y: 100}
  targetTerrain: {fileID: 0}
  objectDatas:
  - {fileID: 11400000, guid: 712441cc6d3bfb64ab0d07590d15eeac, type: 2}
  - {fileID: 11400000, guid: e380cda2c9cd1c44aa35d3b1bd247349, type: 2}
  - {fileID: 11400000, guid: e3b9c1bdf189d754fb0bcbfe84eb37f0, type: 2}
  - {fileID: 11400000, guid: 980fcfaf4bc074343bc01fcfa7eca560, type: 2}
  - {fileID: 11400000, guid: 066b307526cd77b4e883f8609164bf16, type: 2}
  - {fileID: 11400000, guid: f8c955cfaef93934f82729277dec398d, type: 2}
  - {fileID: 11400000, guid: cdc48b017268b19428edad3e7b275c01, type: 2}
  - {fileID: 11400000, guid: 1273d881787b0d643a040e86a004ffcf, type: 2}
  - {fileID: 11400000, guid: ee10042d59afbb44b9320e463051f004, type: 2}
  - {fileID: 11400000, guid: 280c0a35ffc777942922abe6da91976f, type: 2}
  - {fileID: 11400000, guid: 756f74ef13cb53f45a75240b65de2911, type: 2}
  - {fileID: 11400000, guid: 3440b4480910709469be33b74befdcbe, type: 2}
  - {fileID: 11400000, guid: 24a13c568798871459e90e3716711f56, type: 2}
  - {fileID: 11400000, guid: 99e781ee44ca2fd40bfde7fddd40a737, type: 2}
  - {fileID: 11400000, guid: ade0eb2ee4f31db498b95ebc06e9e98e, type: 2}
  - {fileID: 11400000, guid: 42490e67a863f204d91a8c118d53a387, type: 2}
  - {fileID: 11400000, guid: 48cfd4c13bd634040bfbadca5282b708, type: 2}
  - {fileID: 11400000, guid: 7d7bb2138996501448d6d76a94b3559f, type: 2}
  - {fileID: 11400000, guid: c0507260e5f45944699aa834a635fb06, type: 2}
  - {fileID: 11400000, guid: 3c8ecac1fef8c7b488652239c7b2b632, type: 2}
  - {fileID: 11400000, guid: a8583fabd3e8a0841a4f405baccb5029, type: 2}
  - {fileID: 11400000, guid: 74325846aa9bf11439de2d11cc5f2acc, type: 2}
  - {fileID: 11400000, guid: 0a1212fb80481f94ba6b4cc47b3e1cd7, type: 2}
