%YAML 1.1
%TAG !u! tag:unity3d.com,2011:
--- !u!114 &11400000
MonoBehaviour:
  m_ObjectHideFlags: 0
  m_CorrespondingSourceObject: {fileID: 0}
  m_PrefabInstance: {fileID: 0}
  m_PrefabAsset: {fileID: 0}
  m_GameObject: {fileID: 0}
  m_Enabled: 1
  m_EditorHideFlags: 0
  m_Script: {fileID: 11500000, guid: 879c73f26c7ad684399a6dd8ce2da619, type: 3}
  m_Name: 17_17
  m_EditorClassIdentifier: 
  x: 17
  z: 17
  sectorSize: 200
  center: {x: 3500, y: 3500}
  targetTerrain: {fileID: 0}
  objectDatas:
  - {fileID: 11400000, guid: 393325fb7557f8949a38823e585aea06, type: 2}
  - {fileID: 11400000, guid: f87ec0f18f29fb04f9025bb8b2c7c199, type: 2}
  - {fileID: 11400000, guid: a771f6aa81d2da24ca60a5dabbade634, type: 2}
  - {fileID: 11400000, guid: 6beb8d75e32586742aecd903df2b0c08, type: 2}
  - {fileID: 11400000, guid: 88f98817d9b84724687388459db1acf0, type: 2}
  - {fileID: 11400000, guid: 05c68d96aeae3e242a78ebbc3a194f3a, type: 2}
  - {fileID: 11400000, guid: 6d921b699a5be3748975a6c2328484b6, type: 2}
  - {fileID: 11400000, guid: eca1be00b32601f47a7197c3d50b620c, type: 2}
  - {fileID: 11400000, guid: 36c5427c9785a454597ac57a9abfa028, type: 2}
  - {fileID: 11400000, guid: 0e75e507f6d0350459ca7a25c440d127, type: 2}
  - {fileID: 11400000, guid: f7eb6408149bf0a4eb0c0203161353bf, type: 2}
  - {fileID: 11400000, guid: b0b5369c53baaee40b13093a60a8a41f, type: 2}
  - {fileID: 11400000, guid: 7184b72812468bf4dab6c64ac1f4ab32, type: 2}
  - {fileID: 11400000, guid: 9cfefebaedad62f4e9a71afb1a02d265, type: 2}
  - {fileID: 11400000, guid: 14cb50ddaf2b47f4fab092417768ec53, type: 2}
  - {fileID: 11400000, guid: 7b85b732f9300bc45be4f651e86fabd7, type: 2}
  - {fileID: 11400000, guid: 05a899385953b674dab161051f712778, type: 2}
  - {fileID: 11400000, guid: 01507afe70df19b4887bce396813e7e0, type: 2}
  - {fileID: 11400000, guid: 5e5a7b94fd454294fa34336e9b0e2dfe, type: 2}
  - {fileID: 11400000, guid: bcf734f916c18c74c98a2251a5d4bedd, type: 2}
