%YAML 1.1
%TAG !u! tag:unity3d.com,2011:
--- !u!114 &11400000
MonoBehaviour:
  m_ObjectHideFlags: 0
  m_CorrespondingSourceObject: {fileID: 0}
  m_PrefabInstance: {fileID: 0}
  m_PrefabAsset: {fileID: 0}
  m_GameObject: {fileID: 0}
  m_Enabled: 1
  m_EditorHideFlags: 0
  m_Script: {fileID: 11500000, guid: 879c73f26c7ad684399a6dd8ce2da619, type: 3}
  m_Name: 17_16
  m_EditorClassIdentifier: 
  x: 17
  z: 16
  sectorSize: 200
  center: {x: 3500, y: 3300}
  targetTerrain: {fileID: 0}
  objectDatas:
  - {fileID: 11400000, guid: e71be5aade4c9334f9e3c8b2c3949574, type: 2}
  - {fileID: 11400000, guid: e9a32a1d52449694ea0d99796279639c, type: 2}
  - {fileID: 11400000, guid: 8921f960def5d8a48ba00ba58915253d, type: 2}
  - {fileID: 11400000, guid: 846018b2a5ff5be4ba29076905ea5020, type: 2}
  - {fileID: 11400000, guid: 76bb1a0856adc464c88ec4219ad9eb00, type: 2}
  - {fileID: 11400000, guid: e38699df66151ba4580a9389a056c237, type: 2}
  - {fileID: 11400000, guid: 61947f99ebe55d545a59fa3adc960f08, type: 2}
  - {fileID: 11400000, guid: cf1302c691ff88a4eaf9dce0cae1e32f, type: 2}
  - {fileID: 11400000, guid: b8aa4cbced7926d4bab4fc9459f6e46d, type: 2}
  - {fileID: 11400000, guid: b991799d17c051b49932e9fa388ea703, type: 2}
  - {fileID: 11400000, guid: 3f1f8d2af4f65ac4cabaad6a4f3d522a, type: 2}
  - {fileID: 11400000, guid: dfcb3adefe2ea8f4d8cf12e13f763189, type: 2}
  - {fileID: 11400000, guid: e371885b7459a7a4fbfa0ce9b66e42e3, type: 2}
  - {fileID: 11400000, guid: aef98a65d792a314995a4a8da862bb41, type: 2}
  - {fileID: 11400000, guid: 276f11d60b20fdf4b824dd1a8702e705, type: 2}
  - {fileID: 11400000, guid: a2bdf0b715dea9f4dbb186dddb1b8aaf, type: 2}
  - {fileID: 11400000, guid: c281fc628ae67ea40ba71c3a7a85a65a, type: 2}
  - {fileID: 11400000, guid: f31e8b3c2568bb1488cdda14437cb306, type: 2}
  - {fileID: 11400000, guid: 4ae10fd40613c6f4e8ff3f8b0672a3ca, type: 2}
  - {fileID: 11400000, guid: 0c9d72b60fabf4d4e83bf3ade165cc5a, type: 2}
  - {fileID: 11400000, guid: 7e68d99c2f7698640acd2b1d70e932f4, type: 2}
  - {fileID: 11400000, guid: c190923cbf9507045b0602e16856fd59, type: 2}
  - {fileID: 11400000, guid: 7dfb426df7103f74f935b112242fb776, type: 2}
  - {fileID: 11400000, guid: 1807bcd8a762c1c4ca429462afa8c0cf, type: 2}
  - {fileID: 11400000, guid: 110f25ea25765b44ba6e7376d2923756, type: 2}
  - {fileID: 11400000, guid: e08e1eed06b0c2e438dcffcea916efb2, type: 2}
  - {fileID: 11400000, guid: 6d660190fa0d2d449bb8f721dbbe0f3c, type: 2}
  - {fileID: 11400000, guid: f018246a1f386194a92eb523c6793a31, type: 2}
  - {fileID: 11400000, guid: 68d371754bab4824daff195de4561ded, type: 2}
  - {fileID: 11400000, guid: b237832a68a34a74e86efefb6afb21c0, type: 2}
  - {fileID: 11400000, guid: 55f7e71faf0d5684ba3a4ab27d3cd494, type: 2}
  - {fileID: 11400000, guid: 45a824e2acbb94c4789bf7cb2dc363e3, type: 2}
  - {fileID: 11400000, guid: 2d547e651e3b8b34fa764d0baaeafb7c, type: 2}
  - {fileID: 11400000, guid: d7d348632cfa8564f8f593d5f552b59a, type: 2}
  - {fileID: 11400000, guid: c0b4c468267220641903358e39f2eb62, type: 2}
  - {fileID: 11400000, guid: 7b579ddc13e120548b11a59fb4894303, type: 2}
  - {fileID: 11400000, guid: db7711cd3b659fd47b9b1728e65ce0e7, type: 2}
  - {fileID: 11400000, guid: 173e63becb2c96d49b711998ac340ee7, type: 2}
  - {fileID: 11400000, guid: f8eb6234795c5294083864a034f78c43, type: 2}
  - {fileID: 11400000, guid: fe458da54f15bd84bb5470fac10d3767, type: 2}
  - {fileID: 11400000, guid: fb8b24122548f27488ae3927894ccb24, type: 2}
  - {fileID: 11400000, guid: ae891326a7d7486418c9054c7b2445d6, type: 2}
  - {fileID: 11400000, guid: e38afee07b194e04bb15dd7c39ed6e7f, type: 2}
  - {fileID: 11400000, guid: a8ffe7fc05ecdda4497b95ce3e74c092, type: 2}
  - {fileID: 11400000, guid: 211ad7253e88fb84b9eee4a61bbccfde, type: 2}
  - {fileID: 11400000, guid: e75b9aaaf39418b48bccd22db51a35df, type: 2}
  - {fileID: 11400000, guid: f4d6f6b1cc7fd59449346de79ffda072, type: 2}
  - {fileID: 11400000, guid: db29fd66b2153724a8f43a3916d55837, type: 2}
