%YAML 1.1
%TAG !u! tag:unity3d.com,2011:
--- !u!114 &11400000
MonoBehaviour:
  m_ObjectHideFlags: 0
  m_CorrespondingSourceObject: {fileID: 0}
  m_PrefabInstance: {fileID: 0}
  m_PrefabAsset: {fileID: 0}
  m_GameObject: {fileID: 0}
  m_Enabled: 1
  m_EditorHideFlags: 0
  m_Script: {fileID: 11500000, guid: 879c73f26c7ad684399a6dd8ce2da619, type: 3}
  m_Name: 17_2
  m_EditorClassIdentifier: 
  x: 17
  z: 2
  sectorSize: 200
  center: {x: 3500, y: 500}
  targetTerrain: {fileID: 0}
  objectDatas:
  - {fileID: 11400000, guid: 9387d0a41d489b94985179684f09d554, type: 2}
  - {fileID: 11400000, guid: 5af591edf10f82e42bf2310f5d8532d9, type: 2}
  - {fileID: 11400000, guid: 40bba655414f1544eae430ebd9943d52, type: 2}
  - {fileID: 11400000, guid: 48ed06b2325a4c246adbe61ab302b3a2, type: 2}
  - {fileID: 11400000, guid: 46b34c9b3b4d7f546bda1eff5675ac9c, type: 2}
