%YAML 1.1
%TAG !u! tag:unity3d.com,2011:
--- !u!114 &11400000
MonoBehaviour:
  m_ObjectHideFlags: 0
  m_CorrespondingSourceObject: {fileID: 0}
  m_PrefabInstance: {fileID: 0}
  m_PrefabAsset: {fileID: 0}
  m_GameObject: {fileID: 0}
  m_Enabled: 1
  m_EditorHideFlags: 0
  m_Script: {fileID: 11500000, guid: 879c73f26c7ad684399a6dd8ce2da619, type: 3}
  m_Name: 17_5
  m_EditorClassIdentifier: 
  x: 17
  z: 5
  sectorSize: 200
  center: {x: 3500, y: 1100}
  targetTerrain: {fileID: 0}
  objectDatas:
  - {fileID: 11400000, guid: 6c7eabc5f196ae24e8e86fa8c7fc7cdb, type: 2}
  - {fileID: 11400000, guid: d115cf64098a08d46967ccd07967a0b4, type: 2}
  - {fileID: 11400000, guid: 68a6f628589fd20498f3a0e90dfa8669, type: 2}
  - {fileID: 11400000, guid: 9a33e2b0f8fda8e4e8989bf159b9397d, type: 2}
  - {fileID: 11400000, guid: 6d0ac17b63ab95049be3b86644b5ebe4, type: 2}
  - {fileID: 11400000, guid: 4bdadec3a280e454d9e8ebaad71faf74, type: 2}
  - {fileID: 11400000, guid: 79d0e75dde562c947b33f9ce659e919e, type: 2}
  - {fileID: 11400000, guid: b42c6f700316b164a9fc47bc859a1647, type: 2}
  - {fileID: 11400000, guid: 79860fa90efd69846ba95acd0b764d20, type: 2}
  - {fileID: 11400000, guid: 631ccee5d1a143d42a48fb4210046b71, type: 2}
  - {fileID: 11400000, guid: 9645beab810d99840b701dc678d47441, type: 2}
  - {fileID: 11400000, guid: 5bd5bd79c92d18c42b967ff724f017c3, type: 2}
