%YAML 1.1
%TAG !u! tag:unity3d.com,2011:
--- !u!114 &11400000
MonoBehaviour:
  m_ObjectHideFlags: 0
  m_CorrespondingSourceObject: {fileID: 0}
  m_PrefabInstance: {fileID: 0}
  m_PrefabAsset: {fileID: 0}
  m_GameObject: {fileID: 0}
  m_Enabled: 1
  m_EditorHideFlags: 0
  m_Script: {fileID: 11500000, guid: 879c73f26c7ad684399a6dd8ce2da619, type: 3}
  m_Name: 17_7
  m_EditorClassIdentifier: 
  x: 17
  z: 7
  sectorSize: 200
  center: {x: 3500, y: 1500}
  targetTerrain: {fileID: 0}
  objectDatas:
  - {fileID: 11400000, guid: fa1cf525adb32bb4ea180d134ec632e5, type: 2}
  - {fileID: 11400000, guid: 5e7e4f8a08dd0154680e75a481405374, type: 2}
  - {fileID: 11400000, guid: 1043fb8856fe2cd42a8f1ffc6ce8f9e9, type: 2}
  - {fileID: 11400000, guid: a3013e3d03ccc464b840f42d27352488, type: 2}
  - {fileID: 11400000, guid: 2ee83cc9074e5194d8950bf20b5b5e0b, type: 2}
  - {fileID: 11400000, guid: be9248b3bd78ec349905775cf4292d5a, type: 2}
  - {fileID: 11400000, guid: d2ad0eb83779d1844bbb678e5c5a55b3, type: 2}
  - {fileID: 11400000, guid: 8226c6a54d187904482b42dfce9f618c, type: 2}
  - {fileID: 11400000, guid: 50af6239a76ec254cadfbf6b876189e4, type: 2}
