%YAML 1.1
%TAG !u! tag:unity3d.com,2011:
--- !u!114 &11400000
MonoBehaviour:
  m_ObjectHideFlags: 0
  m_CorrespondingSourceObject: {fileID: 0}
  m_PrefabInstance: {fileID: 0}
  m_PrefabAsset: {fileID: 0}
  m_GameObject: {fileID: 0}
  m_Enabled: 1
  m_EditorHideFlags: 0
  m_Script: {fileID: 11500000, guid: 879c73f26c7ad684399a6dd8ce2da619, type: 3}
  m_Name: 18_18
  m_EditorClassIdentifier: 
  x: 18
  z: 18
  sectorSize: 200
  center: {x: 3700, y: 3700}
  targetTerrain: {fileID: 0}
  objectDatas:
  - {fileID: 11400000, guid: 6d4c46f056339f14c88525b6f76d395c, type: 2}
  - {fileID: 11400000, guid: 23094814398a036479fb30ecc76853fb, type: 2}
  - {fileID: 11400000, guid: d60c8bd3d54893943b80174918657df0, type: 2}
