%YAML 1.1
%TAG !u! tag:unity3d.com,2011:
--- !u!114 &11400000
MonoBehaviour:
  m_ObjectHideFlags: 0
  m_CorrespondingSourceObject: {fileID: 0}
  m_PrefabInstance: {fileID: 0}
  m_PrefabAsset: {fileID: 0}
  m_GameObject: {fileID: 0}
  m_Enabled: 1
  m_EditorHideFlags: 0
  m_Script: {fileID: 11500000, guid: 879c73f26c7ad684399a6dd8ce2da619, type: 3}
  m_Name: 18_22
  m_EditorClassIdentifier: 
  x: 18
  z: 22
  sectorSize: 200
  center: {x: 3700, y: 4500}
  targetTerrain: {fileID: 0}
  objectDatas:
  - {fileID: 11400000, guid: 25e1549d084ad87428c7264d4f2925ad, type: 2}
  - {fileID: 11400000, guid: c447a4d2daa41e2489c5866a4a5b7935, type: 2}
