%YAML 1.1
%TAG !u! tag:unity3d.com,2011:
--- !u!114 &11400000
MonoBehaviour:
  m_ObjectHideFlags: 0
  m_CorrespondingSourceObject: {fileID: 0}
  m_PrefabInstance: {fileID: 0}
  m_PrefabAsset: {fileID: 0}
  m_GameObject: {fileID: 0}
  m_Enabled: 1
  m_EditorHideFlags: 0
  m_Script: {fileID: 11500000, guid: 879c73f26c7ad684399a6dd8ce2da619, type: 3}
  m_Name: 18_5
  m_EditorClassIdentifier: 
  x: 18
  z: 5
  sectorSize: 200
  center: {x: 3700, y: 1100}
  targetTerrain: {fileID: 0}
  objectDatas:
  - {fileID: 11400000, guid: d976dc6ff91fae749be569987c3bba42, type: 2}
  - {fileID: 11400000, guid: 4c2ea8bff8eeaff459355224bf0878be, type: 2}
  - {fileID: 11400000, guid: 5598362a20e1e2e48b3a589753433458, type: 2}
  - {fileID: 11400000, guid: 357aa4b007a545c4b9acf0b70c73c671, type: 2}
  - {fileID: 11400000, guid: c0abfe5af9845b74d953ca7f455631d5, type: 2}
  - {fileID: 11400000, guid: 4027733896dbbe0409708b40748d3416, type: 2}
  - {fileID: 11400000, guid: 419c8c5e428dfb842a6a4f403f33e0ea, type: 2}
  - {fileID: 11400000, guid: df310bc022bd8424c858f12c2c9a55ee, type: 2}
