%YAML 1.1
%TAG !u! tag:unity3d.com,2011:
--- !u!114 &11400000
MonoBehaviour:
  m_ObjectHideFlags: 0
  m_CorrespondingSourceObject: {fileID: 0}
  m_PrefabInstance: {fileID: 0}
  m_PrefabAsset: {fileID: 0}
  m_GameObject: {fileID: 0}
  m_Enabled: 1
  m_EditorHideFlags: 0
  m_Script: {fileID: 11500000, guid: 879c73f26c7ad684399a6dd8ce2da619, type: 3}
  m_Name: 19_22
  m_EditorClassIdentifier: 
  x: 19
  z: 22
  sectorSize: 200
  center: {x: 3900, y: 4500}
  targetTerrain: {fileID: 0}
  objectDatas:
  - {fileID: 11400000, guid: 0bea3d11e5633654a883a140d7858cf0, type: 2}
  - {fileID: 11400000, guid: fcd52619e14a02e479d9c60414997652, type: 2}
  - {fileID: 11400000, guid: 1472199025196444b83a593e64eb602c, type: 2}
  - {fileID: 11400000, guid: 868685c3083bdb543af3351463b22d83, type: 2}
  - {fileID: 11400000, guid: 6bf8f8826d26a0d438f2cf34d571dc96, type: 2}
  - {fileID: 11400000, guid: a233fcbb6d988294bbcc3bfd54127e90, type: 2}
  - {fileID: 11400000, guid: 5087a49f7e0f3cc4d9d68cb7b2919e45, type: 2}
  - {fileID: 11400000, guid: 2f0ab83ce2e35db4a8f78365d972a512, type: 2}
  - {fileID: 11400000, guid: e398c1777f6381a449e498a46b449bf5, type: 2}
  - {fileID: 11400000, guid: 0c1b580bc0623ca49aa778330ea81310, type: 2}
  - {fileID: 11400000, guid: ada1b8398d21e59429efc2b952b7535d, type: 2}
  - {fileID: 11400000, guid: 2b5db85fa58e0704299ee4f36d185fd9, type: 2}
  - {fileID: 11400000, guid: 84443539cf961cc479601443c536b250, type: 2}
  - {fileID: 11400000, guid: ef372b1a96a20e840b54188faef52c20, type: 2}
  - {fileID: 11400000, guid: 28caa3eaf5c4ee744ae084e807ebae77, type: 2}
  - {fileID: 11400000, guid: 31cb2660806bc8541a266dc9f0df5aac, type: 2}
  - {fileID: 11400000, guid: 782e87df7922c1b4aa7fb257f49a0628, type: 2}
  - {fileID: 11400000, guid: a8d8ab486b99eb04a96f5f4cdc0bfc2e, type: 2}
  - {fileID: 11400000, guid: 314d751fcb719484bb347f85398c6d09, type: 2}
  - {fileID: 11400000, guid: 842f2f4d5751b00438f56cc31681b8a3, type: 2}
  - {fileID: 11400000, guid: bf5a83b1939257d46be8284fe856ff6f, type: 2}
  - {fileID: 11400000, guid: a2146f007075a8c47b1a7a6bd5d99dc5, type: 2}
  - {fileID: 11400000, guid: 7f89ec43b4ef8994f81371dd79bedb54, type: 2}
  - {fileID: 11400000, guid: c5a64a2d549937e47b566c189b784587, type: 2}
  - {fileID: 11400000, guid: 080cb735bdb258b419b74bcab4459fbe, type: 2}
  - {fileID: 11400000, guid: ed5a80d3573c540459dc45cfa825dde9, type: 2}
  - {fileID: 11400000, guid: 82a5886c4b0bfbe4cb2da91b9e6acd81, type: 2}
  - {fileID: 11400000, guid: bbeb2f7145e71bd4c9083d676425fc32, type: 2}
  - {fileID: 11400000, guid: 6be6e633c022bbb4e9bd3ceff80d561d, type: 2}
  - {fileID: 11400000, guid: 5a857ffebaab19340817cb3e615566ac, type: 2}
  - {fileID: 11400000, guid: d30d326b9550f2b47b2a7dc03dd86ee9, type: 2}
  - {fileID: 11400000, guid: b11fee26abf43654f971f907b313e5bd, type: 2}
  - {fileID: 11400000, guid: c64521e08b98ee342b01f6f5f461062e, type: 2}
  - {fileID: 11400000, guid: bcec82585ce19f44697059d195295925, type: 2}
  - {fileID: 11400000, guid: 37e6fb8312d92254dbe986d77d3cdf80, type: 2}
  - {fileID: 11400000, guid: a7c35c0f3b7974841b03869513e82618, type: 2}
  - {fileID: 11400000, guid: f4afeed442ad997469e4f7bd20aab9c2, type: 2}
  - {fileID: 11400000, guid: 0385c4dd298b10347bed396c1787c65c, type: 2}
  - {fileID: 11400000, guid: 52c11a9761c8a7e47b3491bb8873f58c, type: 2}
  - {fileID: 11400000, guid: a769533a31de2eb4aabc7d75b12e611f, type: 2}
  - {fileID: 11400000, guid: f1185b98230044c4283ec38a6929fee6, type: 2}
  - {fileID: 11400000, guid: d3cf654b0554dd747b435c95af1429c7, type: 2}
  - {fileID: 11400000, guid: 20f601a73f80c9347aa767f59a543efc, type: 2}
  - {fileID: 11400000, guid: dbf6c91380a766e4783b7b4eb3e440fb, type: 2}
  - {fileID: 11400000, guid: 83e224dcbfba3ec4480a531c9d9cd230, type: 2}
  - {fileID: 11400000, guid: db8c2088b84f0d74d8db09ead0aacd0e, type: 2}
  - {fileID: 11400000, guid: 1d5ed50146887704eb0c5216ca1017c2, type: 2}
  - {fileID: 11400000, guid: 5aa029e5838e27e439c7ddca94dba858, type: 2}
  - {fileID: 11400000, guid: 37c488140eed6c642a24b6edcf514432, type: 2}
  - {fileID: 11400000, guid: 8ed09ed05d0aa704ca9cc71870d9dba4, type: 2}
  - {fileID: 11400000, guid: 9cf9e36f0b003174b9236cc053265642, type: 2}
  - {fileID: 11400000, guid: 2605d6d880eb997478fae7c66996e17c, type: 2}
  - {fileID: 11400000, guid: 5eb3dfa241ae8884192cbe09429954cf, type: 2}
  - {fileID: 11400000, guid: 1967625e46995294f89b5c950a8e1e23, type: 2}
  - {fileID: 11400000, guid: 71c8a5ac3269f76479926777eecec805, type: 2}
  - {fileID: 11400000, guid: 33b52262a1cf60746b618f404bcdcc6f, type: 2}
  - {fileID: 11400000, guid: 48a22632987376a45b374f0703589e12, type: 2}
  - {fileID: 11400000, guid: 897c31296c47a8140a5da8acb02b83c4, type: 2}
  - {fileID: 11400000, guid: dfe46f38b17e504499850b8ea37d2644, type: 2}
  - {fileID: 11400000, guid: 6edd87290dbb8904ea99c5353e3386b6, type: 2}
  - {fileID: 11400000, guid: 5f9821d586ba494429a8a94dd035e9d4, type: 2}
  - {fileID: 11400000, guid: 5e1d04ce188fa87489869d76ada3c01c, type: 2}
  - {fileID: 11400000, guid: 1c5da568a7dadba4486e421dd7e85203, type: 2}
  - {fileID: 11400000, guid: 93e5a9f1f8673fc40baaccd7fb984386, type: 2}
  - {fileID: 11400000, guid: 6b742cfa29241c2459ec4c416a0e5b54, type: 2}
  - {fileID: 11400000, guid: a4600a3d0c886344b8fb7f5704254461, type: 2}
  - {fileID: 11400000, guid: 0e0e9a64fd2f2114099e0b81d63ffc71, type: 2}
  - {fileID: 11400000, guid: 9b3d8d029071b7247b1da406da159310, type: 2}
  - {fileID: 11400000, guid: 7c2fdf68d45dc03459faa4f13b5b9d11, type: 2}
  - {fileID: 11400000, guid: 6a4a68ddafe372e4da33d5ee0b85e2da, type: 2}
  - {fileID: 11400000, guid: 0241fa07de0d8734d827ce4e67e09896, type: 2}
  - {fileID: 11400000, guid: 93a3a9cee85e4344896eb54ced7b901d, type: 2}
  - {fileID: 11400000, guid: 80d2a5c8a9f14e64699fbbc581a20017, type: 2}
  - {fileID: 11400000, guid: bc507f450e8328b4bb8513f444ad63de, type: 2}
  - {fileID: 11400000, guid: 5054bae6cab718d43a833ebec0f3033b, type: 2}
  - {fileID: 11400000, guid: 50b7efddac2d01848b3c31af49c996d6, type: 2}
  - {fileID: 11400000, guid: 6e45956b2f8e3c249b04eb9b02841219, type: 2}
  - {fileID: 11400000, guid: 7a19b6473bda6c342bfe30d6f895bc2a, type: 2}
  - {fileID: 11400000, guid: 2e6ee5acca16bca47900493955817b3e, type: 2}
  - {fileID: 11400000, guid: bed7fffff049492499d933b7090b0357, type: 2}
  - {fileID: 11400000, guid: 995498374b31393498c380550faf5c08, type: 2}
  - {fileID: 11400000, guid: cbb582003a3ff3c4b95cc513337e4192, type: 2}
