%YAML 1.1
%TAG !u! tag:unity3d.com,2011:
--- !u!114 &11400000
MonoBehaviour:
  m_ObjectHideFlags: 0
  m_CorrespondingSourceObject: {fileID: 0}
  m_PrefabInstance: {fileID: 0}
  m_PrefabAsset: {fileID: 0}
  m_GameObject: {fileID: 0}
  m_Enabled: 1
  m_EditorHideFlags: 0
  m_Script: {fileID: 11500000, guid: 879c73f26c7ad684399a6dd8ce2da619, type: 3}
  m_Name: 19_23
  m_EditorClassIdentifier: 
  x: 19
  z: 23
  sectorSize: 200
  center: {x: 3900, y: 4700}
  targetTerrain: {fileID: 0}
  objectDatas:
  - {fileID: 11400000, guid: f41e476c569bad543bca519b2fafb27b, type: 2}
