%YAML 1.1
%TAG !u! tag:unity3d.com,2011:
--- !u!114 &11400000
MonoBehaviour:
  m_ObjectHideFlags: 0
  m_CorrespondingSourceObject: {fileID: 0}
  m_PrefabInstance: {fileID: 0}
  m_PrefabAsset: {fileID: 0}
  m_GameObject: {fileID: 0}
  m_Enabled: 1
  m_EditorHideFlags: 0
  m_Script: {fileID: 11500000, guid: 879c73f26c7ad684399a6dd8ce2da619, type: 3}
  m_Name: 1_2
  m_EditorClassIdentifier: 
  x: 1
  z: 2
  sectorSize: 200
  center: {x: 300, y: 500}
  targetTerrain: {fileID: 0}
  objectDatas:
  - {fileID: 11400000, guid: bc5fae51e956f8944b466f6cb5add53f, type: 2}
  - {fileID: 11400000, guid: aa0750144fcd4a64a930f7c7cb152b0a, type: 2}
  - {fileID: 11400000, guid: 71b3bffa1e96aee48be995f1bb0b27c1, type: 2}
  - {fileID: 11400000, guid: ac714ab06cc8170428aa27fbe8a83486, type: 2}
  - {fileID: 11400000, guid: 21d5b23e63c7e7c43b681151908959d3, type: 2}
  - {fileID: 11400000, guid: 5bd4fdd92a541ab40ba90faa7f29220a, type: 2}
  - {fileID: 11400000, guid: 0ee7b36cc1c19a64bb7d9915c80f8669, type: 2}
  - {fileID: 11400000, guid: 2b69b11e4c9c6c94b812ad42c00ba69b, type: 2}
  - {fileID: 11400000, guid: 471b6dc258078ff40a871fb661c71bf6, type: 2}
  - {fileID: 11400000, guid: 53864ac3667f2d04dad89cfe6295cb07, type: 2}
  - {fileID: 11400000, guid: b6d6fc1fb9d5b084ab8ed19117b843be, type: 2}
  - {fileID: 11400000, guid: 6cd5237ab4914d54e85d1f7d2a573e47, type: 2}
  - {fileID: 11400000, guid: 0458281dc0c118e46ad6a7b02ebb7f17, type: 2}
  - {fileID: 11400000, guid: 14bec386270794a4294ad62b8998545a, type: 2}
  - {fileID: 11400000, guid: 8e54e017b0baeee42ad820c47d4cc5cc, type: 2}
  - {fileID: 11400000, guid: 643eebf27c14a1c4b98321f043a345c3, type: 2}
  - {fileID: 11400000, guid: 7c16095355f377d4a9ecd25ec330c464, type: 2}
  - {fileID: 11400000, guid: b89bc6a420be178479846dbc04ff4acc, type: 2}
  - {fileID: 11400000, guid: f5c3113b5b31272479cb305745dfcf09, type: 2}
  - {fileID: 11400000, guid: 803d4fda78a62364abeba20cf93954eb, type: 2}
  - {fileID: 11400000, guid: 0c16f05493cecba409b0180e3e2469fe, type: 2}
  - {fileID: 11400000, guid: 36ae5fbbdba8f5647a7bb42e99fdcb94, type: 2}
  - {fileID: 11400000, guid: b382115ba5146fb48875d5006d188949, type: 2}
  - {fileID: 11400000, guid: c667fe4307b19454d856062051937cba, type: 2}
  - {fileID: 11400000, guid: fec5db1057f3c6944a39ca4f607dbb40, type: 2}
  - {fileID: 11400000, guid: af92df3152830994d9f30862c089ce99, type: 2}
  - {fileID: 11400000, guid: d961d0cda6419d241a7df2f4b2e678a6, type: 2}
  - {fileID: 11400000, guid: eea708c6b94f9e64b956653f9fbcc179, type: 2}
  - {fileID: 11400000, guid: 590f739f27495d14799a9ff099a2630e, type: 2}
  - {fileID: 11400000, guid: a9b326927ddbaa142a1f287ef4e7a30c, type: 2}
  - {fileID: 11400000, guid: dbb5c3baf28c9db4ebb5bf746d61828d, type: 2}
  - {fileID: 11400000, guid: 519f9eeb3072b60499178d623d0676e3, type: 2}
  - {fileID: 11400000, guid: c0afbd7a51ab58b4783802e836950b80, type: 2}
  - {fileID: 11400000, guid: 95cc086735ba0964f9d932b9f9ca17a4, type: 2}
  - {fileID: 11400000, guid: 644ee4743a70e444584f3a0b774ac273, type: 2}
  - {fileID: 11400000, guid: efa58c0812408df4f918d4b556b83c8e, type: 2}
  - {fileID: 11400000, guid: da07f1a8ad830fc468b6ea43f5edab6f, type: 2}
  - {fileID: 11400000, guid: 8e8e886eaea58e84eaf39688227232e0, type: 2}
  - {fileID: 11400000, guid: 8d75b899ee8c0b04dad14dd43b170d07, type: 2}
  - {fileID: 11400000, guid: fda5cb4560df0004b869bd0d6a4f03a1, type: 2}
  - {fileID: 11400000, guid: 6ad400dbc95071c439bfeeb2e5228a82, type: 2}
  - {fileID: 11400000, guid: ac7443e5588141944994080c67f72d8f, type: 2}
  - {fileID: 11400000, guid: 3a2d8766a648dea43be794665b6b6748, type: 2}
  - {fileID: 11400000, guid: 37ef145f17f76f24bb535dd260ef46ea, type: 2}
  - {fileID: 11400000, guid: 5008de220cfddfa43818ddb60e00b66d, type: 2}
  - {fileID: 11400000, guid: ccf2c52f135abcc45bd27beae7bc2f8c, type: 2}
  - {fileID: 11400000, guid: 1f15bc61551e79644a0dcde6289f2f54, type: 2}
  - {fileID: 11400000, guid: 70632be823862884586f12f3b1d64d01, type: 2}
  - {fileID: 11400000, guid: bec1ab33b66c41a4b994783ef599ec64, type: 2}
  - {fileID: 11400000, guid: 736abaa467371fa44adf1fef1be37658, type: 2}
  - {fileID: 11400000, guid: c76b03b96cbd2bc408c7fa76986155cc, type: 2}
  - {fileID: 11400000, guid: c8a98e5c7d2885f48b8209fc7575555b, type: 2}
  - {fileID: 11400000, guid: f890c29fa3859944d81758af36bbec96, type: 2}
  - {fileID: 11400000, guid: 80b58c085bc41ef428cef6c5ffa291e5, type: 2}
  - {fileID: 11400000, guid: 63e94cc2f570d144d944af7e99d9b3cd, type: 2}
  - {fileID: 11400000, guid: e2c45250add49c54f97fbaddddfb892d, type: 2}
  - {fileID: 11400000, guid: 190c1e9f4ce75104aba0b47c5a731788, type: 2}
  - {fileID: 11400000, guid: db113de050251a942ba56c483c24d944, type: 2}
  - {fileID: 11400000, guid: d0e104c3fc63f9e468d55c99671b23f2, type: 2}
