%YAML 1.1
%TAG !u! tag:unity3d.com,2011:
--- !u!114 &11400000
MonoBehaviour:
  m_ObjectHideFlags: 0
  m_CorrespondingSourceObject: {fileID: 0}
  m_PrefabInstance: {fileID: 0}
  m_PrefabAsset: {fileID: 0}
  m_GameObject: {fileID: 0}
  m_Enabled: 1
  m_EditorHideFlags: 0
  m_Script: {fileID: 11500000, guid: 879c73f26c7ad684399a6dd8ce2da619, type: 3}
  m_Name: 2_2
  m_EditorClassIdentifier: 
  x: 2
  z: 2
  sectorSize: 200
  center: {x: 500, y: 500}
  targetTerrain: {fileID: 0}
  objectDatas:
  - {fileID: 11400000, guid: b1c3552e47fe21f44873ab2cec99db9c, type: 2}
  - {fileID: 11400000, guid: f889e09363311084babb030bd82434af, type: 2}
  - {fileID: 11400000, guid: c616de5f1711e51499ec11cccd6f1355, type: 2}
  - {fileID: 11400000, guid: dd282248194bb2f48b612eb70fe6875b, type: 2}
  - {fileID: 11400000, guid: d2b2d39a82226664d9a91f18ec4fc0e9, type: 2}
  - {fileID: 11400000, guid: 57747d05194e7b54abfa9c09f2f565f4, type: 2}
  - {fileID: 11400000, guid: 08d3e048dccb7d448aa27229b20ba703, type: 2}
  - {fileID: 11400000, guid: 4c62d12382f75f94681640d110f8d733, type: 2}
  - {fileID: 11400000, guid: 8666c8fd4ef5a824f8ecf30a18c34c70, type: 2}
  - {fileID: 11400000, guid: 942ecda90392b9c4aa14b4f85ab902da, type: 2}
  - {fileID: 11400000, guid: 1da8dcdab77e5774a8ceb79646d6db43, type: 2}
  - {fileID: 11400000, guid: 86ce194fd07b5b14cb80ee392fc47d42, type: 2}
  - {fileID: 11400000, guid: 857928ad43f3fae4fba6d58e7ef12ddc, type: 2}
  - {fileID: 11400000, guid: 08a509bc5fa8432499726d31d1b925f3, type: 2}
  - {fileID: 11400000, guid: ed4fa4e3f50039144b557628ae62698f, type: 2}
  - {fileID: 11400000, guid: 983721b83f7fc3644a3a087f7b7dbe76, type: 2}
  - {fileID: 11400000, guid: bca2efb008160404483842bf374335b3, type: 2}
  - {fileID: 11400000, guid: 0d37f6bec95a7c9409f6cde83d26919c, type: 2}
  - {fileID: 11400000, guid: 15b86ec8af48b6945a9d7eeb69428212, type: 2}
  - {fileID: 11400000, guid: 46c2d1ef8245ed747b77e4e17b286b20, type: 2}
  - {fileID: 11400000, guid: 43efcc328fb48d849826d4e286489fae, type: 2}
  - {fileID: 11400000, guid: 8309721966ff9f34898ac07f3d25d21b, type: 2}
  - {fileID: 11400000, guid: e36e8bad128a74149951f4f2ebf856aa, type: 2}
  - {fileID: 11400000, guid: ef03d288689bece48a3ee34db906a8f2, type: 2}
  - {fileID: 11400000, guid: 493a2d7ac9fae9c41ae27585b290d3c9, type: 2}
  - {fileID: 11400000, guid: f9281b5e13558cc4abd19270aa15b864, type: 2}
  - {fileID: 11400000, guid: dd36674e0ec3c9e40a4c4a493722cbe1, type: 2}
  - {fileID: 11400000, guid: 5609ef338edc1834b8ca685f19014508, type: 2}
  - {fileID: 11400000, guid: 6b3507626c39d22479bee95eabf1e6fa, type: 2}
  - {fileID: 11400000, guid: 321ec47625845f04fbd9a8c80c867948, type: 2}
  - {fileID: 11400000, guid: 13ab4ae81aef0ca43869e0589fcf7d35, type: 2}
  - {fileID: 11400000, guid: 87f6f5a7dd39a2f44b2728aabda0f5e6, type: 2}
  - {fileID: 11400000, guid: ae83df797b511084a89a106031ba21d5, type: 2}
  - {fileID: 11400000, guid: 45d835bc70d53ee479a5514842745071, type: 2}
  - {fileID: 11400000, guid: aaf8fecd3cd1de049935ff94d684b493, type: 2}
  - {fileID: 11400000, guid: b9bf204d8da2e754dba9f25868a6c655, type: 2}
  - {fileID: 11400000, guid: 9dd21bce314a79145b214cfa0e486df3, type: 2}
  - {fileID: 11400000, guid: 800420470c6b1684097124e921e1b334, type: 2}
  - {fileID: 11400000, guid: bdd6165e2aabc9a4e83dd661a9e88865, type: 2}
  - {fileID: 11400000, guid: 6345473eae0f81f409141fd624d30d34, type: 2}
  - {fileID: 11400000, guid: e928e3b93ffc96247a05edffb2b0ce04, type: 2}
  - {fileID: 11400000, guid: 22b832ab788e9c94d96359f35bf49f36, type: 2}
  - {fileID: 11400000, guid: 09179a19e231d614583173cb579d8efd, type: 2}
  - {fileID: 11400000, guid: 52e1da3e804e4bc45b0634f19f34363a, type: 2}
