%YAML 1.1
%TAG !u! tag:unity3d.com,2011:
--- !u!114 &11400000
MonoBehaviour:
  m_ObjectHideFlags: 0
  m_CorrespondingSourceObject: {fileID: 0}
  m_PrefabInstance: {fileID: 0}
  m_PrefabAsset: {fileID: 0}
  m_GameObject: {fileID: 0}
  m_Enabled: 1
  m_EditorHideFlags: 0
  m_Script: {fileID: 11500000, guid: 879c73f26c7ad684399a6dd8ce2da619, type: 3}
  m_Name: 2_9
  m_EditorClassIdentifier: 
  x: 2
  z: 9
  sectorSize: 200
  center: {x: 500, y: 1900}
  targetTerrain: {fileID: 0}
  objectDatas:
  - {fileID: 11400000, guid: a1d59a252e976724c8e6d1124658dbac, type: 2}
  - {fileID: 11400000, guid: 2ab367f0652de134ea47cc29ed265d93, type: 2}
  - {fileID: 11400000, guid: 0f0f4bdd563859d47b930a2a69804ae7, type: 2}
  - {fileID: 11400000, guid: 35ddfb32445efe84f922638aef3256ba, type: 2}
  - {fileID: 11400000, guid: 0576ebc62118d6046ad5231e4d406e0c, type: 2}
  - {fileID: 11400000, guid: 9e145921eef6c9a4a8eba1b11b75adf8, type: 2}
  - {fileID: 11400000, guid: 8aec36df3b13abe4a84a120049e034b4, type: 2}
  - {fileID: 11400000, guid: 4232ae20a30184c4a870d7ca400b6e4a, type: 2}
  - {fileID: 11400000, guid: e54a3b207e5b6c7468ca495f0821ddc1, type: 2}
  - {fileID: 11400000, guid: 509c193582d7049488213a9c1c7c22cb, type: 2}
  - {fileID: 11400000, guid: 5626874dffe19024aa12d80080b9d868, type: 2}
  - {fileID: 11400000, guid: 9bf5a144cafac884b9920bd45a0a82bb, type: 2}
  - {fileID: 11400000, guid: a0c49de43530d9a42ab3701ff050cc95, type: 2}
  - {fileID: 11400000, guid: 67b0e6ea4095d53409e1ee1bf2d9bfe6, type: 2}
  - {fileID: 11400000, guid: e45c8d8c326870b4c91f523295bc3fd4, type: 2}
  - {fileID: 11400000, guid: fb8c6708b522a4848834721d80f7146f, type: 2}
  - {fileID: 11400000, guid: f6ebde508250e1d4aae88f390cdac4b9, type: 2}
