%YAML 1.1
%TAG !u! tag:unity3d.com,2011:
--- !u!114 &11400000
MonoBehaviour:
  m_ObjectHideFlags: 0
  m_CorrespondingSourceObject: {fileID: 0}
  m_PrefabInstance: {fileID: 0}
  m_PrefabAsset: {fileID: 0}
  m_GameObject: {fileID: 0}
  m_Enabled: 1
  m_EditorHideFlags: 0
  m_Script: {fileID: 11500000, guid: 879c73f26c7ad684399a6dd8ce2da619, type: 3}
  m_Name: 3_6
  m_EditorClassIdentifier: 
  x: 3
  z: 6
  sectorSize: 200
  center: {x: 700, y: 1300}
  targetTerrain: {fileID: 0}
  objectDatas:
  - {fileID: 11400000, guid: eed10099eaf6a394da70a05611eba282, type: 2}
  - {fileID: 11400000, guid: 0ecb35e4351672f498ab6a8a0331b0e8, type: 2}
  - {fileID: 11400000, guid: c55ff84920a0b7f479c30a65ae03e38d, type: 2}
  - {fileID: 11400000, guid: 889398619a1a46c438a1404270cd6109, type: 2}
  - {fileID: 11400000, guid: 255025a8840090d4babf3d50acf5d506, type: 2}
  - {fileID: 11400000, guid: da7420557c5fd3149b043a3e999c6cd5, type: 2}
  - {fileID: 11400000, guid: 1bc1412220fd8c54f8b7336775e0fe01, type: 2}
  - {fileID: 11400000, guid: 03f9dad8cd93da34ea1fafef5af3ac48, type: 2}
  - {fileID: 11400000, guid: 29261358cb5e38547a5bcac9fa853105, type: 2}
  - {fileID: 11400000, guid: 637f892ef011e7e4fbad3d848b410d79, type: 2}
  - {fileID: 11400000, guid: cc49caf165f34d548a0fc4ea59188e9f, type: 2}
  - {fileID: 11400000, guid: b37c3ad567ef9f64ea63273bc0e625f1, type: 2}
  - {fileID: 11400000, guid: 2ce1b48cc0edd2443a99c0150d40c3db, type: 2}
  - {fileID: 11400000, guid: 18b3a039bc75d7a4e89b05f8aac040fe, type: 2}
  - {fileID: 11400000, guid: e2411ca83bfb48d4aa61eef4d7bf2b85, type: 2}
  - {fileID: 11400000, guid: c5cf1615f70f1364e97ba9729ed76fa8, type: 2}
  - {fileID: 11400000, guid: d4df5663fd899764ca4e6cc189cbfec8, type: 2}
  - {fileID: 11400000, guid: bb246d399e9109b4b863b824a14ddb6d, type: 2}
  - {fileID: 11400000, guid: 70bd1c4e04abed34694804e8c538ef88, type: 2}
