%YAML 1.1
%TAG !u! tag:unity3d.com,2011:
--- !u!114 &11400000
MonoBehaviour:
  m_ObjectHideFlags: 0
  m_CorrespondingSourceObject: {fileID: 0}
  m_PrefabInstance: {fileID: 0}
  m_PrefabAsset: {fileID: 0}
  m_GameObject: {fileID: 0}
  m_Enabled: 1
  m_EditorHideFlags: 0
  m_Script: {fileID: 11500000, guid: 879c73f26c7ad684399a6dd8ce2da619, type: 3}
  m_Name: 4_11
  m_EditorClassIdentifier: 
  x: 4
  z: 11
  sectorSize: 200
  center: {x: 900, y: 2300}
  targetTerrain: {fileID: 0}
  objectDatas:
  - {fileID: 11400000, guid: 208fd519b79ef1d4fb491d04804a91a2, type: 2}
  - {fileID: 11400000, guid: 3ec45f0cb7a0895449e61072dd86874a, type: 2}
  - {fileID: 11400000, guid: f707ed8b55475054c9f9b5eb6df53cba, type: 2}
  - {fileID: 11400000, guid: 88f2a8ebc86b71f4f8eed27603051b64, type: 2}
  - {fileID: 11400000, guid: 5c73af23a91c301438cdd8a1a9a40f62, type: 2}
