%YAML 1.1
%TAG !u! tag:unity3d.com,2011:
--- !u!114 &11400000
MonoBehaviour:
  m_ObjectHideFlags: 0
  m_CorrespondingSourceObject: {fileID: 0}
  m_PrefabInstance: {fileID: 0}
  m_PrefabAsset: {fileID: 0}
  m_GameObject: {fileID: 0}
  m_Enabled: 1
  m_EditorHideFlags: 0
  m_Script: {fileID: 11500000, guid: 879c73f26c7ad684399a6dd8ce2da619, type: 3}
  m_Name: 4_12
  m_EditorClassIdentifier: 
  x: 4
  z: 12
  sectorSize: 200
  center: {x: 900, y: 2500}
  targetTerrain: {fileID: 0}
  objectDatas:
  - {fileID: 11400000, guid: aa831f93232af3348861b09904aa816c, type: 2}
  - {fileID: 11400000, guid: 3db7c333cfee23941987d4a6c04e2550, type: 2}
  - {fileID: 11400000, guid: 5856b3f7275b1ab42aa2999a9d91cecd, type: 2}
  - {fileID: 11400000, guid: 1e6844fd81f9f004e8ef35a585ce67af, type: 2}
  - {fileID: 11400000, guid: d13cbf24e7d5d9a4baf0e84b34f19f96, type: 2}
  - {fileID: 11400000, guid: 1c1979fd338f8f34aaa124038d8e7940, type: 2}
  - {fileID: 11400000, guid: 0251f9c76a157bb49ba28a1b06986ee7, type: 2}
  - {fileID: 11400000, guid: ea7654c4fdfeb084f9c58a1a8de3199a, type: 2}
