%YAML 1.1
%TAG !u! tag:unity3d.com,2011:
--- !u!114 &11400000
MonoBehaviour:
  m_ObjectHideFlags: 0
  m_CorrespondingSourceObject: {fileID: 0}
  m_PrefabInstance: {fileID: 0}
  m_PrefabAsset: {fileID: 0}
  m_GameObject: {fileID: 0}
  m_Enabled: 1
  m_EditorHideFlags: 0
  m_Script: {fileID: 11500000, guid: 879c73f26c7ad684399a6dd8ce2da619, type: 3}
  m_Name: 4_2
  m_EditorClassIdentifier: 
  x: 4
  z: 2
  sectorSize: 200
  center: {x: 900, y: 500}
  targetTerrain: {fileID: 0}
  objectDatas:
  - {fileID: 11400000, guid: c54b3c0f8fcf11b49aad05e4419fd507, type: 2}
  - {fileID: 11400000, guid: 70245986b15807b4b9a6b8e9527f200d, type: 2}
  - {fileID: 11400000, guid: 4a8f5520bf4d9144e855a94469367045, type: 2}
  - {fileID: 11400000, guid: 1958c74e97941814b9a6b3d898c5b33d, type: 2}
  - {fileID: 11400000, guid: 38a9fa5a6bee5cb448c72826ad56db2f, type: 2}
  - {fileID: 11400000, guid: c89c492137c5bf6458c960672cadffed, type: 2}
  - {fileID: 11400000, guid: fbe4226654f643c459b69bd0ec1864c9, type: 2}
  - {fileID: 11400000, guid: ae25c2b4858c3794e8fbb142a02a2a55, type: 2}
  - {fileID: 11400000, guid: 32b7bd0e89c74084a95da109a20aad46, type: 2}
  - {fileID: 11400000, guid: 671eb73a11cadb0449f001c3b845c1b5, type: 2}
  - {fileID: 11400000, guid: be1ebfb3e0ef7ad4ea136ced13159f7e, type: 2}
  - {fileID: 11400000, guid: eb247d2b9255c344493c8ddaea65a650, type: 2}
  - {fileID: 11400000, guid: f0dc9ca8adae5c94e9ded8c9761d544a, type: 2}
  - {fileID: 11400000, guid: 292f2c35952425c4d9d451a29fe0f3d1, type: 2}
  - {fileID: 11400000, guid: 2fe725270837db54d895059dec02228e, type: 2}
  - {fileID: 11400000, guid: a08673f51bf76bc458759534e4beeb9e, type: 2}
  - {fileID: 11400000, guid: aedb69d2b6aaf624e854284cc5a3c9bf, type: 2}
  - {fileID: 11400000, guid: e21ad2080915cf84dbaac36ad7534ab4, type: 2}
  - {fileID: 11400000, guid: 535f099d031f70847a5b05c0ca7cb8ea, type: 2}
  - {fileID: 11400000, guid: 807051f7d00a9c54e9fe6e9c76b161eb, type: 2}
  - {fileID: 11400000, guid: dac47433080366542aa7aea964a4a958, type: 2}
  - {fileID: 11400000, guid: b285694ee193da046ac53cb951fd9915, type: 2}
  - {fileID: 11400000, guid: 9cdeb2e3f8907864e893e9e75e577838, type: 2}
  - {fileID: 11400000, guid: 92a517f72118ddf4ebe399e4a676c7f1, type: 2}
  - {fileID: 11400000, guid: 32108e6c8845efb478f7c5a7934e9e40, type: 2}
  - {fileID: 11400000, guid: 653123c0cac9e114393151c02ae03ef0, type: 2}
