%YAML 1.1
%TAG !u! tag:unity3d.com,2011:
--- !u!114 &11400000
MonoBehaviour:
  m_ObjectHideFlags: 0
  m_CorrespondingSourceObject: {fileID: 0}
  m_PrefabInstance: {fileID: 0}
  m_PrefabAsset: {fileID: 0}
  m_GameObject: {fileID: 0}
  m_Enabled: 1
  m_EditorHideFlags: 0
  m_Script: {fileID: 11500000, guid: 879c73f26c7ad684399a6dd8ce2da619, type: 3}
  m_Name: 6_13
  m_EditorClassIdentifier: 
  x: 6
  z: 13
  sectorSize: 200
  center: {x: 1300, y: 2700}
  targetTerrain: {fileID: 0}
  objectDatas:
  - {fileID: 11400000, guid: 23b80e0881d8da34b985153df9901ee9, type: 2}
  - {fileID: 11400000, guid: d73bbbc0d3a8dbd4089927fd3074a2d9, type: 2}
  - {fileID: 11400000, guid: 1d0d63883d2302d45a9343561fb96ff6, type: 2}
  - {fileID: 11400000, guid: a62ba79a904bbdb488be750452c4b2bb, type: 2}
  - {fileID: 11400000, guid: b5649f9b325ccb049ad59ff544bcd95d, type: 2}
  - {fileID: 11400000, guid: 87b09e05f9cc52d449b38d64cb8f6af2, type: 2}
  - {fileID: 11400000, guid: 6638b3e654fba094dbfb6fea02f36e15, type: 2}
  - {fileID: 11400000, guid: 1ec7e6f778fef3e4dae25ce3912e0f47, type: 2}
  - {fileID: 11400000, guid: db007051dfc1afe4f90fadbca0b93c07, type: 2}
  - {fileID: 11400000, guid: 4ae845f1a165a2b46b74677a4794e9f5, type: 2}
  - {fileID: 11400000, guid: 490363f55b008c74b971a30a1e1eb1fc, type: 2}
  - {fileID: 11400000, guid: 9e84d9332ae57234b9925584db6b2436, type: 2}
  - {fileID: 11400000, guid: 7c26e7a3a5eb0c844adff8f5cf7434ed, type: 2}
  - {fileID: 11400000, guid: a4b63349811ef3846961bac0c0b18628, type: 2}
  - {fileID: 11400000, guid: 8688e3bef341c3348851f9f8604f074d, type: 2}
  - {fileID: 11400000, guid: d7ac1e2b77d115c4e8672fe7cc09d69e, type: 2}
  - {fileID: 11400000, guid: 2f02559e0ee5f114ba7eeed0b56cdcf5, type: 2}
  - {fileID: 11400000, guid: a1f3a1b2b8b47a84093678edcaed1a35, type: 2}
  - {fileID: 11400000, guid: 21010817b53d25f499e8c83e33d9af02, type: 2}
  - {fileID: 11400000, guid: 28d38b7ccb268bf47b4e7dfa2bfcdc87, type: 2}
  - {fileID: 11400000, guid: 9063266c446bb594f86cf1be16057026, type: 2}
  - {fileID: 11400000, guid: a68f82f39525c674685e4f6f1ab9d76b, type: 2}
  - {fileID: 11400000, guid: 4685a87e3547e57439caada079d4b3cf, type: 2}
  - {fileID: 11400000, guid: b101bb9274822d647b32f68f58ce4e29, type: 2}
  - {fileID: 11400000, guid: 9dbe5a8f7e90fb441be131f494e7d6bc, type: 2}
  - {fileID: 11400000, guid: bbbbb128bc0a54442bbd272b44cb76c5, type: 2}
  - {fileID: 11400000, guid: d5f9dd07e96c19948a68bb558051a2c5, type: 2}
  - {fileID: 11400000, guid: 2072016b87a41d84f932472131cb780c, type: 2}
  - {fileID: 11400000, guid: 39cc07083325dd94b97625a56184154e, type: 2}
  - {fileID: 11400000, guid: 4694f4cb06073834dbbd739c242fdc2c, type: 2}
  - {fileID: 11400000, guid: cf8c31f85b5897c49a79b81da5ce2029, type: 2}
  - {fileID: 11400000, guid: 7e48a2852836c5940835bcf08b47ba0c, type: 2}
  - {fileID: 11400000, guid: daf9d14540869ac4b98c3158f9db2153, type: 2}
  - {fileID: 11400000, guid: 214c8283cc38b8e48b92d09dbeb333db, type: 2}
  - {fileID: 11400000, guid: 34d21fff33eea0a41aba69d89d8433bb, type: 2}
  - {fileID: 11400000, guid: 84b0de1d4db9e1b42a68222896ccaca6, type: 2}
  - {fileID: 11400000, guid: 325ad6293ea019b4aa15e1db1b30a9b2, type: 2}
  - {fileID: 11400000, guid: 74eef170d3edfb145967019d05c3fd93, type: 2}
  - {fileID: 11400000, guid: 3588b7fc4cfee624497a5c9ea91d63fa, type: 2}
  - {fileID: 11400000, guid: 6b39e5d84ad79d542b34b67a5af90737, type: 2}
  - {fileID: 11400000, guid: 9eca4b21dfeffa9478fa6e3a92e1c93c, type: 2}
  - {fileID: 11400000, guid: 13e7fc58b70a2f54ca1c1d223b2a8349, type: 2}
  - {fileID: 11400000, guid: bd3b05764dd24ed4986b4690f03b862f, type: 2}
  - {fileID: 11400000, guid: 2f06a287c518bcf4ea56a3c378448670, type: 2}
  - {fileID: 11400000, guid: a36b3fadb2bd1804db6ed6b351e4680d, type: 2}
  - {fileID: 11400000, guid: eff1e43e46d616b4abb783e147051e8f, type: 2}
  - {fileID: 11400000, guid: 5fb975123f736be4ab778e1f259754c2, type: 2}
  - {fileID: 11400000, guid: 3fdecc30c6636ef41803e33d47421462, type: 2}
  - {fileID: 11400000, guid: 79b1e5b7c1ae6de4e978f32ae785cd92, type: 2}
  - {fileID: 11400000, guid: 27b2913dc36479244874d0e0b06704f7, type: 2}
  - {fileID: 11400000, guid: 43d7592ac0f3f5641ba1b0dd63ddaecd, type: 2}
  - {fileID: 11400000, guid: 6374ddff89efa7d4e8c053d5a65b4cdf, type: 2}
  - {fileID: 11400000, guid: b97b42b55b4bfdd478f92dc4318b4409, type: 2}
  - {fileID: 11400000, guid: ea4fb53d56dc4034492a9b7aa0980dbf, type: 2}
  - {fileID: 11400000, guid: ade96c6dcbfc5684eb2a90d5f93e01b4, type: 2}
  - {fileID: 11400000, guid: c4d38b67ead834f47822e0b2b328a4d7, type: 2}
  - {fileID: 11400000, guid: 318bca03cd0be364d9c7040a43f4fc06, type: 2}
  - {fileID: 11400000, guid: cde062bc81b381948bb1067e86273b5a, type: 2}
  - {fileID: 11400000, guid: f5d05a6990a13c8488e04305cae5b4b5, type: 2}
  - {fileID: 11400000, guid: 4380ebe28ee015748abe1b29f574618d, type: 2}
  - {fileID: 11400000, guid: cd20f2f0095990347b2c27845154f8af, type: 2}
  - {fileID: 11400000, guid: 230df3682e26f564788b433c878f7084, type: 2}
  - {fileID: 11400000, guid: ae6fec8ccb69d614fb32292e22d820d3, type: 2}
  - {fileID: 11400000, guid: be2cfee529319c0469e9fc337d0f5895, type: 2}
  - {fileID: 11400000, guid: 29ed56396632fd241bc33c9b499ffe6a, type: 2}
  - {fileID: 11400000, guid: 14486e87a52cfa74e8b8c320d149978f, type: 2}
  - {fileID: 11400000, guid: 7887e68a242590a4c869f9ff55cbffe7, type: 2}
  - {fileID: 11400000, guid: 595e5b0b6b049c940b138a54b1238bdb, type: 2}
  - {fileID: 11400000, guid: 39bca01ad9abbdd458da9691f471cbc0, type: 2}
  - {fileID: 11400000, guid: 48e561bee352baa40bb942fd243acc20, type: 2}
  - {fileID: 11400000, guid: 07bcaca4ef5070945ba57a132d57610a, type: 2}
  - {fileID: 11400000, guid: fd91a6742eb66cd4abf1abf864d939df, type: 2}
  - {fileID: 11400000, guid: a8cd8eb5c6e676a4badc2195baacaed5, type: 2}
  - {fileID: 11400000, guid: 7a75bbb7bf663394ea589d4c331a86d2, type: 2}
  - {fileID: 11400000, guid: edddf5c13d29dbb43a2c6ed6cb7bbf58, type: 2}
  - {fileID: 11400000, guid: 3e52b34307c606a489d1a1296d60a8c5, type: 2}
  - {fileID: 11400000, guid: 723acc2b434bad5469837f430df32f14, type: 2}
  - {fileID: 11400000, guid: afc1c0f76b11f904f8a6bf4a314930bf, type: 2}
  - {fileID: 11400000, guid: 548cae1ddc266a9468266d06b504fe3f, type: 2}
  - {fileID: 11400000, guid: 9f3f45eb5d3ed384daa7e978928c1162, type: 2}
  - {fileID: 11400000, guid: 62ef83b76e3541d48b9f0bc8103beabb, type: 2}
  - {fileID: 11400000, guid: e7155dcbd12880249a8e1343d853e28f, type: 2}
  - {fileID: 11400000, guid: a9565cfbb8255174fbe61f30e795a0cb, type: 2}
  - {fileID: 11400000, guid: 5148f323242c3194d99e2e40d22a875c, type: 2}
  - {fileID: 11400000, guid: b8ec1c47d38f0ea4c8559ba91eb57885, type: 2}
  - {fileID: 11400000, guid: 3e1ae01c8d5cfbd44a66a9a821d9b2ab, type: 2}
  - {fileID: 11400000, guid: d21eb1f1fc0c835419697742d7aed1ae, type: 2}
  - {fileID: 11400000, guid: 8af56d7b310c1c5498f6a26669310597, type: 2}
  - {fileID: 11400000, guid: 2d0d7affcfe33924d9e8e3eaf4b4bed8, type: 2}
  - {fileID: 11400000, guid: aaef15f66b783194faf8532a102a2a85, type: 2}
  - {fileID: 11400000, guid: fc41cdab841ef7a4aa748fbb1faabaf3, type: 2}
  - {fileID: 11400000, guid: ebb5fb562edf5e7489395f2869e503d3, type: 2}
  - {fileID: 11400000, guid: 0eeee28cc6da74f43987de9b39219974, type: 2}
  - {fileID: 11400000, guid: 86398d652fb310e498fe0c804ef45434, type: 2}
  - {fileID: 11400000, guid: 972e8bc9aabafc740a04ee23def367f6, type: 2}
  - {fileID: 11400000, guid: 9eee4a816623e9347aa0438204ec1e7f, type: 2}
  - {fileID: 11400000, guid: e59191d7516cf4f40ac568cb6baee5c8, type: 2}
  - {fileID: 11400000, guid: 221b4e9ec167c7d43873d3d720a459bc, type: 2}
  - {fileID: 11400000, guid: 1be219a4c81db3e4b89522948d2532c5, type: 2}
  - {fileID: 11400000, guid: 68dd4dd103cebf34188d6ca51d6e28ed, type: 2}
  - {fileID: 11400000, guid: 243df141f5b27ef48bcf55dc17495a24, type: 2}
  - {fileID: 11400000, guid: 94d2b5eb8fc79c642bbe6db9115625d0, type: 2}
  - {fileID: 11400000, guid: 669372ac13a797b4d8509ddf9e80daed, type: 2}
  - {fileID: 11400000, guid: 6f1a6d171957a424bab45c0db275736b, type: 2}
  - {fileID: 11400000, guid: e0087e8ec246fad42a713370ebf2b598, type: 2}
  - {fileID: 11400000, guid: a920d1353c8a1cf4eaa332a874c780fc, type: 2}
  - {fileID: 11400000, guid: 7d469e3a199c01e4499eb19998adbcbb, type: 2}
  - {fileID: 11400000, guid: 9351ee7344f683f4e82bf998bce099a0, type: 2}
  - {fileID: 11400000, guid: d73b239841777d64093246836b0fba26, type: 2}
