%YAML 1.1
%TAG !u! tag:unity3d.com,2011:
--- !u!114 &11400000
MonoBehaviour:
  m_ObjectHideFlags: 0
  m_CorrespondingSourceObject: {fileID: 0}
  m_PrefabInstance: {fileID: 0}
  m_PrefabAsset: {fileID: 0}
  m_GameObject: {fileID: 0}
  m_Enabled: 1
  m_EditorHideFlags: 0
  m_Script: {fileID: 11500000, guid: 879c73f26c7ad684399a6dd8ce2da619, type: 3}
  m_Name: 6_18
  m_EditorClassIdentifier: 
  x: 6
  z: 18
  sectorSize: 200
  center: {x: 1300, y: 3700}
  targetTerrain: {fileID: 0}
  objectDatas:
  - {fileID: 11400000, guid: 4dd532f7a8932c745a5c16f1cfc85a6e, type: 2}
  - {fileID: 11400000, guid: eb5f5945cf286a34aaa8b44930a1eeeb, type: 2}
  - {fileID: 11400000, guid: 65ad16a650e0f1240a72a2d1a9aba545, type: 2}
  - {fileID: 11400000, guid: f46eeadedd44e6f499660acd766cc7e0, type: 2}
  - {fileID: 11400000, guid: c3595d02430669e4eb477486b50ec3eb, type: 2}
  - {fileID: 11400000, guid: e29cc9ef7c6851c429d23e5dad44ccc2, type: 2}
  - {fileID: 11400000, guid: 8615124dbd0f14a4c823f6b123932496, type: 2}
  - {fileID: 11400000, guid: 1387fe811eeafb148ab1ff22570bd629, type: 2}
  - {fileID: 11400000, guid: 6435b69be63bd904f84ad552bf323060, type: 2}
  - {fileID: 11400000, guid: da5fdc52c06c59a42be4b0521b84b1e5, type: 2}
  - {fileID: 11400000, guid: 34b3e4185eb09ec48893336cce89b1ac, type: 2}
  - {fileID: 11400000, guid: e67a8f0a5122cbf4e8fc20ed713db642, type: 2}
  - {fileID: 11400000, guid: 0ac21d1ef3daec44aa24dc2f4a2f376c, type: 2}
  - {fileID: 11400000, guid: 388a49fa5fee5004b828992406613027, type: 2}
