%YAML 1.1
%TAG !u! tag:unity3d.com,2011:
--- !u!114 &11400000
MonoBehaviour:
  m_ObjectHideFlags: 0
  m_CorrespondingSourceObject: {fileID: 0}
  m_PrefabInstance: {fileID: 0}
  m_PrefabAsset: {fileID: 0}
  m_GameObject: {fileID: 0}
  m_Enabled: 1
  m_EditorHideFlags: 0
  m_Script: {fileID: 11500000, guid: 879c73f26c7ad684399a6dd8ce2da619, type: 3}
  m_Name: 9_1
  m_EditorClassIdentifier: 
  x: 9
  z: 1
  sectorSize: 200
  center: {x: 1900, y: 300}
  targetTerrain: {fileID: 0}
  objectDatas:
  - {fileID: 11400000, guid: 708fdc850db341041a89c610f9e4aa70, type: 2}
  - {fileID: 11400000, guid: 6076050c0bd513d4ea1cc76e0765eb36, type: 2}
  - {fileID: 11400000, guid: b7981f2520892b443a1065c7002d772d, type: 2}
  - {fileID: 11400000, guid: c3aa5c7e15902c443bdd97632932238c, type: 2}
  - {fileID: 11400000, guid: c3bcc653510c4aa4fa0cff9ec7bfdc9f, type: 2}
  - {fileID: 11400000, guid: c0333525bb7809848a94c1b1041272b5, type: 2}
  - {fileID: 11400000, guid: 97a9b5f653bc90841be6eeee6c4e1bc8, type: 2}
  - {fileID: 11400000, guid: 3d3de28130609bd46bcffab523c1f59c, type: 2}
  - {fileID: 11400000, guid: 77cc0bd0886efc54193ff19fbc6cd75f, type: 2}
  - {fileID: 11400000, guid: 5149af7b224c2464591ff7a0e52d2d79, type: 2}
  - {fileID: 11400000, guid: 876b1bbc6c2a87a4d8e3b228fdcb2fb3, type: 2}
  - {fileID: 11400000, guid: 2b6e5006e2ad9ae4cae0d3847c5ab4b0, type: 2}
  - {fileID: 11400000, guid: 620cb6f6888a8a242aa4a383b129c2c7, type: 2}
  - {fileID: 11400000, guid: e28ff71d01d8f764db646caea6557b37, type: 2}
  - {fileID: 11400000, guid: de78b2f5ae4431142a637da267e6f51d, type: 2}
  - {fileID: 11400000, guid: 2436bafab9873234bb7148e9b73e3cce, type: 2}
  - {fileID: 11400000, guid: 112a08b7e741e994faf87cdfcfba0cf4, type: 2}
  - {fileID: 11400000, guid: 390bedafa3092174b8c08b22555a7709, type: 2}
  - {fileID: 11400000, guid: 419fc82d01425394bbed5213ebbc82b0, type: 2}
  - {fileID: 11400000, guid: 908bfa80f3d6c154c9249586b87bf092, type: 2}
  - {fileID: 11400000, guid: 49ecf74e017a93d4f9efa1dff6be101f, type: 2}
  - {fileID: 11400000, guid: ac97aa72a6bea9047821e74b1d59aa33, type: 2}
  - {fileID: 11400000, guid: 4735d346fba97ee4baa67b4f03eda9e3, type: 2}
  - {fileID: 11400000, guid: 3765852e5c63f6e419a1087818e6c373, type: 2}
  - {fileID: 11400000, guid: c04fc74155a607849bdaed22a51297e5, type: 2}
  - {fileID: 11400000, guid: 9a039780a57b7b34e811541416a93263, type: 2}
  - {fileID: 11400000, guid: 7007324d487365d46ab90fb13f938c21, type: 2}
  - {fileID: 11400000, guid: acfa3d31d212aeb4a8a4d95eba602d3c, type: 2}
  - {fileID: 11400000, guid: b0a4e232ee9ba514f910b1bf33f6f486, type: 2}
  - {fileID: 11400000, guid: a44c061c440c58f4ca626aced4286227, type: 2}
  - {fileID: 11400000, guid: e5cbf3c6808f01b4fb543b1703ae08de, type: 2}
  - {fileID: 11400000, guid: 1a041e8a436329a46a72e410d8b9760f, type: 2}
  - {fileID: 11400000, guid: fe86c45580c748147b36a88ba901470c, type: 2}
  - {fileID: 11400000, guid: 1f92daa8b80279b408e764db4c889c3c, type: 2}
  - {fileID: 11400000, guid: 2f24dbf873033874c83dfa0a6e091f7e, type: 2}
  - {fileID: 11400000, guid: 2be347f74e2ea8b4da16a7df53ead31b, type: 2}
  - {fileID: 11400000, guid: 38ff7d37211f75b4a9dee10c7d2cdda4, type: 2}
  - {fileID: 11400000, guid: 00f4a4341f17a404789f2c4c81d142f3, type: 2}
  - {fileID: 11400000, guid: ae8bff8fcc2343b4d9105480356c90a8, type: 2}
  - {fileID: 11400000, guid: 1579238c42d594d4cbee08786420eb52, type: 2}
  - {fileID: 11400000, guid: ce3400b17ddb0014582dd18bde9c9e31, type: 2}
  - {fileID: 11400000, guid: 5c1f2152c2e8d9f49957c63b5560697c, type: 2}
  - {fileID: 11400000, guid: 007e78e57a4cc6e45b4315717b2d2bb1, type: 2}
  - {fileID: 11400000, guid: bc9c6072ef011344aab7a2223a4c89c9, type: 2}
  - {fileID: 11400000, guid: 169d87249da069b458ebdc7bfe4a343e, type: 2}
  - {fileID: 11400000, guid: 21dd2c9d7a996c1428219ee534dd8605, type: 2}
  - {fileID: 11400000, guid: 834b2c112b94fbf47b41a8c2be5f9587, type: 2}
  - {fileID: 11400000, guid: e26bdd74a2fadf84d89263d1afe59bfc, type: 2}
  - {fileID: 11400000, guid: c2e171475c5636e4286d79f8fb97751f, type: 2}
  - {fileID: 11400000, guid: 02f7a7c449ef4494ba08b356893aa889, type: 2}
  - {fileID: 11400000, guid: 985de65efa75de945b63d9e77deced1e, type: 2}
  - {fileID: 11400000, guid: 6212cd22868e2544abd636bb7efc692d, type: 2}
  - {fileID: 11400000, guid: 564948a762482f842b542d50f4d20df0, type: 2}
  - {fileID: 11400000, guid: 43a92d0475a838b4cbd34f940bacac3e, type: 2}
  - {fileID: 11400000, guid: 12e0998f4e4e94141bf63ed220391db4, type: 2}
  - {fileID: 11400000, guid: 543ad395ec0996a45a71996fdc1eaf4c, type: 2}
  - {fileID: 11400000, guid: 9f3354affdaa31144aafbf771cdd9b9a, type: 2}
  - {fileID: 11400000, guid: 5eceba97a5bf9a044a582ac7f978b31c, type: 2}
  - {fileID: 11400000, guid: 1bb8ca348ad2e6b46904a5dfe3e282d1, type: 2}
  - {fileID: 11400000, guid: 44dba5285a0716d4ea310df1b2edd50f, type: 2}
  - {fileID: 11400000, guid: a988dc4d7eaecff4fbd046736cc2d93c, type: 2}
  - {fileID: 11400000, guid: 28e781539b354844c978617d64fa7af6, type: 2}
  - {fileID: 11400000, guid: 67dcf65e6281acf44917ad5a8662a65d, type: 2}
  - {fileID: 11400000, guid: dc5a98a3e6a66aa4192484e787537aeb, type: 2}
  - {fileID: 11400000, guid: 3b288cd9ee144b8458d8a86e4280a087, type: 2}
  - {fileID: 11400000, guid: 944d7b4df2444dc49a5f7aa972f3c2f2, type: 2}
  - {fileID: 11400000, guid: 71f4c59db63ff284fb4449f4ab432d92, type: 2}
  - {fileID: 11400000, guid: 92b458d46770e2c4698984e0dd95c4ba, type: 2}
  - {fileID: 11400000, guid: 2701ee2a7bd44b54a87ce8ecafcffcba, type: 2}
  - {fileID: 11400000, guid: a4ed2ea3adfd3ed42ae08df6651fe9df, type: 2}
  - {fileID: 11400000, guid: 0fe083969ce827c489a8817f558448d1, type: 2}
  - {fileID: 11400000, guid: e1f924d9f9a3ac64e8d86714a65fc481, type: 2}
  - {fileID: 11400000, guid: 493f69e3537ed784b8218ef75dec5c60, type: 2}
  - {fileID: 11400000, guid: 0993eeff9a0d6a141943789baee0fc51, type: 2}
  - {fileID: 11400000, guid: f51d7f1a8c8a6354cb1b38d80be5c835, type: 2}
  - {fileID: 11400000, guid: db9a38e2f66e58f428c17b0f6828a89d, type: 2}
  - {fileID: 11400000, guid: 4780334c05418104a82b35104f1b75ad, type: 2}
  - {fileID: 11400000, guid: 12254b34d1310744ca57f06205dc66d0, type: 2}
  - {fileID: 11400000, guid: e825d2d56f1004a47be6f843cfc45574, type: 2}
  - {fileID: 11400000, guid: 6fd28d9b868905645ad654d4bfa7f5b9, type: 2}
  - {fileID: 11400000, guid: 36d5ef2954b1940418375b7be8fbc7bb, type: 2}
  - {fileID: 11400000, guid: 46daa220f993447468bfe55cfc539949, type: 2}
  - {fileID: 11400000, guid: ce2a919d1facd8c4a94c59a0ee612b99, type: 2}
  - {fileID: 11400000, guid: d439a3b6294fbd54eb478d757c16bcbe, type: 2}
  - {fileID: 11400000, guid: b21465419606c5842842d3c6cfd0bfce, type: 2}
  - {fileID: 11400000, guid: 07739fb0e2abbd349b97fb8e5f151484, type: 2}
  - {fileID: 11400000, guid: ea57ba216eeb09a48a738e5544259cf9, type: 2}
  - {fileID: 11400000, guid: 90b667a6dd44967469ea561c58926e63, type: 2}
  - {fileID: 11400000, guid: 9d36dde1c39032647ac307d681a3c586, type: 2}
  - {fileID: 11400000, guid: ada038de171637f48afc170fd65f2e59, type: 2}
  - {fileID: 11400000, guid: 68d259e9e1aae7147b2f73ee9145f7c0, type: 2}
  - {fileID: 11400000, guid: 4b516f1694c7d28459f1b261ab13b5f8, type: 2}
