%YAML 1.1
%TAG !u! tag:unity3d.com,2011:
--- !u!114 &11400000
MonoBehaviour:
  m_ObjectHideFlags: 0
  m_CorrespondingSourceObject: {fileID: 0}
  m_PrefabInstance: {fileID: 0}
  m_PrefabAsset: {fileID: 0}
  m_GameObject: {fileID: 0}
  m_Enabled: 1
  m_EditorHideFlags: 0
  m_Script: {fileID: 11500000, guid: 2dd323ed3c9fedc4cb33884a7d07dd60, type: 3}
  m_Name: prefabs_200
  m_EditorClassIdentifier: 
  prefabNames:
  - stool
  - SM_Candles_Var0
  - vessel_2
  - Cabin_TypeB_low
  - StoneWall_low
  - fence_Set_lot
  - BigCrystal_NoScratch_low (1)
  - PF_RegTree_4
  - Building1_low
  - lamp2
  - building4_low2
  - Prefab_BigCrate_color01
  - MiddleCrystal_low
  - Stool01v1
  - lamp01
  - Prefab_SmallCrate01_color01
  - BigCrystal_NoScratch_low (9)
  - PF_TallTree_1
  - cliff_low
  - SmallRock_ver1
  - building3_low2
  - PF_ConiferTree_3
  - Shard (1)
  - PF_Foliage_Fern_1
  - PF_RegTree_1
  - mushroomHouse_TypeB_low
  - Crystals (2)
  - Prefab_SmallBarrel_color01
  - PF_HexTerrain_LargeRock_3
  - PF_TallTree_2
  - Prefab_SmallCrate02_color01
  - SmallCrystal_low (2)
  - PF_ConiferTree_4
  - MiddleCrystal_low (2)
  - PF_RegTree_3
  - lamp5
  - Crystals (3)
  - Crystals (6)
  - LongCrystal_low
  - MiddleCrystal_low (3)
  - vessel
  - Table02
  - MiddleRock_ver1
  - Fence
  - PF_RegTree_2
  - lamppost
  - vessel_3
  - Prefab_BigBarrel_color01
  - vat
  - button_Bottom
  - frewood
  - PF_HexTerrain_Top
  - Building2_low
  - Crystals (1)
  - PF_Foliage_LargeBush3
  - Shard (5)
  - Crystals
  - PF_HexTerrain_LargeRock_4
  - Shard (7)
  - lamppostSmall
  - Stones
  - well
  - swing
  - Shard (3)
  - PF_ConiferTree_1
  - PF_WoodenBridge_Broken
  - BigCrystal_NoScratch_low (5)
  - Cabin_TypeD_low
  - WoodenCrate_01
  - PF_Foliage_Sapling
  - BigCrystal_NoScratch_low (6)
  - CrsytalField
  - PF_Foliage_RoundBush
  - PF_TreeStump
  - PF_HexTerrain_Mid
  - Cabin_TypeA_low
  - PF_Mushroom_Large2
  - table
  - PF_HexTerrain_LargeRock_2
  - vessel_1
  - Broom
  - WoodenCrate_02
  - PF_HexTerrain_Ramp_Bottom
  - PF_ConiferTree_2
  - Barrel
  - frewood_1
  - Bench
  - axe
  - PF_Foliage_SmallBush
  - LongRock_ver2
  - PF_StoneSlab_2
  - PF_WoodenBridge
  - Shard (6)
  - MiddleRock_ver2
  - PF_mushroom_SmallCluster
  - Shard (2)
  - Shard
  - PF_HexTerrain_LargeRock_1
  - Table01v2
  - mushroomHouse_TypeC_low
  - Board
  - Pointer
  - cliff_low 1
  - SmallCrystal_low
  - slope01_low_ver1
  - slope02_low_ver2
  - LongRock_ver3
  - Tile
  - BigRock_ver2
  - LongRock_ver1
  - PF_StoneFloor
  - MiddleCrystal_low (5)
  - fence_low
  - PF_Mushroom_Large1
  - SmallRock_ver3
  - slope02_low_ver1
  - Chair02v2
  - Top_low
  - MiddleCrystal_low (7)
  - slope01_low_ver2
  - BigRock_ver1
  - BigCrystal_NoScratch_low (7)
  - Crystals (7)
  - SmallRock_ver2
  - PF_FallenTreeTrunk
  - babyIsland_low 1
  - BigRock_ver3
  - BigRock_low
  - mushroomHouse_TypeA_low
  - SmallCrystal_low (6)
  - SmallCrystal_low (3)
  - MiddleRock_low
  - PF_mushroom_LargeCluster2
  - Crystals (5)
  - Fence Post
  - lamp4
  - PF_HexBoard_StoneVar1
  - BigCrystal_NoScratch_low (2)
  - Mailbox
  - Witchs_house
  - SmallCrystal_low (7)
  - LongRock_low
  - PF_WoodenBridge_Support
  - PF_HexBoard_StoneVar2
  - Crate
  - PF_HexBoard_StoneVar0
  - MiddleCrystal_low (1)
  - Blimp
  - PF_HexBoard_StoneChiseled_1
  - PF_StoneSlab_1
  sectorSize: 200
