%YAML 1.1
%TAG !u! tag:unity3d.com,2011:
--- !u!21 &2100000
Material:
  serializedVersion: 6
  m_ObjectHideFlags: 0
  m_CorrespondingSourceObject: {fileID: 0}
  m_PrefabInstance: {fileID: 0}
  m_PrefabAsset: {fileID: 0}
  m_Name: lake
  m_Shader: {fileID: -6465566751694194690, guid: 1be4e80fe8309134aafea31086735abd, type: 3}
  m_ShaderKeywords: 
  m_LightmapFlags: 4
  m_EnableInstancingVariants: 1
  m_DoubleSidedGI: 0
  m_CustomRenderQueue: 3000
  stringTagMap: {}
  disabledShaderPasses: []
  m_SavedProperties:
    serializedVersion: 3
    m_TexEnvs:
    - Texture2D_41c8450dda0d4694ae2bd2cac8aa5ffb:
        m_Texture: {fileID: 2800000, guid: 7527d265b3293b34f8ac2c7da9c11b28, type: 3}
        m_Scale: {x: 1, y: 1}
        m_Offset: {x: 0, y: 0}
    - Texture2D_87561766c17e4c09b3274ef3ec370abd:
        m_Texture: {fileID: 2800000, guid: 7527d265b3293b34f8ac2c7da9c11b28, type: 3}
        m_Scale: {x: 1, y: 1}
        m_Offset: {x: 0, y: 0}
    - _Reflection_cb7e5d3734da46ed8317cf506a7ad914_Texture2D09035a94b81740049b1af2e9d28a3513_4254040937:
        m_Texture: {fileID: 8400000, guid: a0c72a3d1dcd4e448a4d79e6a66cfb6e, type: 2}
        m_Scale: {x: 1, y: 1}
        m_Offset: {x: 0, y: 0}
    - _Reflection_cb7e5d3734da46ed8317cf506a7ad914_Texture2D1d64b92bf1674ba3a988ffc1014d1dc2_645056932:
        m_Texture: {fileID: 2800000, guid: 1b3fbc643dca2eb46b358d6a68012be1, type: 3}
        m_Scale: {x: 1, y: 1}
        m_Offset: {x: 0, y: 0}
    - _Reflection_cb7e5d3734da46ed8317cf506a7ad914_Texture2D3582cebf77c444c9a5bb6ffa35f2268a_3299419020:
        m_Texture: {fileID: 0}
        m_Scale: {x: 1, y: 1}
        m_Offset: {x: 0, y: 0}
    - _Reflection_e3b312fccc7e45d9b7a810bbbc36d3f5_Texture2D09035a94b81740049b1af2e9d28a3513_4254040937:
        m_Texture: {fileID: 8400000, guid: a0c72a3d1dcd4e448a4d79e6a66cfb6e, type: 2}
        m_Scale: {x: 1, y: 1}
        m_Offset: {x: 0, y: 0}
    - _Reflection_e3b312fccc7e45d9b7a810bbbc36d3f5_Texture2D1d64b92bf1674ba3a988ffc1014d1dc2_645056932:
        m_Texture: {fileID: 2800000, guid: 1b3fbc643dca2eb46b358d6a68012be1, type: 3}
        m_Scale: {x: 1, y: 1}
        m_Offset: {x: 0, y: 0}
    - _SampleTexture2D_496b1256d2424e23858802393a2da1be_Texture_1:
        m_Texture: {fileID: 8400000, guid: a0c72a3d1dcd4e448a4d79e6a66cfb6e, type: 2}
        m_Scale: {x: 1, y: 1}
        m_Offset: {x: 0, y: 0}
    - _SampleTexture2D_86cd3943336d4bc0be5b9eed8c5f15bd_Texture_1:
        m_Texture: {fileID: 2800000, guid: 7527d265b3293b34f8ac2c7da9c11b28, type: 3}
        m_Scale: {x: 1, y: 1}
        m_Offset: {x: 0, y: 0}
    - _SampleTexture2D_ed5244067f344a9fa3d08da7b1de9f5b_Texture_1:
        m_Texture: {fileID: 8400000, guid: 221d3aca833025049abbfbccc805d5be, type: 2}
        m_Scale: {x: 1, y: 1}
        m_Offset: {x: 0, y: 0}
    - unity_Lightmaps:
        m_Texture: {fileID: 0}
        m_Scale: {x: 1, y: 1}
        m_Offset: {x: 0, y: 0}
    - unity_LightmapsInd:
        m_Texture: {fileID: 0}
        m_Scale: {x: 1, y: 1}
        m_Offset: {x: 0, y: 0}
    - unity_ShadowMasks:
        m_Texture: {fileID: 0}
        m_Scale: {x: 1, y: 1}
        m_Offset: {x: 0, y: 0}
    m_Floats:
    - Vector1_06e21b00ee1c405e8f7d31511191424c: 1
    - Vector1_0a7f2973037f40da8e94e8fac4cb4cc4: 10
    - Vector1_116e2834b616470c993c3e91f4a3e445: 0.03
    - Vector1_1a699cbae97746e58520ed03614ef1fe: 100
    - Vector1_39143813270449d984373c135ce5160c: -99.07
    - Vector1_44d7e7b69cef4ef5aa20dbaf50c892e5: 2
    - Vector1_604890b5baa44cdba3199297fafd92b1: 5
    - Vector1_80d17d2e63de4eb1a9a3d7b5bbee3656: 0.8
    - Vector1_9532f384d38a4d4292da7a0fc2cc048e: 0.2
    - Vector1_bba26012defa4272840d6cc0ef1559d5: 1
    - Vector1_c2f8750b424f426698babc13298f5d26: 0.1
    - Vector1_e01448067ea648719d1521ceabbeeb69: 0.1
    - Vector1_e17107b89a374bfca1d140a66d4f732f: -0.48
    - Vector1_e39071ae9fe5442b887299f8f62684ed: 0.43
    - Vector1_e4562f7c89454d6ea4fa90243b03caa2: 0.3
    m_Colors:
    - Color_668a2636190d40d9a57ea576118c9dd1: {r: 0.3807403, g: 0.7067509, b: 0.8679245, a: 1}
    - Color_afd3a99974904195bef0138111db37dd: {r: 0.05273228, g: 0.51443297, b: 0.745283, a: 1}
    - Vector2_01d23ea63044455f808eb9b1a83ccee4: {r: 50, g: 50, b: 0, a: 0}
    - Vector2_2fea076e1c2047f6823ca2616a594186: {r: 0.002, g: 0.002, b: 0, a: 0}
    - Vector2_40c1764fb1ad41cabd8e44a569528241: {r: 50, g: 200, b: 0, a: 0}
    - Vector2_e2925380bb8c4a2faa4b30666b621346: {r: 0.001, g: 0.001, b: 0, a: 0}
  m_BuildTextureStacks: []
