%YAML 1.1
%TAG !u! tag:unity3d.com,2011:
--- !u!114 &11400000
MonoBehaviour:
  m_ObjectHideFlags: 0
  m_CorrespondingSourceObject: {fileID: 0}
  m_PrefabInstance: {fileID: 0}
  m_PrefabAsset: {fileID: 0}
  m_GameObject: {fileID: 0}
  m_Enabled: 1
  m_EditorHideFlags: 0
  m_Script: {fileID: 11500000, guid: 4d65669788cddfb4caa2693f13421097, type: 3}
  m_Name: blue gem
  m_EditorClassIdentifier: 
  id: 1
  itemName: "\uC0AC\uD30C\uC774\uC5B4 \uC6D0\uC11D"
  description: "\uC232\uC758 \uB9C8\uC744 \uC774\uC7A5\uC774 \uBD80\uD0C1\uD55C \uC0AC\uD30C\uC774\uC5B4
    \uC6D0\uC11D"
  sprite: {fileID: 21300000, guid: aa5c8466516a58c4e83b0ff76f9e9789, type: 3}
