%YAML 1.1
%TAG !u! tag:unity3d.com,2011:
--- !u!114 &11400000
MonoBehaviour:
  m_ObjectHideFlags: 0
  m_CorrespondingSourceObject: {fileID: 0}
  m_PrefabInstance: {fileID: 0}
  m_PrefabAsset: {fileID: 0}
  m_GameObject: {fileID: 0}
  m_Enabled: 1
  m_EditorHideFlags: 0
  m_Script: {fileID: 11500000, guid: 1bc0c8bc86022744e8003c8e00716c72, type: 3}
  m_Name: IDentityItemDB
  m_EditorClassIdentifier: 
  items:
  - {fileID: 11400000, guid: f4369653ec7fcb1419a38a5a5eae4cdd, type: 2}
  - {fileID: 11400000, guid: fa64c6c277e24b34489fcc9c4bfc7d1a, type: 2}
  - {fileID: 11400000, guid: e776a94110ef10a4dabe26b92a13d9f6, type: 2}
  - {fileID: 11400000, guid: 62ff6a99217855a40857b8dc172fd1d2, type: 2}
  - {fileID: 11400000, guid: acc49d3c210bebe47a2d561c01c01b67, type: 2}
  - {fileID: 11400000, guid: 9e9caba13d1a62b4e95ab8224e033767, type: 2}
  - {fileID: 11400000, guid: ad70b224abbb9df4e80e23db7c3e93a1, type: 2}
