%YAML 1.1
%TAG !u! tag:unity3d.com,2011:
--- !u!114 &11400000
MonoBehaviour:
  m_ObjectHideFlags: 0
  m_CorrespondingSourceObject: {fileID: 0}
  m_PrefabInstance: {fileID: 0}
  m_PrefabAsset: {fileID: 0}
  m_GameObject: {fileID: 0}
  m_Enabled: 1
  m_EditorHideFlags: 0
  m_Script: {fileID: 11500000, guid: 4d65669788cddfb4caa2693f13421097, type: 3}
  m_Name: Red Mushroom
  m_EditorClassIdentifier: 
  id: 5
  itemName: "\uBD89\uC740 \uBC84\uC12F"
  description: "\uC232\uC758 \uB9C8\uC744\uC5D0 \uC6B4\uBC18\uD574\uC57C\uD558\uB294
    \uBD89\uC740 \uBC84\uC12F"
  sprite: {fileID: 21300000, guid: fbdf08fa390683b43ad0a3e23c875b7f, type: 3}
