%YAML 1.1
%TAG !u! tag:unity3d.com,2011:
--- !u!114 &11400000
MonoBehaviour:
  m_ObjectHideFlags: 0
  m_CorrespondingSourceObject: {fileID: 0}
  m_PrefabInstance: {fileID: 0}
  m_PrefabAsset: {fileID: 0}
  m_GameObject: {fileID: 0}
  m_Enabled: 1
  m_EditorHideFlags: 0
  m_Script: {fileID: 11500000, guid: 4d65669788cddfb4caa2693f13421097, type: 3}
  m_Name: ShinningCube
  m_EditorClassIdentifier: 
  id: 6
  itemName: "\uBE5B\uB098\uB294 \uC870\uAC01"
  description: "\uB9C8\uC744 \uC774\uC7A5\uC774 \uBAA8\uC544\uB2EC\uB77C\uACE0 \uBD80\uD0C1\uD55C
    \uBE5B\uB098\uB294 \uC870\uAC01"
  sprite: {fileID: 21300000, guid: fc128b230cb429d49972faf5a3899471, type: 3}
