%YAML 1.1
%TAG !u! tag:unity3d.com,2011:
--- !u!114 &11400000
MonoBehaviour:
  m_ObjectHideFlags: 0
  m_CorrespondingSourceObject: {fileID: 0}
  m_PrefabInstance: {fileID: 0}
  m_PrefabAsset: {fileID: 0}
  m_GameObject: {fileID: 0}
  m_Enabled: 1
  m_EditorHideFlags: 0
  m_Script: {fileID: 11500000, guid: cf6258160aeff9c4ba54e7ad9c7ddf08, type: 3}
  m_Name: 1054
  m_EditorClassIdentifier: 
  originPrefabName: PF_HexTerrain_LargeRock_2
  objectName: PF_HexTerrain_LargeRock_2 (1)
  position: {x: 1823.003, y: 52.03, z: 364.2}
  rotation: {x: -0, y: -0, z: 0.06408636, w: 0.99794436}
  scale: {x: 3.5341, y: 3.5341, z: 3.5341}
  sector: 9_1
  id: 1054
  layer: 0
  tag: Untagged
  material: {fileID: 0}
