%YAML 1.1
%TAG !u! tag:unity3d.com,2011:
--- !u!114 &11400000
MonoBehaviour:
  m_ObjectHideFlags: 0
  m_CorrespondingSourceObject: {fileID: 0}
  m_PrefabInstance: {fileID: 0}
  m_PrefabAsset: {fileID: 0}
  m_GameObject: {fileID: 0}
  m_Enabled: 1
  m_EditorHideFlags: 0
  m_Script: {fileID: 11500000, guid: cf6258160aeff9c4ba54e7ad9c7ddf08, type: 3}
  m_Name: 1065
  m_EditorClassIdentifier: 
  originPrefabName: Crystals (2)
  objectName: Crystals (4)
  position: {x: 1380.7222, y: 783.6599, z: 3715.0735}
  rotation: {x: -0.05910375, y: -0.99734217, z: -0.021291848, w: -0.036906827}
  scale: {x: 3.0000017, y: 2.9999998, z: 3.0000017}
  sector: 6_18
  id: 1065
  layer: 0
  tag: Untagged
  material: {fileID: 2100000, guid: fe36741ede331ae408acac449eaf0149, type: 2}
