%YAML 1.1
%TAG !u! tag:unity3d.com,2011:
--- !u!114 &11400000
MonoBehaviour:
  m_ObjectHideFlags: 0
  m_CorrespondingSourceObject: {fileID: 0}
  m_PrefabInstance: {fileID: 0}
  m_PrefabAsset: {fileID: 0}
  m_GameObject: {fileID: 0}
  m_Enabled: 1
  m_EditorHideFlags: 0
  m_Script: {fileID: 11500000, guid: cf6258160aeff9c4ba54e7ad9c7ddf08, type: 3}
  m_Name: 1091
  m_EditorClassIdentifier: 
  originPrefabName: Shard (1)
  objectName: Shard (3)
  position: {x: 1424.38, y: 787.12, z: 3667.19}
  rotation: {x: -0.103320405, y: 0.0029927725, z: -0.028798666, w: 0.99422663}
  scale: {x: 200, y: 200, z: 200}
  sector: 7_18
  id: 1091
  layer: 0
  tag: Untagged
  material: {fileID: 2100000, guid: fe36741ede331ae408acac449eaf0149, type: 2}
