%YAML 1.1
%TAG !u! tag:unity3d.com,2011:
--- !u!114 &11400000
MonoBehaviour:
  m_ObjectHideFlags: 0
  m_CorrespondingSourceObject: {fileID: 0}
  m_PrefabInstance: {fileID: 0}
  m_PrefabAsset: {fileID: 0}
  m_GameObject: {fileID: 0}
  m_Enabled: 1
  m_EditorHideFlags: 0
  m_Script: {fileID: 11500000, guid: cf6258160aeff9c4ba54e7ad9c7ddf08, type: 3}
  m_Name: 1149
  m_EditorClassIdentifier: 
  originPrefabName: LongRock_ver3
  objectName: LongRock_ver3 (1)
  position: {x: 3335.1565, y: 35.082275, z: 1122.0531}
  rotation: {x: -0, y: -0, z: -0, w: 1}
  scale: {x: 1, y: 1, z: 1}
  sector: 16_5
  id: 1149
  layer: 0
  tag: Untagged
  material: {fileID: 2100000, guid: 7ae805a2ee77f9c44b91bc1e7ce0bab7, type: 2}
