%YAML 1.1
%TAG !u! tag:unity3d.com,2011:
--- !u!114 &11400000
MonoBehaviour:
  m_ObjectHideFlags: 0
  m_CorrespondingSourceObject: {fileID: 0}
  m_PrefabInstance: {fileID: 0}
  m_PrefabAsset: {fileID: 0}
  m_GameObject: {fileID: 0}
  m_Enabled: 1
  m_EditorHideFlags: 0
  m_Script: {fileID: 11500000, guid: cf6258160aeff9c4ba54e7ad9c7ddf08, type: 3}
  m_Name: 1222
  m_EditorClassIdentifier: 
  originPrefabName: Crystals (3)
  objectName: Crystals (5)
  position: {x: 830.4322, y: 20.248009, z: 516.5373}
  rotation: {x: -0.009554158, y: -0.50067353, z: 0.016514583, w: 0.86542594}
  scale: {x: 22.398712, y: 22.398708, z: 22.398708}
  sector: 4_2
  id: 1222
  layer: 0
  tag: Untagged
  material: {fileID: 2100000, guid: 84b56cef1adff5f43a0a71dbf93822b7, type: 2}
