%YAML 1.1
%TAG !u! tag:unity3d.com,2011:
--- !u!114 &11400000
MonoBehaviour:
  m_ObjectHideFlags: 0
  m_CorrespondingSourceObject: {fileID: 0}
  m_PrefabInstance: {fileID: 0}
  m_PrefabAsset: {fileID: 0}
  m_GameObject: {fileID: 0}
  m_Enabled: 1
  m_EditorHideFlags: 0
  m_Script: {fileID: 11500000, guid: cf6258160aeff9c4ba54e7ad9c7ddf08, type: 3}
  m_Name: 1254
  m_EditorClassIdentifier: 
  originPrefabName: PF_HexTerrain_Mid
  objectName: PF_HexTerrain_Mid (1)
  position: {x: 900.01, y: 24.83, z: 1471.5}
  rotation: {x: -0, y: -0, z: -0, w: 1}
  scale: {x: 3.8603, y: 3.8603, z: 3.8603}
  sector: 4_7
  id: 1254
  layer: 8
  tag: Untagged
  material: {fileID: 0}
