%YAML 1.1
%TAG !u! tag:unity3d.com,2011:
--- !u!114 &11400000
MonoBehaviour:
  m_ObjectHideFlags: 0
  m_CorrespondingSourceObject: {fileID: 0}
  m_PrefabInstance: {fileID: 0}
  m_PrefabAsset: {fileID: 0}
  m_GameObject: {fileID: 0}
  m_Enabled: 1
  m_EditorHideFlags: 0
  m_Script: {fileID: 11500000, guid: cf6258160aeff9c4ba54e7ad9c7ddf08, type: 3}
  m_Name: 1286
  m_EditorClassIdentifier: 
  originPrefabName: Barrel
  objectName: Barrel (2)
  position: {x: 3698.3628, y: 112.270134, z: 3505.423}
  rotation: {x: -2.16489e-17, y: -0.7071067, z: -2.1648897e-17, w: 0.7071068}
  scale: {x: 14.999998, y: 15, z: 14.999998}
  sector: 18_17
  id: 1286
  layer: 0
  tag: Untagged
  material: {fileID: 2100000, guid: 73f2163ce4795bf4d8b9cd8250baed12, type: 2}
