%YAML 1.1
%TAG !u! tag:unity3d.com,2011:
--- !u!114 &11400000
MonoBehaviour:
  m_ObjectHideFlags: 0
  m_CorrespondingSourceObject: {fileID: 0}
  m_PrefabInstance: {fileID: 0}
  m_PrefabAsset: {fileID: 0}
  m_GameObject: {fileID: 0}
  m_Enabled: 1
  m_EditorHideFlags: 0
  m_Script: {fileID: 11500000, guid: cf6258160aeff9c4ba54e7ad9c7ddf08, type: 3}
  m_Name: 1312
  m_EditorClassIdentifier: 
  originPrefabName: PF_HexTerrain_Mid
  objectName: PF_HexTerrain_Mid (1)
  position: {x: 1854.6, y: 54.224, z: 343.59}
  rotation: {x: -0, y: -0, z: -0, w: 1}
  scale: {x: 2.4777, y: 2.4777, z: 2.4777}
  sector: 9_1
  id: 1312
  layer: 8
  tag: Untagged
  material: {fileID: 0}
