%YAML 1.1
%TAG !u! tag:unity3d.com,2011:
--- !u!114 &11400000
MonoBehaviour:
  m_ObjectHideFlags: 0
  m_CorrespondingSourceObject: {fileID: 0}
  m_PrefabInstance: {fileID: 0}
  m_PrefabAsset: {fileID: 0}
  m_GameObject: {fileID: 0}
  m_Enabled: 1
  m_EditorHideFlags: 0
  m_Script: {fileID: 11500000, guid: cf6258160aeff9c4ba54e7ad9c7ddf08, type: 3}
  m_Name: 1328
  m_EditorClassIdentifier: 
  originPrefabName: Shard
  objectName: Shard (11)
  position: {x: 3627.7998, y: 60.022514, z: 327.80005}
  rotation: {x: 0.030518772, y: -0.32508463, z: 0.19014382, w: 0.9258693}
  scale: {x: 1647.0002, y: 1647, z: 1646.9999}
  sector: 18_1
  id: 1328
  layer: 0
  tag: Untagged
  material: {fileID: 2100000, guid: 84a7dfcbe1f4aad4d9577290f0c4706d, type: 2}
