%YAML 1.1
%TAG !u! tag:unity3d.com,2011:
--- !u!114 &11400000
MonoBehaviour:
  m_ObjectHideFlags: 0
  m_CorrespondingSourceObject: {fileID: 0}
  m_PrefabInstance: {fileID: 0}
  m_PrefabAsset: {fileID: 0}
  m_GameObject: {fileID: 0}
  m_Enabled: 1
  m_EditorHideFlags: 0
  m_Script: {fileID: 11500000, guid: cf6258160aeff9c4ba54e7ad9c7ddf08, type: 3}
  m_Name: 1336
  m_EditorClassIdentifier: 
  originPrefabName: building4_low2
  objectName: building4_low2 (29)
  position: {x: 3245.0999, y: 33.83997, z: 266.1}
  rotation: {x: 0.00025053532, y: 0.5421644, z: -0.000008548667, w: 0.8402724}
  scale: {x: 1, y: 1.0000001, z: 1.0000001}
  sector: 16_1
  id: 1336
  layer: 0
  tag: Untagged
  material: {fileID: 2100000, guid: 0bd801a3c4ae97c44a8588aa16b83064, type: 2}
