%YAML 1.1
%TAG !u! tag:unity3d.com,2011:
--- !u!114 &11400000
MonoBehaviour:
  m_ObjectHideFlags: 0
  m_CorrespondingSourceObject: {fileID: 0}
  m_PrefabInstance: {fileID: 0}
  m_PrefabAsset: {fileID: 0}
  m_GameObject: {fileID: 0}
  m_Enabled: 1
  m_EditorHideFlags: 0
  m_Script: {fileID: 11500000, guid: cf6258160aeff9c4ba54e7ad9c7ddf08, type: 3}
  m_Name: 1395
  m_EditorClassIdentifier: 
  originPrefabName: Shard (1)
  objectName: Shard (34)
  position: {x: 1627.2843, y: 788.10004, z: 3778.5117}
  rotation: {x: -0.043524537, y: -0.9549762, z: -0.23307338, w: 0.178334}
  scale: {x: 100.00008, y: 100.00001, z: 100.00008}
  sector: 8_18
  id: 1395
  layer: 0
  tag: Untagged
  material: {fileID: 2100000, guid: fe36741ede331ae408acac449eaf0149, type: 2}
