%YAML 1.1
%TAG !u! tag:unity3d.com,2011:
--- !u!114 &11400000
MonoBehaviour:
  m_ObjectHideFlags: 0
  m_CorrespondingSourceObject: {fileID: 0}
  m_PrefabInstance: {fileID: 0}
  m_PrefabAsset: {fileID: 0}
  m_GameObject: {fileID: 0}
  m_Enabled: 1
  m_EditorHideFlags: 0
  m_Script: {fileID: 11500000, guid: cf6258160aeff9c4ba54e7ad9c7ddf08, type: 3}
  m_Name: 140
  m_EditorClassIdentifier: 
  originPrefabName: Crystals (2)
  objectName: Crystals (3)
  position: {x: 1379.13, y: 783.75995, z: 3715.326}
  rotation: {x: -0, y: -0.98763293, z: -0, w: 0.1567844}
  scale: {x: 2.0000012, y: 2, z: 2.0000012}
  sector: 6_18
  id: 140
  layer: 0
  tag: Untagged
  material: {fileID: 2100000, guid: fe36741ede331ae408acac449eaf0149, type: 2}
