%YAML 1.1
%TAG !u! tag:unity3d.com,2011:
--- !u!114 &11400000
MonoBehaviour:
  m_ObjectHideFlags: 0
  m_CorrespondingSourceObject: {fileID: 0}
  m_PrefabInstance: {fileID: 0}
  m_PrefabAsset: {fileID: 0}
  m_GameObject: {fileID: 0}
  m_Enabled: 1
  m_EditorHideFlags: 0
  m_Script: {fileID: 11500000, guid: cf6258160aeff9c4ba54e7ad9c7ddf08, type: 3}
  m_Name: 1434
  m_EditorClassIdentifier: 
  originPrefabName: building4_low2
  objectName: building4_low2 (3)
  position: {x: 596.93, y: 15.5, z: 427.09}
  rotation: {x: -0.006259351, y: 0.61811405, z: -0.008213983, w: 0.7860206}
  scale: {x: 1, y: 0.99999994, z: 0.99999994}
  sector: 2_2
  id: 1434
  layer: 0
  tag: Untagged
  material: {fileID: 2100000, guid: 0bd801a3c4ae97c44a8588aa16b83064, type: 2}
