%YAML 1.1
%TAG !u! tag:unity3d.com,2011:
--- !u!114 &11400000
MonoBehaviour:
  m_ObjectHideFlags: 0
  m_CorrespondingSourceObject: {fileID: 0}
  m_PrefabInstance: {fileID: 0}
  m_PrefabAsset: {fileID: 0}
  m_GameObject: {fileID: 0}
  m_Enabled: 1
  m_EditorHideFlags: 0
  m_Script: {fileID: 11500000, guid: cf6258160aeff9c4ba54e7ad9c7ddf08, type: 3}
  m_Name: 1464
  m_EditorClassIdentifier: 
  originPrefabName: Shard
  objectName: Shard (2)
  position: {x: 3401.6897, y: 38.33, z: 294.14}
  rotation: {x: 0.021102197, y: 0.49722442, z: 0.31924942, w: 0.80647534}
  scale: {x: 283.9601, y: 283.96005, z: 283.96008}
  sector: 17_1
  id: 1464
  layer: 0
  tag: Untagged
  material: {fileID: 2100000, guid: 84a7dfcbe1f4aad4d9577290f0c4706d, type: 2}
