%YAML 1.1
%TAG !u! tag:unity3d.com,2011:
--- !u!114 &11400000
MonoBehaviour:
  m_ObjectHideFlags: 0
  m_CorrespondingSourceObject: {fileID: 0}
  m_PrefabInstance: {fileID: 0}
  m_PrefabAsset: {fileID: 0}
  m_GameObject: {fileID: 0}
  m_Enabled: 1
  m_EditorHideFlags: 0
  m_Script: {fileID: 11500000, guid: cf6258160aeff9c4ba54e7ad9c7ddf08, type: 3}
  m_Name: 1489
  m_EditorClassIdentifier: 
  originPrefabName: WoodenCrate_02
  objectName: WoodenCrate_02 (1)
  position: {x: 204.88629, y: 15.906095, z: 273.347}
  rotation: {x: -0.6985357, y: 0.008375268, z: -0.010127916, w: 0.7154546}
  scale: {x: 0.99999994, y: 1.0000001, z: 1.0000002}
  sector: 1_1
  id: 1489
  layer: 0
  tag: Untagged
  material: {fileID: 2100000, guid: e49411fb77172764ba3123f1c7dc8d54, type: 2}
