%YAML 1.1
%TAG !u! tag:unity3d.com,2011:
--- !u!114 &11400000
MonoBehaviour:
  m_ObjectHideFlags: 0
  m_CorrespondingSourceObject: {fileID: 0}
  m_PrefabInstance: {fileID: 0}
  m_PrefabAsset: {fileID: 0}
  m_GameObject: {fileID: 0}
  m_Enabled: 1
  m_EditorHideFlags: 0
  m_Script: {fileID: 11500000, guid: cf6258160aeff9c4ba54e7ad9c7ddf08, type: 3}
  m_Name: 1507
  m_EditorClassIdentifier: 
  originPrefabName: building3_low2
  objectName: building3_low2 (1)
  position: {x: 669.62, y: 15.75, z: 411.82}
  rotation: {x: -0, y: -0, z: 0.0044193547, w: 0.9999902}
  scale: {x: 1, y: 1, z: 1}
  sector: 3_2
  id: 1507
  layer: 0
  tag: Untagged
  material: {fileID: 2100000, guid: 1cc91dd2df06a954c9dd0f988b52b4bd, type: 2}
