%YAML 1.1
%TAG !u! tag:unity3d.com,2011:
--- !u!114 &11400000
MonoBehaviour:
  m_ObjectHideFlags: 0
  m_CorrespondingSourceObject: {fileID: 0}
  m_PrefabInstance: {fileID: 0}
  m_PrefabAsset: {fileID: 0}
  m_GameObject: {fileID: 0}
  m_Enabled: 1
  m_EditorHideFlags: 0
  m_Script: {fileID: 11500000, guid: cf6258160aeff9c4ba54e7ad9c7ddf08, type: 3}
  m_Name: 1527
  m_EditorClassIdentifier: 
  originPrefabName: mushroomHouse_TypeC_low
  objectName: mushroomHouse_TypeC_low
  position: {x: 3493.4, y: 111.87747, z: 3490}
  rotation: {x: -0, y: -0.6658033, z: -0, w: 0.74612737}
  scale: {x: 0.7700002, y: 0.77, z: 0.7700002}
  sector: 17_17
  id: 1527
  layer: 0
  tag: Untagged
  material: {fileID: 2100000, guid: 37d33115d3ae4c14ba638906e71a3b12, type: 2}
