%YAML 1.1
%TAG !u! tag:unity3d.com,2011:
--- !u!114 &11400000
MonoBehaviour:
  m_ObjectHideFlags: 0
  m_CorrespondingSourceObject: {fileID: 0}
  m_PrefabInstance: {fileID: 0}
  m_PrefabAsset: {fileID: 0}
  m_GameObject: {fileID: 0}
  m_Enabled: 1
  m_EditorHideFlags: 0
  m_Script: {fileID: 11500000, guid: cf6258160aeff9c4ba54e7ad9c7ddf08, type: 3}
  m_Name: 1546
  m_EditorClassIdentifier: 
  originPrefabName: lamp01
  objectName: lamp01 (10)
  position: {x: 1471.2952, y: 794.6803, z: 3750.3499}
  rotation: {x: -0.0000010207295, y: 0.7071068, z: 0.7071068, w: 0.0000010207295}
  scale: {x: 100.000046, y: 100.00003, z: 100.00003}
  sector: 7_18
  id: 1546
  layer: 0
  tag: Untagged
  material: {fileID: 2100000, guid: e529903d19e66bb46a79ce41bd309a28, type: 2}
