%YAML 1.1
%TAG !u! tag:unity3d.com,2011:
--- !u!114 &11400000
MonoBehaviour:
  m_ObjectHideFlags: 0
  m_CorrespondingSourceObject: {fileID: 0}
  m_PrefabInstance: {fileID: 0}
  m_PrefabAsset: {fileID: 0}
  m_GameObject: {fileID: 0}
  m_Enabled: 1
  m_EditorHideFlags: 0
  m_Script: {fileID: 11500000, guid: cf6258160aeff9c4ba54e7ad9c7ddf08, type: 3}
  m_Name: 1580
  m_EditorClassIdentifier: 
  originPrefabName: Shard
  objectName: Shard (20)
  position: {x: 3518.34, y: 51.71, z: 178.36}
  rotation: {x: 0.15286982, y: 0.12153887, z: -0.20928627, w: 0.95815367}
  scale: {x: 786.86, y: 786.86, z: 786.86005}
  sector: 17_0
  id: 1580
  layer: 0
  tag: Untagged
  material: {fileID: 2100000, guid: 84a7dfcbe1f4aad4d9577290f0c4706d, type: 2}
