%YAML 1.1
%TAG !u! tag:unity3d.com,2011:
--- !u!114 &11400000
MonoBehaviour:
  m_ObjectHideFlags: 0
  m_CorrespondingSourceObject: {fileID: 0}
  m_PrefabInstance: {fileID: 0}
  m_PrefabAsset: {fileID: 0}
  m_GameObject: {fileID: 0}
  m_Enabled: 1
  m_EditorHideFlags: 0
  m_Script: {fileID: 11500000, guid: cf6258160aeff9c4ba54e7ad9c7ddf08, type: 3}
  m_Name: 1588
  m_EditorClassIdentifier: 
  originPrefabName: Shard (1)
  objectName: Shard (12)
  position: {x: 1447.2039, y: 792.9253, z: 3764.1282}
  rotation: {x: 0.14107499, y: 0.28025043, z: 0.14992929, w: 0.937592}
  scale: {x: 500.00006, y: 700.0001, z: 500.00006}
  sector: 7_18
  id: 1588
  layer: 0
  tag: Untagged
  material: {fileID: 2100000, guid: fe36741ede331ae408acac449eaf0149, type: 2}
