%YAML 1.1
%TAG !u! tag:unity3d.com,2011:
--- !u!114 &11400000
MonoBehaviour:
  m_ObjectHideFlags: 0
  m_CorrespondingSourceObject: {fileID: 0}
  m_PrefabInstance: {fileID: 0}
  m_PrefabAsset: {fileID: 0}
  m_GameObject: {fileID: 0}
  m_Enabled: 1
  m_EditorHideFlags: 0
  m_Script: {fileID: 11500000, guid: cf6258160aeff9c4ba54e7ad9c7ddf08, type: 3}
  m_Name: 1599
  m_EditorClassIdentifier: 
  originPrefabName: BigCrystal_NoScratch_low (5)
  objectName: BigCrystal_NoScratch_low (5)
  position: {x: 206.77, y: 20.05, z: 278.31}
  rotation: {x: 0.9783689, y: -0.0011427184, z: -0.20679405, w: -0.005406346}
  scale: {x: 3.5197003, y: 3.5196993, z: 3.5196996}
  sector: 1_1
  id: 1599
  layer: 0
  tag: Untagged
  material: {fileID: 2100000, guid: 84b56cef1adff5f43a0a71dbf93822b7, type: 2}
