%YAML 1.1
%TAG !u! tag:unity3d.com,2011:
--- !u!114 &11400000
MonoBehaviour:
  m_ObjectHideFlags: 0
  m_CorrespondingSourceObject: {fileID: 0}
  m_PrefabInstance: {fileID: 0}
  m_PrefabAsset: {fileID: 0}
  m_GameObject: {fileID: 0}
  m_Enabled: 1
  m_EditorHideFlags: 0
  m_Script: {fileID: 11500000, guid: cf6258160aeff9c4ba54e7ad9c7ddf08, type: 3}
  m_Name: 1662
  m_EditorClassIdentifier: 
  originPrefabName: SM_Candles_Var0
  objectName: SM_Candles_Var0 (6)
  position: {x: 1872.5, y: 56.068, z: 357.64}
  rotation: {x: -0, y: 0.8660254, z: -0, w: -0.50000006}
  scale: {x: 5.9631004, y: 5.9631, z: 5.9631004}
  sector: 9_1
  id: 1662
  layer: 0
  tag: Untagged
  material: {fileID: 2100000, guid: e6ab2d88e121395429f3c617265b0afd, type: 2}
