%YAML 1.1
%TAG !u! tag:unity3d.com,2011:
--- !u!114 &11400000
MonoBehaviour:
  m_ObjectHideFlags: 0
  m_CorrespondingSourceObject: {fileID: 0}
  m_PrefabInstance: {fileID: 0}
  m_PrefabAsset: {fileID: 0}
  m_GameObject: {fileID: 0}
  m_Enabled: 1
  m_EditorHideFlags: 0
  m_Script: {fileID: 11500000, guid: cf6258160aeff9c4ba54e7ad9c7ddf08, type: 3}
  m_Name: 1700
  m_EditorClassIdentifier: 
  originPrefabName: Crystals (2)
  objectName: Crystals (27)
  position: {x: 1637.469, y: 788.76245, z: 3720.2205}
  rotation: {x: -0, y: -0.9485295, z: -0, w: 0.316689}
  scale: {x: 1.0000002, y: 1.3, z: 1.0000002}
  sector: 8_18
  id: 1700
  layer: 0
  tag: Untagged
  material: {fileID: 2100000, guid: fe36741ede331ae408acac449eaf0149, type: 2}
