%YAML 1.1
%TAG !u! tag:unity3d.com,2011:
--- !u!114 &11400000
MonoBehaviour:
  m_ObjectHideFlags: 0
  m_CorrespondingSourceObject: {fileID: 0}
  m_PrefabInstance: {fileID: 0}
  m_PrefabAsset: {fileID: 0}
  m_GameObject: {fileID: 0}
  m_Enabled: 1
  m_EditorHideFlags: 0
  m_Script: {fileID: 11500000, guid: cf6258160aeff9c4ba54e7ad9c7ddf08, type: 3}
  m_Name: 1706
  m_EditorClassIdentifier: 
  originPrefabName: stool
  objectName: stool (21)
  position: {x: 3326.0354, y: 30.309406, z: 254.68294}
  rotation: {x: -0.027771182, y: 0.3429112, z: 0.047002394, w: 0.93778014}
  scale: {x: 0.40000004, y: 0.4, z: 0.40000004}
  sector: 16_1
  id: 1706
  layer: 0
  tag: Untagged
  material: {fileID: 2100000, guid: 9c9003e8bda32a44abf7207b5cda9f8c, type: 2}
