%YAML 1.1
%TAG !u! tag:unity3d.com,2011:
--- !u!114 &11400000
MonoBehaviour:
  m_ObjectHideFlags: 0
  m_CorrespondingSourceObject: {fileID: 0}
  m_PrefabInstance: {fileID: 0}
  m_PrefabAsset: {fileID: 0}
  m_GameObject: {fileID: 0}
  m_Enabled: 1
  m_EditorHideFlags: 0
  m_Script: {fileID: 11500000, guid: cf6258160aeff9c4ba54e7ad9c7ddf08, type: 3}
  m_Name: 1719
  m_EditorClassIdentifier: 
  originPrefabName: Cabin_TypeA_low
  objectName: Cabin_TypeA_low (1)
  position: {x: 2561.7993, y: 761.3258, z: 3847.6519}
  rotation: {x: 0.28529397, y: -0.6469989, z: -0.64699876, w: -0.2852937}
  scale: {x: 1.0000002, y: 1.0000001, z: 1.0000002}
  sector: 12_19
  id: 1719
  layer: 0
  tag: Untagged
  material: {fileID: 2100000, guid: 10d810d315e90e645aa0ecdd6dfbd721, type: 2}
