%YAML 1.1
%TAG !u! tag:unity3d.com,2011:
--- !u!114 &11400000
MonoBehaviour:
  m_ObjectHideFlags: 0
  m_CorrespondingSourceObject: {fileID: 0}
  m_PrefabInstance: {fileID: 0}
  m_PrefabAsset: {fileID: 0}
  m_GameObject: {fileID: 0}
  m_Enabled: 1
  m_EditorHideFlags: 0
  m_Script: {fileID: 11500000, guid: cf6258160aeff9c4ba54e7ad9c7ddf08, type: 3}
  m_Name: 1726
  m_EditorClassIdentifier: 
  originPrefabName: Stool01v1
  objectName: Stool01v1 (3)
  position: {x: 1490.4175, y: 793.9317, z: 3675.492}
  rotation: {x: -0, y: -0, z: 0.0074089332, w: 0.9999726}
  scale: {x: 1, y: 1, z: 1}
  sector: 7_18
  id: 1726
  layer: 0
  tag: Untagged
  material: {fileID: 2100000, guid: 29a7f572b87277e47a3903d896453dca, type: 2}
