%YAML 1.1
%TAG !u! tag:unity3d.com,2011:
--- !u!114 &11400000
MonoBehaviour:
  m_ObjectHideFlags: 0
  m_CorrespondingSourceObject: {fileID: 0}
  m_PrefabInstance: {fileID: 0}
  m_PrefabAsset: {fileID: 0}
  m_GameObject: {fileID: 0}
  m_Enabled: 1
  m_EditorHideFlags: 0
  m_Script: {fileID: 11500000, guid: cf6258160aeff9c4ba54e7ad9c7ddf08, type: 3}
  m_Name: 1766
  m_EditorClassIdentifier: 
  originPrefabName: stool
  objectName: stool (22)
  position: {x: 3323.8342, y: 30.340849, z: 251.4757}
  rotation: {x: -0.022946926, y: 0.3446956, z: 0.00842896, w: 0.93839616}
  scale: {x: 0.39999998, y: 0.4, z: 0.4}
  sector: 16_1
  id: 1766
  layer: 0
  tag: Untagged
  material: {fileID: 2100000, guid: 9c9003e8bda32a44abf7207b5cda9f8c, type: 2}
