%YAML 1.1
%TAG !u! tag:unity3d.com,2011:
--- !u!114 &11400000
MonoBehaviour:
  m_ObjectHideFlags: 0
  m_CorrespondingSourceObject: {fileID: 0}
  m_PrefabInstance: {fileID: 0}
  m_PrefabAsset: {fileID: 0}
  m_GameObject: {fileID: 0}
  m_Enabled: 1
  m_EditorHideFlags: 0
  m_Script: {fileID: 11500000, guid: cf6258160aeff9c4ba54e7ad9c7ddf08, type: 3}
  m_Name: 1769
  m_EditorClassIdentifier: 
  originPrefabName: Cabin_TypeB_low
  objectName: Cabin_TypeB_low (2)
  position: {x: 1584.2052, y: 805.6639, z: 3568.2412}
  rotation: {x: -0, y: 0.7071068, z: 0.7071068, w: 0}
  scale: {x: 1.0000005, y: 1.0000002, z: 1.0000002}
  sector: 7_17
  id: 1769
  layer: 0
  tag: Untagged
  material: {fileID: 2100000, guid: c8fa1a7508e228c4b8f60b79b5656797, type: 2}
