%YAML 1.1
%TAG !u! tag:unity3d.com,2011:
--- !u!114 &11400000
MonoBehaviour:
  m_ObjectHideFlags: 0
  m_CorrespondingSourceObject: {fileID: 0}
  m_PrefabInstance: {fileID: 0}
  m_PrefabAsset: {fileID: 0}
  m_GameObject: {fileID: 0}
  m_Enabled: 1
  m_EditorHideFlags: 0
  m_Script: {fileID: 11500000, guid: cf6258160aeff9c4ba54e7ad9c7ddf08, type: 3}
  m_Name: 1825
  m_EditorClassIdentifier: 
  originPrefabName: SM_Candles_Var0
  objectName: SM_Candles_Var0 (4)
  position: {x: 1868.1, y: 56.296, z: 364.42}
  rotation: {x: -0, y: 0.57609296, z: -0, w: -0.81738424}
  scale: {x: 4.8239007, y: 4.8239, z: 4.8239007}
  sector: 9_1
  id: 1825
  layer: 0
  tag: Untagged
  material: {fileID: 2100000, guid: e6ab2d88e121395429f3c617265b0afd, type: 2}
