%YAML 1.1
%TAG !u! tag:unity3d.com,2011:
--- !u!114 &11400000
MonoBehaviour:
  m_ObjectHideFlags: 0
  m_CorrespondingSourceObject: {fileID: 0}
  m_PrefabInstance: {fileID: 0}
  m_PrefabAsset: {fileID: 0}
  m_GameObject: {fileID: 0}
  m_Enabled: 1
  m_EditorHideFlags: 0
  m_Script: {fileID: 11500000, guid: cf6258160aeff9c4ba54e7ad9c7ddf08, type: 3}
  m_Name: 186
  m_EditorClassIdentifier: 
  originPrefabName: mushroomHouse_TypeB_low
  objectName: mushroomHouse_TypeB_low (4)
  position: {x: 3509.0818, y: 111.7561, z: 3378.3174}
  rotation: {x: -0, y: -0.54091495, z: -0, w: 0.84107727}
  scale: {x: 0.9999999, y: 1, z: 0.9999999}
  sector: 17_16
  id: 186
  layer: 0
  tag: Untagged
  material: {fileID: 2100000, guid: 9612fc8d1f2c2b04b9ab9bbd53915f50, type: 2}
