%YAML 1.1
%TAG !u! tag:unity3d.com,2011:
--- !u!114 &11400000
MonoBehaviour:
  m_ObjectHideFlags: 0
  m_CorrespondingSourceObject: {fileID: 0}
  m_PrefabInstance: {fileID: 0}
  m_PrefabAsset: {fileID: 0}
  m_GameObject: {fileID: 0}
  m_Enabled: 1
  m_EditorHideFlags: 0
  m_Script: {fileID: 11500000, guid: cf6258160aeff9c4ba54e7ad9c7ddf08, type: 3}
  m_Name: 1869
  m_EditorClassIdentifier: 
  originPrefabName: table
  objectName: table (6)
  position: {x: 3330.9443, y: 30.181568, z: 262.85}
  rotation: {x: -0.004560284, y: 0.2158315, z: 0.020626085, w: 0.9762021}
  scale: {x: 0.40000004, y: 0.4, z: 0.39999995}
  sector: 16_1
  id: 1869
  layer: 0
  tag: Untagged
  material: {fileID: 2100000, guid: 9c9003e8bda32a44abf7207b5cda9f8c, type: 2}
