%YAML 1.1
%TAG !u! tag:unity3d.com,2011:
--- !u!114 &11400000
MonoBehaviour:
  m_ObjectHideFlags: 0
  m_CorrespondingSourceObject: {fileID: 0}
  m_PrefabInstance: {fileID: 0}
  m_PrefabAsset: {fileID: 0}
  m_GameObject: {fileID: 0}
  m_Enabled: 1
  m_EditorHideFlags: 0
  m_Script: {fileID: 11500000, guid: cf6258160aeff9c4ba54e7ad9c7ddf08, type: 3}
  m_Name: 191
  m_EditorClassIdentifier: 
  originPrefabName: stool
  objectName: stool (9)
  position: {x: 3283.644, y: 25.923002, z: 320.28503}
  rotation: {x: -0.0006862208, y: 0.28625816, z: -0.000051470008, w: 0.9581523}
  scale: {x: 0.6, y: 0.5999999, z: 0.6}
  sector: 16_1
  id: 191
  layer: 0
  tag: Untagged
  material: {fileID: 2100000, guid: 9c9003e8bda32a44abf7207b5cda9f8c, type: 2}
