%YAML 1.1
%TAG !u! tag:unity3d.com,2011:
--- !u!114 &11400000
MonoBehaviour:
  m_ObjectHideFlags: 0
  m_CorrespondingSourceObject: {fileID: 0}
  m_PrefabInstance: {fileID: 0}
  m_PrefabAsset: {fileID: 0}
  m_GameObject: {fileID: 0}
  m_Enabled: 1
  m_EditorHideFlags: 0
  m_Script: {fileID: 11500000, guid: cf6258160aeff9c4ba54e7ad9c7ddf08, type: 3}
  m_Name: 1939
  m_EditorClassIdentifier: 
  originPrefabName: slope01_low_ver1
  objectName: slope01_low_ver1 (1)
  position: {x: 1542.47, y: 791.39996, z: 3885.35}
  rotation: {x: -0, y: -0.9568906, z: -0, w: 0.29044864}
  scale: {x: 80, y: 80, z: 80}
  sector: 7_19
  id: 1939
  layer: 0
  tag: Untagged
  material: {fileID: 2100000, guid: 758461e20c2231f46a5828e43fcd862d, type: 2}
