%YAML 1.1
%TAG !u! tag:unity3d.com,2011:
--- !u!114 &11400000
MonoBehaviour:
  m_ObjectHideFlags: 0
  m_CorrespondingSourceObject: {fileID: 0}
  m_PrefabInstance: {fileID: 0}
  m_PrefabAsset: {fileID: 0}
  m_GameObject: {fileID: 0}
  m_Enabled: 1
  m_EditorHideFlags: 0
  m_Script: {fileID: 11500000, guid: cf6258160aeff9c4ba54e7ad9c7ddf08, type: 3}
  m_Name: 1960
  m_EditorClassIdentifier: 
  originPrefabName: Crystals (3)
  objectName: Crystals (6)
  position: {x: 767.3686, y: 22.527752, z: 663.4562}
  rotation: {x: -0.0047229207, y: -0.37774274, z: 0.01157561, w: 0.92582625}
  scale: {x: 19.88646, y: 19.886456, z: 19.88646}
  sector: 3_3
  id: 1960
  layer: 0
  tag: Untagged
  material: {fileID: 2100000, guid: 84b56cef1adff5f43a0a71dbf93822b7, type: 2}
