%YAML 1.1
%TAG !u! tag:unity3d.com,2011:
--- !u!114 &11400000
MonoBehaviour:
  m_ObjectHideFlags: 0
  m_CorrespondingSourceObject: {fileID: 0}
  m_PrefabInstance: {fileID: 0}
  m_PrefabAsset: {fileID: 0}
  m_GameObject: {fileID: 0}
  m_Enabled: 1
  m_EditorHideFlags: 0
  m_Script: {fileID: 11500000, guid: cf6258160aeff9c4ba54e7ad9c7ddf08, type: 3}
  m_Name: 1961
  m_EditorClassIdentifier: 
  originPrefabName: SmallCrystal_low (2)
  objectName: SmallCrystal_low (22)
  position: {x: 1588.2063, y: 795.561, z: 3802.668}
  rotation: {x: 0.45173374, y: -0.40525165, z: -0.24178901, w: -0.75713}
  scale: {x: 1.0000001, y: 1.0000001, z: 1}
  sector: 7_19
  id: 1961
  layer: 0
  tag: Untagged
  material: {fileID: 2100000, guid: fe36741ede331ae408acac449eaf0149, type: 2}
