%YAML 1.1
%TAG !u! tag:unity3d.com,2011:
--- !u!114 &11400000
MonoBehaviour:
  m_ObjectHideFlags: 0
  m_CorrespondingSourceObject: {fileID: 0}
  m_PrefabInstance: {fileID: 0}
  m_PrefabAsset: {fileID: 0}
  m_GameObject: {fileID: 0}
  m_Enabled: 1
  m_EditorHideFlags: 0
  m_Script: {fileID: 11500000, guid: cf6258160aeff9c4ba54e7ad9c7ddf08, type: 3}
  m_Name: 1964
  m_EditorClassIdentifier: 
  originPrefabName: Crystals (2)
  objectName: Crystals (37)
  position: {x: 1484.9315, y: 796.1158, z: 3637.8093}
  rotation: {x: 0.06768384, y: -0.99554217, z: 0.013008475, w: 0.06438534}
  scale: {x: 2.9999998, y: 3, z: 2.9999995}
  sector: 7_18
  id: 1964
  layer: 0
  tag: Untagged
  material: {fileID: 2100000, guid: fe36741ede331ae408acac449eaf0149, type: 2}
