%YAML 1.1
%TAG !u! tag:unity3d.com,2011:
--- !u!114 &11400000
MonoBehaviour:
  m_ObjectHideFlags: 0
  m_CorrespondingSourceObject: {fileID: 0}
  m_PrefabInstance: {fileID: 0}
  m_PrefabAsset: {fileID: 0}
  m_GameObject: {fileID: 0}
  m_Enabled: 1
  m_EditorHideFlags: 0
  m_Script: {fileID: 11500000, guid: cf6258160aeff9c4ba54e7ad9c7ddf08, type: 3}
  m_Name: 1966
  m_EditorClassIdentifier: 
  originPrefabName: PF_RegTree_1
  objectName: PF_RegTree_1 (6)
  position: {x: 3268.4302, y: 25.249975, z: 317.48}
  rotation: {x: -0, y: -0.6857518, z: -0, w: 0.7278355}
  scale: {x: 1.8303, y: 1.8303, z: 1.8303}
  sector: 16_1
  id: 1966
  layer: 8
  tag: Untagged
  material: {fileID: 0}
