%YAML 1.1
%TAG !u! tag:unity3d.com,2011:
--- !u!114 &11400000
MonoBehaviour:
  m_ObjectHideFlags: 0
  m_CorrespondingSourceObject: {fileID: 0}
  m_PrefabInstance: {fileID: 0}
  m_PrefabAsset: {fileID: 0}
  m_GameObject: {fileID: 0}
  m_Enabled: 1
  m_EditorHideFlags: 0
  m_Script: {fileID: 11500000, guid: cf6258160aeff9c4ba54e7ad9c7ddf08, type: 3}
  m_Name: 1969
  m_EditorClassIdentifier: 
  originPrefabName: Shard (7)
  objectName: Shard (8)
  position: {x: 2983.1, y: 759.01, z: 3732.94}
  rotation: {x: -0.26741695, y: -0, z: -0, w: 0.96358097}
  scale: {x: 1511.3, y: 1511.3, z: 1511.3}
  sector: 14_18
  id: 1969
  layer: 0
  tag: Untagged
  material: {fileID: 2100000, guid: 21460ee8ba22c2c4087816cacc9df76f, type: 2}
