%YAML 1.1
%TAG !u! tag:unity3d.com,2011:
--- !u!114 &11400000
MonoBehaviour:
  m_ObjectHideFlags: 0
  m_CorrespondingSourceObject: {fileID: 0}
  m_PrefabInstance: {fileID: 0}
  m_PrefabAsset: {fileID: 0}
  m_GameObject: {fileID: 0}
  m_Enabled: 1
  m_EditorHideFlags: 0
  m_Script: {fileID: 11500000, guid: cf6258160aeff9c4ba54e7ad9c7ddf08, type: 3}
  m_Name: 1989
  m_EditorClassIdentifier: 
  originPrefabName: LongCrystal_low
  objectName: LongCrystal_low
  position: {x: 2017.96, y: 777.17, z: 3829.4}
  rotation: {x: -0, y: -0, z: -0, w: 1}
  scale: {x: 1.3876661, y: 2.9787629, z: 1.6476276}
  sector: 10_19
  id: 1989
  layer: 7
  tag: Creation Area
  material: {fileID: 2100000, guid: 6c34c5855806d0a489928205f9c51cee, type: 2}
