%YAML 1.1
%TAG !u! tag:unity3d.com,2011:
--- !u!114 &11400000
MonoBehaviour:
  m_ObjectHideFlags: 0
  m_CorrespondingSourceObject: {fileID: 0}
  m_PrefabInstance: {fileID: 0}
  m_PrefabAsset: {fileID: 0}
  m_GameObject: {fileID: 0}
  m_Enabled: 1
  m_EditorHideFlags: 0
  m_Script: {fileID: 11500000, guid: cf6258160aeff9c4ba54e7ad9c7ddf08, type: 3}
  m_Name: 2015
  m_EditorClassIdentifier: 
  originPrefabName: Cabin_TypeD_low
  objectName: Cabin_TypeD_low (8)
  position: {x: 1601.7375, y: 795.5, z: 3801.3152}
  rotation: {x: -0.7104607, y: -0, z: -0, w: 0.70373684}
  scale: {x: 1, y: 0.99999994, z: 0.99999994}
  sector: 8_19
  id: 2015
  layer: 0
  tag: Untagged
  material: {fileID: 2100000, guid: a093c1bca0a480a409fbe066a66a8f59, type: 2}
