%YAML 1.1
%TAG !u! tag:unity3d.com,2011:
--- !u!114 &11400000
MonoBehaviour:
  m_ObjectHideFlags: 0
  m_CorrespondingSourceObject: {fileID: 0}
  m_PrefabInstance: {fileID: 0}
  m_PrefabAsset: {fileID: 0}
  m_GameObject: {fileID: 0}
  m_Enabled: 1
  m_EditorHideFlags: 0
  m_Script: {fileID: 11500000, guid: cf6258160aeff9c4ba54e7ad9c7ddf08, type: 3}
  m_Name: 2046
  m_EditorClassIdentifier: 
  originPrefabName: Shard
  objectName: Shard (12)
  position: {x: 3632.2998, y: 58.199997, z: 331.7}
  rotation: {x: 0.18498921, y: -0, z: -0, w: 0.9827406}
  scale: {x: 1646.9999, y: 1646.9998, z: 1646.9998}
  sector: 18_1
  id: 2046
  layer: 0
  tag: Untagged
  material: {fileID: 2100000, guid: 84a7dfcbe1f4aad4d9577290f0c4706d, type: 2}
