%YAML 1.1
%TAG !u! tag:unity3d.com,2011:
--- !u!114 &11400000
MonoBehaviour:
  m_ObjectHideFlags: 0
  m_CorrespondingSourceObject: {fileID: 0}
  m_PrefabInstance: {fileID: 0}
  m_PrefabAsset: {fileID: 0}
  m_GameObject: {fileID: 0}
  m_Enabled: 1
  m_EditorHideFlags: 0
  m_Script: {fileID: 11500000, guid: cf6258160aeff9c4ba54e7ad9c7ddf08, type: 3}
  m_Name: 2049
  m_EditorClassIdentifier: 
  originPrefabName: building4_low2
  objectName: building4_low2
  position: {x: 255.27774, y: 14.960136, z: 416.84747}
  rotation: {x: 0.004857266, y: 0.9983907, z: 0.0002748886, w: 0.056502584}
  scale: {x: 1.0000005, y: 1, z: 1.0000005}
  sector: 1_2
  id: 2049
  layer: 0
  tag: Untagged
  material: {fileID: 2100000, guid: 0bd801a3c4ae97c44a8588aa16b83064, type: 2}
