%YAML 1.1
%TAG !u! tag:unity3d.com,2011:
--- !u!114 &11400000
MonoBehaviour:
  m_ObjectHideFlags: 0
  m_CorrespondingSourceObject: {fileID: 0}
  m_PrefabInstance: {fileID: 0}
  m_PrefabAsset: {fileID: 0}
  m_GameObject: {fileID: 0}
  m_Enabled: 1
  m_EditorHideFlags: 0
  m_Script: {fileID: 11500000, guid: cf6258160aeff9c4ba54e7ad9c7ddf08, type: 3}
  m_Name: 2111
  m_EditorClassIdentifier: 
  originPrefabName: Cabin_TypeA_low
  objectName: Cabin_TypeA_low (2)
  position: {x: 1473.0134, y: 793.20996, z: 3672.367}
  rotation: {x: -0.70679635, y: -0.02095218, z: 0.02095218, w: 0.70679635}
  scale: {x: 1.0000001, y: 1.0000002, z: 1.0000004}
  sector: 7_18
  id: 2111
  layer: 0
  tag: Untagged
  material: {fileID: 2100000, guid: 3d9e53b49f9192a44902d667dd496461, type: 2}
