%YAML 1.1
%TAG !u! tag:unity3d.com,2011:
--- !u!114 &11400000
MonoBehaviour:
  m_ObjectHideFlags: 0
  m_CorrespondingSourceObject: {fileID: 0}
  m_PrefabInstance: {fileID: 0}
  m_PrefabAsset: {fileID: 0}
  m_GameObject: {fileID: 0}
  m_Enabled: 1
  m_EditorHideFlags: 0
  m_Script: {fileID: 11500000, guid: cf6258160aeff9c4ba54e7ad9c7ddf08, type: 3}
  m_Name: 2120
  m_EditorClassIdentifier: 
  originPrefabName: PF_TallTree_2
  objectName: PF_TallTree_2 (3)
  position: {x: 1428.12, y: 796.05994, z: 3623.1694}
  rotation: {x: -0, y: 0.64301515, z: -0, w: 0.7658535}
  scale: {x: 0.60000026, y: 0.6, z: 0.60000026}
  sector: 7_18
  id: 2120
  layer: 8
  tag: Untagged
  material: {fileID: 0}
