%YAML 1.1
%TAG !u! tag:unity3d.com,2011:
--- !u!114 &11400000
MonoBehaviour:
  m_ObjectHideFlags: 0
  m_CorrespondingSourceObject: {fileID: 0}
  m_PrefabInstance: {fileID: 0}
  m_PrefabAsset: {fileID: 0}
  m_GameObject: {fileID: 0}
  m_Enabled: 1
  m_EditorHideFlags: 0
  m_Script: {fileID: 11500000, guid: cf6258160aeff9c4ba54e7ad9c7ddf08, type: 3}
  m_Name: 2156
  m_EditorClassIdentifier: 
  originPrefabName: PF_Mushroom_Large2
  objectName: PF_Mushroom_Large2 (66)
  position: {x: 653.6917, y: 26.121195, z: 1626.0101}
  rotation: {x: 0.02606811, y: 0.0023133492, z: 0.08836484, w: 0.99574435}
  scale: {x: 1.9064, y: 1.9064003, z: 1.9064007}
  sector: 3_8
  id: 2156
  layer: 0
  tag: Untagged
  material: {fileID: 0}
