%YAML 1.1
%TAG !u! tag:unity3d.com,2011:
--- !u!114 &11400000
MonoBehaviour:
  m_ObjectHideFlags: 0
  m_CorrespondingSourceObject: {fileID: 0}
  m_PrefabInstance: {fileID: 0}
  m_PrefabAsset: {fileID: 0}
  m_GameObject: {fileID: 0}
  m_Enabled: 1
  m_EditorHideFlags: 0
  m_Script: {fileID: 11500000, guid: cf6258160aeff9c4ba54e7ad9c7ddf08, type: 3}
  m_Name: 2261
  m_EditorClassIdentifier: 
  originPrefabName: BigCrystal_NoScratch_low (1)
  objectName: BigCrystal_NoScratch_low (1)
  position: {x: 1433.2888, y: 789.59125, z: 3709.575}
  rotation: {x: -0, y: -0, z: -0, w: 1}
  scale: {x: 1.3, y: 1, z: 1.5}
  sector: 7_18
  id: 2261
  layer: 0
  tag: Untagged
  material: {fileID: 2100000, guid: fe36741ede331ae408acac449eaf0149, type: 2}
