%YAML 1.1
%TAG !u! tag:unity3d.com,2011:
--- !u!114 &11400000
MonoBehaviour:
  m_ObjectHideFlags: 0
  m_CorrespondingSourceObject: {fileID: 0}
  m_PrefabInstance: {fileID: 0}
  m_PrefabAsset: {fileID: 0}
  m_GameObject: {fileID: 0}
  m_Enabled: 1
  m_EditorHideFlags: 0
  m_Script: {fileID: 11500000, guid: cf6258160aeff9c4ba54e7ad9c7ddf08, type: 3}
  m_Name: 2267
  m_EditorClassIdentifier: 
  originPrefabName: PF_Foliage_Fern_1
  objectName: PF_Foliage_Fern_1 (3)
  position: {x: 1466.008, y: 792.39465, z: 3713.9387}
  rotation: {x: -0, y: -0, z: -0, w: 1}
  scale: {x: 0.5, y: 0.5, z: 0.5}
  sector: 7_18
  id: 2267
  layer: 0
  tag: Untagged
  material: {fileID: 0}
