%YAML 1.1
%TAG !u! tag:unity3d.com,2011:
--- !u!114 &11400000
MonoBehaviour:
  m_ObjectHideFlags: 0
  m_CorrespondingSourceObject: {fileID: 0}
  m_PrefabInstance: {fileID: 0}
  m_PrefabAsset: {fileID: 0}
  m_GameObject: {fileID: 0}
  m_Enabled: 1
  m_EditorHideFlags: 0
  m_Script: {fileID: 11500000, guid: cf6258160aeff9c4ba54e7ad9c7ddf08, type: 3}
  m_Name: 2334
  m_EditorClassIdentifier: 
  originPrefabName: Cabin_TypeA_low
  objectName: Cabin_TypeA_low (8)
  position: {x: 2640.5105, y: 761.04, z: 3786.7612}
  rotation: {x: -0.6348027, y: -0.26966143, z: -0.2822463, w: 0.66681725}
  scale: {x: 1, y: 0.9999999, z: 0.9999998}
  sector: 13_18
  id: 2334
  layer: 0
  tag: Untagged
  material: {fileID: 2100000, guid: 5a51e20b7f535704bb52b6d61701b959, type: 2}
