%YAML 1.1
%TAG !u! tag:unity3d.com,2011:
--- !u!114 &11400000
MonoBehaviour:
  m_ObjectHideFlags: 0
  m_CorrespondingSourceObject: {fileID: 0}
  m_PrefabInstance: {fileID: 0}
  m_PrefabAsset: {fileID: 0}
  m_GameObject: {fileID: 0}
  m_Enabled: 1
  m_EditorHideFlags: 0
  m_Script: {fileID: 11500000, guid: cf6258160aeff9c4ba54e7ad9c7ddf08, type: 3}
  m_Name: 2367
  m_EditorClassIdentifier: 
  originPrefabName: PF_Mushroom_Large2
  objectName: PF_Mushroom_Large2 (17)
  position: {x: 531.27, y: 25.64, z: 1632.34}
  rotation: {x: -0, y: -0, z: -0, w: 1}
  scale: {x: 1.9064, y: 1.9064, z: 1.9064}
  sector: 2_8
  id: 2367
  layer: 0
  tag: Untagged
  material: {fileID: 0}
