%YAML 1.1
%TAG !u! tag:unity3d.com,2011:
--- !u!114 &11400000
MonoBehaviour:
  m_ObjectHideFlags: 0
  m_CorrespondingSourceObject: {fileID: 0}
  m_PrefabInstance: {fileID: 0}
  m_PrefabAsset: {fileID: 0}
  m_GameObject: {fileID: 0}
  m_Enabled: 1
  m_EditorHideFlags: 0
  m_Script: {fileID: 11500000, guid: cf6258160aeff9c4ba54e7ad9c7ddf08, type: 3}
  m_Name: 2378
  m_EditorClassIdentifier: 
  originPrefabName: Shard (2)
  objectName: Shard (10)
  position: {x: 3603.8494, y: 32.271034, z: 2988.2786}
  rotation: {x: -0, y: -0, z: -0.17549859, w: 0.9844797}
  scale: {x: 2179.8005, y: 2179.8005, z: 2179.8}
  sector: 18_14
  id: 2378
  layer: 0
  tag: Untagged
  material: {fileID: 2100000, guid: 84b56cef1adff5f43a0a71dbf93822b7, type: 2}
