%YAML 1.1
%TAG !u! tag:unity3d.com,2011:
--- !u!114 &11400000
MonoBehaviour:
  m_ObjectHideFlags: 0
  m_CorrespondingSourceObject: {fileID: 0}
  m_PrefabInstance: {fileID: 0}
  m_PrefabAsset: {fileID: 0}
  m_GameObject: {fileID: 0}
  m_Enabled: 1
  m_EditorHideFlags: 0
  m_Script: {fileID: 11500000, guid: cf6258160aeff9c4ba54e7ad9c7ddf08, type: 3}
  m_Name: 2409
  m_EditorClassIdentifier: 
  originPrefabName: lamp01
  objectName: lamp01
  position: {x: 1437.1544, y: 792.67, z: 3779.137}
  rotation: {x: -0.7071068, y: 0.000001013279, z: 0.000001013279, w: 0.7071068}
  scale: {x: 100, y: 100.00003, z: 100.00003}
  sector: 7_18
  id: 2409
  layer: 0
  tag: Untagged
  material: {fileID: 2100000, guid: e529903d19e66bb46a79ce41bd309a28, type: 2}
