%YAML 1.1
%TAG !u! tag:unity3d.com,2011:
--- !u!114 &11400000
MonoBehaviour:
  m_ObjectHideFlags: 0
  m_CorrespondingSourceObject: {fileID: 0}
  m_PrefabInstance: {fileID: 0}
  m_PrefabAsset: {fileID: 0}
  m_GameObject: {fileID: 0}
  m_Enabled: 1
  m_EditorHideFlags: 0
  m_Script: {fileID: 11500000, guid: cf6258160aeff9c4ba54e7ad9c7ddf08, type: 3}
  m_Name: 2424
  m_EditorClassIdentifier: 
  originPrefabName: Crystals (2)
  objectName: Crystals (52)
  position: {x: 1627.404, y: 788.43005, z: 3778.0366}
  rotation: {x: -0.1540507, y: -0.25264677, z: -0.061494958, w: -0.9532347}
  scale: {x: 1, y: 1, z: 0.9999999}
  sector: 8_18
  id: 2424
  layer: 0
  tag: Untagged
  material: {fileID: 2100000, guid: fe36741ede331ae408acac449eaf0149, type: 2}
