%YAML 1.1
%TAG !u! tag:unity3d.com,2011:
--- !u!114 &11400000
MonoBehaviour:
  m_ObjectHideFlags: 0
  m_CorrespondingSourceObject: {fileID: 0}
  m_PrefabInstance: {fileID: 0}
  m_PrefabAsset: {fileID: 0}
  m_GameObject: {fileID: 0}
  m_Enabled: 1
  m_EditorHideFlags: 0
  m_Script: {fileID: 11500000, guid: cf6258160aeff9c4ba54e7ad9c7ddf08, type: 3}
  m_Name: 2481
  m_EditorClassIdentifier: 
  originPrefabName: BigCrystal_NoScratch_low (9)
  objectName: BigCrystal_NoScratch_low (10)
  position: {x: 437.04, y: 27.11, z: 1364.56}
  rotation: {x: -0, y: -0, z: -0.9983064, w: -0.05817512}
  scale: {x: 1, y: 1, z: 1}
  sector: 2_6
  id: 2481
  layer: 0
  tag: Untagged
  material: {fileID: 2100000, guid: a1ab44f7a3cf5614986dac6313698858, type: 2}
