%YAML 1.1
%TAG !u! tag:unity3d.com,2011:
--- !u!114 &11400000
MonoBehaviour:
  m_ObjectHideFlags: 0
  m_CorrespondingSourceObject: {fileID: 0}
  m_PrefabInstance: {fileID: 0}
  m_PrefabAsset: {fileID: 0}
  m_GameObject: {fileID: 0}
  m_Enabled: 1
  m_EditorHideFlags: 0
  m_Script: {fileID: 11500000, guid: cf6258160aeff9c4ba54e7ad9c7ddf08, type: 3}
  m_Name: 2524
  m_EditorClassIdentifier: 
  originPrefabName: building3_low2
  objectName: building3_low2 (3)
  position: {x: 635.55, y: 16.63, z: 472.27655}
  rotation: {x: -0.017839864, y: 0.9214435, z: 0.007512559, w: 0.3880299}
  scale: {x: 1.0000002, y: 0.99999994, z: 1.0000002}
  sector: 3_2
  id: 2524
  layer: 0
  tag: Untagged
  material: {fileID: 2100000, guid: f80de1af972a50d429104283f837a253, type: 2}
