%YAML 1.1
%TAG !u! tag:unity3d.com,2011:
--- !u!114 &11400000
MonoBehaviour:
  m_ObjectHideFlags: 0
  m_CorrespondingSourceObject: {fileID: 0}
  m_PrefabInstance: {fileID: 0}
  m_PrefabAsset: {fileID: 0}
  m_GameObject: {fileID: 0}
  m_Enabled: 1
  m_EditorHideFlags: 0
  m_Script: {fileID: 11500000, guid: cf6258160aeff9c4ba54e7ad9c7ddf08, type: 3}
  m_Name: 2529
  m_EditorClassIdentifier: 
  originPrefabName: Bench
  objectName: Bench
  position: {x: 3519.01, y: 25.882002, z: 323.77002}
  rotation: {x: 0.019072037, y: 0.0027280329, z: -0.00005203882, w: 0.99981445}
  scale: {x: 1.0973402, y: 1.0973401, z: 1.0973406}
  sector: 17_1
  id: 2529
  layer: 0
  tag: Untagged
  material: {fileID: 2100000, guid: 2505757ef4918ba4997e86029dbbfd7a, type: 2}
