%YAML 1.1
%TAG !u! tag:unity3d.com,2011:
--- !u!114 &11400000
MonoBehaviour:
  m_ObjectHideFlags: 0
  m_CorrespondingSourceObject: {fileID: 0}
  m_PrefabInstance: {fileID: 0}
  m_PrefabAsset: {fileID: 0}
  m_GameObject: {fileID: 0}
  m_Enabled: 1
  m_EditorHideFlags: 0
  m_Script: {fileID: 11500000, guid: cf6258160aeff9c4ba54e7ad9c7ddf08, type: 3}
  m_Name: 2583
  m_EditorClassIdentifier: 
  originPrefabName: PF_HexTerrain_Ramp_Bottom
  objectName: PF_HexTerrain_Ramp_Bottom (3)
  position: {x: 500.0533, y: 30.71634, z: 1535.6}
  rotation: {x: -0, y: -0, z: -0.039649714, w: 0.9992137}
  scale: {x: 3.627943, y: 3.627943, z: 3.627943}
  sector: 2_7
  id: 2583
  layer: 8
  tag: Untagged
  material: {fileID: 0}
