%YAML 1.1
%TAG !u! tag:unity3d.com,2011:
--- !u!114 &11400000
MonoBehaviour:
  m_ObjectHideFlags: 0
  m_CorrespondingSourceObject: {fileID: 0}
  m_PrefabInstance: {fileID: 0}
  m_PrefabAsset: {fileID: 0}
  m_GameObject: {fileID: 0}
  m_Enabled: 1
  m_EditorHideFlags: 0
  m_Script: {fileID: 11500000, guid: cf6258160aeff9c4ba54e7ad9c7ddf08, type: 3}
  m_Name: 2598
  m_EditorClassIdentifier: 
  originPrefabName: Crystals (3)
  objectName: Crystals (6)
  position: {x: 332.69, y: 14.94, z: 180.82}
  rotation: {x: -0, y: -0, z: -0, w: 1}
  scale: {x: 11.162, y: 11.162, z: 11.162}
  sector: 1_0
  id: 2598
  layer: 0
  tag: Untagged
  material: {fileID: 2100000, guid: 84b56cef1adff5f43a0a71dbf93822b7, type: 2}
