%YAML 1.1
%TAG !u! tag:unity3d.com,2011:
--- !u!114 &11400000
MonoBehaviour:
  m_ObjectHideFlags: 0
  m_CorrespondingSourceObject: {fileID: 0}
  m_PrefabInstance: {fileID: 0}
  m_PrefabAsset: {fileID: 0}
  m_GameObject: {fileID: 0}
  m_Enabled: 1
  m_EditorHideFlags: 0
  m_Script: {fileID: 11500000, guid: cf6258160aeff9c4ba54e7ad9c7ddf08, type: 3}
  m_Name: 266
  m_EditorClassIdentifier: 
  originPrefabName: Shard (3)
  objectName: Shard (4)
  position: {x: 3722.8943, y: 22.702805, z: 1619.9}
  rotation: {x: -0.1354206, y: 0.0050666695, z: 0.16501202, w: 0.9769374}
  scale: {x: 1259.364, y: 1259.3645, z: 1259.3645}
  sector: 18_8
  id: 266
  layer: 0
  tag: Untagged
  material: {fileID: 2100000, guid: a1ab44f7a3cf5614986dac6313698858, type: 2}
