%YAML 1.1
%TAG !u! tag:unity3d.com,2011:
--- !u!114 &11400000
MonoBehaviour:
  m_ObjectHideFlags: 0
  m_CorrespondingSourceObject: {fileID: 0}
  m_PrefabInstance: {fileID: 0}
  m_PrefabAsset: {fileID: 0}
  m_GameObject: {fileID: 0}
  m_Enabled: 1
  m_EditorHideFlags: 0
  m_Script: {fileID: 11500000, guid: cf6258160aeff9c4ba54e7ad9c7ddf08, type: 3}
  m_Name: 2677
  m_EditorClassIdentifier: 
  originPrefabName: PF_RegTree_2
  objectName: PF_RegTree_2 (9)
  position: {x: 3537.5, y: 74.63999, z: 84.2}
  rotation: {x: -0, y: -0, z: -0, w: 1}
  scale: {x: 3.0952, y: 3.0952, z: 3.0952}
  sector: 17_0
  id: 2677
  layer: 8
  tag: Untagged
  material: {fileID: 0}
