%YAML 1.1
%TAG !u! tag:unity3d.com,2011:
--- !u!114 &11400000
MonoBehaviour:
  m_ObjectHideFlags: 0
  m_CorrespondingSourceObject: {fileID: 0}
  m_PrefabInstance: {fileID: 0}
  m_PrefabAsset: {fileID: 0}
  m_GameObject: {fileID: 0}
  m_Enabled: 1
  m_EditorHideFlags: 0
  m_Script: {fileID: 11500000, guid: cf6258160aeff9c4ba54e7ad9c7ddf08, type: 3}
  m_Name: 268
  m_EditorClassIdentifier: 
  originPrefabName: Building1_low
  objectName: Building1_low (3)
  position: {x: 645.89, y: 15.47, z: 402.47}
  rotation: {x: -0, y: 0.0749539, z: -0, w: 0.997187}
  scale: {x: 0.99999994, y: 1, z: 0.99999994}
  sector: 3_2
  id: 268
  layer: 0
  tag: Untagged
  material: {fileID: 2100000, guid: 7ff9bd17018a77844934f46e4668fdd7, type: 2}
