%YAML 1.1
%TAG !u! tag:unity3d.com,2011:
--- !u!114 &11400000
MonoBehaviour:
  m_ObjectHideFlags: 0
  m_CorrespondingSourceObject: {fileID: 0}
  m_PrefabInstance: {fileID: 0}
  m_PrefabAsset: {fileID: 0}
  m_GameObject: {fileID: 0}
  m_Enabled: 1
  m_EditorHideFlags: 0
  m_Script: {fileID: 11500000, guid: cf6258160aeff9c4ba54e7ad9c7ddf08, type: 3}
  m_Name: 2694
  m_EditorClassIdentifier: 
  originPrefabName: PF_Mushroom_Large2
  objectName: PF_Mushroom_Large2 (41)
  position: {x: 656.2158, y: 26.470232, z: 1633.8422}
  rotation: {x: -0.0888382, y: 0.9955258, z: 0.02440622, w: -0.020988373}
  scale: {x: 1.9064, y: 1.9064, z: 1.9064003}
  sector: 3_8
  id: 2694
  layer: 0
  tag: Untagged
  material: {fileID: 0}
