%YAML 1.1
%TAG !u! tag:unity3d.com,2011:
--- !u!114 &11400000
MonoBehaviour:
  m_ObjectHideFlags: 0
  m_CorrespondingSourceObject: {fileID: 0}
  m_PrefabInstance: {fileID: 0}
  m_PrefabAsset: {fileID: 0}
  m_GameObject: {fileID: 0}
  m_Enabled: 1
  m_EditorHideFlags: 0
  m_Script: {fileID: 11500000, guid: cf6258160aeff9c4ba54e7ad9c7ddf08, type: 3}
  m_Name: 2754
  m_EditorClassIdentifier: 
  originPrefabName: StoneWall_low
  objectName: StoneWall_low (574)
  position: {x: 1425.6116, y: 233.386, z: 2638.552}
  rotation: {x: -0.019495793, y: 0.70227706, z: 0.029079765, w: 0.7110424}
  scale: {x: 1.0000001, y: 1.0000001, z: 1.0000001}
  sector: 7_13
  id: 2754
  layer: 0
  tag: Untagged
  material: {fileID: 2100000, guid: d9bef21c518766a4a94d454c814e7d41, type: 2}
