%YAML 1.1
%TAG !u! tag:unity3d.com,2011:
--- !u!114 &11400000
MonoBehaviour:
  m_ObjectHideFlags: 0
  m_CorrespondingSourceObject: {fileID: 0}
  m_PrefabInstance: {fileID: 0}
  m_PrefabAsset: {fileID: 0}
  m_GameObject: {fileID: 0}
  m_Enabled: 1
  m_EditorHideFlags: 0
  m_Script: {fileID: 11500000, guid: cf6258160aeff9c4ba54e7ad9c7ddf08, type: 3}
  m_Name: 2756
  m_EditorClassIdentifier: 
  originPrefabName: building3_low2
  objectName: building3_low2
  position: {x: 3438.7305, y: 49.359985, z: 372.12006}
  rotation: {x: 0.00977675, y: -0.74480724, z: 0.011019428, w: -0.6671171}
  scale: {x: 1.0000002, y: 1, z: 1.0000002}
  sector: 17_1
  id: 2756
  layer: 0
  tag: Untagged
  material: {fileID: 2100000, guid: f0673ecb52d8f494ba142d07c567f84c, type: 2}
