%YAML 1.1
%TAG !u! tag:unity3d.com,2011:
--- !u!114 &11400000
MonoBehaviour:
  m_ObjectHideFlags: 0
  m_CorrespondingSourceObject: {fileID: 0}
  m_PrefabInstance: {fileID: 0}
  m_PrefabAsset: {fileID: 0}
  m_GameObject: {fileID: 0}
  m_Enabled: 1
  m_EditorHideFlags: 0
  m_Script: {fileID: 11500000, guid: cf6258160aeff9c4ba54e7ad9c7ddf08, type: 3}
  m_Name: 2763
  m_EditorClassIdentifier: 
  originPrefabName: PF_ConiferTree_4
  objectName: PF_ConiferTree_4 (1)
  position: {x: 1411.2205, y: 788.76996, z: 3594.6887}
  rotation: {x: -0, y: -0.34277663, z: -0, w: 0.93941694}
  scale: {x: 1, y: 1, z: 1}
  sector: 7_17
  id: 2763
  layer: 8
  tag: Untagged
  material: {fileID: 0}
