%YAML 1.1
%TAG !u! tag:unity3d.com,2011:
--- !u!114 &11400000
MonoBehaviour:
  m_ObjectHideFlags: 0
  m_CorrespondingSourceObject: {fileID: 0}
  m_PrefabInstance: {fileID: 0}
  m_PrefabAsset: {fileID: 0}
  m_GameObject: {fileID: 0}
  m_Enabled: 1
  m_EditorHideFlags: 0
  m_Script: {fileID: 11500000, guid: cf6258160aeff9c4ba54e7ad9c7ddf08, type: 3}
  m_Name: 2770
  m_EditorClassIdentifier: 
  originPrefabName: Shard (1)
  objectName: Shard (23)
  position: {x: 1590.6897, y: 791.39996, z: 3821.8306}
  rotation: {x: -0, y: -0.4189359, z: -0, w: 0.9080158}
  scale: {x: 500.00006, y: 500, z: 500.00006}
  sector: 7_19
  id: 2770
  layer: 0
  tag: Untagged
  material: {fileID: 2100000, guid: fe36741ede331ae408acac449eaf0149, type: 2}
