%YAML 1.1
%TAG !u! tag:unity3d.com,2011:
--- !u!114 &11400000
MonoBehaviour:
  m_ObjectHideFlags: 0
  m_CorrespondingSourceObject: {fileID: 0}
  m_PrefabInstance: {fileID: 0}
  m_PrefabAsset: {fileID: 0}
  m_GameObject: {fileID: 0}
  m_Enabled: 1
  m_EditorHideFlags: 0
  m_Script: {fileID: 11500000, guid: cf6258160aeff9c4ba54e7ad9c7ddf08, type: 3}
  m_Name: 2775
  m_EditorClassIdentifier: 
  originPrefabName: Crystals (2)
  objectName: Crystals (32)
  position: {x: 1545.91, y: 789.44995, z: 3899.78}
  rotation: {x: 0.13232872, y: 0.65671104, z: -0.11857039, w: 0.73291254}
  scale: {x: 5, y: 4.9999995, z: 5.0000005}
  sector: 7_19
  id: 2775
  layer: 0
  tag: Untagged
  material: {fileID: 2100000, guid: fe36741ede331ae408acac449eaf0149, type: 2}
