%YAML 1.1
%TAG !u! tag:unity3d.com,2011:
--- !u!114 &11400000
MonoBehaviour:
  m_ObjectHideFlags: 0
  m_CorrespondingSourceObject: {fileID: 0}
  m_PrefabInstance: {fileID: 0}
  m_PrefabAsset: {fileID: 0}
  m_GameObject: {fileID: 0}
  m_Enabled: 1
  m_EditorHideFlags: 0
  m_Script: {fileID: 11500000, guid: cf6258160aeff9c4ba54e7ad9c7ddf08, type: 3}
  m_Name: 278
  m_EditorClassIdentifier: 
  originPrefabName: Fence
  objectName: Fence (5)
  position: {x: 1454.488, y: 793.92, z: 3722.06}
  rotation: {x: -0.015083993, y: 0.7069459, z: 0.015083993, w: 0.7069459}
  scale: {x: 100, y: 100, z: 100}
  sector: 7_18
  id: 278
  layer: 0
  tag: Untagged
  material: {fileID: 2100000, guid: 2d2f75d94738441e4be512df8ce2eabc, type: 2}
