%YAML 1.1
%TAG !u! tag:unity3d.com,2011:
--- !u!114 &11400000
MonoBehaviour:
  m_ObjectHideFlags: 0
  m_CorrespondingSourceObject: {fileID: 0}
  m_PrefabInstance: {fileID: 0}
  m_PrefabAsset: {fileID: 0}
  m_GameObject: {fileID: 0}
  m_Enabled: 1
  m_EditorHideFlags: 0
  m_Script: {fileID: 11500000, guid: cf6258160aeff9c4ba54e7ad9c7ddf08, type: 3}
  m_Name: 2821
  m_EditorClassIdentifier: 
  originPrefabName: slope02_low_ver2
  objectName: slope02_low_ver2 (3)
  position: {x: 1622.5, y: 788, z: 3951.1345}
  rotation: {x: -0, y: -0.5309551, z: -0, w: 0.8474}
  scale: {x: 300.00006, y: 300, z: 300.00006}
  sector: 8_19
  id: 2821
  layer: 0
  tag: Untagged
  material: {fileID: 2100000, guid: 9f4adc938f5d2284bb702ef012483ab5, type: 2}
