%YAML 1.1
%TAG !u! tag:unity3d.com,2011:
--- !u!114 &11400000
MonoBehaviour:
  m_ObjectHideFlags: 0
  m_CorrespondingSourceObject: {fileID: 0}
  m_PrefabInstance: {fileID: 0}
  m_PrefabAsset: {fileID: 0}
  m_GameObject: {fileID: 0}
  m_Enabled: 1
  m_EditorHideFlags: 0
  m_Script: {fileID: 11500000, guid: cf6258160aeff9c4ba54e7ad9c7ddf08, type: 3}
  m_Name: 2839
  m_EditorClassIdentifier: 
  originPrefabName: Crystals (2)
  objectName: Crystals (39)
  position: {x: 1518.7073, y: 792.86664, z: 3676.2744}
  rotation: {x: 0.013245937, y: -0.5701544, z: -0.0581816, w: -0.8193677}
  scale: {x: 3, y: 3.0000002, z: 3.0000005}
  sector: 7_18
  id: 2839
  layer: 0
  tag: Untagged
  material: {fileID: 2100000, guid: fe36741ede331ae408acac449eaf0149, type: 2}
