%YAML 1.1
%TAG !u! tag:unity3d.com,2011:
--- !u!114 &11400000
MonoBehaviour:
  m_ObjectHideFlags: 0
  m_CorrespondingSourceObject: {fileID: 0}
  m_PrefabInstance: {fileID: 0}
  m_PrefabAsset: {fileID: 0}
  m_GameObject: {fileID: 0}
  m_Enabled: 1
  m_EditorHideFlags: 0
  m_Script: {fileID: 11500000, guid: cf6258160aeff9c4ba54e7ad9c7ddf08, type: 3}
  m_Name: 2840
  m_EditorClassIdentifier: 
  originPrefabName: PF_ConiferTree_4
  objectName: PF_ConiferTree_4 (5)
  position: {x: 786.7491, y: 19.99, z: 561.06476}
  rotation: {x: -0, y: -0.75728977, z: -0, w: -0.65307903}
  scale: {x: 1.0000001, y: 1, z: 1.0000001}
  sector: 3_2
  id: 2840
  layer: 8
  tag: Untagged
  material: {fileID: 0}
