%YAML 1.1
%TAG !u! tag:unity3d.com,2011:
--- !u!114 &11400000
MonoBehaviour:
  m_ObjectHideFlags: 0
  m_CorrespondingSourceObject: {fileID: 0}
  m_PrefabInstance: {fileID: 0}
  m_PrefabAsset: {fileID: 0}
  m_GameObject: {fileID: 0}
  m_Enabled: 1
  m_EditorHideFlags: 0
  m_Script: {fileID: 11500000, guid: cf6258160aeff9c4ba54e7ad9c7ddf08, type: 3}
  m_Name: 2861
  m_EditorClassIdentifier: 
  originPrefabName: Crystals (5)
  objectName: Crystals (6)
  position: {x: 3644.03, y: 101.77003, z: 106.88}
  rotation: {x: -0, y: 0.123910576, z: -0, w: 0.9922934}
  scale: {x: 12.834021, y: 15.177513, z: 15.349489}
  sector: 18_0
  id: 2861
  layer: 0
  tag: Untagged
  material: {fileID: 2100000, guid: 6c34c5855806d0a489928205f9c51cee, type: 2}
