%YAML 1.1
%TAG !u! tag:unity3d.com,2011:
--- !u!114 &11400000
MonoBehaviour:
  m_ObjectHideFlags: 0
  m_CorrespondingSourceObject: {fileID: 0}
  m_PrefabInstance: {fileID: 0}
  m_PrefabAsset: {fileID: 0}
  m_GameObject: {fileID: 0}
  m_Enabled: 1
  m_EditorHideFlags: 0
  m_Script: {fileID: 11500000, guid: cf6258160aeff9c4ba54e7ad9c7ddf08, type: 3}
  m_Name: 2876
  m_EditorClassIdentifier: 
  originPrefabName: vessel_3
  objectName: vessel_3
  position: {x: 243.13428, y: 15.765602, z: 213.42319}
  rotation: {x: -0, y: -0, z: -0, w: 1}
  scale: {x: 0.2, y: 0.2, z: 0.2}
  sector: 1_1
  id: 2876
  layer: 0
  tag: Untagged
  material: {fileID: 2100000, guid: b7bab55e5f5da04428fc05a9271575a9, type: 2}
