%YAML 1.1
%TAG !u! tag:unity3d.com,2011:
--- !u!114 &11400000
MonoBehaviour:
  m_ObjectHideFlags: 0
  m_CorrespondingSourceObject: {fileID: 0}
  m_PrefabInstance: {fileID: 0}
  m_PrefabAsset: {fileID: 0}
  m_GameObject: {fileID: 0}
  m_Enabled: 1
  m_EditorHideFlags: 0
  m_Script: {fileID: 11500000, guid: cf6258160aeff9c4ba54e7ad9c7ddf08, type: 3}
  m_Name: 2911
  m_EditorClassIdentifier: 
  originPrefabName: Table01v2
  objectName: Table01v2
  position: {x: 521.5576, y: 27.2848, z: 1713.9294}
  rotation: {x: -0, y: -0, z: -0, w: 1}
  scale: {x: 1, y: 1, z: 1}
  sector: 2_8
  id: 2911
  layer: 0
  tag: Untagged
  material: {fileID: 2100000, guid: 4d47e1a3163646541bbe77c7ce6d4899, type: 2}
