%YAML 1.1
%TAG !u! tag:unity3d.com,2011:
--- !u!114 &11400000
MonoBehaviour:
  m_ObjectHideFlags: 0
  m_CorrespondingSourceObject: {fileID: 0}
  m_PrefabInstance: {fileID: 0}
  m_PrefabAsset: {fileID: 0}
  m_GameObject: {fileID: 0}
  m_Enabled: 1
  m_EditorHideFlags: 0
  m_Script: {fileID: 11500000, guid: cf6258160aeff9c4ba54e7ad9c7ddf08, type: 3}
  m_Name: 2930
  m_EditorClassIdentifier: 
  originPrefabName: Cabin_TypeA_low
  objectName: Cabin_TypeA_low (6)
  position: {x: 2666.94, y: 760.36, z: 3816.23}
  rotation: {x: -0.6610093, y: -0.28044033, z: -0.2726873, w: 0.64036053}
  scale: {x: 1, y: 1, z: 1.0000001}
  sector: 13_19
  id: 2930
  layer: 0
  tag: Untagged
  material: {fileID: 2100000, guid: 5a51e20b7f535704bb52b6d61701b959, type: 2}
