%YAML 1.1
%TAG !u! tag:unity3d.com,2011:
--- !u!114 &11400000
MonoBehaviour:
  m_ObjectHideFlags: 0
  m_CorrespondingSourceObject: {fileID: 0}
  m_PrefabInstance: {fileID: 0}
  m_PrefabAsset: {fileID: 0}
  m_GameObject: {fileID: 0}
  m_Enabled: 1
  m_EditorHideFlags: 0
  m_Script: {fileID: 11500000, guid: cf6258160aeff9c4ba54e7ad9c7ddf08, type: 3}
  m_Name: 2944
  m_EditorClassIdentifier: 
  originPrefabName: Crystals (2)
  objectName: Crystals (14)
  position: {x: 1468.808, y: 792.4044, z: 3713.682}
  rotation: {x: 0.029516239, y: 0.92403316, z: -0.19300917, w: 0.32869276}
  scale: {x: 0.9999999, y: 0.99999994, z: 0.9999999}
  sector: 7_18
  id: 2944
  layer: 0
  tag: Untagged
  material: {fileID: 2100000, guid: fe36741ede331ae408acac449eaf0149, type: 2}
