%YAML 1.1
%TAG !u! tag:unity3d.com,2011:
--- !u!114 &11400000
MonoBehaviour:
  m_ObjectHideFlags: 0
  m_CorrespondingSourceObject: {fileID: 0}
  m_PrefabInstance: {fileID: 0}
  m_PrefabAsset: {fileID: 0}
  m_GameObject: {fileID: 0}
  m_Enabled: 1
  m_EditorHideFlags: 0
  m_Script: {fileID: 11500000, guid: cf6258160aeff9c4ba54e7ad9c7ddf08, type: 3}
  m_Name: 2951
  m_EditorClassIdentifier: 
  originPrefabName: Cabin_TypeD_low
  objectName: Cabin_TypeD_low (6)
  position: {x: 1408.88, y: 790.13995, z: 3859.599}
  rotation: {x: -0, y: 0.7071068, z: 0.7071068, w: 0}
  scale: {x: 1.0000005, y: 1.0000002, z: 1.0000002}
  sector: 7_19
  id: 2951
  layer: 0
  tag: Untagged
  material: {fileID: 2100000, guid: aab96851d03710a45b34c0ced200f362, type: 2}
