%YAML 1.1
%TAG !u! tag:unity3d.com,2011:
--- !u!114 &11400000
MonoBehaviour:
  m_ObjectHideFlags: 0
  m_CorrespondingSourceObject: {fileID: 0}
  m_PrefabInstance: {fileID: 0}
  m_PrefabAsset: {fileID: 0}
  m_GameObject: {fileID: 0}
  m_Enabled: 1
  m_EditorHideFlags: 0
  m_Script: {fileID: 11500000, guid: cf6258160aeff9c4ba54e7ad9c7ddf08, type: 3}
  m_Name: 2962
  m_EditorClassIdentifier: 
  originPrefabName: PF_RegTree_4
  objectName: PF_RegTree_4 (2)
  position: {x: 3323.9, y: 29.10996, z: 125.2}
  rotation: {x: -0, y: -0, z: -0, w: 1}
  scale: {x: 1.8583046, y: 1.8583046, z: 1.8583046}
  sector: 16_0
  id: 2962
  layer: 8
  tag: Untagged
  material: {fileID: 0}
