%YAML 1.1
%TAG !u! tag:unity3d.com,2011:
--- !u!114 &11400000
MonoBehaviour:
  m_ObjectHideFlags: 0
  m_CorrespondingSourceObject: {fileID: 0}
  m_PrefabInstance: {fileID: 0}
  m_PrefabAsset: {fileID: 0}
  m_GameObject: {fileID: 0}
  m_Enabled: 1
  m_EditorHideFlags: 0
  m_Script: {fileID: 11500000, guid: cf6258160aeff9c4ba54e7ad9c7ddf08, type: 3}
  m_Name: 2967
  m_EditorClassIdentifier: 
  originPrefabName: PF_HexTerrain_Top
  objectName: PF_HexTerrain_Top (6)
  position: {x: 470.73, y: 24.909998, z: 1818.09}
  rotation: {x: -0, y: -0, z: -0, w: 1}
  scale: {x: 3.3773, y: 5.7809243, z: 3.3773}
  sector: 2_9
  id: 2967
  layer: 8
  tag: Untagged
  material: {fileID: 0}
