%YAML 1.1
%TAG !u! tag:unity3d.com,2011:
--- !u!114 &11400000
MonoBehaviour:
  m_ObjectHideFlags: 0
  m_CorrespondingSourceObject: {fileID: 0}
  m_PrefabInstance: {fileID: 0}
  m_PrefabAsset: {fileID: 0}
  m_GameObject: {fileID: 0}
  m_Enabled: 1
  m_EditorHideFlags: 0
  m_Script: {fileID: 11500000, guid: cf6258160aeff9c4ba54e7ad9c7ddf08, type: 3}
  m_Name: 2981
  m_EditorClassIdentifier: 
  originPrefabName: Crystals (2)
  objectName: Crystals (13)
  position: {x: 1436.62, y: 789.31177, z: 3668.2356}
  rotation: {x: 0.16759278, y: -0.21090426, z: -0.21009874, w: 0.9398354}
  scale: {x: 1.5016, y: 1.5016001, z: 1.5015999}
  sector: 7_18
  id: 2981
  layer: 0
  tag: Untagged
  material: {fileID: 2100000, guid: fe36741ede331ae408acac449eaf0149, type: 2}
