%YAML 1.1
%TAG !u! tag:unity3d.com,2011:
--- !u!114 &11400000
MonoBehaviour:
  m_ObjectHideFlags: 0
  m_CorrespondingSourceObject: {fileID: 0}
  m_PrefabInstance: {fileID: 0}
  m_PrefabAsset: {fileID: 0}
  m_GameObject: {fileID: 0}
  m_Enabled: 1
  m_EditorHideFlags: 0
  m_Script: {fileID: 11500000, guid: cf6258160aeff9c4ba54e7ad9c7ddf08, type: 3}
  m_Name: 2996
  m_EditorClassIdentifier: 
  originPrefabName: StoneWall_low
  objectName: StoneWall_low (109)
  position: {x: 3157.4434, y: 79.34709, z: 40.19}
  rotation: {x: -0.0000014752134, y: 0.00000022148012, z: -0.003108209, w: 0.9999952}
  scale: {x: 1.3531865, y: 1.3241998, z: 1}
  sector: 15_0
  id: 2996
  layer: 0
  tag: Untagged
  material: {fileID: 2100000, guid: d9bef21c518766a4a94d454c814e7d41, type: 2}
