%YAML 1.1
%TAG !u! tag:unity3d.com,2011:
--- !u!114 &11400000
MonoBehaviour:
  m_ObjectHideFlags: 0
  m_CorrespondingSourceObject: {fileID: 0}
  m_PrefabInstance: {fileID: 0}
  m_PrefabAsset: {fileID: 0}
  m_GameObject: {fileID: 0}
  m_Enabled: 1
  m_EditorHideFlags: 0
  m_Script: {fileID: 11500000, guid: cf6258160aeff9c4ba54e7ad9c7ddf08, type: 3}
  m_Name: 2999
  m_EditorClassIdentifier: 
  originPrefabName: Shard (3)
  objectName: Shard (7)
  position: {x: 3371.85, y: 25.968975, z: 4699.35}
  rotation: {x: -0.28018564, y: -0, z: -0, w: 0.95994586}
  scale: {x: 865.57996, y: 865.57996, z: 865.57996}
  sector: 16_23
  id: 2999
  layer: 0
  tag: Untagged
  material: {fileID: 2100000, guid: a1ab44f7a3cf5614986dac6313698858, type: 2}
