%YAML 1.1
%TAG !u! tag:unity3d.com,2011:
--- !u!114 &11400000
MonoBehaviour:
  m_ObjectHideFlags: 0
  m_CorrespondingSourceObject: {fileID: 0}
  m_PrefabInstance: {fileID: 0}
  m_PrefabAsset: {fileID: 0}
  m_GameObject: {fileID: 0}
  m_Enabled: 1
  m_EditorHideFlags: 0
  m_Script: {fileID: 11500000, guid: cf6258160aeff9c4ba54e7ad9c7ddf08, type: 3}
  m_Name: 3006
  m_EditorClassIdentifier: 
  originPrefabName: WoodenCrate_02
  objectName: WoodenCrate_02
  position: {x: 3540.4902, y: 111.82685, z: 3421.9465}
  rotation: {x: -0.66844666, y: 0.008785679, z: -0.009774028, w: 0.74364394}
  scale: {x: 0.99999994, y: 0.99999994, z: 1}
  sector: 17_17
  id: 3006
  layer: 0
  tag: Untagged
  material: {fileID: 2100000, guid: e49411fb77172764ba3123f1c7dc8d54, type: 2}
