%YAML 1.1
%TAG !u! tag:unity3d.com,2011:
--- !u!114 &11400000
MonoBehaviour:
  m_ObjectHideFlags: 0
  m_CorrespondingSourceObject: {fileID: 0}
  m_PrefabInstance: {fileID: 0}
  m_PrefabAsset: {fileID: 0}
  m_GameObject: {fileID: 0}
  m_Enabled: 1
  m_EditorHideFlags: 0
  m_Script: {fileID: 11500000, guid: cf6258160aeff9c4ba54e7ad9c7ddf08, type: 3}
  m_Name: 3015
  m_EditorClassIdentifier: 
  originPrefabName: MiddleCrystal_low (2)
  objectName: MiddleCrystal_low (23)
  position: {x: 1593.1759, y: 774.86, z: 3992.8086}
  rotation: {x: -0.022624372, y: -0.99449325, z: -0.08353005, w: 0.059111122}
  scale: {x: 1.0000004, y: 0.99999994, z: 1.0000005}
  sector: 7_19
  id: 3015
  layer: 0
  tag: Untagged
  material: {fileID: 2100000, guid: fe36741ede331ae408acac449eaf0149, type: 2}
