%YAML 1.1
%TAG !u! tag:unity3d.com,2011:
--- !u!114 &11400000
MonoBehaviour:
  m_ObjectHideFlags: 0
  m_CorrespondingSourceObject: {fileID: 0}
  m_PrefabInstance: {fileID: 0}
  m_PrefabAsset: {fileID: 0}
  m_GameObject: {fileID: 0}
  m_Enabled: 1
  m_EditorHideFlags: 0
  m_Script: {fileID: 11500000, guid: cf6258160aeff9c4ba54e7ad9c7ddf08, type: 3}
  m_Name: 3030
  m_EditorClassIdentifier: 
  originPrefabName: PF_TallTree_1
  objectName: PF_TallTree_1 (7)
  position: {x: 3712.2, y: 45.54998, z: 172.9}
  rotation: {x: -0, y: -0, z: -0, w: 1}
  scale: {x: 2.633827, y: 2.667013, z: 2.633827}
  sector: 18_0
  id: 3030
  layer: 8
  tag: Untagged
  material: {fileID: 0}
