%YAML 1.1
%TAG !u! tag:unity3d.com,2011:
--- !u!114 &11400000
MonoBehaviour:
  m_ObjectHideFlags: 0
  m_CorrespondingSourceObject: {fileID: 0}
  m_PrefabInstance: {fileID: 0}
  m_PrefabAsset: {fileID: 0}
  m_GameObject: {fileID: 0}
  m_Enabled: 1
  m_EditorHideFlags: 0
  m_Script: {fileID: 11500000, guid: cf6258160aeff9c4ba54e7ad9c7ddf08, type: 3}
  m_Name: 3072
  m_EditorClassIdentifier: 
  originPrefabName: Shard (3)
  objectName: Shard (3)
  position: {x: 715.7, y: 28.510492, z: 1301.11}
  rotation: {x: -0, y: -0, z: 0.2048325, w: 0.97879714}
  scale: {x: 99.99999, y: 99.99999, z: 100}
  sector: 3_6
  id: 3072
  layer: 0
  tag: Untagged
  material: {fileID: 2100000, guid: a1ab44f7a3cf5614986dac6313698858, type: 2}
