%YAML 1.1
%TAG !u! tag:unity3d.com,2011:
--- !u!114 &11400000
MonoBehaviour:
  m_ObjectHideFlags: 0
  m_CorrespondingSourceObject: {fileID: 0}
  m_PrefabInstance: {fileID: 0}
  m_PrefabAsset: {fileID: 0}
  m_GameObject: {fileID: 0}
  m_Enabled: 1
  m_EditorHideFlags: 0
  m_Script: {fileID: 11500000, guid: cf6258160aeff9c4ba54e7ad9c7ddf08, type: 3}
  m_Name: 311
  m_EditorClassIdentifier: 
  originPrefabName: PF_Foliage_RoundBush
  objectName: PF_Foliage_RoundBush (1)
  position: {x: 3549.66, y: 111.88, z: 3363.58}
  rotation: {x: -0, y: -0, z: -0, w: 1}
  scale: {x: 2.3576, y: 2.3576, z: 2.3576}
  sector: 17_16
  id: 311
  layer: 0
  tag: Untagged
  material: {fileID: 0}
