%YAML 1.1
%TAG !u! tag:unity3d.com,2011:
--- !u!114 &11400000
MonoBehaviour:
  m_ObjectHideFlags: 0
  m_CorrespondingSourceObject: {fileID: 0}
  m_PrefabInstance: {fileID: 0}
  m_PrefabAsset: {fileID: 0}
  m_GameObject: {fileID: 0}
  m_Enabled: 1
  m_EditorHideFlags: 0
  m_Script: {fileID: 11500000, guid: cf6258160aeff9c4ba54e7ad9c7ddf08, type: 3}
  m_Name: 3150
  m_EditorClassIdentifier: 
  originPrefabName: Cabin_TypeD_low
  objectName: Cabin_TypeD_low (10)
  position: {x: 1509.6664, y: 790.13995, z: 3874.2332}
  rotation: {x: -0.43106338, y: 0.54190063, z: 0.5680538, w: 0.44479558}
  scale: {x: 1.0000004, y: 1.0000004, z: 1.0000002}
  sector: 7_19
  id: 3150
  layer: 0
  tag: Untagged
  material: {fileID: 2100000, guid: a093c1bca0a480a409fbe066a66a8f59, type: 2}
