%YAML 1.1
%TAG !u! tag:unity3d.com,2011:
--- !u!114 &11400000
MonoBehaviour:
  m_ObjectHideFlags: 0
  m_CorrespondingSourceObject: {fileID: 0}
  m_PrefabInstance: {fileID: 0}
  m_PrefabAsset: {fileID: 0}
  m_GameObject: {fileID: 0}
  m_Enabled: 1
  m_EditorHideFlags: 0
  m_Script: {fileID: 11500000, guid: cf6258160aeff9c4ba54e7ad9c7ddf08, type: 3}
  m_Name: 3175
  m_EditorClassIdentifier: 
  originPrefabName: CrsytalField
  objectName: CrsytalField
  position: {x: 229.523, y: 14.677, z: 207.31372}
  rotation: {x: 0.6811682, y: -0, z: -0, w: 0.73212695}
  scale: {x: 14.834, y: 14.546, z: 12.664}
  sector: 1_1
  id: 3175
  layer: 7
  tag: Creation Area
  material: {fileID: 2100000, guid: aa4a9d0ec9800304fb57c5104ade9e22, type: 2}
