%YAML 1.1
%TAG !u! tag:unity3d.com,2011:
--- !u!114 &11400000
MonoBehaviour:
  m_ObjectHideFlags: 0
  m_CorrespondingSourceObject: {fileID: 0}
  m_PrefabInstance: {fileID: 0}
  m_PrefabAsset: {fileID: 0}
  m_GameObject: {fileID: 0}
  m_Enabled: 1
  m_EditorHideFlags: 0
  m_Script: {fileID: 11500000, guid: cf6258160aeff9c4ba54e7ad9c7ddf08, type: 3}
  m_Name: 3176
  m_EditorClassIdentifier: 
  originPrefabName: PF_Mushroom_Large2
  objectName: PF_Mushroom_Large2 (18)
  position: {x: 534.98535, y: 25.999, z: 1641.8645}
  rotation: {x: -0, y: 0.9998241, z: -0, w: -0.018755225}
  scale: {x: 1.9063998, y: 1.9064, z: 1.9063998}
  sector: 2_8
  id: 3176
  layer: 0
  tag: Untagged
  material: {fileID: 0}
