%YAML 1.1
%TAG !u! tag:unity3d.com,2011:
--- !u!114 &11400000
MonoBehaviour:
  m_ObjectHideFlags: 0
  m_CorrespondingSourceObject: {fileID: 0}
  m_PrefabInstance: {fileID: 0}
  m_PrefabAsset: {fileID: 0}
  m_GameObject: {fileID: 0}
  m_Enabled: 1
  m_EditorHideFlags: 0
  m_Script: {fileID: 11500000, guid: cf6258160aeff9c4ba54e7ad9c7ddf08, type: 3}
  m_Name: 3214
  m_EditorClassIdentifier: 
  originPrefabName: lamp5
  objectName: lamp5 (3)
  position: {x: 505.2, y: 27.21709, z: 1669.08}
  rotation: {x: -0, y: 0.9990229, z: -0, w: 0.044195596}
  scale: {x: 200.00003, y: 200, z: 200.00003}
  sector: 2_8
  id: 3214
  layer: 0
  tag: Untagged
  material: {fileID: 2100000, guid: 1e25a9f1e2cdeee49a3489ecee88d8cd, type: 2}
