%YAML 1.1
%TAG !u! tag:unity3d.com,2011:
--- !u!114 &11400000
MonoBehaviour:
  m_ObjectHideFlags: 0
  m_CorrespondingSourceObject: {fileID: 0}
  m_PrefabInstance: {fileID: 0}
  m_PrefabAsset: {fileID: 0}
  m_GameObject: {fileID: 0}
  m_Enabled: 1
  m_EditorHideFlags: 0
  m_Script: {fileID: 11500000, guid: cf6258160aeff9c4ba54e7ad9c7ddf08, type: 3}
  m_Name: 3252
  m_EditorClassIdentifier: 
  originPrefabName: lamp01
  objectName: lamp01 (13)
  position: {x: 1588.2468, y: 805.6639, z: 3568.2075}
  rotation: {x: 0.4999993, y: 0.5000007, z: 0.5000007, w: -0.4999993}
  scale: {x: 100, y: 100, z: 100}
  sector: 7_17
  id: 3252
  layer: 0
  tag: Untagged
  material: {fileID: 2100000, guid: e529903d19e66bb46a79ce41bd309a28, type: 2}
