%YAML 1.1
%TAG !u! tag:unity3d.com,2011:
--- !u!114 &11400000
MonoBehaviour:
  m_ObjectHideFlags: 0
  m_CorrespondingSourceObject: {fileID: 0}
  m_PrefabInstance: {fileID: 0}
  m_PrefabAsset: {fileID: 0}
  m_GameObject: {fileID: 0}
  m_Enabled: 1
  m_EditorHideFlags: 0
  m_Script: {fileID: 11500000, guid: cf6258160aeff9c4ba54e7ad9c7ddf08, type: 3}
  m_Name: 3264
  m_EditorClassIdentifier: 
  originPrefabName: mushroomHouse_TypeC_low
  objectName: mushroomHouse_TypeC_low (3)
  position: {x: 3627.1624, y: 111.87748, z: 3475.2117}
  rotation: {x: -0, y: 0.76237446, z: -0, w: 0.6471361}
  scale: {x: 0.77, y: 0.77, z: 0.77}
  sector: 18_17
  id: 3264
  layer: 0
  tag: Untagged
  material: {fileID: 2100000, guid: 6346067b7f95ef04cab3610253c7d80d, type: 2}
