%YAML 1.1
%TAG !u! tag:unity3d.com,2011:
--- !u!114 &11400000
MonoBehaviour:
  m_ObjectHideFlags: 0
  m_CorrespondingSourceObject: {fileID: 0}
  m_PrefabInstance: {fileID: 0}
  m_PrefabAsset: {fileID: 0}
  m_GameObject: {fileID: 0}
  m_Enabled: 1
  m_EditorHideFlags: 0
  m_Script: {fileID: 11500000, guid: cf6258160aeff9c4ba54e7ad9c7ddf08, type: 3}
  m_Name: 3269
  m_EditorClassIdentifier: 
  originPrefabName: vessel
  objectName: vessel
  position: {x: 246.752, y: 15.098, z: 216.446}
  rotation: {x: -0, y: -0, z: 0.69261163, w: 0.7213108}
  scale: {x: 0.20000005, y: 0.20000005, z: 0.2}
  sector: 1_1
  id: 3269
  layer: 0
  tag: Untagged
  material: {fileID: 2100000, guid: 9c9003e8bda32a44abf7207b5cda9f8c, type: 2}
