%YAML 1.1
%TAG !u! tag:unity3d.com,2011:
--- !u!114 &11400000
MonoBehaviour:
  m_ObjectHideFlags: 0
  m_CorrespondingSourceObject: {fileID: 0}
  m_PrefabInstance: {fileID: 0}
  m_PrefabAsset: {fileID: 0}
  m_GameObject: {fileID: 0}
  m_Enabled: 1
  m_EditorHideFlags: 0
  m_Script: {fileID: 11500000, guid: cf6258160aeff9c4ba54e7ad9c7ddf08, type: 3}
  m_Name: 3279
  m_EditorClassIdentifier: 
  originPrefabName: fence_low
  objectName: fence_low (1)
  position: {x: 1425.7603, y: 795.964, z: 3656.5386}
  rotation: {x: -0.7069587, y: 0.01447075, z: 0.01447075, w: 0.7069587}
  scale: {x: 0.77056295, y: 1.0000001, z: 1}
  sector: 7_18
  id: 3279
  layer: 0
  tag: Untagged
  material: {fileID: 2100000, guid: 9c7aaa892a67d924e952d5d660fd8138, type: 2}
