%YAML 1.1
%TAG !u! tag:unity3d.com,2011:
--- !u!114 &11400000
MonoBehaviour:
  m_ObjectHideFlags: 0
  m_CorrespondingSourceObject: {fileID: 0}
  m_PrefabInstance: {fileID: 0}
  m_PrefabAsset: {fileID: 0}
  m_GameObject: {fileID: 0}
  m_Enabled: 1
  m_EditorHideFlags: 0
  m_Script: {fileID: 11500000, guid: cf6258160aeff9c4ba54e7ad9c7ddf08, type: 3}
  m_Name: 3281
  m_EditorClassIdentifier: 
  originPrefabName: PF_RegTree_1
  objectName: PF_RegTree_1 (9)
  position: {x: 3685.1, y: 74.00001, z: 149.3}
  rotation: {x: -0, y: -0, z: -0, w: 1}
  scale: {x: 2.6032, y: 2.6032, z: 2.6032}
  sector: 18_0
  id: 3281
  layer: 8
  tag: Untagged
  material: {fileID: 0}
