%YAML 1.1
%TAG !u! tag:unity3d.com,2011:
--- !u!114 &11400000
MonoBehaviour:
  m_ObjectHideFlags: 0
  m_CorrespondingSourceObject: {fileID: 0}
  m_PrefabInstance: {fileID: 0}
  m_PrefabAsset: {fileID: 0}
  m_GameObject: {fileID: 0}
  m_Enabled: 1
  m_EditorHideFlags: 0
  m_Script: {fileID: 11500000, guid: cf6258160aeff9c4ba54e7ad9c7ddf08, type: 3}
  m_Name: 332
  m_EditorClassIdentifier: 
  originPrefabName: PF_TallTree_1
  objectName: PF_TallTree_1
  position: {x: 3851.5, y: 73.8, z: 4525.1}
  rotation: {x: -0, y: -0, z: -0, w: 1}
  scale: {x: 1.8724, y: 1.8724, z: 1.8724}
  sector: 19_22
  id: 332
  layer: 8
  tag: Untagged
  material: {fileID: 0}
