%YAML 1.1
%TAG !u! tag:unity3d.com,2011:
--- !u!114 &11400000
MonoBehaviour:
  m_ObjectHideFlags: 0
  m_CorrespondingSourceObject: {fileID: 0}
  m_PrefabInstance: {fileID: 0}
  m_PrefabAsset: {fileID: 0}
  m_GameObject: {fileID: 0}
  m_Enabled: 1
  m_EditorHideFlags: 0
  m_Script: {fileID: 11500000, guid: cf6258160aeff9c4ba54e7ad9c7ddf08, type: 3}
  m_Name: 3333
  m_EditorClassIdentifier: 
  originPrefabName: WoodenCrate_01
  objectName: WoodenCrate_01 (4)
  position: {x: 1464.2422, y: 792.86896, z: 3669.0999}
  rotation: {x: -0, y: -0, z: 0.052487124, w: 0.9986216}
  scale: {x: 1, y: 1, z: 1}
  sector: 7_18
  id: 3333
  layer: 0
  tag: Untagged
  material: {fileID: 2100000, guid: 474f30d526a7a2d4eb888a2bdb878880, type: 2}
