%YAML 1.1
%TAG !u! tag:unity3d.com,2011:
--- !u!114 &11400000
MonoBehaviour:
  m_ObjectHideFlags: 0
  m_CorrespondingSourceObject: {fileID: 0}
  m_PrefabInstance: {fileID: 0}
  m_PrefabAsset: {fileID: 0}
  m_GameObject: {fileID: 0}
  m_Enabled: 1
  m_EditorHideFlags: 0
  m_Script: {fileID: 11500000, guid: cf6258160aeff9c4ba54e7ad9c7ddf08, type: 3}
  m_Name: 3346
  m_EditorClassIdentifier: 
  originPrefabName: PF_HexBoard_StoneVar1
  objectName: PF_HexBoard_StoneVar1 (2)
  position: {x: 1861.2036, y: 56.191, z: 379.4}
  rotation: {x: -0, y: -0, z: 0.028689854, w: 0.9995884}
  scale: {x: 0.7410699, y: 0.7410699, z: 0.74107}
  sector: 9_1
  id: 3346
  layer: 8
  tag: Untagged
  material: {fileID: 0}
