%YAML 1.1
%TAG !u! tag:unity3d.com,2011:
--- !u!114 &11400000
MonoBehaviour:
  m_ObjectHideFlags: 0
  m_CorrespondingSourceObject: {fileID: 0}
  m_PrefabInstance: {fileID: 0}
  m_PrefabAsset: {fileID: 0}
  m_GameObject: {fileID: 0}
  m_Enabled: 1
  m_EditorHideFlags: 0
  m_Script: {fileID: 11500000, guid: cf6258160aeff9c4ba54e7ad9c7ddf08, type: 3}
  m_Name: 337
  m_EditorClassIdentifier: 
  originPrefabName: CrsytalField
  objectName: CrsytalField (2)
  position: {x: 3536.5095, y: 136.22, z: 3539.8691}
  rotation: {x: 0.6811682, y: -0, z: -0, w: 0.73212695}
  scale: {x: 30.563, y: 30.562996, z: 30.562996}
  sector: 17_17
  id: 337
  layer: 7
  tag: Creation Area
  material: {fileID: 2100000, guid: aa4a9d0ec9800304fb57c5104ade9e22, type: 2}
