%YAML 1.1
%TAG !u! tag:unity3d.com,2011:
--- !u!114 &11400000
MonoBehaviour:
  m_ObjectHideFlags: 0
  m_CorrespondingSourceObject: {fileID: 0}
  m_PrefabInstance: {fileID: 0}
  m_PrefabAsset: {fileID: 0}
  m_GameObject: {fileID: 0}
  m_Enabled: 1
  m_EditorHideFlags: 0
  m_Script: {fileID: 11500000, guid: cf6258160aeff9c4ba54e7ad9c7ddf08, type: 3}
  m_Name: 3409
  m_EditorClassIdentifier: 
  originPrefabName: Board
  objectName: Board
  position: {x: 233.96, y: 14.992, z: 386.76}
  rotation: {x: -0, y: -0.23982076, z: -0, w: 0.97081727}
  scale: {x: 1, y: 1, z: 1}
  sector: 1_1
  id: 3409
  layer: 0
  tag: Untagged
  material: {fileID: 2100000, guid: b7bab55e5f5da04428fc05a9271575a9, type: 2}
