%YAML 1.1
%TAG !u! tag:unity3d.com,2011:
--- !u!114 &11400000
MonoBehaviour:
  m_ObjectHideFlags: 0
  m_CorrespondingSourceObject: {fileID: 0}
  m_PrefabInstance: {fileID: 0}
  m_PrefabAsset: {fileID: 0}
  m_GameObject: {fileID: 0}
  m_Enabled: 1
  m_EditorHideFlags: 0
  m_Script: {fileID: 11500000, guid: cf6258160aeff9c4ba54e7ad9c7ddf08, type: 3}
  m_Name: 3430
  m_EditorClassIdentifier: 
  originPrefabName: lamppost
  objectName: lamppost (3)
  position: {x: 697.86957, y: 14.975, z: 343.92517}
  rotation: {x: -0.6802515, y: -0.19302338, z: -0.19302338, w: 0.6802515}
  scale: {x: 0.80000013, y: 0.8000003, z: 0.8000003}
  sector: 3_1
  id: 3430
  layer: 0
  tag: Untagged
  material: {fileID: 2100000, guid: 75247aa582c4d7d428150acc8571321d, type: 2}
