%YAML 1.1
%TAG !u! tag:unity3d.com,2011:
--- !u!114 &11400000
MonoBehaviour:
  m_ObjectHideFlags: 0
  m_CorrespondingSourceObject: {fileID: 0}
  m_PrefabInstance: {fileID: 0}
  m_PrefabAsset: {fileID: 0}
  m_GameObject: {fileID: 0}
  m_Enabled: 1
  m_EditorHideFlags: 0
  m_Script: {fileID: 11500000, guid: cf6258160aeff9c4ba54e7ad9c7ddf08, type: 3}
  m_Name: 3441
  m_EditorClassIdentifier: 
  originPrefabName: Cabin_TypeA_low
  objectName: Cabin_TypeA_low (4)
  position: {x: 1614.8922, y: 788.04, z: 3823.7502}
  rotation: {x: -0.7070839, y: 0.0056916424, z: -0.056133974, w: 0.70487523}
  scale: {x: 1, y: 1.0000001, z: 1.0000002}
  sector: 8_19
  id: 3441
  layer: 0
  tag: Untagged
  material: {fileID: 2100000, guid: 5a51e20b7f535704bb52b6d61701b959, type: 2}
