%YAML 1.1
%TAG !u! tag:unity3d.com,2011:
--- !u!114 &11400000
MonoBehaviour:
  m_ObjectHideFlags: 0
  m_CorrespondingSourceObject: {fileID: 0}
  m_PrefabInstance: {fileID: 0}
  m_PrefabAsset: {fileID: 0}
  m_GameObject: {fileID: 0}
  m_Enabled: 1
  m_EditorHideFlags: 0
  m_Script: {fileID: 11500000, guid: cf6258160aeff9c4ba54e7ad9c7ddf08, type: 3}
  m_Name: 3454
  m_EditorClassIdentifier: 
  originPrefabName: PF_HexTerrain_LargeRock_3
  objectName: PF_HexTerrain_LargeRock_3 (2)
  position: {x: 455.62003, y: 22.25, z: 1838.7}
  rotation: {x: -0, y: -0, z: -0, w: 1}
  scale: {x: 12.429, y: 12.429, z: 12.429}
  sector: 2_9
  id: 3454
  layer: 0
  tag: Untagged
  material: {fileID: 0}
