%YAML 1.1
%TAG !u! tag:unity3d.com,2011:
--- !u!114 &11400000
MonoBehaviour:
  m_ObjectHideFlags: 0
  m_CorrespondingSourceObject: {fileID: 0}
  m_PrefabInstance: {fileID: 0}
  m_PrefabAsset: {fileID: 0}
  m_GameObject: {fileID: 0}
  m_Enabled: 1
  m_EditorHideFlags: 0
  m_Script: {fileID: 11500000, guid: cf6258160aeff9c4ba54e7ad9c7ddf08, type: 3}
  m_Name: 3457
  m_EditorClassIdentifier: 
  originPrefabName: lamp5
  objectName: lamp5 (2)
  position: {x: 505.6315, y: 27.332666, z: 1664.6505}
  rotation: {x: -0, y: -0, z: -0, w: 1}
  scale: {x: 200, y: 200, z: 200}
  sector: 2_8
  id: 3457
  layer: 0
  tag: Untagged
  material: {fileID: 2100000, guid: 1e25a9f1e2cdeee49a3489ecee88d8cd, type: 2}
