%YAML 1.1
%TAG !u! tag:unity3d.com,2011:
--- !u!114 &11400000
MonoBehaviour:
  m_ObjectHideFlags: 0
  m_CorrespondingSourceObject: {fileID: 0}
  m_PrefabInstance: {fileID: 0}
  m_PrefabAsset: {fileID: 0}
  m_GameObject: {fileID: 0}
  m_Enabled: 1
  m_EditorHideFlags: 0
  m_Script: {fileID: 11500000, guid: cf6258160aeff9c4ba54e7ad9c7ddf08, type: 3}
  m_Name: 3476
  m_EditorClassIdentifier: 
  originPrefabName: Chair02v2
  objectName: Chair02v2 (1)
  position: {x: 1543.6992, y: 787.44, z: 3909.49}
  rotation: {x: -0, y: 0.23492181, z: -0, w: 0.9720143}
  scale: {x: 0.99999994, y: 1, z: 0.99999994}
  sector: 7_19
  id: 3476
  layer: 0
  tag: Untagged
  material: {fileID: 2100000, guid: 7e61e129382abbd4a9cac0d7a454017f, type: 2}
