%YAML 1.1
%TAG !u! tag:unity3d.com,2011:
--- !u!114 &11400000
MonoBehaviour:
  m_ObjectHideFlags: 0
  m_CorrespondingSourceObject: {fileID: 0}
  m_PrefabInstance: {fileID: 0}
  m_PrefabAsset: {fileID: 0}
  m_GameObject: {fileID: 0}
  m_Enabled: 1
  m_EditorHideFlags: 0
  m_Script: {fileID: 11500000, guid: cf6258160aeff9c4ba54e7ad9c7ddf08, type: 3}
  m_Name: 3479
  m_EditorClassIdentifier: 
  originPrefabName: PF_HexTerrain_LargeRock_1
  objectName: PF_HexTerrain_LargeRock_1
  position: {x: 629.2, y: 46.05, z: 1459.66}
  rotation: {x: -0, y: -0, z: -0, w: 1}
  scale: {x: 5.2807, y: 5.2807, z: 5.2807}
  sector: 3_7
  id: 3479
  layer: 0
  tag: Untagged
  material: {fileID: 0}
