%YAML 1.1
%TAG !u! tag:unity3d.com,2011:
--- !u!114 &11400000
MonoBehaviour:
  m_ObjectHideFlags: 0
  m_CorrespondingSourceObject: {fileID: 0}
  m_PrefabInstance: {fileID: 0}
  m_PrefabAsset: {fileID: 0}
  m_GameObject: {fileID: 0}
  m_Enabled: 1
  m_EditorHideFlags: 0
  m_Script: {fileID: 11500000, guid: cf6258160aeff9c4ba54e7ad9c7ddf08, type: 3}
  m_Name: 3482
  m_EditorClassIdentifier: 
  originPrefabName: babyIsland_low 1
  objectName: babyIsland_low
  position: {x: 1940.05, y: 775.31, z: 3830.6}
  rotation: {x: -0, y: -0, z: -0, w: 1}
  scale: {x: 0.03, y: 0.03, z: 0.03}
  sector: 9_19
  id: 3482
  layer: 0
  tag: Untagged
  material: {fileID: 2100000, guid: 6e6dad6efb726ed46b1e9f9752983206, type: 2}
