%YAML 1.1
%TAG !u! tag:unity3d.com,2011:
--- !u!114 &11400000
MonoBehaviour:
  m_ObjectHideFlags: 0
  m_CorrespondingSourceObject: {fileID: 0}
  m_PrefabInstance: {fileID: 0}
  m_PrefabAsset: {fileID: 0}
  m_GameObject: {fileID: 0}
  m_Enabled: 1
  m_EditorHideFlags: 0
  m_Script: {fileID: 11500000, guid: cf6258160aeff9c4ba54e7ad9c7ddf08, type: 3}
  m_Name: 3545
  m_EditorClassIdentifier: 
  originPrefabName: SmallRock_ver1
  objectName: SmallRock_ver1
  position: {x: 3486.7478, y: 133.27243, z: 1695.6962}
  rotation: {x: -0, y: -0, z: -0, w: 1}
  scale: {x: 1, y: 1, z: 1}
  sector: 17_8
  id: 3545
  layer: 0
  tag: Untagged
  material: {fileID: 2100000, guid: 110d9aac912554b4b97773a23c2765d4, type: 2}
