%YAML 1.1
%TAG !u! tag:unity3d.com,2011:
--- !u!114 &11400000
MonoBehaviour:
  m_ObjectHideFlags: 0
  m_CorrespondingSourceObject: {fileID: 0}
  m_PrefabInstance: {fileID: 0}
  m_PrefabAsset: {fileID: 0}
  m_GameObject: {fileID: 0}
  m_Enabled: 1
  m_EditorHideFlags: 0
  m_Script: {fileID: 11500000, guid: cf6258160aeff9c4ba54e7ad9c7ddf08, type: 3}
  m_Name: 3570
  m_EditorClassIdentifier: 
  originPrefabName: mushroomHouse_TypeA_low
  objectName: mushroomHouse_TypeA_low (3)
  position: {x: 3724.662, y: 111.756065, z: 3456.2307}
  rotation: {x: -0, y: 0.9280626, z: -0, w: -0.37242424}
  scale: {x: 0.70000017, y: 0.7, z: 0.70000017}
  sector: 18_17
  id: 3570
  layer: 0
  tag: Untagged
  material: {fileID: 2100000, guid: 055c9bd56bf96d94fa3541ebeb744f00, type: 2}
