%YAML 1.1
%TAG !u! tag:unity3d.com,2011:
--- !u!114 &11400000
MonoBehaviour:
  m_ObjectHideFlags: 0
  m_CorrespondingSourceObject: {fileID: 0}
  m_PrefabInstance: {fileID: 0}
  m_PrefabAsset: {fileID: 0}
  m_GameObject: {fileID: 0}
  m_Enabled: 1
  m_EditorHideFlags: 0
  m_Script: {fileID: 11500000, guid: cf6258160aeff9c4ba54e7ad9c7ddf08, type: 3}
  m_Name: 3588
  m_EditorClassIdentifier: 
  originPrefabName: LongCrystal_low
  objectName: Lake Quest 2-2 Creation Area (3)
  position: {x: 3444.69, y: 38.4, z: 330.38}
  rotation: {x: 0.005041477, y: -0.23030108, z: -0.021296985, w: 0.97287333}
  scale: {x: 4.947746, y: 10.480887, z: 9.41913}
  sector: 17_1
  id: 3588
  layer: 7
  tag: Creation Area
  material: {fileID: 2100000, guid: 6c34c5855806d0a489928205f9c51cee, type: 2}
