%YAML 1.1
%TAG !u! tag:unity3d.com,2011:
--- !u!114 &11400000
MonoBehaviour:
  m_ObjectHideFlags: 0
  m_CorrespondingSourceObject: {fileID: 0}
  m_PrefabInstance: {fileID: 0}
  m_PrefabAsset: {fileID: 0}
  m_GameObject: {fileID: 0}
  m_Enabled: 1
  m_EditorHideFlags: 0
  m_Script: {fileID: 11500000, guid: cf6258160aeff9c4ba54e7ad9c7ddf08, type: 3}
  m_Name: 3718
  m_EditorClassIdentifier: 
  originPrefabName: Crystals (2)
  objectName: Crystals (5)
  position: {x: 1414.92, y: 786.27997, z: 3638.7798}
  rotation: {x: 0.014818862, y: 0.80059725, z: 0.042498607, w: 0.5975101}
  scale: {x: 10, y: 10.000001, z: 10.000001}
  sector: 7_18
  id: 3718
  layer: 0
  tag: Untagged
  material: {fileID: 2100000, guid: fe36741ede331ae408acac449eaf0149, type: 2}
