%YAML 1.1
%TAG !u! tag:unity3d.com,2011:
--- !u!114 &11400000
MonoBehaviour:
  m_ObjectHideFlags: 0
  m_CorrespondingSourceObject: {fileID: 0}
  m_PrefabInstance: {fileID: 0}
  m_PrefabAsset: {fileID: 0}
  m_GameObject: {fileID: 0}
  m_Enabled: 1
  m_EditorHideFlags: 0
  m_Script: {fileID: 11500000, guid: cf6258160aeff9c4ba54e7ad9c7ddf08, type: 3}
  m_Name: 3725
  m_EditorClassIdentifier: 
  originPrefabName: Chair02v2
  objectName: Chair02v2
  position: {x: 3306.66, y: 40.730434, z: 90.83663}
  rotation: {x: -0, y: 0.52814484, z: -0, w: 0.8491543}
  scale: {x: 1, y: 1, z: 1}
  sector: 16_0
  id: 3725
  layer: 0
  tag: Untagged
  material: {fileID: 2100000, guid: 7e61e129382abbd4a9cac0d7a454017f, type: 2}
