%YAML 1.1
%TAG !u! tag:unity3d.com,2011:
--- !u!114 &11400000
MonoBehaviour:
  m_ObjectHideFlags: 0
  m_CorrespondingSourceObject: {fileID: 0}
  m_PrefabInstance: {fileID: 0}
  m_PrefabAsset: {fileID: 0}
  m_GameObject: {fileID: 0}
  m_Enabled: 1
  m_EditorHideFlags: 0
  m_Script: {fileID: 11500000, guid: cf6258160aeff9c4ba54e7ad9c7ddf08, type: 3}
  m_Name: 3731
  m_EditorClassIdentifier: 
  originPrefabName: Crystals (1)
  objectName: Crystals (23)
  position: {x: 3684.5999, y: 44.9, z: 152.20001}
  rotation: {x: 0.1891674, y: -0, z: -0, w: 0.98194486}
  scale: {x: 34.83292, y: 34.83292, z: 34.83292}
  sector: 18_0
  id: 3731
  layer: 0
  tag: Untagged
  material: {fileID: 2100000, guid: 84a7dfcbe1f4aad4d9577290f0c4706d, type: 2}
