%YAML 1.1
%TAG !u! tag:unity3d.com,2011:
--- !u!114 &11400000
MonoBehaviour:
  m_ObjectHideFlags: 0
  m_CorrespondingSourceObject: {fileID: 0}
  m_PrefabInstance: {fileID: 0}
  m_PrefabAsset: {fileID: 0}
  m_GameObject: {fileID: 0}
  m_Enabled: 1
  m_EditorHideFlags: 0
  m_Script: {fileID: 11500000, guid: cf6258160aeff9c4ba54e7ad9c7ddf08, type: 3}
  m_Name: 3776
  m_EditorClassIdentifier: 
  originPrefabName: PF_ConiferTree_4
  objectName: PF_ConiferTree_4 (6)
  position: {x: 559.17596, y: 17.9, z: 538.6311}
  rotation: {x: -0, y: 0.14843197, z: -0, w: -0.9889226}
  scale: {x: 0.99999994, y: 1, z: 0.99999994}
  sector: 2_2
  id: 3776
  layer: 8
  tag: Untagged
  material: {fileID: 0}
