%YAML 1.1
%TAG !u! tag:unity3d.com,2011:
--- !u!114 &11400000
MonoBehaviour:
  m_ObjectHideFlags: 0
  m_CorrespondingSourceObject: {fileID: 0}
  m_PrefabInstance: {fileID: 0}
  m_PrefabAsset: {fileID: 0}
  m_GameObject: {fileID: 0}
  m_Enabled: 1
  m_EditorHideFlags: 0
  m_Script: {fileID: 11500000, guid: cf6258160aeff9c4ba54e7ad9c7ddf08, type: 3}
  m_Name: 379
  m_EditorClassIdentifier: 
  originPrefabName: building3_low2
  objectName: building3_low2 (2)
  position: {x: 703.3768, y: 16.531433, z: 429.44305}
  rotation: {x: -0.0045188186, y: -0.51532686, z: 0.007514447, w: 0.85694885}
  scale: {x: 1, y: 0.99999994, z: 0.99999994}
  sector: 3_2
  id: 379
  layer: 0
  tag: Untagged
  material: {fileID: 2100000, guid: f80de1af972a50d429104283f837a253, type: 2}
