%YAML 1.1
%TAG !u! tag:unity3d.com,2011:
--- !u!114 &11400000
MonoBehaviour:
  m_ObjectHideFlags: 0
  m_CorrespondingSourceObject: {fileID: 0}
  m_PrefabInstance: {fileID: 0}
  m_PrefabAsset: {fileID: 0}
  m_GameObject: {fileID: 0}
  m_Enabled: 1
  m_EditorHideFlags: 0
  m_Script: {fileID: 11500000, guid: cf6258160aeff9c4ba54e7ad9c7ddf08, type: 3}
  m_Name: 3825
  m_EditorClassIdentifier: 
  originPrefabName: PF_TallTree_1
  objectName: PF_TallTree_1
  position: {x: 185.9, y: 15.18, z: 389.3}
  rotation: {x: -0, y: 0.16598167, z: -0, w: 0.98612887}
  scale: {x: 1, y: 1, z: 1}
  sector: 0_1
  id: 3825
  layer: 8
  tag: Untagged
  material: {fileID: 0}
