%YAML 1.1
%TAG !u! tag:unity3d.com,2011:
--- !u!114 &11400000
MonoBehaviour:
  m_ObjectHideFlags: 0
  m_CorrespondingSourceObject: {fileID: 0}
  m_PrefabInstance: {fileID: 0}
  m_PrefabAsset: {fileID: 0}
  m_GameObject: {fileID: 0}
  m_Enabled: 1
  m_EditorHideFlags: 0
  m_Script: {fileID: 11500000, guid: cf6258160aeff9c4ba54e7ad9c7ddf08, type: 3}
  m_Name: 3837
  m_EditorClassIdentifier: 
  originPrefabName: stool
  objectName: stool (2)
  position: {x: 1533.0721, y: 799.06354, z: 3727.1409}
  rotation: {x: -0, y: 0.25195578, z: -0, w: 0.96773875}
  scale: {x: 0.40000004, y: 0.4, z: 0.40000004}
  sector: 7_18
  id: 3837
  layer: 0
  tag: Untagged
  material: {fileID: 2100000, guid: 9c9003e8bda32a44abf7207b5cda9f8c, type: 2}
