%YAML 1.1
%TAG !u! tag:unity3d.com,2011:
--- !u!114 &11400000
MonoBehaviour:
  m_ObjectHideFlags: 0
  m_CorrespondingSourceObject: {fileID: 0}
  m_PrefabInstance: {fileID: 0}
  m_PrefabAsset: {fileID: 0}
  m_GameObject: {fileID: 0}
  m_Enabled: 1
  m_EditorHideFlags: 0
  m_Script: {fileID: 11500000, guid: cf6258160aeff9c4ba54e7ad9c7ddf08, type: 3}
  m_Name: 3873
  m_EditorClassIdentifier: 
  originPrefabName: Barrel
  objectName: Barrel (7)
  position: {x: 3278.204, y: 26.177107, z: 321.91516}
  rotation: {x: -0.0005216244, y: -0.47510073, z: 0.0004488388, w: 0.8799312}
  scale: {x: 15, y: 14.999998, z: 15.000002}
  sector: 16_1
  id: 3873
  layer: 0
  tag: Untagged
  material: {fileID: 2100000, guid: 73f2163ce4795bf4d8b9cd8250baed12, type: 2}
