%YAML 1.1
%TAG !u! tag:unity3d.com,2011:
--- !u!114 &11400000
MonoBehaviour:
  m_ObjectHideFlags: 0
  m_CorrespondingSourceObject: {fileID: 0}
  m_PrefabInstance: {fileID: 0}
  m_PrefabAsset: {fileID: 0}
  m_GameObject: {fileID: 0}
  m_Enabled: 1
  m_EditorHideFlags: 0
  m_Script: {fileID: 11500000, guid: cf6258160aeff9c4ba54e7ad9c7ddf08, type: 3}
  m_Name: 3879
  m_EditorClassIdentifier: 
  originPrefabName: lamp2
  objectName: lamp2 (16)
  position: {x: 3379.5698, y: 39.100002, z: 317}
  rotation: {x: -0.5813837, y: -0.40248352, z: -0.4024835, w: 0.5813838}
  scale: {x: 100.000015, y: 100.00002, z: 100.00003}
  sector: 16_1
  id: 3879
  layer: 0
  tag: Untagged
  material: {fileID: 2100000, guid: 1706951de166c3c41ae4a01f5a1073d6, type: 2}
