%YAML 1.1
%TAG !u! tag:unity3d.com,2011:
--- !u!114 &11400000
MonoBehaviour:
  m_ObjectHideFlags: 0
  m_CorrespondingSourceObject: {fileID: 0}
  m_PrefabInstance: {fileID: 0}
  m_PrefabAsset: {fileID: 0}
  m_GameObject: {fileID: 0}
  m_Enabled: 1
  m_EditorHideFlags: 0
  m_Script: {fileID: 11500000, guid: cf6258160aeff9c4ba54e7ad9c7ddf08, type: 3}
  m_Name: 3886
  m_EditorClassIdentifier: 
  originPrefabName: BigCrystal_NoScratch_low (5)
  objectName: BigCrystal_NoScratch_low (6)
  position: {x: 277.995, y: 15.664, z: 320.161}
  rotation: {x: -0.9066413, y: 0.055034105, z: -0.3991856, w: -0.12499494}
  scale: {x: 1, y: 1.0000004, z: 1.0000004}
  sector: 1_1
  id: 3886
  layer: 0
  tag: Untagged
  material: {fileID: 2100000, guid: 84b56cef1adff5f43a0a71dbf93822b7, type: 2}
