%YAML 1.1
%TAG !u! tag:unity3d.com,2011:
--- !u!114 &11400000
MonoBehaviour:
  m_ObjectHideFlags: 0
  m_CorrespondingSourceObject: {fileID: 0}
  m_PrefabInstance: {fileID: 0}
  m_PrefabAsset: {fileID: 0}
  m_GameObject: {fileID: 0}
  m_Enabled: 1
  m_EditorHideFlags: 0
  m_Script: {fileID: 11500000, guid: cf6258160aeff9c4ba54e7ad9c7ddf08, type: 3}
  m_Name: 3893
  m_EditorClassIdentifier: 
  originPrefabName: fence_low
  objectName: fence_low
  position: {x: 1487.1534, y: 795.11, z: 3724.74}
  rotation: {x: -0.70708543, y: -0.0054964144, z: 0.0054964144, w: 0.70708543}
  scale: {x: 0.770563, y: 1, z: 1}
  sector: 7_18
  id: 3893
  layer: 0
  tag: Untagged
  material: {fileID: 2100000, guid: 9c7aaa892a67d924e952d5d660fd8138, type: 2}
