%YAML 1.1
%TAG !u! tag:unity3d.com,2011:
--- !u!114 &11400000
MonoBehaviour:
  m_ObjectHideFlags: 0
  m_CorrespondingSourceObject: {fileID: 0}
  m_PrefabInstance: {fileID: 0}
  m_PrefabAsset: {fileID: 0}
  m_GameObject: {fileID: 0}
  m_Enabled: 1
  m_EditorHideFlags: 0
  m_Script: {fileID: 11500000, guid: cf6258160aeff9c4ba54e7ad9c7ddf08, type: 3}
  m_Name: 3921
  m_EditorClassIdentifier: 
  originPrefabName: Building1_low
  objectName: Building1_low (1)
  position: {x: 223.32, y: 14.99, z: 221.17}
  rotation: {x: -0.0032915075, y: 0.7075325, z: 0.0018345697, w: 0.70667076}
  scale: {x: 1.0000001, y: 1, z: 1}
  sector: 1_1
  id: 3921
  layer: 0
  tag: Untagged
  material: {fileID: 2100000, guid: 53c49ec2624ca3b4e8fd7ed90f5119c7, type: 2}
