%YAML 1.1
%TAG !u! tag:unity3d.com,2011:
--- !u!114 &11400000
MonoBehaviour:
  m_ObjectHideFlags: 0
  m_CorrespondingSourceObject: {fileID: 0}
  m_PrefabInstance: {fileID: 0}
  m_PrefabAsset: {fileID: 0}
  m_GameObject: {fileID: 0}
  m_Enabled: 1
  m_EditorHideFlags: 0
  m_Script: {fileID: 11500000, guid: cf6258160aeff9c4ba54e7ad9c7ddf08, type: 3}
  m_Name: 396
  m_EditorClassIdentifier: 
  originPrefabName: Crystals (2)
  objectName: Crystals (4)
  position: {x: 1551.4, y: 807.43915, z: 3541.56}
  rotation: {x: 0.13245282, y: -0, z: -0, w: 0.99118936}
  scale: {x: 20, y: 20.000002, z: 20.000002}
  sector: 7_17
  id: 396
  layer: 0
  tag: Untagged
  material: {fileID: 2100000, guid: fe36741ede331ae408acac449eaf0149, type: 2}
