%YAML 1.1
%TAG !u! tag:unity3d.com,2011:
--- !u!114 &11400000
MonoBehaviour:
  m_ObjectHideFlags: 0
  m_CorrespondingSourceObject: {fileID: 0}
  m_PrefabInstance: {fileID: 0}
  m_PrefabAsset: {fileID: 0}
  m_GameObject: {fileID: 0}
  m_Enabled: 1
  m_EditorHideFlags: 0
  m_Script: {fileID: 11500000, guid: cf6258160aeff9c4ba54e7ad9c7ddf08, type: 3}
  m_Name: 3986
  m_EditorClassIdentifier: 
  originPrefabName: SmallRock_ver2
  objectName: SmallRock_ver2 (2)
  position: {x: 3661.6, y: 30.48, z: 1325.32}
  rotation: {x: -0, y: -0.43870625, z: -0, w: 0.89863056}
  scale: {x: 1, y: 1, z: 1}
  sector: 18_6
  id: 3986
  layer: 0
  tag: Untagged
  material: {fileID: 2100000, guid: ba253776fcaaccd468bd414d86fc7a05, type: 2}
