%YAML 1.1
%TAG !u! tag:unity3d.com,2011:
--- !u!114 &11400000
MonoBehaviour:
  m_ObjectHideFlags: 0
  m_CorrespondingSourceObject: {fileID: 0}
  m_PrefabInstance: {fileID: 0}
  m_PrefabAsset: {fileID: 0}
  m_GameObject: {fileID: 0}
  m_Enabled: 1
  m_EditorHideFlags: 0
  m_Script: {fileID: 11500000, guid: cf6258160aeff9c4ba54e7ad9c7ddf08, type: 3}
  m_Name: 3987
  m_EditorClassIdentifier: 
  originPrefabName: Shard
  objectName: Shard (10)
  position: {x: 3628.7, y: 59.600002, z: 329.7}
  rotation: {x: 0.21701674, y: -0.0005637563, z: 0.1517531, w: 0.9643}
  scale: {x: 1646.9998, y: 1647.0002, z: 1647.0002}
  sector: 18_1
  id: 3987
  layer: 0
  tag: Untagged
  material: {fileID: 2100000, guid: 84a7dfcbe1f4aad4d9577290f0c4706d, type: 2}
