%YAML 1.1
%TAG !u! tag:unity3d.com,2011:
--- !u!114 &11400000
MonoBehaviour:
  m_ObjectHideFlags: 0
  m_CorrespondingSourceObject: {fileID: 0}
  m_PrefabInstance: {fileID: 0}
  m_PrefabAsset: {fileID: 0}
  m_GameObject: {fileID: 0}
  m_Enabled: 1
  m_EditorHideFlags: 0
  m_Script: {fileID: 11500000, guid: cf6258160aeff9c4ba54e7ad9c7ddf08, type: 3}
  m_Name: 4016
  m_EditorClassIdentifier: 
  originPrefabName: Shard (1)
  objectName: Shard (3)
  position: {x: 1498.7463, y: 792.14996, z: 3696.7659}
  rotation: {x: 0.08398516, y: 0.49899662, z: 0.048665483, w: 0.86115074}
  scale: {x: 99.999985, y: 150, z: 100.000015}
  sector: 7_18
  id: 4016
  layer: 0
  tag: Untagged
  material: {fileID: 2100000, guid: fe36741ede331ae408acac449eaf0149, type: 2}
