%YAML 1.1
%TAG !u! tag:unity3d.com,2011:
--- !u!114 &11400000
MonoBehaviour:
  m_ObjectHideFlags: 0
  m_CorrespondingSourceObject: {fileID: 0}
  m_PrefabInstance: {fileID: 0}
  m_PrefabAsset: {fileID: 0}
  m_GameObject: {fileID: 0}
  m_Enabled: 1
  m_EditorHideFlags: 0
  m_Script: {fileID: 11500000, guid: cf6258160aeff9c4ba54e7ad9c7ddf08, type: 3}
  m_Name: 4068
  m_EditorClassIdentifier: 
  originPrefabName: Cabin_TypeD_low
  objectName: Cabin_TypeD_low (3)
  position: {x: 1531.3336, y: 798.8, z: 3732.9385}
  rotation: {x: -0.5241686, y: -0.47460225, z: -0.5241673, w: 0.47460374}
  scale: {x: 1.0000002, y: 1.0000002, z: 1.0000002}
  sector: 7_18
  id: 4068
  layer: 0
  tag: Untagged
  material: {fileID: 2100000, guid: aab96851d03710a45b34c0ced200f362, type: 2}
