%YAML 1.1
%TAG !u! tag:unity3d.com,2011:
--- !u!114 &11400000
MonoBehaviour:
  m_ObjectHideFlags: 0
  m_CorrespondingSourceObject: {fileID: 0}
  m_PrefabInstance: {fileID: 0}
  m_PrefabAsset: {fileID: 0}
  m_GameObject: {fileID: 0}
  m_Enabled: 1
  m_EditorHideFlags: 0
  m_Script: {fileID: 11500000, guid: cf6258160aeff9c4ba54e7ad9c7ddf08, type: 3}
  m_Name: 408
  m_EditorClassIdentifier: 
  originPrefabName: building3_low2
  objectName: building3_low2 (4)
  position: {x: 723.86, y: 15.45, z: 359.85}
  rotation: {x: -0, y: -0.16562144, z: -0, w: 0.9861894}
  scale: {x: 1, y: 1, z: 1}
  sector: 3_1
  id: 408
  layer: 0
  tag: Untagged
  material: {fileID: 2100000, guid: f80de1af972a50d429104283f837a253, type: 2}
