%YAML 1.1
%TAG !u! tag:unity3d.com,2011:
--- !u!114 &11400000
MonoBehaviour:
  m_ObjectHideFlags: 0
  m_CorrespondingSourceObject: {fileID: 0}
  m_PrefabInstance: {fileID: 0}
  m_PrefabAsset: {fileID: 0}
  m_GameObject: {fileID: 0}
  m_Enabled: 1
  m_EditorHideFlags: 0
  m_Script: {fileID: 11500000, guid: cf6258160aeff9c4ba54e7ad9c7ddf08, type: 3}
  m_Name: 4131
  m_EditorClassIdentifier: 
  originPrefabName: PF_ConiferTree_4
  objectName: PF_ConiferTree_4 (1)
  position: {x: 1498.09, y: 824.03, z: 3554.64}
  rotation: {x: -0, y: -0, z: -0, w: 1}
  scale: {x: 1.3, y: 1.1, z: 1.3}
  sector: 7_17
  id: 4131
  layer: 8
  tag: Untagged
  material: {fileID: 0}
