%YAML 1.1
%TAG !u! tag:unity3d.com,2011:
--- !u!114 &11400000
MonoBehaviour:
  m_ObjectHideFlags: 0
  m_CorrespondingSourceObject: {fileID: 0}
  m_PrefabInstance: {fileID: 0}
  m_PrefabAsset: {fileID: 0}
  m_GameObject: {fileID: 0}
  m_Enabled: 1
  m_EditorHideFlags: 0
  m_Script: {fileID: 11500000, guid: cf6258160aeff9c4ba54e7ad9c7ddf08, type: 3}
  m_Name: 414
  m_EditorClassIdentifier: 
  originPrefabName: Crystals (1)
  objectName: Crystals (3)
  position: {x: 3183.3804, y: 47.309998, z: 329.19}
  rotation: {x: -0.09434114, y: 0.542226, z: 0.14311649, w: 0.82256216}
  scale: {x: 9.941507, y: 9.941505, z: 9.941509}
  sector: 15_1
  id: 414
  layer: 0
  tag: Untagged
  material: {fileID: 2100000, guid: 84a7dfcbe1f4aad4d9577290f0c4706d, type: 2}
