%YAML 1.1
%TAG !u! tag:unity3d.com,2011:
--- !u!114 &11400000
MonoBehaviour:
  m_ObjectHideFlags: 0
  m_CorrespondingSourceObject: {fileID: 0}
  m_PrefabInstance: {fileID: 0}
  m_PrefabAsset: {fileID: 0}
  m_GameObject: {fileID: 0}
  m_Enabled: 1
  m_EditorHideFlags: 0
  m_Script: {fileID: 11500000, guid: cf6258160aeff9c4ba54e7ad9c7ddf08, type: 3}
  m_Name: 4152
  m_EditorClassIdentifier: 
  originPrefabName: Shard
  objectName: Shard (19)
  position: {x: 3517.0999, y: 52.869995, z: 178.61}
  rotation: {x: 0.17318335, y: 0.052076068, z: 0.27448878, w: 0.9444319}
  scale: {x: 786.86, y: 786.86005, z: 786.8601}
  sector: 17_0
  id: 4152
  layer: 0
  tag: Untagged
  material: {fileID: 2100000, guid: 84a7dfcbe1f4aad4d9577290f0c4706d, type: 2}
