%YAML 1.1
%TAG !u! tag:unity3d.com,2011:
--- !u!114 &11400000
MonoBehaviour:
  m_ObjectHideFlags: 0
  m_CorrespondingSourceObject: {fileID: 0}
  m_PrefabInstance: {fileID: 0}
  m_PrefabAsset: {fileID: 0}
  m_GameObject: {fileID: 0}
  m_Enabled: 1
  m_EditorHideFlags: 0
  m_Script: {fileID: 11500000, guid: cf6258160aeff9c4ba54e7ad9c7ddf08, type: 3}
  m_Name: 4189
  m_EditorClassIdentifier: 
  originPrefabName: lamppostSmall
  objectName: lamppostSmall (4)
  position: {x: 573.4637, y: 15.247, z: 419.64508}
  rotation: {x: -0.7071068, y: -0, z: -0, w: 0.7071068}
  scale: {x: 1.0858401, y: 1.0858403, z: 1.0858403}
  sector: 2_2
  id: 4189
  layer: 0
  tag: Untagged
  material: {fileID: 2100000, guid: 75247aa582c4d7d428150acc8571321d, type: 2}
