%YAML 1.1
%TAG !u! tag:unity3d.com,2011:
--- !u!114 &11400000
MonoBehaviour:
  m_ObjectHideFlags: 0
  m_CorrespondingSourceObject: {fileID: 0}
  m_PrefabInstance: {fileID: 0}
  m_PrefabAsset: {fileID: 0}
  m_GameObject: {fileID: 0}
  m_Enabled: 1
  m_EditorHideFlags: 0
  m_Script: {fileID: 11500000, guid: cf6258160aeff9c4ba54e7ad9c7ddf08, type: 3}
  m_Name: 4206
  m_EditorClassIdentifier: 
  originPrefabName: PF_ConiferTree_3
  objectName: PF_ConiferTree_3
  position: {x: 1395.2268, y: 790.63, z: 3544.8525}
  rotation: {x: 0.020784302, y: 0.00053648977, z: 0.025798094, w: 0.9994509}
  scale: {x: 0.99999994, y: 1, z: 1}
  sector: 6_17
  id: 4206
  layer: 8
  tag: Untagged
  material: {fileID: 0}
