%YAML 1.1
%TAG !u! tag:unity3d.com,2011:
--- !u!114 &11400000
MonoBehaviour:
  m_ObjectHideFlags: 0
  m_CorrespondingSourceObject: {fileID: 0}
  m_PrefabInstance: {fileID: 0}
  m_PrefabAsset: {fileID: 0}
  m_GameObject: {fileID: 0}
  m_Enabled: 1
  m_EditorHideFlags: 0
  m_Script: {fileID: 11500000, guid: cf6258160aeff9c4ba54e7ad9c7ddf08, type: 3}
  m_Name: 4208
  m_EditorClassIdentifier: 
  originPrefabName: PF_Foliage_Fern_1
  objectName: PF_Foliage_Fern_1 (16)
  position: {x: 1543.8701, y: 794.67, z: 3619.0159}
  rotation: {x: -0, y: 0.5390113, z: -0, w: 0.84229857}
  scale: {x: 1.0000001, y: 1, z: 1.0000001}
  sector: 7_18
  id: 4208
  layer: 0
  tag: Untagged
  material: {fileID: 0}
