%YAML 1.1
%TAG !u! tag:unity3d.com,2011:
--- !u!114 &11400000
MonoBehaviour:
  m_ObjectHideFlags: 0
  m_CorrespondingSourceObject: {fileID: 0}
  m_PrefabInstance: {fileID: 0}
  m_PrefabAsset: {fileID: 0}
  m_GameObject: {fileID: 0}
  m_Enabled: 1
  m_EditorHideFlags: 0
  m_Script: {fileID: 11500000, guid: cf6258160aeff9c4ba54e7ad9c7ddf08, type: 3}
  m_Name: 4209
  m_EditorClassIdentifier: 
  originPrefabName: table
  objectName: table (3)
  position: {x: 3325.8057, y: 30.284, z: 253.94}
  rotation: {x: -0.005342688, y: 0.21581359, z: 0.02416488, w: 0.9761209}
  scale: {x: 0.40000004, y: 0.4, z: 0.40000007}
  sector: 16_1
  id: 4209
  layer: 0
  tag: Untagged
  material: {fileID: 2100000, guid: 9c9003e8bda32a44abf7207b5cda9f8c, type: 2}
