%YAML 1.1
%TAG !u! tag:unity3d.com,2011:
--- !u!114 &11400000
MonoBehaviour:
  m_ObjectHideFlags: 0
  m_CorrespondingSourceObject: {fileID: 0}
  m_PrefabInstance: {fileID: 0}
  m_PrefabAsset: {fileID: 0}
  m_GameObject: {fileID: 0}
  m_Enabled: 1
  m_EditorHideFlags: 0
  m_Script: {fileID: 11500000, guid: cf6258160aeff9c4ba54e7ad9c7ddf08, type: 3}
  m_Name: 4210
  m_EditorClassIdentifier: 
  originPrefabName: Shard (7)
  objectName: Shard (8)
  position: {x: 1488.2, y: 817.16907, z: 3899.0356}
  rotation: {x: 0.1009513, y: -0.3280863, z: -0.12596178, w: 0.93075347}
  scale: {x: 1000.0001, y: 499.99997, z: 1000.0001}
  sector: 7_19
  id: 4210
  layer: 0
  tag: Untagged
  material: {fileID: 2100000, guid: 21460ee8ba22c2c4087816cacc9df76f, type: 2}
