%YAML 1.1
%TAG !u! tag:unity3d.com,2011:
--- !u!114 &11400000
MonoBehaviour:
  m_ObjectHideFlags: 0
  m_CorrespondingSourceObject: {fileID: 0}
  m_PrefabInstance: {fileID: 0}
  m_PrefabAsset: {fileID: 0}
  m_GameObject: {fileID: 0}
  m_Enabled: 1
  m_EditorHideFlags: 0
  m_Script: {fileID: 11500000, guid: cf6258160aeff9c4ba54e7ad9c7ddf08, type: 3}
  m_Name: 429
  m_EditorClassIdentifier: 
  originPrefabName: Cabin_TypeA_low
  objectName: Cabin_TypeA_low
  position: {x: 1486.8887, y: 793.92, z: 3672.367}
  rotation: {x: -0.70697117, y: 0.013847642, z: -0.013847642, w: 0.70697117}
  scale: {x: 0.99999994, y: 0.9999999, z: 0.99999994}
  sector: 7_18
  id: 429
  layer: 0
  tag: Untagged
  material: {fileID: 2100000, guid: 3d9e53b49f9192a44902d667dd496461, type: 2}
