%YAML 1.1
%TAG !u! tag:unity3d.com,2011:
--- !u!114 &11400000
MonoBehaviour:
  m_ObjectHideFlags: 0
  m_CorrespondingSourceObject: {fileID: 0}
  m_PrefabInstance: {fileID: 0}
  m_PrefabAsset: {fileID: 0}
  m_GameObject: {fileID: 0}
  m_Enabled: 1
  m_EditorHideFlags: 0
  m_Script: {fileID: 11500000, guid: cf6258160aeff9c4ba54e7ad9c7ddf08, type: 3}
  m_Name: 4330
  m_EditorClassIdentifier: 
  originPrefabName: PF_HexTerrain_LargeRock_3
  objectName: PF_HexTerrain_LargeRock_3 (4)
  position: {x: 504.59418, y: 25.131786, z: 1680.6493}
  rotation: {x: -0, y: -0, z: -0, w: 1}
  scale: {x: 1, y: 1, z: 1}
  sector: 2_8
  id: 4330
  layer: 0
  tag: Untagged
  material: {fileID: 0}
