%YAML 1.1
%TAG !u! tag:unity3d.com,2011:
--- !u!114 &11400000
MonoBehaviour:
  m_ObjectHideFlags: 0
  m_CorrespondingSourceObject: {fileID: 0}
  m_PrefabInstance: {fileID: 0}
  m_PrefabAsset: {fileID: 0}
  m_GameObject: {fileID: 0}
  m_Enabled: 1
  m_EditorHideFlags: 0
  m_Script: {fileID: 11500000, guid: cf6258160aeff9c4ba54e7ad9c7ddf08, type: 3}
  m_Name: 4370
  m_EditorClassIdentifier: 
  originPrefabName: LongCrystal_low
  objectName: LongCrystal_low (6)
  position: {x: 686, y: 10.276, z: 1070.53}
  rotation: {x: -0, y: -0, z: -0, w: 1}
  scale: {x: 5.383216, y: 13.228176, z: 5.383216}
  sector: 3_5
  id: 4370
  layer: 7
  tag: Creation Area
  material: {fileID: 2100000, guid: 6c34c5855806d0a489928205f9c51cee, type: 2}
