%YAML 1.1
%TAG !u! tag:unity3d.com,2011:
--- !u!114 &11400000
MonoBehaviour:
  m_ObjectHideFlags: 0
  m_CorrespondingSourceObject: {fileID: 0}
  m_PrefabInstance: {fileID: 0}
  m_PrefabAsset: {fileID: 0}
  m_GameObject: {fileID: 0}
  m_Enabled: 1
  m_EditorHideFlags: 0
  m_Script: {fileID: 11500000, guid: cf6258160aeff9c4ba54e7ad9c7ddf08, type: 3}
  m_Name: 4405
  m_EditorClassIdentifier: 
  originPrefabName: Shard (3)
  objectName: Shard (5)
  position: {x: 711.7092, y: 31.4, z: 1452.072}
  rotation: {x: -0.10442548, y: -0.08378679, z: 0.20377217, w: 0.9698206}
  scale: {x: 100.000015, y: 100.00001, z: 100}
  sector: 3_7
  id: 4405
  layer: 0
  tag: Untagged
  material: {fileID: 2100000, guid: a1ab44f7a3cf5614986dac6313698858, type: 2}
