%YAML 1.1
%TAG !u! tag:unity3d.com,2011:
--- !u!114 &11400000
MonoBehaviour:
  m_ObjectHideFlags: 0
  m_CorrespondingSourceObject: {fileID: 0}
  m_PrefabInstance: {fileID: 0}
  m_PrefabAsset: {fileID: 0}
  m_GameObject: {fileID: 0}
  m_Enabled: 1
  m_EditorHideFlags: 0
  m_Script: {fileID: 11500000, guid: cf6258160aeff9c4ba54e7ad9c7ddf08, type: 3}
  m_Name: 447
  m_EditorClassIdentifier: 
  originPrefabName: Prefab_SmallBarrel_color01
  objectName: Prefab_SmallBarrel_color01 (1)
  position: {x: 1542.9436, y: 787.259, z: 3911.5212}
  rotation: {x: 0.031558257, y: -0.37728533, z: -0.01286532, w: 0.9254698}
  scale: {x: 1, y: 1.0000001, z: 1}
  sector: 7_19
  id: 447
  layer: 0
  tag: Untagged
  material: {fileID: 2100000, guid: c758c5a4b3834b644b1145534af1f7b9, type: 2}
