%YAML 1.1
%TAG !u! tag:unity3d.com,2011:
--- !u!114 &11400000
MonoBehaviour:
  m_ObjectHideFlags: 0
  m_CorrespondingSourceObject: {fileID: 0}
  m_PrefabInstance: {fileID: 0}
  m_PrefabAsset: {fileID: 0}
  m_GameObject: {fileID: 0}
  m_Enabled: 1
  m_EditorHideFlags: 0
  m_Script: {fileID: 11500000, guid: cf6258160aeff9c4ba54e7ad9c7ddf08, type: 3}
  m_Name: 4484
  m_EditorClassIdentifier: 
  originPrefabName: fence_low
  objectName: fence_low
  position: {x: 3349.79, y: 28.133, z: 318.24}
  rotation: {x: -0.4682962, y: -0.52981013, z: -0.52981, w: 0.46829617}
  scale: {x: 0.770563, y: 1.0000001, z: 1}
  sector: 16_1
  id: 4484
  layer: 0
  tag: Untagged
  material: {fileID: 2100000, guid: 9c7aaa892a67d924e952d5d660fd8138, type: 2}
