%YAML 1.1
%TAG !u! tag:unity3d.com,2011:
--- !u!114 &11400000
MonoBehaviour:
  m_ObjectHideFlags: 0
  m_CorrespondingSourceObject: {fileID: 0}
  m_PrefabInstance: {fileID: 0}
  m_PrefabAsset: {fileID: 0}
  m_GameObject: {fileID: 0}
  m_Enabled: 1
  m_EditorHideFlags: 0
  m_Script: {fileID: 11500000, guid: cf6258160aeff9c4ba54e7ad9c7ddf08, type: 3}
  m_Name: 452
  m_EditorClassIdentifier: 
  originPrefabName: WoodenCrate_02
  objectName: WoodenCrate_02 (4)
  position: {x: 1536.9268, y: 799.0603, z: 3724.0662}
  rotation: {x: -0.70130265, y: -0.0119117955, z: 0.012821199, w: 0.71264887}
  scale: {x: 0.99999994, y: 1.0000002, z: 1.0000001}
  sector: 7_18
  id: 452
  layer: 0
  tag: Untagged
  material: {fileID: 2100000, guid: e49411fb77172764ba3123f1c7dc8d54, type: 2}
