%YAML 1.1
%TAG !u! tag:unity3d.com,2011:
--- !u!114 &11400000
MonoBehaviour:
  m_ObjectHideFlags: 0
  m_CorrespondingSourceObject: {fileID: 0}
  m_PrefabInstance: {fileID: 0}
  m_PrefabAsset: {fileID: 0}
  m_GameObject: {fileID: 0}
  m_Enabled: 1
  m_EditorHideFlags: 0
  m_Script: {fileID: 11500000, guid: cf6258160aeff9c4ba54e7ad9c7ddf08, type: 3}
  m_Name: 4528
  m_EditorClassIdentifier: 
  originPrefabName: lamp01
  objectName: lamp01 (20)
  position: {x: 1558.1173, y: 794.55096, z: 3788.0996}
  rotation: {x: -0.7265024, y: 0.08724943, z: 0.096650876, w: 0.6747151}
  scale: {x: 100.00001, y: 100.000015, z: 100.00002}
  sector: 7_18
  id: 4528
  layer: 0
  tag: Untagged
  material: {fileID: 2100000, guid: e529903d19e66bb46a79ce41bd309a28, type: 2}
