%YAML 1.1
%TAG !u! tag:unity3d.com,2011:
--- !u!114 &11400000
MonoBehaviour:
  m_ObjectHideFlags: 0
  m_CorrespondingSourceObject: {fileID: 0}
  m_PrefabInstance: {fileID: 0}
  m_PrefabAsset: {fileID: 0}
  m_GameObject: {fileID: 0}
  m_Enabled: 1
  m_EditorHideFlags: 0
  m_Script: {fileID: 11500000, guid: cf6258160aeff9c4ba54e7ad9c7ddf08, type: 3}
  m_Name: 4532
  m_EditorClassIdentifier: 
  originPrefabName: MiddleRock_low
  objectName: MiddleRock_low
  position: {x: 1435.0485, y: 788.97, z: 3713.7668}
  rotation: {x: -0, y: -0, z: -0, w: 1}
  scale: {x: 1, y: 1, z: 1}
  sector: 7_18
  id: 4532
  layer: 0
  tag: Untagged
  material: {fileID: 6675890529525579043, guid: 580f3d1464ea2304b94240be9e3e5696, type: 3}
