%YAML 1.1
%TAG !u! tag:unity3d.com,2011:
--- !u!114 &11400000
MonoBehaviour:
  m_ObjectHideFlags: 0
  m_CorrespondingSourceObject: {fileID: 0}
  m_PrefabInstance: {fileID: 0}
  m_PrefabAsset: {fileID: 0}
  m_GameObject: {fileID: 0}
  m_Enabled: 1
  m_EditorHideFlags: 0
  m_Script: {fileID: 11500000, guid: cf6258160aeff9c4ba54e7ad9c7ddf08, type: 3}
  m_Name: 4533
  m_EditorClassIdentifier: 
  originPrefabName: building4_low2
  objectName: building4_low2
  position: {x: 213.23, y: 14.98, z: 381.39}
  rotation: {x: -0, y: 0.6349796, z: -0, w: 0.77252895}
  scale: {x: 1.0000001, y: 1, z: 1.0000001}
  sector: 1_1
  id: 4533
  layer: 0
  tag: Untagged
  material: {fileID: 2100000, guid: 0e3519e58b58f7346ac4fa4fb7bcfffa, type: 2}
