%YAML 1.1
%TAG !u! tag:unity3d.com,2011:
--- !u!114 &11400000
MonoBehaviour:
  m_ObjectHideFlags: 0
  m_CorrespondingSourceObject: {fileID: 0}
  m_PrefabInstance: {fileID: 0}
  m_PrefabAsset: {fileID: 0}
  m_GameObject: {fileID: 0}
  m_Enabled: 1
  m_EditorHideFlags: 0
  m_Script: {fileID: 11500000, guid: cf6258160aeff9c4ba54e7ad9c7ddf08, type: 3}
  m_Name: 4536
  m_EditorClassIdentifier: 
  originPrefabName: Crystals (3)
  objectName: Crystals (3)
  position: {x: 743.2919, y: 15.77, z: 372.19232}
  rotation: {x: -0, y: -0.4230833, z: -0, w: 0.9060908}
  scale: {x: 10.524, y: 10.524, z: 10.524}
  sector: 3_1
  id: 4536
  layer: 0
  tag: Untagged
  material: {fileID: 2100000, guid: 84b56cef1adff5f43a0a71dbf93822b7, type: 2}
