%YAML 1.1
%TAG !u! tag:unity3d.com,2011:
--- !u!114 &11400000
MonoBehaviour:
  m_ObjectHideFlags: 0
  m_CorrespondingSourceObject: {fileID: 0}
  m_PrefabInstance: {fileID: 0}
  m_PrefabAsset: {fileID: 0}
  m_GameObject: {fileID: 0}
  m_Enabled: 1
  m_EditorHideFlags: 0
  m_Script: {fileID: 11500000, guid: cf6258160aeff9c4ba54e7ad9c7ddf08, type: 3}
  m_Name: 4547
  m_EditorClassIdentifier: 
  originPrefabName: Bench
  objectName: Bench (2)
  position: {x: 3487.489, y: 27.073736, z: 319.45074}
  rotation: {x: -0.0008326385, y: -0.99961036, z: -0.017246434, w: 0.021932028}
  scale: {x: 1.0973403, y: 1.0973401, z: 1.0973411}
  sector: 17_1
  id: 4547
  layer: 0
  tag: Untagged
  material: {fileID: 2100000, guid: 2505757ef4918ba4997e86029dbbfd7a, type: 2}
