%YAML 1.1
%TAG !u! tag:unity3d.com,2011:
--- !u!114 &11400000
MonoBehaviour:
  m_ObjectHideFlags: 0
  m_CorrespondingSourceObject: {fileID: 0}
  m_PrefabInstance: {fileID: 0}
  m_PrefabAsset: {fileID: 0}
  m_GameObject: {fileID: 0}
  m_Enabled: 1
  m_EditorHideFlags: 0
  m_Script: {fileID: 11500000, guid: cf6258160aeff9c4ba54e7ad9c7ddf08, type: 3}
  m_Name: 456
  m_EditorClassIdentifier: 
  originPrefabName: Crystals (2)
  objectName: Crystals (16)
  position: {x: 1455.43, y: 794.35645, z: 3766.56}
  rotation: {x: 0.17261693, y: 0.3481075, z: -0.03163631, w: 0.92088205}
  scale: {x: 8, y: 11.000001, z: 8.000001}
  sector: 7_18
  id: 456
  layer: 0
  tag: Untagged
  material: {fileID: 2100000, guid: fe36741ede331ae408acac449eaf0149, type: 2}
