%YAML 1.1
%TAG !u! tag:unity3d.com,2011:
--- !u!114 &11400000
MonoBehaviour:
  m_ObjectHideFlags: 0
  m_CorrespondingSourceObject: {fileID: 0}
  m_PrefabInstance: {fileID: 0}
  m_PrefabAsset: {fileID: 0}
  m_GameObject: {fileID: 0}
  m_Enabled: 1
  m_EditorHideFlags: 0
  m_Script: {fileID: 11500000, guid: cf6258160aeff9c4ba54e7ad9c7ddf08, type: 3}
  m_Name: 4569
  m_EditorClassIdentifier: 
  originPrefabName: fence_low
  objectName: fence_low (1)
  position: {x: 503.612, y: 24.81, z: 1669.016}
  rotation: {x: -0.6677581, y: 0.2325923, z: 0.2325923, w: 0.6677581}
  scale: {x: 0.7705631, y: 1.0000004, z: 1.0000002}
  sector: 2_8
  id: 4569
  layer: 0
  tag: Untagged
  material: {fileID: 2100000, guid: 9c7aaa892a67d924e952d5d660fd8138, type: 2}
