%YAML 1.1
%TAG !u! tag:unity3d.com,2011:
--- !u!114 &11400000
MonoBehaviour:
  m_ObjectHideFlags: 0
  m_CorrespondingSourceObject: {fileID: 0}
  m_PrefabInstance: {fileID: 0}
  m_PrefabAsset: {fileID: 0}
  m_GameObject: {fileID: 0}
  m_Enabled: 1
  m_EditorHideFlags: 0
  m_Script: {fileID: 11500000, guid: cf6258160aeff9c4ba54e7ad9c7ddf08, type: 3}
  m_Name: 4581
  m_EditorClassIdentifier: 
  originPrefabName: BigCrystal_NoScratch_low (1)
  objectName: BigCrystal_NoScratch_low (10)
  position: {x: 1454.3457, y: 792.7665, z: 3766.3}
  rotation: {x: -0, y: -0, z: 0.5118742, w: 0.8590604}
  scale: {x: 4.9999995, y: 4.9999995, z: 5}
  sector: 7_18
  id: 4581
  layer: 0
  tag: Untagged
  material: {fileID: 2100000, guid: fe36741ede331ae408acac449eaf0149, type: 2}
