%YAML 1.1
%TAG !u! tag:unity3d.com,2011:
--- !u!114 &11400000
MonoBehaviour:
  m_ObjectHideFlags: 0
  m_CorrespondingSourceObject: {fileID: 0}
  m_PrefabInstance: {fileID: 0}
  m_PrefabAsset: {fileID: 0}
  m_GameObject: {fileID: 0}
  m_Enabled: 1
  m_EditorHideFlags: 0
  m_Script: {fileID: 11500000, guid: cf6258160aeff9c4ba54e7ad9c7ddf08, type: 3}
  m_Name: 4592
  m_EditorClassIdentifier: 
  originPrefabName: PF_TallTree_2
  objectName: PF_TallTree_2 (3)
  position: {x: 1680.6605, y: 787.11, z: 3738.4146}
  rotation: {x: -0, y: -0.59179294, z: -0, w: 0.80609006}
  scale: {x: 1.0000001, y: 1, z: 1.0000001}
  sector: 8_18
  id: 4592
  layer: 8
  tag: Untagged
  material: {fileID: 0}
