%YAML 1.1
%TAG !u! tag:unity3d.com,2011:
--- !u!114 &11400000
MonoBehaviour:
  m_ObjectHideFlags: 0
  m_CorrespondingSourceObject: {fileID: 0}
  m_PrefabInstance: {fileID: 0}
  m_PrefabAsset: {fileID: 0}
  m_GameObject: {fileID: 0}
  m_Enabled: 1
  m_EditorHideFlags: 0
  m_Script: {fileID: 11500000, guid: cf6258160aeff9c4ba54e7ad9c7ddf08, type: 3}
  m_Name: 4615
  m_EditorClassIdentifier: 
  originPrefabName: PF_HexBoard_StoneVar0
  objectName: PF_HexBoard_StoneVar0
  position: {x: 1861.4628, y: 56.149, z: 373.82}
  rotation: {x: -0, y: -0, z: 0.023588857, w: 0.99972177}
  scale: {x: 1, y: 1, z: 1}
  sector: 9_1
  id: 4615
  layer: 8
  tag: Untagged
  material: {fileID: 0}
