%YAML 1.1
%TAG !u! tag:unity3d.com,2011:
--- !u!114 &11400000
MonoBehaviour:
  m_ObjectHideFlags: 0
  m_CorrespondingSourceObject: {fileID: 0}
  m_PrefabInstance: {fileID: 0}
  m_PrefabAsset: {fileID: 0}
  m_GameObject: {fileID: 0}
  m_Enabled: 1
  m_EditorHideFlags: 0
  m_Script: {fileID: 11500000, guid: cf6258160aeff9c4ba54e7ad9c7ddf08, type: 3}
  m_Name: 4689
  m_EditorClassIdentifier: 
  originPrefabName: Chair02v2
  objectName: Chair02v2 (1)
  position: {x: 3277.5981, y: 33.93643, z: 261.7306}
  rotation: {x: -0, y: 0.78334266, z: -0, w: 0.62159014}
  scale: {x: 1.5661001, y: 1.5661, z: 1.5661001}
  sector: 16_1
  id: 4689
  layer: 0
  tag: Untagged
  material: {fileID: 2100000, guid: 7e61e129382abbd4a9cac0d7a454017f, type: 2}
