%YAML 1.1
%TAG !u! tag:unity3d.com,2011:
--- !u!114 &11400000
MonoBehaviour:
  m_ObjectHideFlags: 0
  m_CorrespondingSourceObject: {fileID: 0}
  m_PrefabInstance: {fileID: 0}
  m_PrefabAsset: {fileID: 0}
  m_GameObject: {fileID: 0}
  m_Enabled: 1
  m_EditorHideFlags: 0
  m_Script: {fileID: 11500000, guid: cf6258160aeff9c4ba54e7ad9c7ddf08, type: 3}
  m_Name: 4724
  m_EditorClassIdentifier: 
  originPrefabName: lamp01
  objectName: lamp01 (19)
  position: {x: 1505.72, y: 793.44, z: 3808.93}
  rotation: {x: -0.27059853, y: 0.65328133, z: 0.65328133, w: 0.27059853}
  scale: {x: 100.000046, y: 100.00003, z: 100.00003}
  sector: 7_19
  id: 4724
  layer: 0
  tag: Untagged
  material: {fileID: 2100000, guid: e529903d19e66bb46a79ce41bd309a28, type: 2}
