%YAML 1.1
%TAG !u! tag:unity3d.com,2011:
--- !u!114 &11400000
MonoBehaviour:
  m_ObjectHideFlags: 0
  m_CorrespondingSourceObject: {fileID: 0}
  m_PrefabInstance: {fileID: 0}
  m_PrefabAsset: {fileID: 0}
  m_GameObject: {fileID: 0}
  m_Enabled: 1
  m_EditorHideFlags: 0
  m_Script: {fileID: 11500000, guid: cf6258160aeff9c4ba54e7ad9c7ddf08, type: 3}
  m_Name: 477
  m_EditorClassIdentifier: 
  originPrefabName: Crystals
  objectName: Crystals
  position: {x: 450.6293, y: 25.82, z: 1399.5917}
  rotation: {x: -0, y: 0.9968572, z: -0, w: 0.0792193}
  scale: {x: 4.9748015, y: 4.9748, z: 4.9748015}
  sector: 2_6
  id: 477
  layer: 0
  tag: Untagged
  material: {fileID: 2100000, guid: a1ab44f7a3cf5614986dac6313698858, type: 2}
