%YAML 1.1
%TAG !u! tag:unity3d.com,2011:
--- !u!114 &11400000
MonoBehaviour:
  m_ObjectHideFlags: 0
  m_CorrespondingSourceObject: {fileID: 0}
  m_PrefabInstance: {fileID: 0}
  m_PrefabAsset: {fileID: 0}
  m_GameObject: {fileID: 0}
  m_Enabled: 1
  m_EditorHideFlags: 0
  m_Script: {fileID: 11500000, guid: cf6258160aeff9c4ba54e7ad9c7ddf08, type: 3}
  m_Name: 4783
  m_EditorClassIdentifier: 
  originPrefabName: MiddleCrystal_low (1)
  objectName: MiddleCrystal_low (1)
  position: {x: 3390.4, y: 39.200005, z: 384.40002}
  rotation: {x: -0, y: -0, z: -0, w: 1}
  scale: {x: 7.480377, y: 7.480377, z: 7.480377}
  sector: 16_1
  id: 4783
  layer: 0
  tag: Untagged
  material: {fileID: 2100000, guid: 84a7dfcbe1f4aad4d9577290f0c4706d, type: 2}
