%YAML 1.1
%TAG !u! tag:unity3d.com,2011:
--- !u!114 &11400000
MonoBehaviour:
  m_ObjectHideFlags: 0
  m_CorrespondingSourceObject: {fileID: 0}
  m_PrefabInstance: {fileID: 0}
  m_PrefabAsset: {fileID: 0}
  m_GameObject: {fileID: 0}
  m_Enabled: 1
  m_EditorHideFlags: 0
  m_Script: {fileID: 11500000, guid: cf6258160aeff9c4ba54e7ad9c7ddf08, type: 3}
  m_Name: 4788
  m_EditorClassIdentifier: 
  originPrefabName: building3_low2
  objectName: building3_low2
  position: {x: 245.35847, y: 14.99, z: 422.40585}
  rotation: {x: -0.000000002444722, y: 0.99649316, z: -0.0000000018626454, w: -0.08367452}
  scale: {x: 1.0000001, y: 1, z: 1.0000001}
  sector: 1_2
  id: 4788
  layer: 0
  tag: Untagged
  material: {fileID: 2100000, guid: 1cc91dd2df06a954c9dd0f988b52b4bd, type: 2}
