%YAML 1.1
%TAG !u! tag:unity3d.com,2011:
--- !u!114 &11400000
MonoBehaviour:
  m_ObjectHideFlags: 0
  m_CorrespondingSourceObject: {fileID: 0}
  m_PrefabInstance: {fileID: 0}
  m_PrefabAsset: {fileID: 0}
  m_GameObject: {fileID: 0}
  m_Enabled: 1
  m_EditorHideFlags: 0
  m_Script: {fileID: 11500000, guid: cf6258160aeff9c4ba54e7ad9c7ddf08, type: 3}
  m_Name: 4815
  m_EditorClassIdentifier: 
  originPrefabName: cliff_low 1
  objectName: cliff_low 1 (1)
  position: {x: 1443.73, y: 788.39, z: 3669.88}
  rotation: {x: -0, y: -0.99880004, z: -0, w: -0.04897546}
  scale: {x: 0.1500001, y: 0.1, z: 0.2500001}
  sector: 7_18
  id: 4815
  layer: 0
  tag: Untagged
  material: {fileID: 0}
