%YAML 1.1
%TAG !u! tag:unity3d.com,2011:
--- !u!114 &11400000
MonoBehaviour:
  m_ObjectHideFlags: 0
  m_CorrespondingSourceObject: {fileID: 0}
  m_PrefabInstance: {fileID: 0}
  m_PrefabAsset: {fileID: 0}
  m_GameObject: {fileID: 0}
  m_Enabled: 1
  m_EditorHideFlags: 0
  m_Script: {fileID: 11500000, guid: cf6258160aeff9c4ba54e7ad9c7ddf08, type: 3}
  m_Name: 4836
  m_EditorClassIdentifier: 
  originPrefabName: lamppost
  objectName: lamppost
  position: {x: 757.77, y: 16.826, z: 417.91}
  rotation: {x: -0.6224977, y: -0.3354052, z: -0.3354052, w: 0.6224977}
  scale: {x: 0.8000001, y: 0.80000013, z: 0.8000001}
  sector: 3_2
  id: 4836
  layer: 0
  tag: Untagged
  material: {fileID: 2100000, guid: 75247aa582c4d7d428150acc8571321d, type: 2}
