%YAML 1.1
%TAG !u! tag:unity3d.com,2011:
--- !u!114 &11400000
MonoBehaviour:
  m_ObjectHideFlags: 0
  m_CorrespondingSourceObject: {fileID: 0}
  m_PrefabInstance: {fileID: 0}
  m_PrefabAsset: {fileID: 0}
  m_GameObject: {fileID: 0}
  m_Enabled: 1
  m_EditorHideFlags: 0
  m_Script: {fileID: 11500000, guid: cf6258160aeff9c4ba54e7ad9c7ddf08, type: 3}
  m_Name: 4872
  m_EditorClassIdentifier: 
  originPrefabName: Shard (3)
  objectName: Shard (5)
  position: {x: 712.8396, y: 28.27, z: 1305.7032}
  rotation: {x: -0, y: -0, z: -0, w: 1}
  scale: {x: 430.59, y: 430.59, z: 430.59}
  sector: 3_6
  id: 4872
  layer: 0
  tag: Untagged
  material: {fileID: 2100000, guid: a1ab44f7a3cf5614986dac6313698858, type: 2}
