%YAML 1.1
%TAG !u! tag:unity3d.com,2011:
--- !u!114 &11400000
MonoBehaviour:
  m_ObjectHideFlags: 0
  m_CorrespondingSourceObject: {fileID: 0}
  m_PrefabInstance: {fileID: 0}
  m_PrefabAsset: {fileID: 0}
  m_GameObject: {fileID: 0}
  m_Enabled: 1
  m_EditorHideFlags: 0
  m_Script: {fileID: 11500000, guid: cf6258160aeff9c4ba54e7ad9c7ddf08, type: 3}
  m_Name: 4897
  m_EditorClassIdentifier: 
  originPrefabName: Crystals (2)
  objectName: Crystals (48)
  position: {x: 1594.8695, y: 778.57996, z: 3946.2012}
  rotation: {x: -0, y: 0.86908114, z: -0, w: -0.49466956}
  scale: {x: 2, y: 2, z: 2}
  sector: 7_19
  id: 4897
  layer: 0
  tag: Untagged
  material: {fileID: 2100000, guid: fe36741ede331ae408acac449eaf0149, type: 2}
