%YAML 1.1
%TAG !u! tag:unity3d.com,2011:
--- !u!114 &11400000
MonoBehaviour:
  m_ObjectHideFlags: 0
  m_CorrespondingSourceObject: {fileID: 0}
  m_PrefabInstance: {fileID: 0}
  m_PrefabAsset: {fileID: 0}
  m_GameObject: {fileID: 0}
  m_Enabled: 1
  m_EditorHideFlags: 0
  m_Script: {fileID: 11500000, guid: cf6258160aeff9c4ba54e7ad9c7ddf08, type: 3}
  m_Name: 4941
  m_EditorClassIdentifier: 
  originPrefabName: BigCrystal_NoScratch_low (1)
  objectName: BigCrystal_NoScratch_low (5)
  position: {x: 1518.86, y: 802.78735, z: 3545.8945}
  rotation: {x: 0.16388604, y: -0.024922298, z: -0.11558482, w: 0.9793674}
  scale: {x: 5, y: 10.000001, z: 5}
  sector: 7_17
  id: 4941
  layer: 0
  tag: Untagged
  material: {fileID: 2100000, guid: fe36741ede331ae408acac449eaf0149, type: 2}
