%YAML 1.1
%TAG !u! tag:unity3d.com,2011:
--- !u!114 &11400000
MonoBehaviour:
  m_ObjectHideFlags: 0
  m_CorrespondingSourceObject: {fileID: 0}
  m_PrefabInstance: {fileID: 0}
  m_PrefabAsset: {fileID: 0}
  m_GameObject: {fileID: 0}
  m_Enabled: 1
  m_EditorHideFlags: 0
  m_Script: {fileID: 11500000, guid: cf6258160aeff9c4ba54e7ad9c7ddf08, type: 3}
  m_Name: 4978
  m_EditorClassIdentifier: 
  originPrefabName: building4_low2
  objectName: building4_low2 (1)
  position: {x: 636.68, y: 15, z: 338.57}
  rotation: {x: -0, y: 0.14160217, z: -0, w: 0.9899237}
  scale: {x: 1, y: 1, z: 1}
  sector: 3_1
  id: 4978
  layer: 0
  tag: Untagged
  material: {fileID: 2100000, guid: f7ab0cef51ba77a4d9bb3479694dd244, type: 2}
