%YAML 1.1
%TAG !u! tag:unity3d.com,2011:
--- !u!114 &11400000
MonoBehaviour:
  m_ObjectHideFlags: 0
  m_CorrespondingSourceObject: {fileID: 0}
  m_PrefabInstance: {fileID: 0}
  m_PrefabAsset: {fileID: 0}
  m_GameObject: {fileID: 0}
  m_Enabled: 1
  m_EditorHideFlags: 0
  m_Script: {fileID: 11500000, guid: cf6258160aeff9c4ba54e7ad9c7ddf08, type: 3}
  m_Name: 4998
  m_EditorClassIdentifier: 
  originPrefabName: cliff_low
  objectName: cliff_low (4)
  position: {x: 785.21, y: 20.2, z: 876.5}
  rotation: {x: -0, y: -0, z: -0, w: 1}
  scale: {x: 0.40515482, y: 0.46296, z: 0.46296}
  sector: 3_4
  id: 4998
  layer: 0
  tag: Untagged
  material: {fileID: 0}
