%YAML 1.1
%TAG !u! tag:unity3d.com,2011:
--- !u!114 &11400000
MonoBehaviour:
  m_ObjectHideFlags: 0
  m_CorrespondingSourceObject: {fileID: 0}
  m_PrefabInstance: {fileID: 0}
  m_PrefabAsset: {fileID: 0}
  m_GameObject: {fileID: 0}
  m_Enabled: 1
  m_EditorHideFlags: 0
  m_Script: {fileID: 11500000, guid: cf6258160aeff9c4ba54e7ad9c7ddf08, type: 3}
  m_Name: 5017
  m_EditorClassIdentifier: 
  originPrefabName: vat
  objectName: vat
  position: {x: 3341.4294, y: 28.33843, z: 82.43969}
  rotation: {x: -0, y: -0, z: -0, w: 1}
  scale: {x: 0.4, y: 0.4, z: 0.4}
  sector: 16_0
  id: 5017
  layer: 0
  tag: Untagged
  material: {fileID: 2100000, guid: 9c9003e8bda32a44abf7207b5cda9f8c, type: 2}
