%YAML 1.1
%TAG !u! tag:unity3d.com,2011:
--- !u!114 &11400000
MonoBehaviour:
  m_ObjectHideFlags: 0
  m_CorrespondingSourceObject: {fileID: 0}
  m_PrefabInstance: {fileID: 0}
  m_PrefabAsset: {fileID: 0}
  m_GameObject: {fileID: 0}
  m_Enabled: 1
  m_EditorHideFlags: 0
  m_Script: {fileID: 11500000, guid: cf6258160aeff9c4ba54e7ad9c7ddf08, type: 3}
  m_Name: 5035
  m_EditorClassIdentifier: 
  originPrefabName: slope01_low_ver2
  objectName: slope01_low_ver2
  position: {x: 3237.5, y: 37.67, z: 237.90001}
  rotation: {x: -0, y: -0.9974231, z: -0, w: 0.071744055}
  scale: {x: 342.81473, y: 342.81473, z: 342.81473}
  sector: 16_1
  id: 5035
  layer: 0
  tag: Untagged
  material: {fileID: 2100000, guid: 3351dab7180931644bc2d8b01326aa7d, type: 2}
