%YAML 1.1
%TAG !u! tag:unity3d.com,2011:
--- !u!114 &11400000
MonoBehaviour:
  m_ObjectHideFlags: 0
  m_CorrespondingSourceObject: {fileID: 0}
  m_PrefabInstance: {fileID: 0}
  m_PrefabAsset: {fileID: 0}
  m_GameObject: {fileID: 0}
  m_Enabled: 1
  m_EditorHideFlags: 0
  m_Script: {fileID: 11500000, guid: cf6258160aeff9c4ba54e7ad9c7ddf08, type: 3}
  m_Name: 5107
  m_EditorClassIdentifier: 
  originPrefabName: PF_Foliage_LargeBush3
  objectName: PF_Foliage_LargeBush3
  position: {x: 3502, y: 27.48, z: 1553}
  rotation: {x: -0, y: -0, z: -0, w: 1}
  scale: {x: 8.3774, y: 8.3774, z: 8.3774}
  sector: 17_7
  id: 5107
  layer: 0
  tag: Untagged
  material: {fileID: 2100000, guid: b0ed2bf1b6c4bd445a9e931d66c46f23, type: 2}
