%YAML 1.1
%TAG !u! tag:unity3d.com,2011:
--- !u!114 &11400000
MonoBehaviour:
  m_ObjectHideFlags: 0
  m_CorrespondingSourceObject: {fileID: 0}
  m_PrefabInstance: {fileID: 0}
  m_PrefabAsset: {fileID: 0}
  m_GameObject: {fileID: 0}
  m_Enabled: 1
  m_EditorHideFlags: 0
  m_Script: {fileID: 11500000, guid: cf6258160aeff9c4ba54e7ad9c7ddf08, type: 3}
  m_Name: 5119
  m_EditorClassIdentifier: 
  originPrefabName: building3_low2
  objectName: building3_low2 (17)
  position: {x: 3259.5925, y: 42.279984, z: 204.89804}
  rotation: {x: -0.007724295, y: 0.65324575, z: -0.008951767, w: 0.7570536}
  scale: {x: 1, y: 0.99999994, z: 1}
  sector: 16_1
  id: 5119
  layer: 0
  tag: Untagged
  material: {fileID: 2100000, guid: f80de1af972a50d429104283f837a253, type: 2}
