%YAML 1.1
%TAG !u! tag:unity3d.com,2011:
--- !u!114 &11400000
MonoBehaviour:
  m_ObjectHideFlags: 0
  m_CorrespondingSourceObject: {fileID: 0}
  m_PrefabInstance: {fileID: 0}
  m_PrefabAsset: {fileID: 0}
  m_GameObject: {fileID: 0}
  m_Enabled: 1
  m_EditorHideFlags: 0
  m_Script: {fileID: 11500000, guid: cf6258160aeff9c4ba54e7ad9c7ddf08, type: 3}
  m_Name: 5139
  m_EditorClassIdentifier: 
  originPrefabName: Bench
  objectName: Bench
  position: {x: 1536.451, y: 787.06, z: 3914.154}
  rotation: {x: -0.002209829, y: 0.9329587, z: 0.03206243, w: 0.3585458}
  scale: {x: 1.0973401, y: 1.0973401, z: 1.0973407}
  sector: 7_19
  id: 5139
  layer: 0
  tag: Untagged
  material: {fileID: 2100000, guid: 2505757ef4918ba4997e86029dbbfd7a, type: 2}
