%YAML 1.1
%TAG !u! tag:unity3d.com,2011:
--- !u!114 &11400000
MonoBehaviour:
  m_ObjectHideFlags: 0
  m_CorrespondingSourceObject: {fileID: 0}
  m_PrefabInstance: {fileID: 0}
  m_PrefabAsset: {fileID: 0}
  m_GameObject: {fileID: 0}
  m_Enabled: 1
  m_EditorHideFlags: 0
  m_Script: {fileID: 11500000, guid: cf6258160aeff9c4ba54e7ad9c7ddf08, type: 3}
  m_Name: 5144
  m_EditorClassIdentifier: 
  originPrefabName: stool
  objectName: stool (8)
  position: {x: 3281.3613, y: 25.835493, z: 320.95914}
  rotation: {x: 0.0025337934, y: 0.28687367, z: 0.007936312, w: 0.95793223}
  scale: {x: 0.6000001, y: 0.59999996, z: 0.6}
  sector: 16_1
  id: 5144
  layer: 0
  tag: Untagged
  material: {fileID: 2100000, guid: 9c9003e8bda32a44abf7207b5cda9f8c, type: 2}
