%YAML 1.1
%TAG !u! tag:unity3d.com,2011:
--- !u!114 &11400000
MonoBehaviour:
  m_ObjectHideFlags: 0
  m_CorrespondingSourceObject: {fileID: 0}
  m_PrefabInstance: {fileID: 0}
  m_PrefabAsset: {fileID: 0}
  m_GameObject: {fileID: 0}
  m_Enabled: 1
  m_EditorHideFlags: 0
  m_Script: {fileID: 11500000, guid: cf6258160aeff9c4ba54e7ad9c7ddf08, type: 3}
  m_Name: 5161
  m_EditorClassIdentifier: 
  originPrefabName: PF_mushroom_SmallCluster
  objectName: PF_mushroom_SmallCluster
  position: {x: 541.5758, y: 25.02, z: 1635.3}
  rotation: {x: -0, y: -0, z: -0, w: 1}
  scale: {x: 2.6623, y: 2.6623, z: 2.6623}
  sector: 2_8
  id: 5161
  layer: 0
  tag: Untagged
  material: {fileID: 0}
