%YAML 1.1
%TAG !u! tag:unity3d.com,2011:
--- !u!114 &11400000
MonoBehaviour:
  m_ObjectHideFlags: 0
  m_CorrespondingSourceObject: {fileID: 0}
  m_PrefabInstance: {fileID: 0}
  m_PrefabAsset: {fileID: 0}
  m_GameObject: {fileID: 0}
  m_Enabled: 1
  m_EditorHideFlags: 0
  m_Script: {fileID: 11500000, guid: cf6258160aeff9c4ba54e7ad9c7ddf08, type: 3}
  m_Name: 5163
  m_EditorClassIdentifier: 
  originPrefabName: Cabin_TypeA_low
  objectName: Cabin_TypeA_low
  position: {x: 2518.7537, y: 839.05, z: 3889.5447}
  rotation: {x: 0.42984554, y: -0.5614561, z: -0.5211635, w: -0.4779001}
  scale: {x: 1, y: 1, z: 1}
  sector: 12_19
  id: 5163
  layer: 0
  tag: Untagged
  material: {fileID: 2100000, guid: 10d810d315e90e645aa0ecdd6dfbd721, type: 2}
