%YAML 1.1
%TAG !u! tag:unity3d.com,2011:
--- !u!114 &11400000
MonoBehaviour:
  m_ObjectHideFlags: 0
  m_CorrespondingSourceObject: {fileID: 0}
  m_PrefabInstance: {fileID: 0}
  m_PrefabAsset: {fileID: 0}
  m_GameObject: {fileID: 0}
  m_Enabled: 1
  m_EditorHideFlags: 0
  m_Script: {fileID: 11500000, guid: cf6258160aeff9c4ba54e7ad9c7ddf08, type: 3}
  m_Name: 540
  m_EditorClassIdentifier: 
  originPrefabName: swing
  objectName: swing
  position: {x: 1438.0868, y: 792.87, z: 3772.4736}
  rotation: {x: -0.49460468, y: -0.49460322, z: -0.50533766, w: 0.50533926}
  scale: {x: 10.000001, y: 10, z: 10}
  sector: 7_18
  id: 540
  layer: 0
  tag: Untagged
  material: {fileID: 2100000, guid: 08dde7adadab9cb4ea6d27fc27efcaf7, type: 2}
