%YAML 1.1
%TAG !u! tag:unity3d.com,2011:
--- !u!114 &11400000
MonoBehaviour:
  m_ObjectHideFlags: 0
  m_CorrespondingSourceObject: {fileID: 0}
  m_PrefabInstance: {fileID: 0}
  m_PrefabAsset: {fileID: 0}
  m_GameObject: {fileID: 0}
  m_Enabled: 1
  m_EditorHideFlags: 0
  m_Script: {fileID: 11500000, guid: cf6258160aeff9c4ba54e7ad9c7ddf08, type: 3}
  m_Name: 550
  m_EditorClassIdentifier: 
  originPrefabName: Cabin_TypeD_low
  objectName: Cabin_TypeD_low (1)
  position: {x: 1410.2719, y: 785.00995, z: 3654.49}
  rotation: {x: -0.5000007, y: -0.4999993, z: -0.4999993, w: 0.5000007}
  scale: {x: 1, y: 1, z: 1}
  sector: 7_18
  id: 550
  layer: 0
  tag: Untagged
  material: {fileID: 2100000, guid: 2c6438c1cac9c7546b284d17e923fd75, type: 2}
