%YAML 1.1
%TAG !u! tag:unity3d.com,2011:
--- !u!114 &11400000
MonoBehaviour:
  m_ObjectHideFlags: 0
  m_CorrespondingSourceObject: {fileID: 0}
  m_PrefabInstance: {fileID: 0}
  m_PrefabAsset: {fileID: 0}
  m_GameObject: {fileID: 0}
  m_Enabled: 1
  m_EditorHideFlags: 0
  m_Script: {fileID: 11500000, guid: cf6258160aeff9c4ba54e7ad9c7ddf08, type: 3}
  m_Name: 554
  m_EditorClassIdentifier: 
  originPrefabName: BigCrystal_NoScratch_low (1)
  objectName: BigCrystal_NoScratch_low (11)
  position: {x: 1445.55, y: 793.31, z: 3665.59}
  rotation: {x: 0.6824814, y: 0.36690286, z: -0.13191661, w: 0.61822283}
  scale: {x: 1, y: 1, z: 1.0000001}
  sector: 7_18
  id: 554
  layer: 0
  tag: Untagged
  material: {fileID: 2100000, guid: fe36741ede331ae408acac449eaf0149, type: 2}
