%YAML 1.1
%TAG !u! tag:unity3d.com,2011:
--- !u!114 &11400000
MonoBehaviour:
  m_ObjectHideFlags: 0
  m_CorrespondingSourceObject: {fileID: 0}
  m_PrefabInstance: {fileID: 0}
  m_PrefabAsset: {fileID: 0}
  m_GameObject: {fileID: 0}
  m_Enabled: 1
  m_EditorHideFlags: 0
  m_Script: {fileID: 11500000, guid: cf6258160aeff9c4ba54e7ad9c7ddf08, type: 3}
  m_Name: 581
  m_EditorClassIdentifier: 
  originPrefabName: PF_Foliage_SmallBush
  objectName: PF_Foliage_SmallBush (1)
  position: {x: 3732.38, y: 111.75609, z: 3439.04}
  rotation: {x: -0, y: -0, z: -0, w: 1}
  scale: {x: 4.9897356, y: 4.9897356, z: 4.9897356}
  sector: 18_17
  id: 581
  layer: 0
  tag: Untagged
  material: {fileID: 0}
