%YAML 1.1
%TAG !u! tag:unity3d.com,2011:
--- !u!114 &11400000
MonoBehaviour:
  m_ObjectHideFlags: 0
  m_CorrespondingSourceObject: {fileID: 0}
  m_PrefabInstance: {fileID: 0}
  m_PrefabAsset: {fileID: 0}
  m_GameObject: {fileID: 0}
  m_Enabled: 1
  m_EditorHideFlags: 0
  m_Script: {fileID: 11500000, guid: cf6258160aeff9c4ba54e7ad9c7ddf08, type: 3}
  m_Name: 631
  m_EditorClassIdentifier: 
  originPrefabName: LongRock_ver2
  objectName: LongRock_ver2
  position: {x: 3285.65, y: 28.039999, z: 251.41002}
  rotation: {x: 0.13687298, y: -0.22571406, z: -0.032047924, w: 0.9639979}
  scale: {x: 5.4733, y: 8.832811, z: 9.989866}
  sector: 16_1
  id: 631
  layer: 0
  tag: Untagged
  material: {fileID: 2100000, guid: 77470649ee1c09c42941c71fcd9e5f34, type: 2}
