%YAML 1.1
%TAG !u! tag:unity3d.com,2011:
--- !u!114 &11400000
MonoBehaviour:
  m_ObjectHideFlags: 0
  m_CorrespondingSourceObject: {fileID: 0}
  m_PrefabInstance: {fileID: 0}
  m_PrefabAsset: {fileID: 0}
  m_GameObject: {fileID: 0}
  m_Enabled: 1
  m_EditorHideFlags: 0
  m_Script: {fileID: 11500000, guid: cf6258160aeff9c4ba54e7ad9c7ddf08, type: 3}
  m_Name: 665
  m_EditorClassIdentifier: 
  originPrefabName: PF_mushroom_SmallCluster
  objectName: PF_mushroom_SmallCluster (5)
  position: {x: 542.5554, y: 25.695, z: 1639.1277}
  rotation: {x: -0, y: 0.9998241, z: -0, w: -0.018755225}
  scale: {x: 2.6623006, y: 2.6623, z: 2.6623006}
  sector: 2_8
  id: 665
  layer: 0
  tag: Untagged
  material: {fileID: 0}
