%YAML 1.1
%TAG !u! tag:unity3d.com,2011:
--- !u!114 &11400000
MonoBehaviour:
  m_ObjectHideFlags: 0
  m_CorrespondingSourceObject: {fileID: 0}
  m_PrefabInstance: {fileID: 0}
  m_PrefabAsset: {fileID: 0}
  m_GameObject: {fileID: 0}
  m_Enabled: 1
  m_EditorHideFlags: 0
  m_Script: {fileID: 11500000, guid: cf6258160aeff9c4ba54e7ad9c7ddf08, type: 3}
  m_Name: 678
  m_EditorClassIdentifier: 
  originPrefabName: Building1_low
  objectName: Building1_low
  position: {x: 240.68, y: 15, z: 188.4}
  rotation: {x: -0, y: 0.25452435, z: -0, w: 0.9670664}
  scale: {x: 1, y: 1, z: 1}
  sector: 1_0
  id: 678
  layer: 0
  tag: Untagged
  material: {fileID: 2100000, guid: 53c49ec2624ca3b4e8fd7ed90f5119c7, type: 2}
