%YAML 1.1
%TAG !u! tag:unity3d.com,2011:
--- !u!114 &11400000
MonoBehaviour:
  m_ObjectHideFlags: 0
  m_CorrespondingSourceObject: {fileID: 0}
  m_PrefabInstance: {fileID: 0}
  m_PrefabAsset: {fileID: 0}
  m_GameObject: {fileID: 0}
  m_Enabled: 1
  m_EditorHideFlags: 0
  m_Script: {fileID: 11500000, guid: cf6258160aeff9c4ba54e7ad9c7ddf08, type: 3}
  m_Name: 695
  m_EditorClassIdentifier: 
  originPrefabName: Shard (6)
  objectName: Shard (16)
  position: {x: 3424.96, y: 51.96, z: 142.01001}
  rotation: {x: -0.17259046, y: 0.037141815, z: 0.207081, w: 0.9622632}
  scale: {x: 316.80017, y: 316.80014, z: 316.80014}
  sector: 17_0
  id: 695
  layer: 0
  tag: Untagged
  material: {fileID: 2100000, guid: a8db2d6430d89ff4eb21d7021102adf5, type: 2}
