%YAML 1.1
%TAG !u! tag:unity3d.com,2011:
--- !u!114 &11400000
MonoBehaviour:
  m_ObjectHideFlags: 0
  m_CorrespondingSourceObject: {fileID: 0}
  m_PrefabInstance: {fileID: 0}
  m_PrefabAsset: {fileID: 0}
  m_GameObject: {fileID: 0}
  m_Enabled: 1
  m_EditorHideFlags: 0
  m_Script: {fileID: 11500000, guid: cf6258160aeff9c4ba54e7ad9c7ddf08, type: 3}
  m_Name: 709
  m_EditorClassIdentifier: 
  originPrefabName: PF_HexTerrain_Top
  objectName: PF_HexTerrain_Top (13)
  position: {x: 490.17, y: 27.62, z: 1772.8}
  rotation: {x: -0, y: -0, z: -0, w: 1}
  scale: {x: 1.8328913, y: 1.9613482, z: 1.7966}
  sector: 2_8
  id: 709
  layer: 8
  tag: Untagged
  material: {fileID: 0}
