%YAML 1.1
%TAG !u! tag:unity3d.com,2011:
--- !u!114 &11400000
MonoBehaviour:
  m_ObjectHideFlags: 0
  m_CorrespondingSourceObject: {fileID: 0}
  m_PrefabInstance: {fileID: 0}
  m_PrefabAsset: {fileID: 0}
  m_GameObject: {fileID: 0}
  m_Enabled: 1
  m_EditorHideFlags: 0
  m_Script: {fileID: 11500000, guid: cf6258160aeff9c4ba54e7ad9c7ddf08, type: 3}
  m_Name: 756
  m_EditorClassIdentifier: 
  originPrefabName: Crystals (6)
  objectName: Crystals (18)
  position: {x: 3418.6602, y: 48.42, z: 141.59}
  rotation: {x: -0.07179864, y: -0.8119946, z: -0.10225678, w: 0.57013446}
  scale: {x: 6.0010543, y: 7.374022, z: 7.3740225}
  sector: 17_0
  id: 756
  layer: 0
  tag: Untagged
  material: {fileID: 2100000, guid: a8db2d6430d89ff4eb21d7021102adf5, type: 2}
