%YAML 1.1
%TAG !u! tag:unity3d.com,2011:
--- !u!114 &11400000
MonoBehaviour:
  m_ObjectHideFlags: 0
  m_CorrespondingSourceObject: {fileID: 0}
  m_PrefabInstance: {fileID: 0}
  m_PrefabAsset: {fileID: 0}
  m_GameObject: {fileID: 0}
  m_Enabled: 1
  m_EditorHideFlags: 0
  m_Script: {fileID: 11500000, guid: cf6258160aeff9c4ba54e7ad9c7ddf08, type: 3}
  m_Name: 763
  m_EditorClassIdentifier: 
  originPrefabName: PF_Mushroom_Large2
  objectName: PF_Mushroom_Large2 (44)
  position: {x: 654.3157, y: 25.954884, z: 1635.1506}
  rotation: {x: -0.0888382, y: 0.9955258, z: 0.02440622, w: -0.020988373}
  scale: {x: 2.3387, y: 2.3387008, z: 2.3387008}
  sector: 3_8
  id: 763
  layer: 0
  tag: Untagged
  material: {fileID: 0}
