%YAML 1.1
%TAG !u! tag:unity3d.com,2011:
--- !u!114 &11400000
MonoBehaviour:
  m_ObjectHideFlags: 0
  m_CorrespondingSourceObject: {fileID: 0}
  m_PrefabInstance: {fileID: 0}
  m_PrefabAsset: {fileID: 0}
  m_GameObject: {fileID: 0}
  m_Enabled: 1
  m_EditorHideFlags: 0
  m_Script: {fileID: 11500000, guid: cf6258160aeff9c4ba54e7ad9c7ddf08, type: 3}
  m_Name: 767
  m_EditorClassIdentifier: 
  originPrefabName: CrsytalField
  objectName: CrsytalField
  position: {x: 1440.37, y: 790.9799, z: 3839.1}
  rotation: {x: 0.6811682, y: -0, z: -0, w: 0.73212695}
  scale: {x: 10, y: 10, z: 10}
  sector: 7_19
  id: 767
  layer: 7
  tag: Creation Area
  material: {fileID: 2100000, guid: aa4a9d0ec9800304fb57c5104ade9e22, type: 2}
