%YAML 1.1
%TAG !u! tag:unity3d.com,2011:
--- !u!114 &11400000
MonoBehaviour:
  m_ObjectHideFlags: 0
  m_CorrespondingSourceObject: {fileID: 0}
  m_PrefabInstance: {fileID: 0}
  m_PrefabAsset: {fileID: 0}
  m_GameObject: {fileID: 0}
  m_Enabled: 1
  m_EditorHideFlags: 0
  m_Script: {fileID: 11500000, guid: cf6258160aeff9c4ba54e7ad9c7ddf08, type: 3}
  m_Name: 788
  m_EditorClassIdentifier: 
  originPrefabName: lamp2
  objectName: lamp2 (1)
  position: {x: 372.83588, y: 14.98, z: 388.8554}
  rotation: {x: -0.7061753, y: -0.036283243, z: -0.036283243, w: 0.7061753}
  scale: {x: 100, y: 100.00002, z: 100.00003}
  sector: 1_1
  id: 788
  layer: 0
  tag: Untagged
  material: {fileID: 2100000, guid: 1706951de166c3c41ae4a01f5a1073d6, type: 2}
