%YAML 1.1
%TAG !u! tag:unity3d.com,2011:
--- !u!114 &11400000
MonoBehaviour:
  m_ObjectHideFlags: 0
  m_CorrespondingSourceObject: {fileID: 0}
  m_PrefabInstance: {fileID: 0}
  m_PrefabAsset: {fileID: 0}
  m_GameObject: {fileID: 0}
  m_Enabled: 1
  m_EditorHideFlags: 0
  m_Script: {fileID: 11500000, guid: cf6258160aeff9c4ba54e7ad9c7ddf08, type: 3}
  m_Name: 79
  m_EditorClassIdentifier: 
  originPrefabName: Crystals (6)
  objectName: Crystals (6)
  position: {x: 552.26, y: 14.88, z: 366.23}
  rotation: {x: -0, y: -0.7161582, z: -0, w: 0.6979381}
  scale: {x: 3.5534012, y: 3.5534, z: 3.5534012}
  sector: 2_1
  id: 79
  layer: 0
  tag: Untagged
  material: {fileID: 2100000, guid: a8db2d6430d89ff4eb21d7021102adf5, type: 2}
