%YAML 1.1
%TAG !u! tag:unity3d.com,2011:
--- !u!114 &11400000
MonoBehaviour:
  m_ObjectHideFlags: 0
  m_CorrespondingSourceObject: {fileID: 0}
  m_PrefabInstance: {fileID: 0}
  m_PrefabAsset: {fileID: 0}
  m_GameObject: {fileID: 0}
  m_Enabled: 1
  m_EditorHideFlags: 0
  m_Script: {fileID: 11500000, guid: cf6258160aeff9c4ba54e7ad9c7ddf08, type: 3}
  m_Name: 798
  m_EditorClassIdentifier: 
  originPrefabName: PF_TallTree_2
  objectName: PF_TallTree_2
  position: {x: 213.54807, y: 14.63, z: 441.22296}
  rotation: {x: -0, y: 0.52910024, z: -0, w: 0.8485593}
  scale: {x: 0.99999994, y: 1, z: 0.99999994}
  sector: 1_2
  id: 798
  layer: 8
  tag: Untagged
  material: {fileID: 0}
