%YAML 1.1
%TAG !u! tag:unity3d.com,2011:
--- !u!114 &11400000
MonoBehaviour:
  m_ObjectHideFlags: 0
  m_CorrespondingSourceObject: {fileID: 0}
  m_PrefabInstance: {fileID: 0}
  m_PrefabAsset: {fileID: 0}
  m_GameObject: {fileID: 0}
  m_Enabled: 1
  m_EditorHideFlags: 0
  m_Script: {fileID: 11500000, guid: cf6258160aeff9c4ba54e7ad9c7ddf08, type: 3}
  m_Name: 860
  m_EditorClassIdentifier: 
  originPrefabName: PF_Foliage_Fern_1
  objectName: PF_Foliage_Fern_1 (29)
  position: {x: 1572.5837, y: 789.5961, z: 3848.2317}
  rotation: {x: -0, y: -0, z: -0, w: 1}
  scale: {x: 1, y: 1, z: 1}
  sector: 7_19
  id: 860
  layer: 0
  tag: Untagged
  material: {fileID: 0}
