%YAML 1.1
%TAG !u! tag:unity3d.com,2011:
--- !u!114 &11400000
MonoBehaviour:
  m_ObjectHideFlags: 0
  m_CorrespondingSourceObject: {fileID: 0}
  m_PrefabInstance: {fileID: 0}
  m_PrefabAsset: {fileID: 0}
  m_GameObject: {fileID: 0}
  m_Enabled: 1
  m_EditorHideFlags: 0
  m_Script: {fileID: 11500000, guid: cf6258160aeff9c4ba54e7ad9c7ddf08, type: 3}
  m_Name: 880
  m_EditorClassIdentifier: 
  originPrefabName: building4_low2
  objectName: building4_low2 (9)
  position: {x: 573.2, y: 15.48, z: 439.14}
  rotation: {x: -0, y: 0.7558003, z: -0, w: 0.6548022}
  scale: {x: 1.0000001, y: 1, z: 1.0000001}
  sector: 2_2
  id: 880
  layer: 0
  tag: Untagged
  material: {fileID: 2100000, guid: 0bd801a3c4ae97c44a8588aa16b83064, type: 2}
