%YAML 1.1
%TAG !u! tag:unity3d.com,2011:
--- !u!114 &11400000
MonoBehaviour:
  m_ObjectHideFlags: 0
  m_CorrespondingSourceObject: {fileID: 0}
  m_PrefabInstance: {fileID: 0}
  m_PrefabAsset: {fileID: 0}
  m_GameObject: {fileID: 0}
  m_Enabled: 1
  m_EditorHideFlags: 0
  m_Script: {fileID: 11500000, guid: cf6258160aeff9c4ba54e7ad9c7ddf08, type: 3}
  m_Name: 911
  m_EditorClassIdentifier: 
  originPrefabName: PF_WoodenBridge_Broken
  objectName: PF_WoodenBridge_Broken (8)
  position: {x: 661.7655, y: 26.530022, z: 1634.3235}
  rotation: {x: -0.0888382, y: 0.9955258, z: 0.02440622, w: -0.020988373}
  scale: {x: 4.5160003, y: 4.516, z: 4.5159993}
  sector: 3_8
  id: 911
  layer: 8
  tag: Untagged
  material: {fileID: 0}
