%YAML 1.1
%TAG !u! tag:unity3d.com,2011:
--- !u!114 &11400000
MonoBehaviour:
  m_ObjectHideFlags: 0
  m_CorrespondingSourceObject: {fileID: 0}
  m_PrefabInstance: {fileID: 0}
  m_PrefabAsset: {fileID: 0}
  m_GameObject: {fileID: 0}
  m_Enabled: 1
  m_EditorHideFlags: 0
  m_Script: {fileID: 11500000, guid: cf6258160aeff9c4ba54e7ad9c7ddf08, type: 3}
  m_Name: 953
  m_EditorClassIdentifier: 
  originPrefabName: MiddleCrystal_low (2)
  objectName: MiddleCrystal_low (7)
  position: {x: 1465.88, y: 796.71, z: 3578.07}
  rotation: {x: -0.17531502, y: 0.7650422, z: 0.233707, w: 0.5738956}
  scale: {x: 4.9999995, y: 7.999999, z: 6.999999}
  sector: 7_17
  id: 953
  layer: 0
  tag: Untagged
  material: {fileID: 2100000, guid: fe36741ede331ae408acac449eaf0149, type: 2}
