%YAML 1.1
%TAG !u! tag:unity3d.com,2011:
--- !u!114 &11400000
MonoBehaviour:
  m_ObjectHideFlags: 0
  m_CorrespondingSourceObject: {fileID: 0}
  m_PrefabInstance: {fileID: 0}
  m_PrefabAsset: {fileID: 0}
  m_GameObject: {fileID: 0}
  m_Enabled: 1
  m_EditorHideFlags: 0
  m_Script: {fileID: 11500000, guid: cf6258160aeff9c4ba54e7ad9c7ddf08, type: 3}
  m_Name: 968
  m_EditorClassIdentifier: 
  originPrefabName: Shard (1)
  objectName: Shard (6)
  position: {x: 1509.21, y: 795.4799, z: 3687.5168}
  rotation: {x: 0.22348966, y: -0.23135883, z: -0.0547001, w: 0.9452689}
  scale: {x: 200, y: 200, z: 200}
  sector: 7_18
  id: 968
  layer: 0
  tag: Untagged
  material: {fileID: 2100000, guid: fe36741ede331ae408acac449eaf0149, type: 2}
