%YAML 1.1
%TAG !u! tag:unity3d.com,2011:
--- !u!114 &11400000
MonoBehaviour:
  m_ObjectHideFlags: 0
  m_CorrespondingSourceObject: {fileID: 0}
  m_PrefabInstance: {fileID: 0}
  m_PrefabAsset: {fileID: 0}
  m_GameObject: {fileID: 0}
  m_Enabled: 1
  m_EditorHideFlags: 0
  m_Script: {fileID: 11500000, guid: cf6258160aeff9c4ba54e7ad9c7ddf08, type: 3}
  m_Name: 990
  m_EditorClassIdentifier: 
  originPrefabName: Cabin_TypeA_low
  objectName: Cabin_TypeA_low (2)
  position: {x: 2573.6, y: 761.71, z: 3861.1}
  rotation: {x: 0.28972387, y: -0.6570453, z: -0.63679385, w: -0.2807938}
  scale: {x: 1.0000001, y: 1, z: 1.0000001}
  sector: 12_19
  id: 990
  layer: 0
  tag: Untagged
  material: {fileID: 2100000, guid: 3d9e53b49f9192a44902d667dd496461, type: 2}
